%!PS-Adobe-3.0 EPSF-3.0
%%Creator: MATLAB, The MathWorks, Inc. Version 8.2.0.701 (R2013b). Operating System: Darwin 11.4.2 Darwin Kernel Version 11.4.2: Thu Aug 23 16:25:48 PDT 2012; root:xnu-1699.32.7~1/RELEASE_X86_64 x86_64.
%%Title: /Users/deepakd/git/matlab-projects/projs/fbc-points/rperror.eps
%%CreationDate: 03/27/2014  21:55:30
%%DocumentNeededFonts: Helvetica
%%DocumentProcessColors: Cyan Magenta Yellow Black
%%LanguageLevel: 2
%%Pages: 1
%%BoundingBox:    26   186   585   606
%%EndComments

%%BeginProlog
% MathWorks dictionary
/MathWorks 160 dict begin
% definition operators
/bdef {bind def} bind def
/ldef {load def} bind def
/xdef {exch def} bdef
/xstore {exch store} bdef
% operator abbreviations
/c  /clip ldef
/cc /concat ldef
/cp /closepath ldef
/gr /grestore ldef
/gs /gsave ldef
/mt /moveto ldef
/np /newpath ldef
/cm /currentmatrix ldef
/sm /setmatrix ldef
/rm /rmoveto ldef
/rl /rlineto ldef
/s {show newpath} bdef
/sc {setcmykcolor} bdef
/sr /setrgbcolor ldef
/sg /setgray ldef
/w /setlinewidth ldef
/j /setlinejoin ldef
/cap /setlinecap ldef
/rc {rectclip} bdef
/rf {rectfill} bdef
% page state control
/pgsv () def
/bpage {/pgsv save def} bdef
/epage {pgsv restore} bdef
/bplot /gsave ldef
/eplot {stroke grestore} bdef
% orientation switch
/portraitMode 0 def /landscapeMode 1 def /rotateMode 2 def
% coordinate system mappings
/dpi2point 0 def
% font control
/FontSize 0 def
/FMS {/FontSize xstore findfont [FontSize 0 0 FontSize neg 0 0]
  makefont setfont} bdef
/reencode {exch dup where {pop load} {pop StandardEncoding} ifelse
  exch dup 3 1 roll findfont dup length dict begin
  { 1 index /FID ne {def}{pop pop} ifelse } forall
  /Encoding exch def currentdict end definefont pop} bdef
/isroman {findfont /CharStrings get /Agrave known} bdef
/FMSR {3 1 roll 1 index dup isroman {reencode} {pop pop} ifelse
  exch FMS} bdef
/csm {1 dpi2point div -1 dpi2point div scale neg translate
 dup landscapeMode eq {pop -90 rotate}
  {rotateMode eq {90 rotate} if} ifelse} bdef
% line types: solid, dotted, dashed, dotdash
/SO { [] 0 setdash } bdef
/DO { [.5 dpi2point mul 4 dpi2point mul] 0 setdash } bdef
/DA { [6 dpi2point mul] 0 setdash } bdef
/DD { [.5 dpi2point mul 4 dpi2point mul 6 dpi2point mul 4
  dpi2point mul] 0 setdash } bdef
% macros for lines and objects
/L {lineto stroke} bdef
/MP {3 1 roll moveto 1 sub {rlineto} repeat} bdef
/AP {{rlineto} repeat} bdef
/PDlw -1 def
/W {/PDlw currentlinewidth def setlinewidth} def
/PP {closepath eofill} bdef
/DP {closepath stroke} bdef
/MR {4 -2 roll moveto dup  0 exch rlineto exch 0 rlineto
  neg 0 exch rlineto closepath} bdef
/FR {MR stroke} bdef
/PR {MR fill} bdef
/L1i {{currentfile picstr readhexstring pop} image} bdef
/tMatrix matrix def
/MakeOval {newpath tMatrix currentmatrix pop translate scale
0 0 1 0 360 arc tMatrix setmatrix} bdef
/FO {MakeOval stroke} bdef
/PO {MakeOval fill} bdef
/PD {currentlinewidth 2 div 0 360 arc fill
   PDlw -1 eq not {PDlw w /PDlw -1 def} if} def
/FA {newpath tMatrix currentmatrix pop translate scale
  0 0 1 5 -2 roll arc tMatrix setmatrix stroke} bdef
/PA {newpath tMatrix currentmatrix pop	translate 0 0 moveto scale
  0 0 1 5 -2 roll arc closepath tMatrix setmatrix fill} bdef
/FAn {newpath tMatrix currentmatrix pop translate scale
  0 0 1 5 -2 roll arcn tMatrix setmatrix stroke} bdef
/PAn {newpath tMatrix currentmatrix pop translate 0 0 moveto scale
  0 0 1 5 -2 roll arcn closepath tMatrix setmatrix fill} bdef
/vradius 0 def /hradius 0 def /lry 0 def
/lrx 0 def /uly 0 def /ulx 0 def /rad 0 def
/MRR {/vradius xdef /hradius xdef /lry xdef /lrx xdef /uly xdef
  /ulx xdef newpath tMatrix currentmatrix pop ulx hradius add uly
  vradius add translate hradius vradius scale 0 0 1 180 270 arc 
  tMatrix setmatrix lrx hradius sub uly vradius add translate
  hradius vradius scale 0 0 1 270 360 arc tMatrix setmatrix
  lrx hradius sub lry vradius sub translate hradius vradius scale
  0 0 1 0 90 arc tMatrix setmatrix ulx hradius add lry vradius sub
  translate hradius vradius scale 0 0 1 90 180 arc tMatrix setmatrix
  closepath} bdef
/FRR {MRR stroke } bdef
/PRR {MRR fill } bdef
/MlrRR {/lry xdef /lrx xdef /uly xdef /ulx xdef /rad lry uly sub 2 div def
  newpath tMatrix currentmatrix pop ulx rad add uly rad add translate
  rad rad scale 0 0 1 90 270 arc tMatrix setmatrix lrx rad sub lry rad
  sub translate rad rad scale 0 0 1 270 90 arc tMatrix setmatrix
  closepath} bdef
/FlrRR {MlrRR stroke } bdef
/PlrRR {MlrRR fill } bdef
/MtbRR {/lry xdef /lrx xdef /uly xdef /ulx xdef /rad lrx ulx sub 2 div def
  newpath tMatrix currentmatrix pop ulx rad add uly rad add translate
  rad rad scale 0 0 1 180 360 arc tMatrix setmatrix lrx rad sub lry rad
  sub translate rad rad scale 0 0 1 0 180 arc tMatrix setmatrix
  closepath} bdef
/FtbRR {MtbRR stroke } bdef
/PtbRR {MtbRR fill } bdef
/stri 6 array def /dtri 6 array def
/smat 6 array def /dmat 6 array def
/tmat1 6 array def /tmat2 6 array def /dif 3 array def
/asub {/ind2 exch def /ind1 exch def dup dup
  ind1 get exch ind2 get sub exch } bdef
/tri_to_matrix {
  2 0 asub 3 1 asub 4 0 asub 5 1 asub
  dup 0 get exch 1 get 7 -1 roll astore } bdef
/compute_transform {
  dmat dtri tri_to_matrix tmat1 invertmatrix 
  smat stri tri_to_matrix tmat2 concatmatrix } bdef
/ds {stri astore pop} bdef
/dt {dtri astore pop} bdef
/db {2 copy /cols xdef /rows xdef mul dup 3 mul string
  currentfile 
  3 index 0 eq {/ASCIIHexDecode filter}
  {/ASCII85Decode filter 3 index 2 eq {/RunLengthDecode filter} if }
  ifelse exch readstring pop
  dup 0 3 index getinterval /rbmap xdef
  dup 2 index dup getinterval /gbmap xdef
  1 index dup 2 mul exch getinterval /bbmap xdef pop pop}bdef
/it {gs np dtri aload pop moveto lineto lineto cp c
  cols rows 8 compute_transform 
  rbmap gbmap bbmap true 3 colorimage gr}bdef
/il {newpath moveto lineto stroke}bdef
currentdict end def
%%EndProlog

%%BeginSetup
MathWorks begin

0 cap

end
%%EndSetup

%%Page: 1 1
%%BeginPageSetup
%%PageBoundingBox:    26   186   585   606
MathWorks begin
bpage
%%EndPageSetup

%%BeginObject: obj1
bplot

/dpi2point 12 def
portraitMode 0312 7272 csm

    0     0  6719  5033 rc
85 dict begin %Colortable dictionary
/c0 { 0.000000 0.000000 0.000000 sr} bdef
/c1 { 1.000000 1.000000 1.000000 sr} bdef
/c2 { 0.900000 0.000000 0.000000 sr} bdef
/c3 { 0.000000 0.820000 0.000000 sr} bdef
/c4 { 0.000000 0.000000 0.800000 sr} bdef
/c5 { 0.910000 0.820000 0.320000 sr} bdef
/c6 { 1.000000 0.260000 0.820000 sr} bdef
/c7 { 0.000000 0.820000 0.820000 sr} bdef
c0
1 j
1 sg
   0    0 6720 5034 rf
6 w
0 4102 5208 0 0 -4102 873 4479 4 MP
PP
-5208 0 0 4102 5208 0 0 -4102 873 4479 5 MP stroke
4 w
DO
SO
6 w
0 sg
 873 4479 mt 6081 4479 L
 873  377 mt 6081  377 L
 873 4479 mt  873  377 L
6081 4479 mt 6081  377 L
 873 4479 mt 6081 4479 L
 873 4479 mt  873  377 L
1346 4479 mt 1346 4426 L
1346  377 mt 1346  429 L
%%IncludeResource: font Helvetica
/Helvetica /ISOLatin1Encoding 120 FMSR

1313 4624 mt 
(1) s
1819 4479 mt 1819 4426 L
1819  377 mt 1819  429 L
1786 4624 mt 
(2) s
2293 4479 mt 2293 4426 L
2293  377 mt 2293  429 L
2260 4624 mt 
(3) s
2766 4479 mt 2766 4426 L
2766  377 mt 2766  429 L
2733 4624 mt 
(4) s
3240 4479 mt 3240 4426 L
3240  377 mt 3240  429 L
3207 4624 mt 
(5) s
3713 4479 mt 3713 4426 L
3713  377 mt 3713  429 L
3680 4624 mt 
(6) s
4187 4479 mt 4187 4426 L
4187  377 mt 4187  429 L
4154 4624 mt 
(7) s
4660 4479 mt 4660 4426 L
4660  377 mt 4660  429 L
4627 4624 mt 
(8) s
5134 4479 mt 5134 4426 L
5134  377 mt 5134  429 L
5101 4624 mt 
(9) s
5607 4479 mt 5607 4426 L
5607  377 mt 5607  429 L
5541 4624 mt 
(10) s
 873 4479 mt  925 4479 L
6081 4479 mt 6028 4479 L
 772 4523 mt 
(0) s
 873 3966 mt  925 3966 L
6081 3966 mt 6028 3966 L
 672 4010 mt 
(0.5) s
 873 3453 mt  925 3453 L
6081 3453 mt 6028 3453 L
 772 3497 mt 
(1) s
 873 2940 mt  925 2940 L
6081 2940 mt 6028 2940 L
 672 2984 mt 
(1.5) s
 873 2428 mt  925 2428 L
6081 2428 mt 6028 2428 L
 772 2472 mt 
(2) s
 873 1915 mt  925 1915 L
6081 1915 mt 6028 1915 L
 672 1959 mt 
(2.5) s
 873 1402 mt  925 1402 L
6081 1402 mt 6028 1402 L
 772 1446 mt 
(3) s
 873  889 mt  925  889 L
6081  889 mt 6028  889 L
 672  933 mt 
(3.5) s
 873  377 mt  925  377 L
6081  377 mt 6028  377 L
 772  421 mt 
(4) s
 873 4479 mt 6081 4479 L
 873  377 mt 6081  377 L
 873 4479 mt  873  377 L
6081 4479 mt 6081  377 L
gs 873 377 5209 4103 rc
/c8 { 0.000000 0.000000 0.562500 sr} bdef
c8
0 2780 108 0 0 -2780 1224 4479 4 MP
PP
0 sg
-108 0 0 2780 108 0 0 -2780 1224 4479 5 MP stroke
c8
0 2600 108 0 0 -2600 1698 4479 4 MP
PP
0 sg
-108 0 0 2600 108 0 0 -2600 1698 4479 5 MP stroke
c8
0 2837 108 0 0 -2837 2171 4479 4 MP
PP
0 sg
-108 0 0 2837 108 0 0 -2837 2171 4479 5 MP stroke
c8
0 3423 108 0 0 -3423 2645 4479 4 MP
PP
0 sg
-108 0 0 3423 108 0 0 -3423 2645 4479 5 MP stroke
c8
0 1869 108 0 0 -1869 3118 4479 4 MP
PP
0 sg
-108 0 0 1869 108 0 0 -1869 3118 4479 5 MP stroke
c8
0 2467 109 0 0 -2467 3591 4479 4 MP
PP
0 sg
-109 0 0 2467 109 0 0 -2467 3591 4479 5 MP stroke
c8
0 2145 108 0 0 -2145 4065 4479 4 MP
PP
0 sg
-108 0 0 2145 108 0 0 -2145 4065 4479 5 MP stroke
c8
0 2335 109 0 0 -2335 4538 4479 4 MP
PP
0 sg
-109 0 0 2335 109 0 0 -2335 4538 4479 5 MP stroke
c8
0 2262 108 0 0 -2262 5012 4479 4 MP
PP
0 sg
-108 0 0 2262 108 0 0 -2262 5012 4479 5 MP stroke
c8
0 2540 109 0 0 -2540 5485 4479 4 MP
PP
0 sg
-109 0 0 2540 109 0 0 -2540 5485 4479 5 MP stroke
5208 0 873 4479 2 MP stroke
/c9 { 0.500000 0.000000 0.000000 sr} bdef
c9
0 2719 109 0 0 -2719 1359 4479 4 MP
PP
0 sg
-109 0 0 2719 109 0 0 -2719 1359 4479 5 MP stroke
c9
0 2654 108 0 0 -2654 1833 4479 4 MP
PP
0 sg
-108 0 0 2654 108 0 0 -2654 1833 4479 5 MP stroke
c9
0 2833 109 0 0 -2833 2306 4479 4 MP
PP
0 sg
-109 0 0 2833 109 0 0 -2833 2306 4479 5 MP stroke
c9
0 1856 108 0 0 -1856 2780 4479 4 MP
PP
0 sg
-108 0 0 1856 108 0 0 -1856 2780 4479 5 MP stroke
c9
0 1406 109 0 0 -1406 3253 4479 4 MP
PP
0 sg
-109 0 0 1406 109 0 0 -1406 3253 4479 5 MP stroke
c9
0 1801 108 0 0 -1801 3727 4479 4 MP
PP
0 sg
-108 0 0 1801 108 0 0 -1801 3727 4479 5 MP stroke
c9
0 2369 108 0 0 -2369 4200 4479 4 MP
PP
0 sg
-108 0 0 2369 108 0 0 -2369 4200 4479 5 MP stroke
c9
0 1892 108 0 0 -1892 4674 4479 4 MP
PP
0 sg
-108 0 0 1892 108 0 0 -1892 4674 4479 5 MP stroke
c9
0 2500 108 0 0 -2500 5147 4479 4 MP
PP
0 sg
-108 0 0 2500 108 0 0 -2500 5147 4479 5 MP stroke
c9
0 1928 108 0 0 -1928 5621 4479 4 MP
PP
0 sg
-108 0 0 1928 108 0 0 -1928 5621 4479 5 MP stroke
DA
/c10 { 0.000000 0.000000 1.000000 sr} bdef
c10
5208 0 873 1953 2 MP stroke
/c11 { 1.000000 0.000000 0.000000 sr} bdef
c11
5208 0 873 2283 2 MP stroke
gr

c11
DA
0 sg
2770 4767 mt 
(Feature sets for calibration) s
 590 2929 mt  -90 rotate
(Error in millimeters) s
90 rotate
2678  282 mt 
(Comparing Reprojection Error) s
 856 4522 mt 
( ) s
6065  419 mt 
( ) s
SO
1 sg
0 626 1596 0 0 -626 4426 1063 4 MP
PP
-1596 0 0 626 1596 0 0 -626 4426 1063 5 MP stroke
4 w
DO
SO
6 w
0 sg
4426 1063 mt 6022 1063 L
4426  437 mt 6022  437 L
4426 1063 mt 4426  437 L
6022 1063 mt 6022  437 L
4426 1063 mt 6022 1063 L
4426 1063 mt 4426  437 L
4426 1063 mt 6022 1063 L
4426  437 mt 6022  437 L
4426 1063 mt 4426  437 L
6022 1063 mt 6022  437 L
4871  571 mt 
(Checkerboard Calib) s
gs 4426 437 1597 627 rc
c8
-342 0 0 109 342 0 0 -109 4494 583 5 MP
PP
0 sg
0 0 -342 0 0 109 342 0 0 -109 4494 583 6 MP stroke
gr

4871  719 mt 
(Feature Based Calib) s
gs 4426 437 1597 627 rc
c9
-342 0 0 109 342 0 0 -109 4494 730 5 MP
PP
0 sg
0 0 -342 0 0 109 342 0 0 -109 4494 730 6 MP stroke
gr

4871  866 mt 
(Mean - CBcalib) s
gs 4426 437 1597 627 rc
DA
c10
342 0 4494 823 2 MP stroke
SO
gr

c10
0 sg
4871 1014 mt 
(Mean - FBCcalib) s
gs 4426 437 1597 627 rc
DA
c11
342 0 4494 971 2 MP stroke
SO
gr

c11

end %%Color Dict

eplot
%%EndObject

epage
end

showpage

%%Trailer
%%EOF
