IDEAL & 0.00 (0.00) & 0.00 (0.00) & 0.00 (0.00) & 0.00 (0.00) & 0.00 (0.00) & 0.00 (0.00)& 0.00 & 99.11\\
SIFT & 13.09 (7.17) & 8.23 (1.96) & 2.14 (1.06) & 2.83 (2.64) & 2.64 (0.56) & 4.22 (1.11)& 37.85 & 80.22\\
SURF & 15.58 (5.94) & 12.04 (2.26) & 5.59 (0.64) & 6.27 (0.30) & 3.63 (0.89) & 5.33 (0.80)& 2.89 & 79.56\\
BRISK & 20.21 (8.94) & 25.31 (13.48) & 6.43 (2.41) & 18.73 (13.03) & 3.82 (0.52) & 88.69 (141.00)& 1.16 & 67.56\\
ORB & 21.04 (9.31) & 9.41 (0.47) & 8.29 (1.54) & 33.30 (41.34) & 3.93 (0.05) & 9.22 (6.91)& 0.89 & 61.11\\
KAZE & 12.12 (3.84) & 7.76 (2.23) & 4.78 (1.25) & 6.34 (1.64) & 2.92 (0.26) & 7.27 (2.13)& 26.47 & 83.56\\
AKAZE & 11.68 (2.76) & 6.91 (3.97) & 7.51 (0.74) & 12.36 (5.03) & 4.61 (1.22) & 14.48 (13.06)& 5.79 & 78.00\\
MSER-BRIEF & 24.01 (4.87) & 44.64 (45.12) & 7.03 (1.17) & 7.86 (3.64) & 6.25 (1.77) & 8.88 (5.47)& 3.17 & 54.22\\
MSER-FREAK & 61.67 (4.78) & 60.57 (48.24) & 15.67 (9.97) & 2.77 (2.04) & 8.72 (3.38) & 11.38 (18.21)& 7.29 & 6.00\\
STAR-BRIEF & 21.30 (11.42) & 154.87 (254.05) & 6.52 (0.22) & 7.58 (1.61) & 4.99 (0.89) & 6.18 (3.66)& 0.63 & 66.67\\
STAR-FREAK & 52.15 (29.05) & 9.95 (6.09) & 15.82 (6.92) & 1.49 (0.29) & 4.43 (0.00) & 0.74 (0.11)& 0.99 & 7.11\\
FAST-BRIEF & 18.00 (9.78) & 24.70 (9.83) & 7.37 (1.36) & 8.65 (2.04) & 5.12 (1.48) & 9.53 (4.65)& 4.13 & 73.78\\
FAST-FREAK & 52.70 (21.19) & 8.42 (9.06) & 9.50 (3.29) & 23.62 (39.51) & 6.38 (3.73) & 11.14 (17.77)& 6.45 & 0.00\\
SIFT-BRIEF & 14.00 (2.80) & 33.85 (27.00) & 4.98 (1.65) & 7.82 (7.56) & 4.81 (0.49) & 7.68 (0.54)& 8.30 & 74.44\\
SIFT-FREAK & 51.65 (11.97) & 5.74 (5.23) & 22.41 (14.61) & 30.14 (50.25) & 10.78 (0.00) & 3.78 (0.00)& 7.26 & 5.11\\
SURF-BRIEF & 18.70 (7.20) & 16.40 (3.54) & 8.93 (1.07) & 270.54 (446.17) & 5.63 (1.25) & 11.04 (3.82)& 3.50 & 72.44\\
SURF-FREAK & 20.10 (8.38) & 21.75 (17.02) & 6.46 (1.57) & 22.14 (25.46) & 4.91 (1.00) & 49.14 (46.38)& 3.23 & 72.44\\
BRISK-BRIEF & 20.10 (8.38) & 21.75 (17.02) & 6.46 (1.57) & 22.14 (25.46) & 4.91 (1.00) & 49.14 (46.38)& 3.16 & 72.44\\
BRISK-FREAK & 15.70 (10.42) & 4.79 (1.70) & 4.84 (0.42) & 7.61 (4.39) & 4.41 (0.46) & 59.16 (80.32)& 1.16 & 71.11\\
ORB-BRIEF & 15.70 (10.42) & 4.79 (1.70) & 4.84 (0.42) & 7.61 (4.39) & 4.41 (0.46) & 59.16 (80.32)& 0.80 & 71.11\\
ORB-FREAK & 13.63 (7.43) & 38.77 (47.78) & 4.33 (0.43) & 4.64 (0.34) & 4.18 (0.96) & 16.78 (10.96)& 19.42 & 77.78\\
KAZE-BRIEF & 13.63 (7.43) & 38.77 (47.78) & 4.33 (0.43) & 4.64 (0.34) & 4.18 (0.96) & 16.78 (10.96)& 21.47 & 77.78\\
KAZE-FREAK & 12.86 (6.91) & 10.07 (6.27) & 5.37 (2.04) & 16.56 (10.51) & 4.45 (0.20) & 8.52 (1.14)& 7.19 & 81.11\\
AKAZE-BRIEF & 12.86 (6.91) & 10.07 (6.27) & 5.37 (2.04) & 16.56 (10.51) & 4.45 (0.20) & 8.52 (1.14)& 5.06 & 81.11\\
AKAZE-FREAK & 53.24 (25.05) & 28.34 (37.48) & 14.56 (8.09) & 4.46 (5.23) & 6.85 (0.15) & 5.16 (5.38)& 9.97 & 9.33\\
MSER-SURF & 19.95 (11.36) & 261.94 (422.71) & 8.12 (1.33) & 20.55 (10.17) & 5.10 (0.19) & 16.09 (12.27)& 6.79 & 59.78\\
STAR-SURF & 29.67 (12.08) & 53.51 (47.55) & 11.34 (3.75) & 16.08 (7.11) & 7.08 (0.98) & 22.15 (8.20)& 0.60 & 45.33\\
