%!PS-Adobe-3.0 EPSF-3.0
%%Creator: MATLAB, The MathWorks, Inc. Version 8.2.0.701 (R2013b). Operating System: Darwin 11.4.2 Darwin Kernel Version 11.4.2: Thu Aug 23 16:25:48 PDT 2012; root:xnu-1699.32.7~1/RELEASE_X86_64 x86_64.
%%Title: /Users/deepakd/git/matlab-projects/singleCalib_IH/data/cam1/results/cam1p1/depthR.eps
%%CreationDate: 01/17/2014  06:22:23
%%DocumentNeededFonts: Helvetica
%%+ Helvetica-Bold
%%DocumentProcessColors: Cyan Magenta Yellow Black
%%LanguageLevel: 2
%%Pages: 1
%%BoundingBox:    26   186   585   606
%%EndComments

%%BeginProlog
% MathWorks dictionary
/MathWorks 160 dict begin
% definition operators
/bdef {bind def} bind def
/ldef {load def} bind def
/xdef {exch def} bdef
/xstore {exch store} bdef
% operator abbreviations
/c  /clip ldef
/cc /concat ldef
/cp /closepath ldef
/gr /grestore ldef
/gs /gsave ldef
/mt /moveto ldef
/np /newpath ldef
/cm /currentmatrix ldef
/sm /setmatrix ldef
/rm /rmoveto ldef
/rl /rlineto ldef
/s {show newpath} bdef
/sc {setcmykcolor} bdef
/sr /setrgbcolor ldef
/sg /setgray ldef
/w /setlinewidth ldef
/j /setlinejoin ldef
/cap /setlinecap ldef
/rc {rectclip} bdef
/rf {rectfill} bdef
% page state control
/pgsv () def
/bpage {/pgsv save def} bdef
/epage {pgsv restore} bdef
/bplot /gsave ldef
/eplot {stroke grestore} bdef
% orientation switch
/portraitMode 0 def /landscapeMode 1 def /rotateMode 2 def
% coordinate system mappings
/dpi2point 0 def
% font control
/FontSize 0 def
/FMS {/FontSize xstore findfont [FontSize 0 0 FontSize neg 0 0]
  makefont setfont} bdef
/reencode {exch dup where {pop load} {pop StandardEncoding} ifelse
  exch dup 3 1 roll findfont dup length dict begin
  { 1 index /FID ne {def}{pop pop} ifelse } forall
  /Encoding exch def currentdict end definefont pop} bdef
/isroman {findfont /CharStrings get /Agrave known} bdef
/FMSR {3 1 roll 1 index dup isroman {reencode} {pop pop} ifelse
  exch FMS} bdef
/csm {1 dpi2point div -1 dpi2point div scale neg translate
 dup landscapeMode eq {pop -90 rotate}
  {rotateMode eq {90 rotate} if} ifelse} bdef
% line types: solid, dotted, dashed, dotdash
/SO { [] 0 setdash } bdef
/DO { [.5 dpi2point mul 4 dpi2point mul] 0 setdash } bdef
/DA { [6 dpi2point mul] 0 setdash } bdef
/DD { [.5 dpi2point mul 4 dpi2point mul 6 dpi2point mul 4
  dpi2point mul] 0 setdash } bdef
% macros for lines and objects
/L {lineto stroke} bdef
/MP {3 1 roll moveto 1 sub {rlineto} repeat} bdef
/AP {{rlineto} repeat} bdef
/PDlw -1 def
/W {/PDlw currentlinewidth def setlinewidth} def
/PP {closepath eofill} bdef
/DP {closepath stroke} bdef
/MR {4 -2 roll moveto dup  0 exch rlineto exch 0 rlineto
  neg 0 exch rlineto closepath} bdef
/FR {MR stroke} bdef
/PR {MR fill} bdef
/L1i {{currentfile picstr readhexstring pop} image} bdef
/tMatrix matrix def
/MakeOval {newpath tMatrix currentmatrix pop translate scale
0 0 1 0 360 arc tMatrix setmatrix} bdef
/FO {MakeOval stroke} bdef
/PO {MakeOval fill} bdef
/PD {currentlinewidth 2 div 0 360 arc fill
   PDlw -1 eq not {PDlw w /PDlw -1 def} if} def
/FA {newpath tMatrix currentmatrix pop translate scale
  0 0 1 5 -2 roll arc tMatrix setmatrix stroke} bdef
/PA {newpath tMatrix currentmatrix pop	translate 0 0 moveto scale
  0 0 1 5 -2 roll arc closepath tMatrix setmatrix fill} bdef
/FAn {newpath tMatrix currentmatrix pop translate scale
  0 0 1 5 -2 roll arcn tMatrix setmatrix stroke} bdef
/PAn {newpath tMatrix currentmatrix pop translate 0 0 moveto scale
  0 0 1 5 -2 roll arcn closepath tMatrix setmatrix fill} bdef
/vradius 0 def /hradius 0 def /lry 0 def
/lrx 0 def /uly 0 def /ulx 0 def /rad 0 def
/MRR {/vradius xdef /hradius xdef /lry xdef /lrx xdef /uly xdef
  /ulx xdef newpath tMatrix currentmatrix pop ulx hradius add uly
  vradius add translate hradius vradius scale 0 0 1 180 270 arc 
  tMatrix setmatrix lrx hradius sub uly vradius add translate
  hradius vradius scale 0 0 1 270 360 arc tMatrix setmatrix
  lrx hradius sub lry vradius sub translate hradius vradius scale
  0 0 1 0 90 arc tMatrix setmatrix ulx hradius add lry vradius sub
  translate hradius vradius scale 0 0 1 90 180 arc tMatrix setmatrix
  closepath} bdef
/FRR {MRR stroke } bdef
/PRR {MRR fill } bdef
/MlrRR {/lry xdef /lrx xdef /uly xdef /ulx xdef /rad lry uly sub 2 div def
  newpath tMatrix currentmatrix pop ulx rad add uly rad add translate
  rad rad scale 0 0 1 90 270 arc tMatrix setmatrix lrx rad sub lry rad
  sub translate rad rad scale 0 0 1 270 90 arc tMatrix setmatrix
  closepath} bdef
/FlrRR {MlrRR stroke } bdef
/PlrRR {MlrRR fill } bdef
/MtbRR {/lry xdef /lrx xdef /uly xdef /ulx xdef /rad lrx ulx sub 2 div def
  newpath tMatrix currentmatrix pop ulx rad add uly rad add translate
  rad rad scale 0 0 1 180 360 arc tMatrix setmatrix lrx rad sub lry rad
  sub translate rad rad scale 0 0 1 0 180 arc tMatrix setmatrix
  closepath} bdef
/FtbRR {MtbRR stroke } bdef
/PtbRR {MtbRR fill } bdef
/stri 6 array def /dtri 6 array def
/smat 6 array def /dmat 6 array def
/tmat1 6 array def /tmat2 6 array def /dif 3 array def
/asub {/ind2 exch def /ind1 exch def dup dup
  ind1 get exch ind2 get sub exch } bdef
/tri_to_matrix {
  2 0 asub 3 1 asub 4 0 asub 5 1 asub
  dup 0 get exch 1 get 7 -1 roll astore } bdef
/compute_transform {
  dmat dtri tri_to_matrix tmat1 invertmatrix 
  smat stri tri_to_matrix tmat2 concatmatrix } bdef
/ds {stri astore pop} bdef
/dt {dtri astore pop} bdef
/db {2 copy /cols xdef /rows xdef mul dup 3 mul string
  currentfile 
  3 index 0 eq {/ASCIIHexDecode filter}
  {/ASCII85Decode filter 3 index 2 eq {/RunLengthDecode filter} if }
  ifelse exch readstring pop
  dup 0 3 index getinterval /rbmap xdef
  dup 2 index dup getinterval /gbmap xdef
  1 index dup 2 mul exch getinterval /bbmap xdef pop pop}bdef
/it {gs np dtri aload pop moveto lineto lineto cp c
  cols rows 8 compute_transform 
  rbmap gbmap bbmap true 3 colorimage gr}bdef
/il {newpath moveto lineto stroke}bdef
currentdict end def
%%EndProlog

%%BeginSetup
MathWorks begin

0 cap

end
%%EndSetup

%%Page: 1 1
%%BeginPageSetup
%%PageBoundingBox:    26   186   585   606
MathWorks begin
bpage
%%EndPageSetup

%%BeginObject: obj1
bplot

/dpi2point 12 def
portraitMode 0312 7272 csm

    0     0  6719  5033 rc
86 dict begin %Colortable dictionary
/c0 { 0.000000 0.000000 0.000000 sr} bdef
/c1 { 1.000000 1.000000 1.000000 sr} bdef
/c2 { 0.900000 0.000000 0.000000 sr} bdef
/c3 { 0.000000 0.820000 0.000000 sr} bdef
/c4 { 0.000000 0.000000 0.800000 sr} bdef
/c5 { 0.910000 0.820000 0.320000 sr} bdef
/c6 { 1.000000 0.260000 0.820000 sr} bdef
/c7 { 0.000000 0.820000 0.820000 sr} bdef
c0
1 j
1 sg
   0    0 6720 5034 rf
6 w
0 4102 5208 0 0 -4102 873 4479 4 MP
PP
-5208 0 0 4102 5208 0 0 -4102 873 4479 5 MP stroke
4 w
DO
0 sg
 873 4479 mt 6081 4479 L
6081 4479 mt 6081 4479 L
 873 3795 mt 6081 3795 L
6081 3795 mt 6081 3795 L
 873 3111 mt 6081 3111 L
6081 3111 mt 6081 3111 L
 873 2428 mt 6081 2428 L
6081 2428 mt 6081 2428 L
 873 1744 mt 6081 1744 L
6081 1744 mt 6081 1744 L
 873 1060 mt 6081 1060 L
6081 1060 mt 6081 1060 L
 873  377 mt 6081  377 L
6081  377 mt 6081  377 L
SO
6 w
 873 4479 mt 6081 4479 L
 873  377 mt 6081  377 L
 873 4479 mt  873  377 L
6081 4479 mt 6081  377 L
 873 4479 mt 6081 4479 L
 873 4479 mt  873  377 L
 873 4479 mt  873 4426 L
 873  377 mt  873  429 L
%%IncludeResource: font Helvetica
/Helvetica /ISOLatin1Encoding 120 FMSR

 737 4624 mt 
(-40) s
1524 4479 mt 1524 4426 L
1524  377 mt 1524  429 L
1388 4624 mt 
(-30) s
2175 4479 mt 2175 4426 L
2175  377 mt 2175  429 L
2039 4624 mt 
(-20) s
2826 4479 mt 2826 4426 L
2826  377 mt 2826  429 L
2690 4624 mt 
(-10) s
3477 4479 mt 3477 4426 L
3477  377 mt 3477  429 L
3444 4624 mt 
(0) s
4128 4479 mt 4128 4426 L
4128  377 mt 4128  429 L
4062 4624 mt 
(10) s
4779 4479 mt 4779 4426 L
4779  377 mt 4779  429 L
4713 4624 mt 
(20) s
5430 4479 mt 5430 4426 L
5430  377 mt 5430  429 L
5364 4624 mt 
(30) s
6081 4479 mt 6081 4426 L
6081  377 mt 6081  429 L
6015 4624 mt 
(40) s
 873 4479 mt  925 4479 L
6081 4479 mt 6028 4479 L
 772 4523 mt 
(0) s
 873 3795 mt  925 3795 L
6081 3795 mt 6028 3795 L
 772 3839 mt 
(2) s
 873 3111 mt  925 3111 L
6081 3111 mt 6028 3111 L
 772 3155 mt 
(4) s
 873 2428 mt  925 2428 L
6081 2428 mt 6028 2428 L
 772 2472 mt 
(6) s
 873 1744 mt  925 1744 L
6081 1744 mt 6028 1744 L
 772 1788 mt 
(8) s
 873 1060 mt  925 1060 L
6081 1060 mt 6028 1060 L
 705 1104 mt 
(10) s
 873  377 mt  925  377 L
6081  377 mt 6028  377 L
 705  421 mt 
(12) s
 873 4479 mt 6081 4479 L
 873  377 mt 6081  377 L
 873 4479 mt  873  377 L
6081 4479 mt 6081  377 L
gs 873 377 5209 4103 rc
12 w
/c8 { 0.000000 0.000000 1.000000 sr} bdef
c8
66 3 65 4 65 -50 65 35 65 -2 65 17 65 -36 65 -56 
65 -6 65 -22 66 -95 65 -20 65 31 65 -108 65 2 65 -17 
65 -46 65 -36 65 -58 65 -86 66 57 65 -154 65 -21 65 -72 
65 -48 65 -83 65 -95 65 -75 65 -81 65 -73 66 -131 65 -91 
65 -84 65 -131 65 -99 65 -151 65 -128 65 -152 65 -156 65 -172 
66 181 65 192 65 225 65 227 65 248 65 218 65 281 65 355 
65 324 65 377 66 308 65 489 60 676 2635 377 54 MP stroke
gr

12 w
c8
2659 1053 mt 2731 1053 L
2695 1017 mt 2695 1089 L
2724 1542 mt 2796 1542 L
2760 1506 mt 2760 1578 L
2790 1850 mt 2862 1850 L
2826 1814 mt 2826 1886 L
2855 2227 mt 2927 2227 L
2891 2191 mt 2891 2263 L
2920 2551 mt 2992 2551 L
2956 2515 mt 2956 2587 L
2985 2906 mt 3057 2906 L
3021 2870 mt 3021 2942 L
3050 3187 mt 3122 3187 L
3086 3151 mt 3086 3223 L
3115 3405 mt 3187 3405 L
3151 3369 mt 3151 3441 L
3180 3653 mt 3252 3653 L
3216 3617 mt 3216 3689 L
3245 3880 mt 3317 3880 L
3281 3844 mt 3281 3916 L
3310 4105 mt 3382 4105 L
3346 4069 mt 3346 4141 L
3375 4297 mt 3447 4297 L
3411 4261 mt 3411 4333 L
3441 4478 mt 3513 4478 L
3477 4442 mt 3477 4514 L
3506 4306 mt 3578 4306 L
3542 4270 mt 3542 4342 L
3571 4150 mt 3643 4150 L
3607 4114 mt 3607 4186 L
3636 3998 mt 3708 3998 L
3672 3962 mt 3672 4034 L
3701 3870 mt 3773 3870 L
3737 3834 mt 3737 3906 L
3766 3719 mt 3838 3719 L
3802 3683 mt 3802 3755 L
3831 3620 mt 3903 3620 L
3867 3584 mt 3867 3656 L
3896 3489 mt 3968 3489 L
3932 3453 mt 3932 3525 L
3961 3405 mt 4033 3405 L
3997 3369 mt 3997 3441 L
4026 3314 mt 4098 3314 L
4062 3278 mt 4062 3350 L
4092 3183 mt 4164 3183 L
4128 3147 mt 4128 3219 L
4157 3110 mt 4229 3110 L
4193 3074 mt 4193 3146 L
4222 3029 mt 4294 3029 L
4258 2993 mt 4258 3065 L
4287 2954 mt 4359 2954 L
4323 2918 mt 4323 2990 L
4352 2859 mt 4424 2859 L
4388 2823 mt 4388 2895 L
4417 2776 mt 4489 2776 L
4453 2740 mt 4453 2812 L
4482 2728 mt 4554 2728 L
4518 2692 mt 4518 2764 L
4547 2656 mt 4619 2656 L
4583 2620 mt 4583 2692 L
4612 2635 mt 4684 2635 L
4648 2599 mt 4648 2671 L
4677 2481 mt 4749 2481 L
4713 2445 mt 4713 2517 L
4743 2538 mt 4815 2538 L
4779 2502 mt 4779 2574 L
4808 2452 mt 4880 2452 L
4844 2416 mt 4844 2488 L
4873 2394 mt 4945 2394 L
4909 2358 mt 4909 2430 L
4938 2358 mt 5010 2358 L
4974 2322 mt 4974 2394 L
5003 2312 mt 5075 2312 L
5039 2276 mt 5039 2348 L
5068 2295 mt 5140 2295 L
5104 2259 mt 5104 2331 L
5133 2297 mt 5205 2297 L
5169 2261 mt 5169 2333 L
5198 2189 mt 5270 2189 L
5234 2153 mt 5234 2225 L
5263 2220 mt 5335 2220 L
5299 2184 mt 5299 2256 L
5328 2200 mt 5400 2200 L
5364 2164 mt 5364 2236 L
5394 2105 mt 5466 2105 L
5430 2069 mt 5430 2141 L
5459 2083 mt 5531 2083 L
5495 2047 mt 5495 2119 L
5524 2077 mt 5596 2077 L
5560 2041 mt 5560 2113 L
5589 2021 mt 5661 2021 L
5625 1985 mt 5625 2057 L
5654 1985 mt 5726 1985 L
5690 1949 mt 5690 2021 L
5719 2002 mt 5791 2002 L
5755 1966 mt 5755 2038 L
5784 2000 mt 5856 2000 L
5820 1964 mt 5820 2036 L
5849 2035 mt 5921 2035 L
5885 1999 mt 5885 2071 L
5914 1985 mt 5986 1985 L
5950 1949 mt 5950 2021 L
5979 1989 mt 6051 1989 L
6015 1953 mt 6015 2025 L
6045 1992 mt 6117 1992 L
6081 1956 mt 6081 2028 L
2670 1028 mt 2720 1078 L
2720 1028 mt 2670 1078 L
2735 1517 mt 2785 1567 L
2785 1517 mt 2735 1567 L
2801 1825 mt 2851 1875 L
2851 1825 mt 2801 1875 L
2866 2202 mt 2916 2252 L
2916 2202 mt 2866 2252 L
2931 2526 mt 2981 2576 L
2981 2526 mt 2931 2576 L
2996 2881 mt 3046 2931 L
3046 2881 mt 2996 2931 L
3061 3162 mt 3111 3212 L
3111 3162 mt 3061 3212 L
3126 3380 mt 3176 3430 L
3176 3380 mt 3126 3430 L
3191 3628 mt 3241 3678 L
3241 3628 mt 3191 3678 L
3256 3855 mt 3306 3905 L
3306 3855 mt 3256 3905 L
3321 4080 mt 3371 4130 L
3371 4080 mt 3321 4130 L
3386 4272 mt 3436 4322 L
3436 4272 mt 3386 4322 L
3452 4453 mt 3502 4503 L
3502 4453 mt 3452 4503 L
3517 4281 mt 3567 4331 L
3567 4281 mt 3517 4331 L
3582 4125 mt 3632 4175 L
3632 4125 mt 3582 4175 L
3647 3973 mt 3697 4023 L
3697 3973 mt 3647 4023 L
3712 3845 mt 3762 3895 L
3762 3845 mt 3712 3895 L
3777 3694 mt 3827 3744 L
3827 3694 mt 3777 3744 L
3842 3595 mt 3892 3645 L
3892 3595 mt 3842 3645 L
3907 3464 mt 3957 3514 L
3957 3464 mt 3907 3514 L
3972 3380 mt 4022 3430 L
4022 3380 mt 3972 3430 L
4037 3289 mt 4087 3339 L
4087 3289 mt 4037 3339 L
4103 3158 mt 4153 3208 L
4153 3158 mt 4103 3208 L
4168 3085 mt 4218 3135 L
4218 3085 mt 4168 3135 L
4233 3004 mt 4283 3054 L
4283 3004 mt 4233 3054 L
4298 2929 mt 4348 2979 L
4348 2929 mt 4298 2979 L
4363 2834 mt 4413 2884 L
4413 2834 mt 4363 2884 L
4428 2751 mt 4478 2801 L
4478 2751 mt 4428 2801 L
4493 2703 mt 4543 2753 L
4543 2703 mt 4493 2753 L
4558 2631 mt 4608 2681 L
4608 2631 mt 4558 2681 L
4623 2610 mt 4673 2660 L
4673 2610 mt 4623 2660 L
4688 2456 mt 4738 2506 L
4738 2456 mt 4688 2506 L
4754 2513 mt 4804 2563 L
4804 2513 mt 4754 2563 L
4819 2427 mt 4869 2477 L
4869 2427 mt 4819 2477 L
4884 2369 mt 4934 2419 L
4934 2369 mt 4884 2419 L
4949 2333 mt 4999 2383 L
4999 2333 mt 4949 2383 L
5014 2287 mt 5064 2337 L
5064 2287 mt 5014 2337 L
5079 2270 mt 5129 2320 L
5129 2270 mt 5079 2320 L
5144 2272 mt 5194 2322 L
5194 2272 mt 5144 2322 L
5209 2164 mt 5259 2214 L
5259 2164 mt 5209 2214 L
5274 2195 mt 5324 2245 L
5324 2195 mt 5274 2245 L
5339 2175 mt 5389 2225 L
5389 2175 mt 5339 2225 L
5405 2080 mt 5455 2130 L
5455 2080 mt 5405 2130 L
5470 2058 mt 5520 2108 L
5520 2058 mt 5470 2108 L
5535 2052 mt 5585 2102 L
5585 2052 mt 5535 2102 L
5600 1996 mt 5650 2046 L
5650 1996 mt 5600 2046 L
5665 1960 mt 5715 2010 L
5715 1960 mt 5665 2010 L
5730 1977 mt 5780 2027 L
5780 1977 mt 5730 2027 L
5795 1975 mt 5845 2025 L
5845 1975 mt 5795 2025 L
5860 2010 mt 5910 2060 L
5910 2010 mt 5860 2060 L
5925 1960 mt 5975 2010 L
5975 1960 mt 5925 2010 L
5990 1964 mt 6040 2014 L
6040 1964 mt 5990 2014 L
6056 1967 mt 6106 2017 L
6106 1967 mt 6056 2017 L
gs 873 377 5209 4103 rc
/c9 { 0.000000 1.000000 0.000000 sr} bdef
c9
66 -200 65 -96 65 -325 65 9 65 -208 65 -134 65 -19 65 -185 
65 -77 65 -113 66 -121 65 -47 65 -94 65 -92 65 -97 65 -3 
65 -69 65 -117 65 -31 65 -56 66 -70 65 -31 65 -29 65 -80 
65 -28 65 -44 65 -25 65 -41 65 -31 65 -26 66 -30 65 -32 
65 -19 65 -27 65 -21 65 -22 65 -16 65 -18 65 -19 65 -16 
66 15 65 17 65 13 65 17 65 12 65 18 65 11 65 14 
65 17 65 21 66 11 65 11 65 26 65 18 65 33 65 3 
65 42 65 5 65 30 65 39 66 16 65 17 65 41 65 53 
65 17 65 59 65 43 65 68 65 45 65 17 66 73 65 74 
65 37 65 93 65 71 65 66 65 66 65 165 65 71 65 182 
873 2831 81 MP stroke
gr

c9
  36   36  873 2831 FO
  36   36  938 3013 FO
  36   36 1003 3084 FO
  36   36 1068 3249 FO
  36   36 1133 3315 FO
  36   36 1198 3381 FO
  36   36 1263 3452 FO
  36   36 1328 3545 FO
  36   36 1393 3582 FO
  36   36 1458 3656 FO
  36   36 1524 3729 FO
  36   36 1589 3746 FO
  36   36 1654 3791 FO
  36   36 1719 3859 FO
  36   36 1784 3902 FO
  36   36 1849 3961 FO
  36   36 1914 3978 FO
  36   36 1979 4031 FO
  36   36 2044 4072 FO
  36   36 2109 4089 FO
  36   36 2175 4105 FO
  36   36 2240 4144 FO
  36   36 2305 4174 FO
  36   36 2370 4179 FO
  36   36 2435 4221 FO
  36   36 2500 4224 FO
  36   36 2565 4257 FO
  36   36 2630 4275 FO
  36   36 2695 4301 FO
  36   36 2760 4312 FO
  36   36 2826 4323 FO
  36   36 2891 4344 FO
  36   36 2956 4361 FO
  36   36 3021 4375 FO
  36   36 3086 4386 FO
  36   36 3151 4404 FO
  36   36 3216 4416 FO
  36   36 3281 4433 FO
  36   36 3346 4446 FO
  36   36 3411 4463 FO
  36   36 3477 4478 FO
  36   36 3542 4462 FO
  36   36 3607 4443 FO
  36   36 3672 4425 FO
  36   36 3737 4409 FO
  36   36 3802 4387 FO
  36   36 3867 4366 FO
  36   36 3932 4339 FO
  36   36 3997 4320 FO
  36   36 4062 4288 FO
  36   36 4128 4258 FO
  36   36 4193 4232 FO
  36   36 4258 4201 FO
  36   36 4323 4160 FO
  36   36 4388 4135 FO
  36   36 4453 4091 FO
  36   36 4518 4063 FO
  36   36 4583 3983 FO
  36   36 4648 3954 FO
  36   36 4713 3923 FO
  36   36 4779 3853 FO
  36   36 4844 3797 FO
  36   36 4909 3766 FO
  36   36 4974 3649 FO
  36   36 5039 3580 FO
  36   36 5104 3577 FO
  36   36 5169 3480 FO
  36   36 5234 3388 FO
  36   36 5299 3294 FO
  36   36 5364 3247 FO
  36   36 5430 3126 FO
  36   36 5495 3013 FO
  36   36 5560 2936 FO
  36   36 5625 2751 FO
  36   36 5690 2732 FO
  36   36 5755 2598 FO
  36   36 5820 2390 FO
  36   36 5885 2399 FO
  36   36 5950 2074 FO
  36   36 6015 1978 FO
  36   36 6081 1778 FO
gs 873 377 5209 4103 rc
/c10 { 1.000000 0.000000 0.000000 sr} bdef
c10
66 -44 65 -89 65 -59 65 82 65 -232 65 26 65 -173 65 39 
65 -129 65 -1 66 -129 65 -77 65 -10 65 -189 65 22 65 -128 
65 -129 65 -15 65 -48 65 -53 66 -93 65 -173 65 -111 65 -86 
65 -121 65 -119 65 -8 65 -144 65 -87 65 -77 66 -116 65 -113 
65 -97 65 -111 65 -111 65 -94 65 -96 65 -101 65 -114 65 -100 
66 109 65 102 65 100 65 114 65 99 65 34 65 131 65 100 
65 119 65 99 66 40 65 157 65 70 65 96 65 64 65 197 
65 29 65 22 65 58 65 67 66 203 65 -74 65 115 65 183 
65 -159 65 233 65 -8 65 101 65 106 65 -17 66 145 65 -83 
65 188 65 2 65 74 65 37 65 161 65 -168 65 193 65 -17 
873 1456 81 MP stroke
gr

c10
0 j
36 47 -36 47 -36 -47 36 -47 873 1503 5 MP
DP
36 47 -36 47 -36 -47 36 -47 938 1486 5 MP
DP
36 47 -36 47 -36 -47 36 -47 1003 1679 5 MP
DP
36 47 -36 47 -36 -47 36 -47 1068 1511 5 MP
DP
36 47 -36 47 -36 -47 36 -47 1133 1672 5 MP
DP
36 47 -36 47 -36 -47 36 -47 1198 1709 5 MP
DP
36 47 -36 47 -36 -47 36 -47 1263 1783 5 MP
DP
36 47 -36 47 -36 -47 36 -47 1328 1785 5 MP
DP
36 47 -36 47 -36 -47 36 -47 1393 1973 5 MP
DP
36 47 -36 47 -36 -47 36 -47 1458 1890 5 MP
DP
36 47 -36 47 -36 -47 36 -47 1524 2035 5 MP
DP
36 47 -36 47 -36 -47 36 -47 1589 2018 5 MP
DP
36 47 -36 47 -36 -47 36 -47 1654 2124 5 MP
DP
36 47 -36 47 -36 -47 36 -47 1719 2225 5 MP
DP
36 47 -36 47 -36 -47 36 -47 1784 2217 5 MP
DP
36 47 -36 47 -36 -47 36 -47 1849 2450 5 MP
DP
36 47 -36 47 -36 -47 36 -47 1914 2291 5 MP
DP
36 47 -36 47 -36 -47 36 -47 1979 2474 5 MP
DP
36 47 -36 47 -36 -47 36 -47 2044 2589 5 MP
DP
36 47 -36 47 -36 -47 36 -47 2109 2515 5 MP
DP
36 47 -36 47 -36 -47 36 -47 2175 2718 5 MP
DP
36 47 -36 47 -36 -47 36 -47 2240 2785 5 MP
DP
36 47 -36 47 -36 -47 36 -47 2305 2843 5 MP
DP
36 47 -36 47 -36 -47 36 -47 2370 2865 5 MP
DP
36 47 -36 47 -36 -47 36 -47 2435 2894 5 MP
DP
36 47 -36 47 -36 -47 36 -47 2500 3091 5 MP
DP
36 47 -36 47 -36 -47 36 -47 2565 3155 5 MP
DP
36 47 -36 47 -36 -47 36 -47 2630 3251 5 MP
DP
36 47 -36 47 -36 -47 36 -47 2695 3321 5 MP
DP
36 47 -36 47 -36 -47 36 -47 2760 3478 5 MP
DP
36 47 -36 47 -36 -47 36 -47 2826 3518 5 MP
DP
36 47 -36 47 -36 -47 36 -47 2891 3617 5 MP
DP
36 47 -36 47 -36 -47 36 -47 2956 3736 5 MP
DP
36 47 -36 47 -36 -47 36 -47 3021 3836 5 MP
DP
36 47 -36 47 -36 -47 36 -47 3086 3967 5 MP
DP
36 47 -36 47 -36 -47 36 -47 3151 4001 5 MP
DP
36 47 -36 47 -36 -47 36 -47 3216 4100 5 MP
DP
36 47 -36 47 -36 -47 36 -47 3281 4214 5 MP
DP
36 47 -36 47 -36 -47 36 -47 3346 4314 5 MP
DP
36 47 -36 47 -36 -47 36 -47 3411 4416 5 MP
DP
36 47 -36 47 -36 -47 36 -47 3477 4525 5 MP
DP
36 47 -36 47 -36 -47 36 -47 3542 4425 5 MP
DP
36 47 -36 47 -36 -47 36 -47 3607 4311 5 MP
DP
36 47 -36 47 -36 -47 36 -47 3672 4210 5 MP
DP
36 47 -36 47 -36 -47 36 -47 3737 4114 5 MP
DP
36 47 -36 47 -36 -47 36 -47 3802 4020 5 MP
DP
36 47 -36 47 -36 -47 36 -47 3867 3909 5 MP
DP
36 47 -36 47 -36 -47 36 -47 3932 3798 5 MP
DP
36 47 -36 47 -36 -47 36 -47 3997 3701 5 MP
DP
36 47 -36 47 -36 -47 36 -47 4062 3588 5 MP
DP
36 47 -36 47 -36 -47 36 -47 4128 3472 5 MP
DP
36 47 -36 47 -36 -47 36 -47 4193 3395 5 MP
DP
36 47 -36 47 -36 -47 36 -47 4258 3308 5 MP
DP
36 47 -36 47 -36 -47 36 -47 4323 3164 5 MP
DP
36 47 -36 47 -36 -47 36 -47 4388 3156 5 MP
DP
36 47 -36 47 -36 -47 36 -47 4453 3037 5 MP
DP
36 47 -36 47 -36 -47 36 -47 4518 2916 5 MP
DP
36 47 -36 47 -36 -47 36 -47 4583 2830 5 MP
DP
36 47 -36 47 -36 -47 36 -47 4648 2719 5 MP
DP
36 47 -36 47 -36 -47 36 -47 4713 2546 5 MP
DP
36 47 -36 47 -36 -47 36 -47 4779 2453 5 MP
DP
36 47 -36 47 -36 -47 36 -47 4844 2400 5 MP
DP
36 47 -36 47 -36 -47 36 -47 4909 2352 5 MP
DP
36 47 -36 47 -36 -47 36 -47 4974 2337 5 MP
DP
36 47 -36 47 -36 -47 36 -47 5039 2208 5 MP
DP
36 47 -36 47 -36 -47 36 -47 5104 2080 5 MP
DP
36 47 -36 47 -36 -47 36 -47 5169 2102 5 MP
DP
36 47 -36 47 -36 -47 36 -47 5234 1913 5 MP
DP
36 47 -36 47 -36 -47 36 -47 5299 1903 5 MP
DP
36 47 -36 47 -36 -47 36 -47 5364 1826 5 MP
DP
36 47 -36 47 -36 -47 36 -47 5430 1697 5 MP
DP
36 47 -36 47 -36 -47 36 -47 5495 1696 5 MP
DP
36 47 -36 47 -36 -47 36 -47 5560 1567 5 MP
DP
36 47 -36 47 -36 -47 36 -47 5625 1606 5 MP
DP
36 47 -36 47 -36 -47 36 -47 5690 1433 5 MP
DP
36 47 -36 47 -36 -47 36 -47 5755 1459 5 MP
DP
36 47 -36 47 -36 -47 36 -47 5820 1227 5 MP
DP
36 47 -36 47 -36 -47 36 -47 5885 1309 5 MP
DP
36 47 -36 47 -36 -47 36 -47 5950 1250 5 MP
DP
36 47 -36 47 -36 -47 36 -47 6015 1161 5 MP
DP
36 47 -36 47 -36 -47 36 -47 6081 1117 5 MP
DP
gs 873 377 5209 4103 rc
gr

0 sg
%%IncludeResource: font Helvetica-Bold
/Helvetica-Bold /ISOLatin1Encoding 144 FMSR

1886 4785 mt 
(Camera orientaton mis-alignment \(in degrees\)) s
 618 3672 mt  -90 rotate
(Error in depth measurement \(in mm\)) s
90 rotate
%%IncludeResource: font Helvetica
/Helvetica /ISOLatin1Encoding 120 FMSR

 856 4522 mt 
( ) s
6065  419 mt 
( ) s
6 w
1 sg
0 818 852 0 0 -818 3069 1266 4 MP
PP
-852 0 0 818 852 0 0 -818 3069 1266 5 MP stroke
4 w
DO
SO
6 w
0 sg
3069 1266 mt 3921 1266 L
3069  448 mt 3921  448 L
3069 1266 mt 3069  448 L
3921 1266 mt 3921  448 L
3069 1266 mt 3921 1266 L
3069 1266 mt 3069  448 L
3069 1266 mt 3921 1266 L
3069  448 mt 3921  448 L
3069 1266 mt 3069  448 L
3921 1266 mt 3921  448 L
3538  647 mt 
(x axis) s
gs 3069 448 853 819 rc
12 w
c8
360 0 3141 604 2 MP stroke
gr

12 w
c8
3285  604 mt 3357  604 L
3321  568 mt 3321  640 L
3296  579 mt 3346  629 L
3346  579 mt 3296  629 L
gs 3069 448 853 819 rc
gr

0 sg
3538  900 mt 
(y axis) s
gs 3069 448 853 819 rc
c9
360 0 3141 857 2 MP stroke
gr

c9
  36   36 3321  857 FO
gs 3069 448 853 819 rc
gr

0 sg
3538 1152 mt 
(z axis) s
gs 3069 448 853 819 rc
c10
360 0 3141 1109 2 MP stroke
gr

c10
36 47 -36 47 -36 -47 36 -47 3321 1156 5 MP
DP
gs 3069 448 853 819 rc
6 w
gr

6 w

end %%Color Dict

eplot
%%EndObject

epage
end

showpage

%%Trailer
%%EOF
