%!PS-Adobe-3.0 EPSF-3.0
%%Creator: MATLAB, The MathWorks, Inc. Version 8.2.0.701 (R2013b). Operating System: Darwin 11.4.2 Darwin Kernel Version 11.4.2: Thu Aug 23 16:25:48 PDT 2012; root:xnu-1699.32.7~1/RELEASE_X86_64 x86_64.
%%Title: /Users/deepakd/git/matlab-projects/singleCalib_IH/data/cam1/results/cam1p1/depthT.eps
%%CreationDate: 01/17/2014  06:23:08
%%DocumentNeededFonts: Helvetica
%%+ Helvetica-Bold
%%DocumentProcessColors: Cyan Magenta Yellow Black
%%LanguageLevel: 2
%%Pages: 1
%%BoundingBox:    26   186   585   606
%%EndComments

%%BeginProlog
% MathWorks dictionary
/MathWorks 160 dict begin
% definition operators
/bdef {bind def} bind def
/ldef {load def} bind def
/xdef {exch def} bdef
/xstore {exch store} bdef
% operator abbreviations
/c  /clip ldef
/cc /concat ldef
/cp /closepath ldef
/gr /grestore ldef
/gs /gsave ldef
/mt /moveto ldef
/np /newpath ldef
/cm /currentmatrix ldef
/sm /setmatrix ldef
/rm /rmoveto ldef
/rl /rlineto ldef
/s {show newpath} bdef
/sc {setcmykcolor} bdef
/sr /setrgbcolor ldef
/sg /setgray ldef
/w /setlinewidth ldef
/j /setlinejoin ldef
/cap /setlinecap ldef
/rc {rectclip} bdef
/rf {rectfill} bdef
% page state control
/pgsv () def
/bpage {/pgsv save def} bdef
/epage {pgsv restore} bdef
/bplot /gsave ldef
/eplot {stroke grestore} bdef
% orientation switch
/portraitMode 0 def /landscapeMode 1 def /rotateMode 2 def
% coordinate system mappings
/dpi2point 0 def
% font control
/FontSize 0 def
/FMS {/FontSize xstore findfont [FontSize 0 0 FontSize neg 0 0]
  makefont setfont} bdef
/reencode {exch dup where {pop load} {pop StandardEncoding} ifelse
  exch dup 3 1 roll findfont dup length dict begin
  { 1 index /FID ne {def}{pop pop} ifelse } forall
  /Encoding exch def currentdict end definefont pop} bdef
/isroman {findfont /CharStrings get /Agrave known} bdef
/FMSR {3 1 roll 1 index dup isroman {reencode} {pop pop} ifelse
  exch FMS} bdef
/csm {1 dpi2point div -1 dpi2point div scale neg translate
 dup landscapeMode eq {pop -90 rotate}
  {rotateMode eq {90 rotate} if} ifelse} bdef
% line types: solid, dotted, dashed, dotdash
/SO { [] 0 setdash } bdef
/DO { [.5 dpi2point mul 4 dpi2point mul] 0 setdash } bdef
/DA { [6 dpi2point mul] 0 setdash } bdef
/DD { [.5 dpi2point mul 4 dpi2point mul 6 dpi2point mul 4
  dpi2point mul] 0 setdash } bdef
% macros for lines and objects
/L {lineto stroke} bdef
/MP {3 1 roll moveto 1 sub {rlineto} repeat} bdef
/AP {{rlineto} repeat} bdef
/PDlw -1 def
/W {/PDlw currentlinewidth def setlinewidth} def
/PP {closepath eofill} bdef
/DP {closepath stroke} bdef
/MR {4 -2 roll moveto dup  0 exch rlineto exch 0 rlineto
  neg 0 exch rlineto closepath} bdef
/FR {MR stroke} bdef
/PR {MR fill} bdef
/L1i {{currentfile picstr readhexstring pop} image} bdef
/tMatrix matrix def
/MakeOval {newpath tMatrix currentmatrix pop translate scale
0 0 1 0 360 arc tMatrix setmatrix} bdef
/FO {MakeOval stroke} bdef
/PO {MakeOval fill} bdef
/PD {currentlinewidth 2 div 0 360 arc fill
   PDlw -1 eq not {PDlw w /PDlw -1 def} if} def
/FA {newpath tMatrix currentmatrix pop translate scale
  0 0 1 5 -2 roll arc tMatrix setmatrix stroke} bdef
/PA {newpath tMatrix currentmatrix pop	translate 0 0 moveto scale
  0 0 1 5 -2 roll arc closepath tMatrix setmatrix fill} bdef
/FAn {newpath tMatrix currentmatrix pop translate scale
  0 0 1 5 -2 roll arcn tMatrix setmatrix stroke} bdef
/PAn {newpath tMatrix currentmatrix pop translate 0 0 moveto scale
  0 0 1 5 -2 roll arcn closepath tMatrix setmatrix fill} bdef
/vradius 0 def /hradius 0 def /lry 0 def
/lrx 0 def /uly 0 def /ulx 0 def /rad 0 def
/MRR {/vradius xdef /hradius xdef /lry xdef /lrx xdef /uly xdef
  /ulx xdef newpath tMatrix currentmatrix pop ulx hradius add uly
  vradius add translate hradius vradius scale 0 0 1 180 270 arc 
  tMatrix setmatrix lrx hradius sub uly vradius add translate
  hradius vradius scale 0 0 1 270 360 arc tMatrix setmatrix
  lrx hradius sub lry vradius sub translate hradius vradius scale
  0 0 1 0 90 arc tMatrix setmatrix ulx hradius add lry vradius sub
  translate hradius vradius scale 0 0 1 90 180 arc tMatrix setmatrix
  closepath} bdef
/FRR {MRR stroke } bdef
/PRR {MRR fill } bdef
/MlrRR {/lry xdef /lrx xdef /uly xdef /ulx xdef /rad lry uly sub 2 div def
  newpath tMatrix currentmatrix pop ulx rad add uly rad add translate
  rad rad scale 0 0 1 90 270 arc tMatrix setmatrix lrx rad sub lry rad
  sub translate rad rad scale 0 0 1 270 90 arc tMatrix setmatrix
  closepath} bdef
/FlrRR {MlrRR stroke } bdef
/PlrRR {MlrRR fill } bdef
/MtbRR {/lry xdef /lrx xdef /uly xdef /ulx xdef /rad lrx ulx sub 2 div def
  newpath tMatrix currentmatrix pop ulx rad add uly rad add translate
  rad rad scale 0 0 1 180 360 arc tMatrix setmatrix lrx rad sub lry rad
  sub translate rad rad scale 0 0 1 0 180 arc tMatrix setmatrix
  closepath} bdef
/FtbRR {MtbRR stroke } bdef
/PtbRR {MtbRR fill } bdef
/stri 6 array def /dtri 6 array def
/smat 6 array def /dmat 6 array def
/tmat1 6 array def /tmat2 6 array def /dif 3 array def
/asub {/ind2 exch def /ind1 exch def dup dup
  ind1 get exch ind2 get sub exch } bdef
/tri_to_matrix {
  2 0 asub 3 1 asub 4 0 asub 5 1 asub
  dup 0 get exch 1 get 7 -1 roll astore } bdef
/compute_transform {
  dmat dtri tri_to_matrix tmat1 invertmatrix 
  smat stri tri_to_matrix tmat2 concatmatrix } bdef
/ds {stri astore pop} bdef
/dt {dtri astore pop} bdef
/db {2 copy /cols xdef /rows xdef mul dup 3 mul string
  currentfile 
  3 index 0 eq {/ASCIIHexDecode filter}
  {/ASCII85Decode filter 3 index 2 eq {/RunLengthDecode filter} if }
  ifelse exch readstring pop
  dup 0 3 index getinterval /rbmap xdef
  dup 2 index dup getinterval /gbmap xdef
  1 index dup 2 mul exch getinterval /bbmap xdef pop pop}bdef
/it {gs np dtri aload pop moveto lineto lineto cp c
  cols rows 8 compute_transform 
  rbmap gbmap bbmap true 3 colorimage gr}bdef
/il {newpath moveto lineto stroke}bdef
currentdict end def
%%EndProlog

%%BeginSetup
MathWorks begin

0 cap

end
%%EndSetup

%%Page: 1 1
%%BeginPageSetup
%%PageBoundingBox:    26   186   585   606
MathWorks begin
bpage
%%EndPageSetup

%%BeginObject: obj1
bplot

/dpi2point 12 def
portraitMode 0312 7272 csm

    0     0  6719  5033 rc
86 dict begin %Colortable dictionary
/c0 { 0.000000 0.000000 0.000000 sr} bdef
/c1 { 1.000000 1.000000 1.000000 sr} bdef
/c2 { 0.900000 0.000000 0.000000 sr} bdef
/c3 { 0.000000 0.820000 0.000000 sr} bdef
/c4 { 0.000000 0.000000 0.800000 sr} bdef
/c5 { 0.910000 0.820000 0.320000 sr} bdef
/c6 { 1.000000 0.260000 0.820000 sr} bdef
/c7 { 0.000000 0.820000 0.820000 sr} bdef
c0
1 j
1 sg
   0    0 6720 5034 rf
6 w
0 4102 5208 0 0 -4102 873 4479 4 MP
PP
-5208 0 0 4102 5208 0 0 -4102 873 4479 5 MP stroke
4 w
DO
0 sg
 873 4479 mt 6081 4479 L
6081 4479 mt 6081 4479 L
 873 4068 mt 6081 4068 L
6081 4068 mt 6081 4068 L
 873 3658 mt 6081 3658 L
6081 3658 mt 6081 3658 L
 873 3248 mt 6081 3248 L
6081 3248 mt 6081 3248 L
 873 2838 mt 6081 2838 L
6081 2838 mt 6081 2838 L
 873 2428 mt 6081 2428 L
6081 2428 mt 6081 2428 L
 873 2017 mt 6081 2017 L
6081 2017 mt 6081 2017 L
 873 1607 mt 6081 1607 L
6081 1607 mt 6081 1607 L
 873 1197 mt 6081 1197 L
6081 1197 mt 6081 1197 L
 873  787 mt 6081  787 L
6081  787 mt 6081  787 L
 873  377 mt 6081  377 L
6081  377 mt 6081  377 L
SO
6 w
 873 4479 mt 6081 4479 L
 873  377 mt 6081  377 L
 873 4479 mt  873  377 L
6081 4479 mt 6081  377 L
 873 4479 mt 6081 4479 L
 873 4479 mt  873  377 L
 873 4479 mt  873 4426 L
 873  377 mt  873  429 L
%%IncludeResource: font Helvetica
/Helvetica /ISOLatin1Encoding 120 FMSR

 703 4624 mt 
(-100) s
1393 4479 mt 1393 4426 L
1393  377 mt 1393  429 L
1257 4624 mt 
(-80) s
1914 4479 mt 1914 4426 L
1914  377 mt 1914  429 L
1778 4624 mt 
(-60) s
2435 4479 mt 2435 4426 L
2435  377 mt 2435  429 L
2299 4624 mt 
(-40) s
2956 4479 mt 2956 4426 L
2956  377 mt 2956  429 L
2820 4624 mt 
(-20) s
3477 4479 mt 3477 4426 L
3477  377 mt 3477  429 L
3444 4624 mt 
(0) s
3997 4479 mt 3997 4426 L
3997  377 mt 3997  429 L
3931 4624 mt 
(20) s
4518 4479 mt 4518 4426 L
4518  377 mt 4518  429 L
4452 4624 mt 
(40) s
5039 4479 mt 5039 4426 L
5039  377 mt 5039  429 L
4973 4624 mt 
(60) s
5560 4479 mt 5560 4426 L
5560  377 mt 5560  429 L
5494 4624 mt 
(80) s
6081 4479 mt 6081 4426 L
6081  377 mt 6081  429 L
5981 4624 mt 
(100) s
 873 4479 mt  925 4479 L
6081 4479 mt 6028 4479 L
 772 4523 mt 
(0) s
 873 4068 mt  925 4068 L
6081 4068 mt 6028 4068 L
 672 4112 mt 
(0.1) s
 873 3658 mt  925 3658 L
6081 3658 mt 6028 3658 L
 672 3702 mt 
(0.2) s
 873 3248 mt  925 3248 L
6081 3248 mt 6028 3248 L
 672 3292 mt 
(0.3) s
 873 2838 mt  925 2838 L
6081 2838 mt 6028 2838 L
 672 2882 mt 
(0.4) s
 873 2428 mt  925 2428 L
6081 2428 mt 6028 2428 L
 672 2472 mt 
(0.5) s
 873 2017 mt  925 2017 L
6081 2017 mt 6028 2017 L
 672 2061 mt 
(0.6) s
 873 1607 mt  925 1607 L
6081 1607 mt 6028 1607 L
 672 1651 mt 
(0.7) s
 873 1197 mt  925 1197 L
6081 1197 mt 6028 1197 L
 672 1241 mt 
(0.8) s
 873  787 mt  925  787 L
6081  787 mt 6028  787 L
 672  831 mt 
(0.9) s
 873  377 mt  925  377 L
6081  377 mt 6028  377 L
 772  421 mt 
(1) s
 873 4479 mt 6081 4479 L
 873  377 mt 6081  377 L
 873 4479 mt  873  377 L
6081 4479 mt 6081  377 L
gs 873 377 5209 4103 rc
12 w
/c8 { 0.000000 0.000000 1.000000 sr} bdef
c8
27 0 26 0 26 0 26 0 26 0 26 0 26 0 26 0 
26 0 26 0 26 0 26 0 26 0 26 0 26 0 26 0 
26 0 26 0 26 0 26 0 26 0 26 0 26 0 26 0 
26 0 27 0 26 0 26 0 26 0 26 0 26 0 26 0 
26 0 26 0 26 0 26 0 26 0 26 0 26 0 26 0 
26 0 26 0 26 -1 26 0 26 0 26 0 26 0 26 0 
26 0 26 0 27 0 26 0 26 0 26 0 26 0 26 0 
26 0 26 0 26 0 26 0 26 0 26 0 26 0 26 0 
26 0 26 0 26 0 26 0 26 0 26 0 26 0 26 0 
26 0 26 0 26 0 27 0 26 0 26 0 26 0 26 0 
26 0 26 0 26 0 26 0 26 0 26 0 26 0 26 0 
26 0 26 0 26 0 26 0 26 0 26 0 26 0 26 0 
26 0 26 0 26 0 26 0 27 0 26 0 26 0 26 0 
26 0 26 0 26 0 26 0 26 0 26 0 26 0 26 0 
26 0 26 0 26 0 26 0 26 0 26 0 26 0 26 0 
26 0 26 0 26 0 26 0 26 0 27 0 26 0 26 0 
26 0 26 0 26 0 26 0 26 0 26 0 26 0 26 0 
26 0 26 0 26 0 26 0 26 0 26 0 26 0 26 0 
26 0 26 0 26 0 26 0 26 0 26 0 27 0 26 0 
26 0 26 0 26 0 26 0 26 1 26 -1 26 1 26 0 
26 0 26 0 26 0 26 0 26 0 26 0 26 0 26 0 
26 0 26 0 26 0 26 0 26 0 26 0 26 0 27 0 
26 0 26 0 26 0 26 0 26 0 26 0 26 0 26 0 
26 0 26 0 26 0 26 0 26 0 26 0 26 0 26 0 
26 0 26 0 26 0 26 0 26 0 26 0 26 0 26 0 
873 4477 201 MP stroke
gr

12 w
c8
 855 4477 mt  891 4477 L
 873 4459 mt  873 4495 L
 881 4477 mt  917 4477 L
 899 4459 mt  899 4495 L
 907 4477 mt  943 4477 L
 925 4459 mt  925 4495 L
 933 4477 mt  969 4477 L
 951 4459 mt  951 4495 L
 959 4477 mt  995 4477 L
 977 4459 mt  977 4495 L
 985 4477 mt 1021 4477 L
1003 4459 mt 1003 4495 L
1011 4477 mt 1047 4477 L
1029 4459 mt 1029 4495 L
1037 4477 mt 1073 4477 L
1055 4459 mt 1055 4495 L
1063 4477 mt 1099 4477 L
1081 4459 mt 1081 4495 L
1089 4477 mt 1125 4477 L
1107 4459 mt 1107 4495 L
1115 4477 mt 1151 4477 L
1133 4459 mt 1133 4495 L
1141 4477 mt 1177 4477 L
1159 4459 mt 1159 4495 L
1167 4477 mt 1203 4477 L
1185 4459 mt 1185 4495 L
1193 4477 mt 1229 4477 L
1211 4459 mt 1211 4495 L
1219 4477 mt 1255 4477 L
1237 4459 mt 1237 4495 L
1245 4477 mt 1281 4477 L
1263 4459 mt 1263 4495 L
1271 4477 mt 1307 4477 L
1289 4459 mt 1289 4495 L
1297 4477 mt 1333 4477 L
1315 4459 mt 1315 4495 L
1323 4477 mt 1359 4477 L
1341 4459 mt 1341 4495 L
1349 4477 mt 1385 4477 L
1367 4459 mt 1367 4495 L
1375 4477 mt 1411 4477 L
1393 4459 mt 1393 4495 L
1401 4477 mt 1437 4477 L
1419 4459 mt 1419 4495 L
1427 4477 mt 1463 4477 L
1445 4459 mt 1445 4495 L
1453 4477 mt 1489 4477 L
1471 4459 mt 1471 4495 L
1479 4477 mt 1515 4477 L
1497 4459 mt 1497 4495 L
1506 4477 mt 1542 4477 L
1524 4459 mt 1524 4495 L
1532 4477 mt 1568 4477 L
1550 4459 mt 1550 4495 L
1558 4477 mt 1594 4477 L
1576 4459 mt 1576 4495 L
1584 4477 mt 1620 4477 L
1602 4459 mt 1602 4495 L
1610 4477 mt 1646 4477 L
1628 4459 mt 1628 4495 L
1636 4477 mt 1672 4477 L
1654 4459 mt 1654 4495 L
1662 4477 mt 1698 4477 L
1680 4459 mt 1680 4495 L
1688 4477 mt 1724 4477 L
1706 4459 mt 1706 4495 L
1714 4477 mt 1750 4477 L
1732 4459 mt 1732 4495 L
1740 4477 mt 1776 4477 L
1758 4459 mt 1758 4495 L
1766 4477 mt 1802 4477 L
1784 4459 mt 1784 4495 L
1792 4477 mt 1828 4477 L
1810 4459 mt 1810 4495 L
1818 4477 mt 1854 4477 L
1836 4459 mt 1836 4495 L
1844 4477 mt 1880 4477 L
1862 4459 mt 1862 4495 L
1870 4477 mt 1906 4477 L
1888 4459 mt 1888 4495 L
1896 4477 mt 1932 4477 L
1914 4459 mt 1914 4495 L
1922 4477 mt 1958 4477 L
1940 4459 mt 1940 4495 L
1948 4478 mt 1984 4478 L
1966 4460 mt 1966 4496 L
1974 4477 mt 2010 4477 L
1992 4459 mt 1992 4495 L
2000 4478 mt 2036 4478 L
2018 4460 mt 2018 4496 L
2026 4478 mt 2062 4478 L
2044 4460 mt 2044 4496 L
2052 4478 mt 2088 4478 L
2070 4460 mt 2070 4496 L
2078 4478 mt 2114 4478 L
2096 4460 mt 2096 4496 L
2104 4478 mt 2140 4478 L
2122 4460 mt 2122 4496 L
2130 4478 mt 2166 4478 L
2148 4460 mt 2148 4496 L
2157 4478 mt 2193 4478 L
2175 4460 mt 2175 4496 L
2183 4478 mt 2219 4478 L
2201 4460 mt 2201 4496 L
2209 4478 mt 2245 4478 L
2227 4460 mt 2227 4496 L
2235 4478 mt 2271 4478 L
2253 4460 mt 2253 4496 L
2261 4478 mt 2297 4478 L
2279 4460 mt 2279 4496 L
2287 4478 mt 2323 4478 L
2305 4460 mt 2305 4496 L
2313 4478 mt 2349 4478 L
2331 4460 mt 2331 4496 L
2339 4478 mt 2375 4478 L
2357 4460 mt 2357 4496 L
2365 4478 mt 2401 4478 L
2383 4460 mt 2383 4496 L
2391 4478 mt 2427 4478 L
2409 4460 mt 2409 4496 L
2417 4478 mt 2453 4478 L
2435 4460 mt 2435 4496 L
2443 4478 mt 2479 4478 L
2461 4460 mt 2461 4496 L
2469 4478 mt 2505 4478 L
2487 4460 mt 2487 4496 L
2495 4478 mt 2531 4478 L
2513 4460 mt 2513 4496 L
2521 4478 mt 2557 4478 L
2539 4460 mt 2539 4496 L
2547 4478 mt 2583 4478 L
2565 4460 mt 2565 4496 L
2573 4478 mt 2609 4478 L
2591 4460 mt 2591 4496 L
2599 4478 mt 2635 4478 L
2617 4460 mt 2617 4496 L
2625 4478 mt 2661 4478 L
2643 4460 mt 2643 4496 L
2651 4478 mt 2687 4478 L
2669 4460 mt 2669 4496 L
2677 4478 mt 2713 4478 L
2695 4460 mt 2695 4496 L
2703 4478 mt 2739 4478 L
2721 4460 mt 2721 4496 L
2729 4478 mt 2765 4478 L
2747 4460 mt 2747 4496 L
2755 4478 mt 2791 4478 L
2773 4460 mt 2773 4496 L
2781 4478 mt 2817 4478 L
2799 4460 mt 2799 4496 L
2808 4478 mt 2844 4478 L
2826 4460 mt 2826 4496 L
2834 4478 mt 2870 4478 L
2852 4460 mt 2852 4496 L
2860 4478 mt 2896 4478 L
2878 4460 mt 2878 4496 L
2886 4478 mt 2922 4478 L
2904 4460 mt 2904 4496 L
2912 4478 mt 2948 4478 L
2930 4460 mt 2930 4496 L
2938 4478 mt 2974 4478 L
2956 4460 mt 2956 4496 L
2964 4478 mt 3000 4478 L
2982 4460 mt 2982 4496 L
2990 4478 mt 3026 4478 L
3008 4460 mt 3008 4496 L
3016 4478 mt 3052 4478 L
3034 4460 mt 3034 4496 L
3042 4478 mt 3078 4478 L
3060 4460 mt 3060 4496 L
3068 4478 mt 3104 4478 L
3086 4460 mt 3086 4496 L
3094 4478 mt 3130 4478 L
3112 4460 mt 3112 4496 L
3120 4478 mt 3156 4478 L
3138 4460 mt 3138 4496 L
3146 4478 mt 3182 4478 L
3164 4460 mt 3164 4496 L
3172 4478 mt 3208 4478 L
3190 4460 mt 3190 4496 L
3198 4478 mt 3234 4478 L
3216 4460 mt 3216 4496 L
3224 4478 mt 3260 4478 L
3242 4460 mt 3242 4496 L
3250 4478 mt 3286 4478 L
3268 4460 mt 3268 4496 L
3276 4478 mt 3312 4478 L
3294 4460 mt 3294 4496 L
3302 4478 mt 3338 4478 L
3320 4460 mt 3320 4496 L
3328 4478 mt 3364 4478 L
3346 4460 mt 3346 4496 L
3354 4478 mt 3390 4478 L
3372 4460 mt 3372 4496 L
3380 4478 mt 3416 4478 L
3398 4460 mt 3398 4496 L
3406 4478 mt 3442 4478 L
3424 4460 mt 3424 4496 L
3432 4478 mt 3468 4478 L
3450 4460 mt 3450 4496 L
3459 4478 mt 3495 4478 L
3477 4460 mt 3477 4496 L
3485 4478 mt 3521 4478 L
3503 4460 mt 3503 4496 L
3511 4478 mt 3547 4478 L
3529 4460 mt 3529 4496 L
3537 4478 mt 3573 4478 L
3555 4460 mt 3555 4496 L
3563 4478 mt 3599 4478 L
3581 4460 mt 3581 4496 L
3589 4478 mt 3625 4478 L
3607 4460 mt 3607 4496 L
3615 4478 mt 3651 4478 L
3633 4460 mt 3633 4496 L
3641 4478 mt 3677 4478 L
3659 4460 mt 3659 4496 L
3667 4478 mt 3703 4478 L
3685 4460 mt 3685 4496 L
3693 4478 mt 3729 4478 L
3711 4460 mt 3711 4496 L
3719 4478 mt 3755 4478 L
3737 4460 mt 3737 4496 L
3745 4478 mt 3781 4478 L
3763 4460 mt 3763 4496 L
3771 4478 mt 3807 4478 L
3789 4460 mt 3789 4496 L
3797 4478 mt 3833 4478 L
3815 4460 mt 3815 4496 L
3823 4478 mt 3859 4478 L
3841 4460 mt 3841 4496 L
3849 4478 mt 3885 4478 L
3867 4460 mt 3867 4496 L
3875 4478 mt 3911 4478 L
3893 4460 mt 3893 4496 L
3901 4478 mt 3937 4478 L
3919 4460 mt 3919 4496 L
3927 4478 mt 3963 4478 L
3945 4460 mt 3945 4496 L
3953 4478 mt 3989 4478 L
3971 4460 mt 3971 4496 L
3979 4478 mt 4015 4478 L
3997 4460 mt 3997 4496 L
4005 4478 mt 4041 4478 L
4023 4460 mt 4023 4496 L
4031 4478 mt 4067 4478 L
4049 4460 mt 4049 4496 L
4057 4478 mt 4093 4478 L
4075 4460 mt 4075 4496 L
4083 4478 mt 4119 4478 L
4101 4460 mt 4101 4496 L
4110 4478 mt 4146 4478 L
4128 4460 mt 4128 4496 L
4136 4478 mt 4172 4478 L
4154 4460 mt 4154 4496 L
4162 4478 mt 4198 4478 L
4180 4460 mt 4180 4496 L
4188 4478 mt 4224 4478 L
4206 4460 mt 4206 4496 L
4214 4478 mt 4250 4478 L
4232 4460 mt 4232 4496 L
4240 4478 mt 4276 4478 L
4258 4460 mt 4258 4496 L
4266 4478 mt 4302 4478 L
4284 4460 mt 4284 4496 L
4292 4478 mt 4328 4478 L
4310 4460 mt 4310 4496 L
4318 4478 mt 4354 4478 L
4336 4460 mt 4336 4496 L
4344 4478 mt 4380 4478 L
4362 4460 mt 4362 4496 L
4370 4478 mt 4406 4478 L
4388 4460 mt 4388 4496 L
4396 4478 mt 4432 4478 L
4414 4460 mt 4414 4496 L
4422 4478 mt 4458 4478 L
4440 4460 mt 4440 4496 L
4448 4478 mt 4484 4478 L
4466 4460 mt 4466 4496 L
4474 4478 mt 4510 4478 L
4492 4460 mt 4492 4496 L
4500 4478 mt 4536 4478 L
4518 4460 mt 4518 4496 L
4526 4478 mt 4562 4478 L
4544 4460 mt 4544 4496 L
4552 4478 mt 4588 4478 L
4570 4460 mt 4570 4496 L
4578 4478 mt 4614 4478 L
4596 4460 mt 4596 4496 L
4604 4478 mt 4640 4478 L
4622 4460 mt 4622 4496 L
4630 4478 mt 4666 4478 L
4648 4460 mt 4648 4496 L
4656 4478 mt 4692 4478 L
4674 4460 mt 4674 4496 L
4682 4478 mt 4718 4478 L
4700 4460 mt 4700 4496 L
4708 4478 mt 4744 4478 L
4726 4460 mt 4726 4496 L
4734 4478 mt 4770 4478 L
4752 4460 mt 4752 4496 L
4761 4478 mt 4797 4478 L
4779 4460 mt 4779 4496 L
4787 4478 mt 4823 4478 L
4805 4460 mt 4805 4496 L
4813 4478 mt 4849 4478 L
4831 4460 mt 4831 4496 L
4839 4478 mt 4875 4478 L
4857 4460 mt 4857 4496 L
4865 4478 mt 4901 4478 L
4883 4460 mt 4883 4496 L
4891 4478 mt 4927 4478 L
4909 4460 mt 4909 4496 L
4917 4478 mt 4953 4478 L
4935 4460 mt 4935 4496 L
4943 4478 mt 4979 4478 L
4961 4460 mt 4961 4496 L
4969 4477 mt 5005 4477 L
4987 4459 mt 4987 4495 L
4995 4477 mt 5031 4477 L
5013 4459 mt 5013 4495 L
5021 4477 mt 5057 4477 L
5039 4459 mt 5039 4495 L
5047 4477 mt 5083 4477 L
5065 4459 mt 5065 4495 L
5073 4477 mt 5109 4477 L
5091 4459 mt 5091 4495 L
5099 4477 mt 5135 4477 L
5117 4459 mt 5117 4495 L
5125 4477 mt 5161 4477 L
5143 4459 mt 5143 4495 L
5151 4477 mt 5187 4477 L
5169 4459 mt 5169 4495 L
5177 4477 mt 5213 4477 L
5195 4459 mt 5195 4495 L
5203 4477 mt 5239 4477 L
5221 4459 mt 5221 4495 L
5229 4477 mt 5265 4477 L
5247 4459 mt 5247 4495 L
5255 4477 mt 5291 4477 L
5273 4459 mt 5273 4495 L
5281 4477 mt 5317 4477 L
5299 4459 mt 5299 4495 L
5307 4477 mt 5343 4477 L
5325 4459 mt 5325 4495 L
5333 4477 mt 5369 4477 L
5351 4459 mt 5351 4495 L
5359 4477 mt 5395 4477 L
5377 4459 mt 5377 4495 L
5385 4477 mt 5421 4477 L
5403 4459 mt 5403 4495 L
5412 4477 mt 5448 4477 L
5430 4459 mt 5430 4495 L
5438 4477 mt 5474 4477 L
5456 4459 mt 5456 4495 L
5464 4477 mt 5500 4477 L
5482 4459 mt 5482 4495 L
5490 4477 mt 5526 4477 L
5508 4459 mt 5508 4495 L
5516 4477 mt 5552 4477 L
5534 4459 mt 5534 4495 L
5542 4477 mt 5578 4477 L
5560 4459 mt 5560 4495 L
5568 4477 mt 5604 4477 L
5586 4459 mt 5586 4495 L
5594 4477 mt 5630 4477 L
5612 4459 mt 5612 4495 L
5620 4477 mt 5656 4477 L
5638 4459 mt 5638 4495 L
5646 4477 mt 5682 4477 L
5664 4459 mt 5664 4495 L
5672 4477 mt 5708 4477 L
5690 4459 mt 5690 4495 L
5698 4477 mt 5734 4477 L
5716 4459 mt 5716 4495 L
5724 4477 mt 5760 4477 L
5742 4459 mt 5742 4495 L
5750 4477 mt 5786 4477 L
5768 4459 mt 5768 4495 L
5776 4477 mt 5812 4477 L
5794 4459 mt 5794 4495 L
5802 4477 mt 5838 4477 L
5820 4459 mt 5820 4495 L
5828 4477 mt 5864 4477 L
5846 4459 mt 5846 4495 L
5854 4477 mt 5890 4477 L
5872 4459 mt 5872 4495 L
5880 4477 mt 5916 4477 L
5898 4459 mt 5898 4495 L
5906 4477 mt 5942 4477 L
5924 4459 mt 5924 4495 L
5932 4477 mt 5968 4477 L
5950 4459 mt 5950 4495 L
5958 4477 mt 5994 4477 L
5976 4459 mt 5976 4495 L
5984 4477 mt 6020 4477 L
6002 4459 mt 6002 4495 L
6010 4477 mt 6046 4477 L
6028 4459 mt 6028 4495 L
6036 4477 mt 6072 4477 L
6054 4459 mt 6054 4495 L
6063 4477 mt 6099 4477 L
6081 4459 mt 6081 4495 L
 861 4465 mt  885 4489 L
 885 4465 mt  861 4489 L
 887 4465 mt  911 4489 L
 911 4465 mt  887 4489 L
 913 4465 mt  937 4489 L
 937 4465 mt  913 4489 L
 939 4465 mt  963 4489 L
 963 4465 mt  939 4489 L
 965 4465 mt  989 4489 L
 989 4465 mt  965 4489 L
 991 4465 mt 1015 4489 L
1015 4465 mt  991 4489 L
1017 4465 mt 1041 4489 L
1041 4465 mt 1017 4489 L
1043 4465 mt 1067 4489 L
1067 4465 mt 1043 4489 L
1069 4465 mt 1093 4489 L
1093 4465 mt 1069 4489 L
1095 4465 mt 1119 4489 L
1119 4465 mt 1095 4489 L
1121 4465 mt 1145 4489 L
1145 4465 mt 1121 4489 L
1147 4465 mt 1171 4489 L
1171 4465 mt 1147 4489 L
1173 4465 mt 1197 4489 L
1197 4465 mt 1173 4489 L
1199 4465 mt 1223 4489 L
1223 4465 mt 1199 4489 L
1225 4465 mt 1249 4489 L
1249 4465 mt 1225 4489 L
1251 4465 mt 1275 4489 L
1275 4465 mt 1251 4489 L
1277 4465 mt 1301 4489 L
1301 4465 mt 1277 4489 L
1303 4465 mt 1327 4489 L
1327 4465 mt 1303 4489 L
1329 4465 mt 1353 4489 L
1353 4465 mt 1329 4489 L
1355 4465 mt 1379 4489 L
1379 4465 mt 1355 4489 L
1381 4465 mt 1405 4489 L
1405 4465 mt 1381 4489 L
1407 4465 mt 1431 4489 L
1431 4465 mt 1407 4489 L
1433 4465 mt 1457 4489 L
1457 4465 mt 1433 4489 L
1459 4465 mt 1483 4489 L
1483 4465 mt 1459 4489 L
1485 4465 mt 1509 4489 L
1509 4465 mt 1485 4489 L
1512 4465 mt 1536 4489 L
1536 4465 mt 1512 4489 L
1538 4465 mt 1562 4489 L
1562 4465 mt 1538 4489 L
1564 4465 mt 1588 4489 L
1588 4465 mt 1564 4489 L
1590 4465 mt 1614 4489 L
1614 4465 mt 1590 4489 L
1616 4465 mt 1640 4489 L
1640 4465 mt 1616 4489 L
1642 4465 mt 1666 4489 L
1666 4465 mt 1642 4489 L
1668 4465 mt 1692 4489 L
1692 4465 mt 1668 4489 L
1694 4465 mt 1718 4489 L
1718 4465 mt 1694 4489 L
1720 4465 mt 1744 4489 L
1744 4465 mt 1720 4489 L
1746 4465 mt 1770 4489 L
1770 4465 mt 1746 4489 L
1772 4465 mt 1796 4489 L
1796 4465 mt 1772 4489 L
1798 4465 mt 1822 4489 L
1822 4465 mt 1798 4489 L
1824 4465 mt 1848 4489 L
1848 4465 mt 1824 4489 L
1850 4465 mt 1874 4489 L
1874 4465 mt 1850 4489 L
1876 4465 mt 1900 4489 L
1900 4465 mt 1876 4489 L
1902 4465 mt 1926 4489 L
1926 4465 mt 1902 4489 L
1928 4465 mt 1952 4489 L
1952 4465 mt 1928 4489 L
1954 4466 mt 1978 4490 L
1978 4466 mt 1954 4490 L
1980 4465 mt 2004 4489 L
2004 4465 mt 1980 4489 L
2006 4466 mt 2030 4490 L
2030 4466 mt 2006 4490 L
2032 4466 mt 2056 4490 L
2056 4466 mt 2032 4490 L
2058 4466 mt 2082 4490 L
2082 4466 mt 2058 4490 L
2084 4466 mt 2108 4490 L
2108 4466 mt 2084 4490 L
2110 4466 mt 2134 4490 L
2134 4466 mt 2110 4490 L
2136 4466 mt 2160 4490 L
2160 4466 mt 2136 4490 L
2163 4466 mt 2187 4490 L
2187 4466 mt 2163 4490 L
2189 4466 mt 2213 4490 L
2213 4466 mt 2189 4490 L
2215 4466 mt 2239 4490 L
2239 4466 mt 2215 4490 L
2241 4466 mt 2265 4490 L
2265 4466 mt 2241 4490 L
2267 4466 mt 2291 4490 L
2291 4466 mt 2267 4490 L
2293 4466 mt 2317 4490 L
2317 4466 mt 2293 4490 L
2319 4466 mt 2343 4490 L
2343 4466 mt 2319 4490 L
2345 4466 mt 2369 4490 L
2369 4466 mt 2345 4490 L
2371 4466 mt 2395 4490 L
2395 4466 mt 2371 4490 L
2397 4466 mt 2421 4490 L
2421 4466 mt 2397 4490 L
2423 4466 mt 2447 4490 L
2447 4466 mt 2423 4490 L
2449 4466 mt 2473 4490 L
2473 4466 mt 2449 4490 L
2475 4466 mt 2499 4490 L
2499 4466 mt 2475 4490 L
2501 4466 mt 2525 4490 L
2525 4466 mt 2501 4490 L
2527 4466 mt 2551 4490 L
2551 4466 mt 2527 4490 L
2553 4466 mt 2577 4490 L
2577 4466 mt 2553 4490 L
2579 4466 mt 2603 4490 L
2603 4466 mt 2579 4490 L
2605 4466 mt 2629 4490 L
2629 4466 mt 2605 4490 L
2631 4466 mt 2655 4490 L
2655 4466 mt 2631 4490 L
2657 4466 mt 2681 4490 L
2681 4466 mt 2657 4490 L
2683 4466 mt 2707 4490 L
2707 4466 mt 2683 4490 L
2709 4466 mt 2733 4490 L
2733 4466 mt 2709 4490 L
2735 4466 mt 2759 4490 L
2759 4466 mt 2735 4490 L
2761 4466 mt 2785 4490 L
2785 4466 mt 2761 4490 L
2787 4466 mt 2811 4490 L
2811 4466 mt 2787 4490 L
2814 4466 mt 2838 4490 L
2838 4466 mt 2814 4490 L
2840 4466 mt 2864 4490 L
2864 4466 mt 2840 4490 L
2866 4466 mt 2890 4490 L
2890 4466 mt 2866 4490 L
2892 4466 mt 2916 4490 L
2916 4466 mt 2892 4490 L
2918 4466 mt 2942 4490 L
2942 4466 mt 2918 4490 L
2944 4466 mt 2968 4490 L
2968 4466 mt 2944 4490 L
2970 4466 mt 2994 4490 L
2994 4466 mt 2970 4490 L
2996 4466 mt 3020 4490 L
3020 4466 mt 2996 4490 L
3022 4466 mt 3046 4490 L
3046 4466 mt 3022 4490 L
3048 4466 mt 3072 4490 L
3072 4466 mt 3048 4490 L
3074 4466 mt 3098 4490 L
3098 4466 mt 3074 4490 L
3100 4466 mt 3124 4490 L
3124 4466 mt 3100 4490 L
3126 4466 mt 3150 4490 L
3150 4466 mt 3126 4490 L
3152 4466 mt 3176 4490 L
3176 4466 mt 3152 4490 L
3178 4466 mt 3202 4490 L
3202 4466 mt 3178 4490 L
3204 4466 mt 3228 4490 L
3228 4466 mt 3204 4490 L
3230 4466 mt 3254 4490 L
3254 4466 mt 3230 4490 L
3256 4466 mt 3280 4490 L
3280 4466 mt 3256 4490 L
3282 4466 mt 3306 4490 L
3306 4466 mt 3282 4490 L
3308 4466 mt 3332 4490 L
3332 4466 mt 3308 4490 L
3334 4466 mt 3358 4490 L
3358 4466 mt 3334 4490 L
3360 4466 mt 3384 4490 L
3384 4466 mt 3360 4490 L
3386 4466 mt 3410 4490 L
3410 4466 mt 3386 4490 L
3412 4466 mt 3436 4490 L
3436 4466 mt 3412 4490 L
3438 4466 mt 3462 4490 L
3462 4466 mt 3438 4490 L
3465 4466 mt 3489 4490 L
3489 4466 mt 3465 4490 L
3491 4466 mt 3515 4490 L
3515 4466 mt 3491 4490 L
3517 4466 mt 3541 4490 L
3541 4466 mt 3517 4490 L
3543 4466 mt 3567 4490 L
3567 4466 mt 3543 4490 L
3569 4466 mt 3593 4490 L
3593 4466 mt 3569 4490 L
3595 4466 mt 3619 4490 L
3619 4466 mt 3595 4490 L
3621 4466 mt 3645 4490 L
3645 4466 mt 3621 4490 L
3647 4466 mt 3671 4490 L
3671 4466 mt 3647 4490 L
3673 4466 mt 3697 4490 L
3697 4466 mt 3673 4490 L
3699 4466 mt 3723 4490 L
3723 4466 mt 3699 4490 L
3725 4466 mt 3749 4490 L
3749 4466 mt 3725 4490 L
3751 4466 mt 3775 4490 L
3775 4466 mt 3751 4490 L
3777 4466 mt 3801 4490 L
3801 4466 mt 3777 4490 L
3803 4466 mt 3827 4490 L
3827 4466 mt 3803 4490 L
3829 4466 mt 3853 4490 L
3853 4466 mt 3829 4490 L
3855 4466 mt 3879 4490 L
3879 4466 mt 3855 4490 L
3881 4466 mt 3905 4490 L
3905 4466 mt 3881 4490 L
3907 4466 mt 3931 4490 L
3931 4466 mt 3907 4490 L
3933 4466 mt 3957 4490 L
3957 4466 mt 3933 4490 L
3959 4466 mt 3983 4490 L
3983 4466 mt 3959 4490 L
3985 4466 mt 4009 4490 L
4009 4466 mt 3985 4490 L
4011 4466 mt 4035 4490 L
4035 4466 mt 4011 4490 L
4037 4466 mt 4061 4490 L
4061 4466 mt 4037 4490 L
4063 4466 mt 4087 4490 L
4087 4466 mt 4063 4490 L
4089 4466 mt 4113 4490 L
4113 4466 mt 4089 4490 L
4116 4466 mt 4140 4490 L
4140 4466 mt 4116 4490 L
4142 4466 mt 4166 4490 L
4166 4466 mt 4142 4490 L
4168 4466 mt 4192 4490 L
4192 4466 mt 4168 4490 L
4194 4466 mt 4218 4490 L
4218 4466 mt 4194 4490 L
4220 4466 mt 4244 4490 L
4244 4466 mt 4220 4490 L
4246 4466 mt 4270 4490 L
4270 4466 mt 4246 4490 L
4272 4466 mt 4296 4490 L
4296 4466 mt 4272 4490 L
4298 4466 mt 4322 4490 L
4322 4466 mt 4298 4490 L
4324 4466 mt 4348 4490 L
4348 4466 mt 4324 4490 L
4350 4466 mt 4374 4490 L
4374 4466 mt 4350 4490 L
4376 4466 mt 4400 4490 L
4400 4466 mt 4376 4490 L
4402 4466 mt 4426 4490 L
4426 4466 mt 4402 4490 L
4428 4466 mt 4452 4490 L
4452 4466 mt 4428 4490 L
4454 4466 mt 4478 4490 L
4478 4466 mt 4454 4490 L
4480 4466 mt 4504 4490 L
4504 4466 mt 4480 4490 L
4506 4466 mt 4530 4490 L
4530 4466 mt 4506 4490 L
4532 4466 mt 4556 4490 L
4556 4466 mt 4532 4490 L
4558 4466 mt 4582 4490 L
4582 4466 mt 4558 4490 L
4584 4466 mt 4608 4490 L
4608 4466 mt 4584 4490 L
4610 4466 mt 4634 4490 L
4634 4466 mt 4610 4490 L
4636 4466 mt 4660 4490 L
4660 4466 mt 4636 4490 L
4662 4466 mt 4686 4490 L
4686 4466 mt 4662 4490 L
4688 4466 mt 4712 4490 L
4712 4466 mt 4688 4490 L
4714 4466 mt 4738 4490 L
4738 4466 mt 4714 4490 L
4740 4466 mt 4764 4490 L
4764 4466 mt 4740 4490 L
4767 4466 mt 4791 4490 L
4791 4466 mt 4767 4490 L
4793 4466 mt 4817 4490 L
4817 4466 mt 4793 4490 L
4819 4466 mt 4843 4490 L
4843 4466 mt 4819 4490 L
4845 4466 mt 4869 4490 L
4869 4466 mt 4845 4490 L
4871 4466 mt 4895 4490 L
4895 4466 mt 4871 4490 L
4897 4466 mt 4921 4490 L
4921 4466 mt 4897 4490 L
4923 4466 mt 4947 4490 L
4947 4466 mt 4923 4490 L
4949 4466 mt 4973 4490 L
4973 4466 mt 4949 4490 L
4975 4465 mt 4999 4489 L
4999 4465 mt 4975 4489 L
5001 4465 mt 5025 4489 L
5025 4465 mt 5001 4489 L
5027 4465 mt 5051 4489 L
5051 4465 mt 5027 4489 L
5053 4465 mt 5077 4489 L
5077 4465 mt 5053 4489 L
5079 4465 mt 5103 4489 L
5103 4465 mt 5079 4489 L
5105 4465 mt 5129 4489 L
5129 4465 mt 5105 4489 L
5131 4465 mt 5155 4489 L
5155 4465 mt 5131 4489 L
5157 4465 mt 5181 4489 L
5181 4465 mt 5157 4489 L
5183 4465 mt 5207 4489 L
5207 4465 mt 5183 4489 L
5209 4465 mt 5233 4489 L
5233 4465 mt 5209 4489 L
5235 4465 mt 5259 4489 L
5259 4465 mt 5235 4489 L
5261 4465 mt 5285 4489 L
5285 4465 mt 5261 4489 L
5287 4465 mt 5311 4489 L
5311 4465 mt 5287 4489 L
5313 4465 mt 5337 4489 L
5337 4465 mt 5313 4489 L
5339 4465 mt 5363 4489 L
5363 4465 mt 5339 4489 L
5365 4465 mt 5389 4489 L
5389 4465 mt 5365 4489 L
5391 4465 mt 5415 4489 L
5415 4465 mt 5391 4489 L
5418 4465 mt 5442 4489 L
5442 4465 mt 5418 4489 L
5444 4465 mt 5468 4489 L
5468 4465 mt 5444 4489 L
5470 4465 mt 5494 4489 L
5494 4465 mt 5470 4489 L
5496 4465 mt 5520 4489 L
5520 4465 mt 5496 4489 L
5522 4465 mt 5546 4489 L
5546 4465 mt 5522 4489 L
5548 4465 mt 5572 4489 L
5572 4465 mt 5548 4489 L
5574 4465 mt 5598 4489 L
5598 4465 mt 5574 4489 L
5600 4465 mt 5624 4489 L
5624 4465 mt 5600 4489 L
5626 4465 mt 5650 4489 L
5650 4465 mt 5626 4489 L
5652 4465 mt 5676 4489 L
5676 4465 mt 5652 4489 L
5678 4465 mt 5702 4489 L
5702 4465 mt 5678 4489 L
5704 4465 mt 5728 4489 L
5728 4465 mt 5704 4489 L
5730 4465 mt 5754 4489 L
5754 4465 mt 5730 4489 L
5756 4465 mt 5780 4489 L
5780 4465 mt 5756 4489 L
5782 4465 mt 5806 4489 L
5806 4465 mt 5782 4489 L
5808 4465 mt 5832 4489 L
5832 4465 mt 5808 4489 L
5834 4465 mt 5858 4489 L
5858 4465 mt 5834 4489 L
5860 4465 mt 5884 4489 L
5884 4465 mt 5860 4489 L
5886 4465 mt 5910 4489 L
5910 4465 mt 5886 4489 L
5912 4465 mt 5936 4489 L
5936 4465 mt 5912 4489 L
5938 4465 mt 5962 4489 L
5962 4465 mt 5938 4489 L
5964 4465 mt 5988 4489 L
5988 4465 mt 5964 4489 L
5990 4465 mt 6014 4489 L
6014 4465 mt 5990 4489 L
6016 4465 mt 6040 4489 L
6040 4465 mt 6016 4489 L
6042 4465 mt 6066 4489 L
6066 4465 mt 6042 4489 L
6069 4465 mt 6093 4489 L
6093 4465 mt 6069 4489 L
gs 873 377 5209 4103 rc
/c9 { 0.000000 1.000000 0.000000 sr} bdef
c9
27 -25 26 32 26 -43 26 -22 26 -40 26 -11 26 7 26 -58 
26 -14 26 -20 26 -47 26 89 26 -98 26 15 26 -36 26 -8 
26 -43 26 -34 26 -36 26 29 26 -6 26 -91 26 34 26 18 
26 -40 27 -77 26 35 26 -23 26 -13 26 -38 26 -10 26 4 
26 -53 26 18 26 -12 26 -80 26 3 26 -9 26 -41 26 -19 
26 13 26 -12 26 3 26 -63 26 -25 26 -30 26 -7 26 -9 
26 -37 26 -12 27 -15 26 -27 26 3 26 -9 26 -51 26 -1 
26 -6 26 -11 26 -34 26 -3 26 -47 26 -8 26 -22 26 -18 
26 -14 26 -25 26 8 26 -30 26 -28 26 -17 26 -30 26 -10 
26 -19 26 -20 26 -1 27 -9 26 -16 26 -28 26 -12 26 -27 
26 -21 26 -26 26 -17 26 -14 26 -17 26 -18 26 -15 26 -19 
26 -18 26 -24 26 -11 26 -18 26 -18 26 -19 26 -18 26 -16 
26 -18 26 -19 26 -16 26 -18 27 17 26 18 26 16 26 21 
26 18 26 16 26 16 26 22 26 13 26 21 26 19 26 15 
26 17 26 14 26 25 26 14 26 12 26 25 26 9 26 35 
26 2 26 25 26 23 26 15 26 -5 27 25 26 31 26 19 
26 7 26 34 26 -4 26 29 26 23 26 2 26 38 26 -3 
26 14 26 40 26 -1 26 39 26 -3 26 13 26 20 26 38 
26 5 26 45 26 -8 26 15 26 -1 26 38 27 10 26 40 
26 -24 26 62 26 -2 26 11 26 36 26 40 26 -7 26 -33 
26 60 26 4 26 36 26 27 26 3 26 24 26 0 26 43 
26 10 26 22 26 -13 26 3 26 17 26 -7 26 64 27 -5 
26 21 26 -12 26 90 26 21 26 6 26 -23 26 70 26 -28 
26 4 26 19 26 14 26 34 26 -35 26 98 26 -3 26 61 
26 -25 26 9 26 49 26 8 26 -67 26 88 26 -26 26 54 
873 2752 201 MP stroke
gr

c9
  18   18  873 2752 FO
  18   18  899 2806 FO
  18   18  925 2780 FO
  18   18  951 2868 FO
  18   18  977 2801 FO
  18   18 1003 2809 FO
  18   18 1029 2858 FO
  18   18 1055 2867 FO
  18   18 1081 2842 FO
  18   18 1107 2903 FO
  18   18 1133 2900 FO
  18   18 1159 2998 FO
  18   18 1185 2963 FO
  18   18 1211 2997 FO
  18   18 1237 3011 FO
  18   18 1263 3030 FO
  18   18 1289 3034 FO
  18   18 1315 3006 FO
  18   18 1341 3076 FO
  18   18 1367 3053 FO
  18   18 1393 3059 FO
  18   18 1419 3080 FO
  18   18 1445 3170 FO
  18   18 1471 3158 FO
  18   18 1497 3179 FO
  18   18 1524 3174 FO
  18   18 1550 3238 FO
  18   18 1576 3231 FO
  18   18 1602 3248 FO
  18   18 1628 3251 FO
  18   18 1654 3238 FO
  18   18 1680 3260 FO
  18   18 1706 3270 FO
  18   18 1732 3313 FO
  18   18 1758 3313 FO
  18   18 1784 3337 FO
  18   18 1810 3340 FO
  18   18 1836 3367 FO
  18   18 1862 3403 FO
  18   18 1888 3407 FO
  18   18 1914 3467 FO
  18   18 1940 3434 FO
  18   18 1966 3427 FO
  18   18 1992 3467 FO
  18   18 2018 3503 FO
  18   18 2044 3514 FO
  18   18 2070 3512 FO
  18   18 2096 3574 FO
  18   18 2122 3550 FO
  18   18 2148 3590 FO
  18   18 2175 3600 FO
  18   18 2201 3638 FO
  18   18 2227 3637 FO
  18   18 2253 3652 FO
  18   18 2279 3644 FO
  18   18 2305 3689 FO
  18   18 2331 3694 FO
  18   18 2357 3732 FO
  18   18 2383 3752 FO
  18   18 2409 3765 FO
  18   18 2435 3762 FO
  18   18 2461 3801 FO
  18   18 2487 3800 FO
  18   18 2513 3840 FO
  18   18 2539 3854 FO
  18   18 2565 3851 FO
  18   18 2591 3889 FO
  18   18 2617 3891 FO
  18   18 2643 3914 FO
  18   18 2669 3943 FO
  18   18 2695 3939 FO
  18   18 2721 3973 FO
  18   18 2747 3980 FO
  18   18 2773 3999 FO
  18   18 2799 4030 FO
  18   18 2826 4055 FO
  18   18 2852 4050 FO
  18   18 2878 4065 FO
  18   18 2904 4088 FO
  18   18 2930 4113 FO
  18   18 2956 4115 FO
  18   18 2982 4150 FO
  18   18 3008 4159 FO
  18   18 3034 4184 FO
  18   18 3060 4196 FO
  18   18 3086 4210 FO
  18   18 3112 4235 FO
  18   18 3138 4249 FO
  18   18 3164 4266 FO
  18   18 3190 4281 FO
  18   18 3216 4300 FO
  18   18 3242 4321 FO
  18   18 3268 4334 FO
  18   18 3294 4356 FO
  18   18 3320 4372 FO
  18   18 3346 4388 FO
  18   18 3372 4406 FO
  18   18 3398 4427 FO
  18   18 3424 4443 FO
  18   18 3450 4461 FO
  18   18 3477 4478 FO
  18   18 3503 4460 FO
  18   18 3529 4444 FO
  18   18 3555 4425 FO
  18   18 3581 4407 FO
  18   18 3607 4391 FO
  18   18 3633 4373 FO
  18   18 3659 4354 FO
  18   18 3685 4336 FO
  18   18 3711 4318 FO
  18   18 3737 4307 FO
  18   18 3763 4283 FO
  18   18 3789 4265 FO
  18   18 3815 4246 FO
  18   18 3841 4231 FO
  18   18 3867 4213 FO
  18   18 3893 4196 FO
  18   18 3919 4182 FO
  18   18 3945 4165 FO
  18   18 3971 4139 FO
  18   18 3997 4118 FO
  18   18 4023 4091 FO
  18   18 4049 4079 FO
  18   18 4075 4051 FO
  18   18 4101 4035 FO
  18   18 4128 4026 FO
  18   18 4154 4025 FO
  18   18 4180 4005 FO
  18   18 4206 3986 FO
  18   18 4232 3976 FO
  18   18 4258 3946 FO
  18   18 4284 3929 FO
  18   18 4310 3901 FO
  18   18 4336 3871 FO
  18   18 4362 3879 FO
  18   18 4388 3854 FO
  18   18 4414 3840 FO
  18   18 4440 3822 FO
  18   18 4466 3800 FO
  18   18 4492 3792 FO
  18   18 4518 3745 FO
  18   18 4544 3742 FO
  18   18 4570 3708 FO
  18   18 4596 3697 FO
  18   18 4622 3691 FO
  18   18 4648 3690 FO
  18   18 4674 3639 FO
  18   18 4700 3630 FO
  18   18 4726 3633 FO
  18   18 4752 3606 FO
  18   18 4779 3591 FO
  18   18 4805 3579 FO
  18   18 4831 3542 FO
  18   18 4857 3533 FO
  18   18 4883 3526 FO
  18   18 4909 3496 FO
  18   18 4935 3471 FO
  18   18 4961 3408 FO
  18   18 4987 3411 FO
  18   18 5013 3399 FO
  18   18 5039 3412 FO
  18   18 5065 3393 FO
  18   18 5091 3352 FO
  18   18 5117 3343 FO
  18   18 5143 3346 FO
  18   18 5169 3266 FO
  18   18 5195 3254 FO
  18   18 5221 3272 FO
  18   18 5247 3219 FO
  18   18 5273 3223 FO
  18   18 5299 3213 FO
  18   18 5325 3175 FO
  18   18 5351 3162 FO
  18   18 5377 3139 FO
  18   18 5403 3174 FO
  18   18 5430 3097 FO
  18   18 5456 3057 FO
  18   18 5482 3075 FO
  18   18 5508 3109 FO
  18   18 5534 3018 FO
  18   18 5560 3012 FO
  18   18 5586 3041 FO
  18   18 5612 3005 FO
  18   18 5638 2971 FO
  18   18 5664 2928 FO
  18   18 5690 2920 FO
  18   18 5716 2884 FO
  18   18 5742 2899 FO
  18   18 5768 2801 FO
  18   18 5794 2890 FO
  18   18 5820 2843 FO
  18   18 5846 2823 FO
  18   18 5872 2809 FO
  18   18 5898 2751 FO
  18   18 5924 2758 FO
  18   18 5950 2747 FO
  18   18 5976 2707 FO
  18   18 6002 2685 FO
  18   18 6028 2642 FO
  18   18 6054 2674 FO
  18   18 6081 2649 FO
gs 873 377 5209 4103 rc
/c10 { 1.000000 0.000000 0.000000 sr} bdef
c10
27 110 26 -128 26 57 26 -67 26 -9 26 0 26 -35 26 -12 
26 -32 26 8 26 -30 26 -12 26 -29 26 -6 26 -36 26 -18 
26 -33 26 -21 26 -43 26 6 26 -50 26 19 26 -49 26 -61 
26 5 27 -51 26 39 26 -16 26 -6 26 -8 26 -89 26 51 
26 -43 26 -44 26 37 26 -20 26 -62 26 8 26 -53 26 -21 
26 -19 26 -27 26 10 26 -78 26 22 26 -19 26 -16 26 -50 
26 -4 26 -2 27 -42 26 -45 26 3 26 17 26 -23 26 -37 
26 -32 26 -16 26 -2 26 -53 26 8 26 -49 26 -7 26 -18 
26 -32 26 -19 26 -10 26 -23 26 -21 26 -36 26 -11 26 -3 
26 -33 26 -14 26 -16 27 -35 26 -30 26 -34 26 5 26 -20 
26 -15 26 -19 26 -24 26 -36 26 -14 26 -27 26 -21 26 -14 
26 -15 26 -28 26 -22 26 -19 26 -24 26 -19 26 -19 26 -24 
26 -18 26 -23 26 -20 26 -21 27 21 26 21 26 19 26 22 
26 23 26 24 26 21 26 17 26 26 26 15 26 22 26 22 
26 19 26 18 26 38 26 17 26 14 26 28 26 10 26 45 
26 8 26 7 26 47 26 8 26 8 27 24 26 44 26 2 
26 25 26 18 26 35 26 16 26 20 26 6 26 30 26 30 
26 33 26 17 26 -8 26 0 26 53 26 61 26 -12 26 26 
26 2 26 9 26 73 26 3 26 30 26 21 27 20 26 16 
26 84 26 -40 26 62 26 -19 26 15 26 9 26 66 26 -12 
26 30 26 11 26 49 26 48 26 -27 26 -37 26 121 26 -16 
26 -11 26 80 26 -6 26 20 26 73 26 30 26 -53 27 6 
26 114 26 -21 26 19 26 4 26 62 26 0 26 19 26 -7 
26 18 26 103 26 5 26 -72 26 58 26 -36 26 111 26 32 
26 43 26 52 26 28 26 -37 26 63 26 -54 26 76 26 46 
873 2255 201 MP stroke
gr

c10
0 j
18 23 -18 23 -18 -23 18 -23 873 2278 5 MP
DP
18 23 -18 23 -18 -23 18 -23 899 2324 5 MP
DP
18 23 -18 23 -18 -23 18 -23 925 2400 5 MP
DP
18 23 -18 23 -18 -23 18 -23 951 2346 5 MP
DP
18 23 -18 23 -18 -23 18 -23 977 2409 5 MP
DP
18 23 -18 23 -18 -23 18 -23 1003 2372 5 MP
DP
18 23 -18 23 -18 -23 18 -23 1029 2400 5 MP
DP
18 23 -18 23 -18 -23 18 -23 1055 2452 5 MP
DP
18 23 -18 23 -18 -23 18 -23 1081 2495 5 MP
DP
18 23 -18 23 -18 -23 18 -23 1107 2527 5 MP
DP
18 23 -18 23 -18 -23 18 -23 1133 2638 5 MP
DP
18 23 -18 23 -18 -23 18 -23 1159 2602 5 MP
DP
18 23 -18 23 -18 -23 18 -23 1185 2660 5 MP
DP
18 23 -18 23 -18 -23 18 -23 1211 2588 5 MP
DP
18 23 -18 23 -18 -23 18 -23 1237 2593 5 MP
DP
18 23 -18 23 -18 -23 18 -23 1263 2696 5 MP
DP
18 23 -18 23 -18 -23 18 -23 1289 2714 5 MP
DP
18 23 -18 23 -18 -23 18 -23 1315 2707 5 MP
DP
18 23 -18 23 -18 -23 18 -23 1341 2726 5 MP
DP
18 23 -18 23 -18 -23 18 -23 1367 2726 5 MP
DP
18 23 -18 23 -18 -23 18 -23 1393 2788 5 MP
DP
18 23 -18 23 -18 -23 18 -23 1419 2792 5 MP
DP
18 23 -18 23 -18 -23 18 -23 1445 2811 5 MP
DP
18 23 -18 23 -18 -23 18 -23 1471 2790 5 MP
DP
18 23 -18 23 -18 -23 18 -23 1497 2904 5 MP
DP
18 23 -18 23 -18 -23 18 -23 1524 2910 5 MP
DP
18 23 -18 23 -18 -23 18 -23 1550 2857 5 MP
DP
18 23 -18 23 -18 -23 18 -23 1576 2887 5 MP
DP
18 23 -18 23 -18 -23 18 -23 1602 2960 5 MP
DP
18 23 -18 23 -18 -23 18 -23 1628 2980 5 MP
DP
18 23 -18 23 -18 -23 18 -23 1654 2974 5 MP
DP
18 23 -18 23 -18 -23 18 -23 1680 3054 5 MP
DP
18 23 -18 23 -18 -23 18 -23 1706 3043 5 MP
DP
18 23 -18 23 -18 -23 18 -23 1732 3027 5 MP
DP
18 23 -18 23 -18 -23 18 -23 1758 3148 5 MP
DP
18 23 -18 23 -18 -23 18 -23 1784 3111 5 MP
DP
18 23 -18 23 -18 -23 18 -23 1810 3084 5 MP
DP
18 23 -18 23 -18 -23 18 -23 1836 3132 5 MP
DP
18 23 -18 23 -18 -23 18 -23 1862 3181 5 MP
DP
18 23 -18 23 -18 -23 18 -23 1888 3192 5 MP
DP
18 23 -18 23 -18 -23 18 -23 1914 3222 5 MP
DP
18 23 -18 23 -18 -23 18 -23 1940 3210 5 MP
DP
18 23 -18 23 -18 -23 18 -23 1966 3276 5 MP
DP
18 23 -18 23 -18 -23 18 -23 1992 3285 5 MP
DP
18 23 -18 23 -18 -23 18 -23 2018 3300 5 MP
DP
18 23 -18 23 -18 -23 18 -23 2044 3281 5 MP
DP
18 23 -18 23 -18 -23 18 -23 2070 3343 5 MP
DP
18 23 -18 23 -18 -23 18 -23 2096 3303 5 MP
DP
18 23 -18 23 -18 -23 18 -23 2122 3387 5 MP
DP
18 23 -18 23 -18 -23 18 -23 2148 3403 5 MP
DP
18 23 -18 23 -18 -23 18 -23 2175 3423 5 MP
DP
18 23 -18 23 -18 -23 18 -23 2201 3444 5 MP
DP
18 23 -18 23 -18 -23 18 -23 2227 3474 5 MP
DP
18 23 -18 23 -18 -23 18 -23 2253 3477 5 MP
DP
18 23 -18 23 -18 -23 18 -23 2279 3550 5 MP
DP
18 23 -18 23 -18 -23 18 -23 2305 3559 5 MP
DP
18 23 -18 23 -18 -23 18 -23 2331 3561 5 MP
DP
18 23 -18 23 -18 -23 18 -23 2357 3587 5 MP
DP
18 23 -18 23 -18 -23 18 -23 2383 3575 5 MP
DP
18 23 -18 23 -18 -23 18 -23 2409 3636 5 MP
DP
18 23 -18 23 -18 -23 18 -23 2435 3689 5 MP
DP
18 23 -18 23 -18 -23 18 -23 2461 3689 5 MP
DP
18 23 -18 23 -18 -23 18 -23 2487 3681 5 MP
DP
18 23 -18 23 -18 -23 18 -23 2513 3698 5 MP
DP
18 23 -18 23 -18 -23 18 -23 2539 3731 5 MP
DP
18 23 -18 23 -18 -23 18 -23 2565 3761 5 MP
DP
18 23 -18 23 -18 -23 18 -23 2591 3791 5 MP
DP
18 23 -18 23 -18 -23 18 -23 2617 3797 5 MP
DP
18 23 -18 23 -18 -23 18 -23 2643 3817 5 MP
DP
18 23 -18 23 -18 -23 18 -23 2669 3833 5 MP
DP
18 23 -18 23 -18 -23 18 -23 2695 3868 5 MP
DP
18 23 -18 23 -18 -23 18 -23 2721 3886 5 MP
DP
18 23 -18 23 -18 -23 18 -23 2747 3911 5 MP
DP
18 23 -18 23 -18 -23 18 -23 2773 3913 5 MP
DP
18 23 -18 23 -18 -23 18 -23 2799 3957 5 MP
DP
18 23 -18 23 -18 -23 18 -23 2826 3981 5 MP
DP
18 23 -18 23 -18 -23 18 -23 2852 3989 5 MP
DP
18 23 -18 23 -18 -23 18 -23 2878 3997 5 MP
DP
18 23 -18 23 -18 -23 18 -23 2904 4044 5 MP
DP
18 23 -18 23 -18 -23 18 -23 2930 4051 5 MP
DP
18 23 -18 23 -18 -23 18 -23 2956 4059 5 MP
DP
18 23 -18 23 -18 -23 18 -23 2982 4104 5 MP
DP
18 23 -18 23 -18 -23 18 -23 3008 4114 5 MP
DP
18 23 -18 23 -18 -23 18 -23 3034 4142 5 MP
DP
18 23 -18 23 -18 -23 18 -23 3060 4156 5 MP
DP
18 23 -18 23 -18 -23 18 -23 3086 4173 5 MP
DP
18 23 -18 23 -18 -23 18 -23 3112 4211 5 MP
DP
18 23 -18 23 -18 -23 18 -23 3138 4229 5 MP
DP
18 23 -18 23 -18 -23 18 -23 3164 4248 5 MP
DP
18 23 -18 23 -18 -23 18 -23 3190 4270 5 MP
DP
18 23 -18 23 -18 -23 18 -23 3216 4292 5 MP
DP
18 23 -18 23 -18 -23 18 -23 3242 4307 5 MP
DP
18 23 -18 23 -18 -23 18 -23 3268 4333 5 MP
DP
18 23 -18 23 -18 -23 18 -23 3294 4350 5 MP
DP
18 23 -18 23 -18 -23 18 -23 3320 4371 5 MP
DP
18 23 -18 23 -18 -23 18 -23 3346 4395 5 MP
DP
18 23 -18 23 -18 -23 18 -23 3372 4418 5 MP
DP
18 23 -18 23 -18 -23 18 -23 3398 4440 5 MP
DP
18 23 -18 23 -18 -23 18 -23 3424 4459 5 MP
DP
18 23 -18 23 -18 -23 18 -23 3450 4480 5 MP
DP
18 23 -18 23 -18 -23 18 -23 3477 4501 5 MP
DP
18 23 -18 23 -18 -23 18 -23 3503 4480 5 MP
DP
18 23 -18 23 -18 -23 18 -23 3529 4460 5 MP
DP
18 23 -18 23 -18 -23 18 -23 3555 4437 5 MP
DP
18 23 -18 23 -18 -23 18 -23 3581 4419 5 MP
DP
18 23 -18 23 -18 -23 18 -23 3607 4395 5 MP
DP
18 23 -18 23 -18 -23 18 -23 3633 4376 5 MP
DP
18 23 -18 23 -18 -23 18 -23 3659 4357 5 MP
DP
18 23 -18 23 -18 -23 18 -23 3685 4333 5 MP
DP
18 23 -18 23 -18 -23 18 -23 3711 4314 5 MP
DP
18 23 -18 23 -18 -23 18 -23 3737 4292 5 MP
DP
18 23 -18 23 -18 -23 18 -23 3763 4264 5 MP
DP
18 23 -18 23 -18 -23 18 -23 3789 4249 5 MP
DP
18 23 -18 23 -18 -23 18 -23 3815 4235 5 MP
DP
18 23 -18 23 -18 -23 18 -23 3841 4214 5 MP
DP
18 23 -18 23 -18 -23 18 -23 3867 4187 5 MP
DP
18 23 -18 23 -18 -23 18 -23 3893 4173 5 MP
DP
18 23 -18 23 -18 -23 18 -23 3919 4137 5 MP
DP
18 23 -18 23 -18 -23 18 -23 3945 4113 5 MP
DP
18 23 -18 23 -18 -23 18 -23 3971 4094 5 MP
DP
18 23 -18 23 -18 -23 18 -23 3997 4079 5 MP
DP
18 23 -18 23 -18 -23 18 -23 4023 4059 5 MP
DP
18 23 -18 23 -18 -23 18 -23 4049 4064 5 MP
DP
18 23 -18 23 -18 -23 18 -23 4075 4030 5 MP
DP
18 23 -18 23 -18 -23 18 -23 4101 4000 5 MP
DP
18 23 -18 23 -18 -23 18 -23 4128 3965 5 MP
DP
18 23 -18 23 -18 -23 18 -23 4154 3949 5 MP
DP
18 23 -18 23 -18 -23 18 -23 4180 3935 5 MP
DP
18 23 -18 23 -18 -23 18 -23 4206 3902 5 MP
DP
18 23 -18 23 -18 -23 18 -23 4232 3899 5 MP
DP
18 23 -18 23 -18 -23 18 -23 4258 3888 5 MP
DP
18 23 -18 23 -18 -23 18 -23 4284 3852 5 MP
DP
18 23 -18 23 -18 -23 18 -23 4310 3831 5 MP
DP
18 23 -18 23 -18 -23 18 -23 4336 3808 5 MP
DP
18 23 -18 23 -18 -23 18 -23 4362 3798 5 MP
DP
18 23 -18 23 -18 -23 18 -23 4388 3779 5 MP
DP
18 23 -18 23 -18 -23 18 -23 4414 3747 5 MP
DP
18 23 -18 23 -18 -23 18 -23 4440 3729 5 MP
DP
18 23 -18 23 -18 -23 18 -23 4466 3722 5 MP
DP
18 23 -18 23 -18 -23 18 -23 4492 3673 5 MP
DP
18 23 -18 23 -18 -23 18 -23 4518 3681 5 MP
DP
18 23 -18 23 -18 -23 18 -23 4544 3628 5 MP
DP
18 23 -18 23 -18 -23 18 -23 4570 3626 5 MP
DP
18 23 -18 23 -18 -23 18 -23 4596 3610 5 MP
DP
18 23 -18 23 -18 -23 18 -23 4622 3578 5 MP
DP
18 23 -18 23 -18 -23 18 -23 4648 3541 5 MP
DP
18 23 -18 23 -18 -23 18 -23 4674 3518 5 MP
DP
18 23 -18 23 -18 -23 18 -23 4700 3535 5 MP
DP
18 23 -18 23 -18 -23 18 -23 4726 3538 5 MP
DP
18 23 -18 23 -18 -23 18 -23 4752 3493 5 MP
DP
18 23 -18 23 -18 -23 18 -23 4779 3451 5 MP
DP
18 23 -18 23 -18 -23 18 -23 4805 3449 5 MP
DP
18 23 -18 23 -18 -23 18 -23 4831 3445 5 MP
DP
18 23 -18 23 -18 -23 18 -23 4857 3395 5 MP
DP
18 23 -18 23 -18 -23 18 -23 4883 3379 5 MP
DP
18 23 -18 23 -18 -23 18 -23 4909 3360 5 MP
DP
18 23 -18 23 -18 -23 18 -23 4935 3382 5 MP
DP
18 23 -18 23 -18 -23 18 -23 4961 3304 5 MP
DP
18 23 -18 23 -18 -23 18 -23 4987 3314 5 MP
DP
18 23 -18 23 -18 -23 18 -23 5013 3287 5 MP
DP
18 23 -18 23 -18 -23 18 -23 5039 3268 5 MP
DP
18 23 -18 23 -18 -23 18 -23 5065 3247 5 MP
DP
18 23 -18 23 -18 -23 18 -23 5091 3194 5 MP
DP
18 23 -18 23 -18 -23 18 -23 5117 3202 5 MP
DP
18 23 -18 23 -18 -23 18 -23 5143 3140 5 MP
DP
18 23 -18 23 -18 -23 18 -23 5169 3120 5 MP
DP
18 23 -18 23 -18 -23 18 -23 5195 3157 5 MP
DP
18 23 -18 23 -18 -23 18 -23 5221 3113 5 MP
DP
18 23 -18 23 -18 -23 18 -23 5247 3070 5 MP
DP
18 23 -18 23 -18 -23 18 -23 5273 3121 5 MP
DP
18 23 -18 23 -18 -23 18 -23 5299 3032 5 MP
DP
18 23 -18 23 -18 -23 18 -23 5325 3024 5 MP
DP
18 23 -18 23 -18 -23 18 -23 5351 3018 5 MP
DP
18 23 -18 23 -18 -23 18 -23 5377 3002 5 MP
DP
18 23 -18 23 -18 -23 18 -23 5403 3041 5 MP
DP
18 23 -18 23 -18 -23 18 -23 5430 2990 5 MP
DP
18 23 -18 23 -18 -23 18 -23 5456 2995 5 MP
DP
18 23 -18 23 -18 -23 18 -23 5482 2934 5 MP
DP
18 23 -18 23 -18 -23 18 -23 5508 2885 5 MP
DP
18 23 -18 23 -18 -23 18 -23 5534 2904 5 MP
DP
18 23 -18 23 -18 -23 18 -23 5560 2854 5 MP
DP
18 23 -18 23 -18 -23 18 -23 5586 2860 5 MP
DP
18 23 -18 23 -18 -23 18 -23 5612 2817 5 MP
DP
18 23 -18 23 -18 -23 18 -23 5638 2796 5 MP
DP
18 23 -18 23 -18 -23 18 -23 5664 2763 5 MP
DP
18 23 -18 23 -18 -23 18 -23 5690 2745 5 MP
DP
18 23 -18 23 -18 -23 18 -23 5716 2709 5 MP
DP
18 23 -18 23 -18 -23 18 -23 5742 2703 5 MP
DP
18 23 -18 23 -18 -23 18 -23 5768 2674 5 MP
DP
18 23 -18 23 -18 -23 18 -23 5794 2662 5 MP
DP
18 23 -18 23 -18 -23 18 -23 5820 2632 5 MP
DP
18 23 -18 23 -18 -23 18 -23 5846 2640 5 MP
DP
18 23 -18 23 -18 -23 18 -23 5872 2608 5 MP
DP
18 23 -18 23 -18 -23 18 -23 5898 2596 5 MP
DP
18 23 -18 23 -18 -23 18 -23 5924 2561 5 MP
DP
18 23 -18 23 -18 -23 18 -23 5950 2561 5 MP
DP
18 23 -18 23 -18 -23 18 -23 5976 2552 5 MP
DP
18 23 -18 23 -18 -23 18 -23 6002 2485 5 MP
DP
18 23 -18 23 -18 -23 18 -23 6028 2542 5 MP
DP
18 23 -18 23 -18 -23 18 -23 6054 2414 5 MP
DP
18 23 -18 23 -18 -23 18 -23 6081 2524 5 MP
DP
gs 873 377 5209 4103 rc
gr

0 sg
%%IncludeResource: font Helvetica-Bold
/Helvetica-Bold /ISOLatin1Encoding 144 FMSR

2106 4785 mt 
(Camera position mis-alignment \(in mm\)) s
 585 3672 mt  -90 rotate
(Error in depth measurement \(in mm\)) s
90 rotate
%%IncludeResource: font Helvetica
/Helvetica /ISOLatin1Encoding 120 FMSR

 856 4522 mt 
( ) s
6065  419 mt 
( ) s
6 w
1 sg
0 818 852 0 0 -818 3069 1266 4 MP
PP
-852 0 0 818 852 0 0 -818 3069 1266 5 MP stroke
4 w
DO
SO
6 w
0 sg
3069 1266 mt 3921 1266 L
3069  448 mt 3921  448 L
3069 1266 mt 3069  448 L
3921 1266 mt 3921  448 L
3069 1266 mt 3921 1266 L
3069 1266 mt 3069  448 L
3069 1266 mt 3921 1266 L
3069  448 mt 3921  448 L
3069 1266 mt 3069  448 L
3921 1266 mt 3921  448 L
3538  647 mt 
(x axis) s
gs 3069 448 853 819 rc
12 w
c8
360 0 3141 604 2 MP stroke
gr

12 w
c8
3303  604 mt 3339  604 L
3321  586 mt 3321  622 L
3309  592 mt 3333  616 L
3333  592 mt 3309  616 L
gs 3069 448 853 819 rc
gr

0 sg
3538  900 mt 
(y axis) s
gs 3069 448 853 819 rc
c9
360 0 3141 857 2 MP stroke
gr

c9
  18   18 3321  857 FO
gs 3069 448 853 819 rc
gr

0 sg
3538 1152 mt 
(z axis) s
gs 3069 448 853 819 rc
c10
360 0 3141 1109 2 MP stroke
gr

c10
18 23 -18 23 -18 -23 18 -23 3321 1132 5 MP
DP
gs 3069 448 853 819 rc
6 w
gr

6 w

end %%Color Dict

eplot
%%EndObject

epage
end

showpage

%%Trailer
%%EOF
