%!PS-Adobe-3.0 EPSF-3.0
%%Creator: MATLAB, The MathWorks, Inc. Version 8.2.0.701 (R2013b). Operating System: Darwin 11.4.2 Darwin Kernel Version 11.4.2: Thu Aug 23 16:25:48 PDT 2012; root:xnu-1699.32.7~1/RELEASE_X86_64 x86_64.
%%Title: /Users/deepakd/git/matlab-projects/singleCalib_IH/data/cam1/results/cam1p1/linmodel.eps
%%CreationDate: 01/18/2014  20:46:31
%%DocumentNeededFonts: Helvetica
%%+ Helvetica-Bold
%%DocumentProcessColors: Cyan Magenta Yellow Black
%%LanguageLevel: 2
%%Pages: 1
%%BoundingBox:    26   186   585   606
%%EndComments

%%BeginProlog
% MathWorks dictionary
/MathWorks 160 dict begin
% definition operators
/bdef {bind def} bind def
/ldef {load def} bind def
/xdef {exch def} bdef
/xstore {exch store} bdef
% operator abbreviations
/c  /clip ldef
/cc /concat ldef
/cp /closepath ldef
/gr /grestore ldef
/gs /gsave ldef
/mt /moveto ldef
/np /newpath ldef
/cm /currentmatrix ldef
/sm /setmatrix ldef
/rm /rmoveto ldef
/rl /rlineto ldef
/s {show newpath} bdef
/sc {setcmykcolor} bdef
/sr /setrgbcolor ldef
/sg /setgray ldef
/w /setlinewidth ldef
/j /setlinejoin ldef
/cap /setlinecap ldef
/rc {rectclip} bdef
/rf {rectfill} bdef
% page state control
/pgsv () def
/bpage {/pgsv save def} bdef
/epage {pgsv restore} bdef
/bplot /gsave ldef
/eplot {stroke grestore} bdef
% orientation switch
/portraitMode 0 def /landscapeMode 1 def /rotateMode 2 def
% coordinate system mappings
/dpi2point 0 def
% font control
/FontSize 0 def
/FMS {/FontSize xstore findfont [FontSize 0 0 FontSize neg 0 0]
  makefont setfont} bdef
/reencode {exch dup where {pop load} {pop StandardEncoding} ifelse
  exch dup 3 1 roll findfont dup length dict begin
  { 1 index /FID ne {def}{pop pop} ifelse } forall
  /Encoding exch def currentdict end definefont pop} bdef
/isroman {findfont /CharStrings get /Agrave known} bdef
/FMSR {3 1 roll 1 index dup isroman {reencode} {pop pop} ifelse
  exch FMS} bdef
/csm {1 dpi2point div -1 dpi2point div scale neg translate
 dup landscapeMode eq {pop -90 rotate}
  {rotateMode eq {90 rotate} if} ifelse} bdef
% line types: solid, dotted, dashed, dotdash
/SO { [] 0 setdash } bdef
/DO { [.5 dpi2point mul 4 dpi2point mul] 0 setdash } bdef
/DA { [6 dpi2point mul] 0 setdash } bdef
/DD { [.5 dpi2point mul 4 dpi2point mul 6 dpi2point mul 4
  dpi2point mul] 0 setdash } bdef
% macros for lines and objects
/L {lineto stroke} bdef
/MP {3 1 roll moveto 1 sub {rlineto} repeat} bdef
/AP {{rlineto} repeat} bdef
/PDlw -1 def
/W {/PDlw currentlinewidth def setlinewidth} def
/PP {closepath eofill} bdef
/DP {closepath stroke} bdef
/MR {4 -2 roll moveto dup  0 exch rlineto exch 0 rlineto
  neg 0 exch rlineto closepath} bdef
/FR {MR stroke} bdef
/PR {MR fill} bdef
/L1i {{currentfile picstr readhexstring pop} image} bdef
/tMatrix matrix def
/MakeOval {newpath tMatrix currentmatrix pop translate scale
0 0 1 0 360 arc tMatrix setmatrix} bdef
/FO {MakeOval stroke} bdef
/PO {MakeOval fill} bdef
/PD {currentlinewidth 2 div 0 360 arc fill
   PDlw -1 eq not {PDlw w /PDlw -1 def} if} def
/FA {newpath tMatrix currentmatrix pop translate scale
  0 0 1 5 -2 roll arc tMatrix setmatrix stroke} bdef
/PA {newpath tMatrix currentmatrix pop	translate 0 0 moveto scale
  0 0 1 5 -2 roll arc closepath tMatrix setmatrix fill} bdef
/FAn {newpath tMatrix currentmatrix pop translate scale
  0 0 1 5 -2 roll arcn tMatrix setmatrix stroke} bdef
/PAn {newpath tMatrix currentmatrix pop translate 0 0 moveto scale
  0 0 1 5 -2 roll arcn closepath tMatrix setmatrix fill} bdef
/vradius 0 def /hradius 0 def /lry 0 def
/lrx 0 def /uly 0 def /ulx 0 def /rad 0 def
/MRR {/vradius xdef /hradius xdef /lry xdef /lrx xdef /uly xdef
  /ulx xdef newpath tMatrix currentmatrix pop ulx hradius add uly
  vradius add translate hradius vradius scale 0 0 1 180 270 arc 
  tMatrix setmatrix lrx hradius sub uly vradius add translate
  hradius vradius scale 0 0 1 270 360 arc tMatrix setmatrix
  lrx hradius sub lry vradius sub translate hradius vradius scale
  0 0 1 0 90 arc tMatrix setmatrix ulx hradius add lry vradius sub
  translate hradius vradius scale 0 0 1 90 180 arc tMatrix setmatrix
  closepath} bdef
/FRR {MRR stroke } bdef
/PRR {MRR fill } bdef
/MlrRR {/lry xdef /lrx xdef /uly xdef /ulx xdef /rad lry uly sub 2 div def
  newpath tMatrix currentmatrix pop ulx rad add uly rad add translate
  rad rad scale 0 0 1 90 270 arc tMatrix setmatrix lrx rad sub lry rad
  sub translate rad rad scale 0 0 1 270 90 arc tMatrix setmatrix
  closepath} bdef
/FlrRR {MlrRR stroke } bdef
/PlrRR {MlrRR fill } bdef
/MtbRR {/lry xdef /lrx xdef /uly xdef /ulx xdef /rad lrx ulx sub 2 div def
  newpath tMatrix currentmatrix pop ulx rad add uly rad add translate
  rad rad scale 0 0 1 180 360 arc tMatrix setmatrix lrx rad sub lry rad
  sub translate rad rad scale 0 0 1 0 180 arc tMatrix setmatrix
  closepath} bdef
/FtbRR {MtbRR stroke } bdef
/PtbRR {MtbRR fill } bdef
/stri 6 array def /dtri 6 array def
/smat 6 array def /dmat 6 array def
/tmat1 6 array def /tmat2 6 array def /dif 3 array def
/asub {/ind2 exch def /ind1 exch def dup dup
  ind1 get exch ind2 get sub exch } bdef
/tri_to_matrix {
  2 0 asub 3 1 asub 4 0 asub 5 1 asub
  dup 0 get exch 1 get 7 -1 roll astore } bdef
/compute_transform {
  dmat dtri tri_to_matrix tmat1 invertmatrix 
  smat stri tri_to_matrix tmat2 concatmatrix } bdef
/ds {stri astore pop} bdef
/dt {dtri astore pop} bdef
/db {2 copy /cols xdef /rows xdef mul dup 3 mul string
  currentfile 
  3 index 0 eq {/ASCIIHexDecode filter}
  {/ASCII85Decode filter 3 index 2 eq {/RunLengthDecode filter} if }
  ifelse exch readstring pop
  dup 0 3 index getinterval /rbmap xdef
  dup 2 index dup getinterval /gbmap xdef
  1 index dup 2 mul exch getinterval /bbmap xdef pop pop}bdef
/it {gs np dtri aload pop moveto lineto lineto cp c
  cols rows 8 compute_transform 
  rbmap gbmap bbmap true 3 colorimage gr}bdef
/il {newpath moveto lineto stroke}bdef
currentdict end def
%%EndProlog

%%BeginSetup
MathWorks begin

0 cap

end
%%EndSetup

%%Page: 1 1
%%BeginPageSetup
%%PageBoundingBox:    26   186   585   606
MathWorks begin
bpage
%%EndPageSetup

%%BeginObject: obj1
bplot

/dpi2point 12 def
portraitMode 0312 7272 csm

    0     0  6719  5033 rc
85 dict begin %Colortable dictionary
/c0 { 0.000000 0.000000 0.000000 sr} bdef
/c1 { 1.000000 1.000000 1.000000 sr} bdef
/c2 { 0.900000 0.000000 0.000000 sr} bdef
/c3 { 0.000000 0.820000 0.000000 sr} bdef
/c4 { 0.000000 0.000000 0.800000 sr} bdef
/c5 { 0.910000 0.820000 0.320000 sr} bdef
/c6 { 1.000000 0.260000 0.820000 sr} bdef
/c7 { 0.000000 0.820000 0.820000 sr} bdef
c0
1 j
1 sg
   0    0 6720 5034 rf
6 w
0 1719 5208 0 0 -1719 873 2095 4 MP
PP
-5208 0 0 1719 5208 0 0 -1719 873 2095 5 MP stroke
4 w
DO
0 sg
 873 2095 mt  873  376 L
 873  376 mt  873  376 L
1393 2095 mt 1393  376 L
1393  376 mt 1393  376 L
1914 2095 mt 1914  376 L
1914  376 mt 1914  376 L
2435 2095 mt 2435  376 L
2435  376 mt 2435  376 L
2956 2095 mt 2956  376 L
2956  376 mt 2956  376 L
3477 2095 mt 3477  376 L
3477  376 mt 3477  376 L
3997 2095 mt 3997  376 L
3997  376 mt 3997  376 L
4518 2095 mt 4518  376 L
4518  376 mt 4518  376 L
5039 2095 mt 5039  376 L
5039  376 mt 5039  376 L
5560 2095 mt 5560  376 L
5560  376 mt 5560  376 L
6081 2095 mt 6081  376 L
6081  376 mt 6081  376 L
 873 2095 mt 6081 2095 L
6081 2095 mt 6081 2095 L
 873 1522 mt 6081 1522 L
6081 1522 mt 6081 1522 L
 873  949 mt 6081  949 L
6081  949 mt 6081  949 L
 873  377 mt 6081  377 L
6081  377 mt 6081  377 L
SO
6 w
 873 2095 mt 6081 2095 L
 873  376 mt 6081  376 L
 873 2095 mt  873  376 L
6081 2095 mt 6081  376 L
 873 2095 mt 6081 2095 L
 873 2095 mt  873  376 L
 873 2095 mt  873 2042 L
 873  376 mt  873  429 L
%%IncludeResource: font Helvetica
/Helvetica /ISOLatin1Encoding 120 FMSR

 703 2240 mt 
(-100) s
1393 2095 mt 1393 2042 L
1393  376 mt 1393  429 L
1257 2240 mt 
(-90) s
1914 2095 mt 1914 2042 L
1914  376 mt 1914  429 L
1778 2240 mt 
(-80) s
2435 2095 mt 2435 2042 L
2435  376 mt 2435  429 L
2299 2240 mt 
(-70) s
2956 2095 mt 2956 2042 L
2956  376 mt 2956  429 L
2820 2240 mt 
(-60) s
3477 2095 mt 3477 2042 L
3477  376 mt 3477  429 L
3341 2240 mt 
(-50) s
3997 2095 mt 3997 2042 L
3997  376 mt 3997  429 L
3861 2240 mt 
(-40) s
4518 2095 mt 4518 2042 L
4518  376 mt 4518  429 L
4382 2240 mt 
(-30) s
5039 2095 mt 5039 2042 L
5039  376 mt 5039  429 L
4903 2240 mt 
(-20) s
5560 2095 mt 5560 2042 L
5560  376 mt 5560  429 L
5424 2240 mt 
(-10) s
6081 2095 mt 6081 2042 L
6081  376 mt 6081  429 L
6048 2240 mt 
(0) s
 873 2095 mt  925 2095 L
6081 2095 mt 6028 2095 L
 602 2139 mt 
(-0.5) s
 873 1522 mt  925 1522 L
6081 1522 mt 6028 1522 L
 772 1566 mt 
(0) s
 873  949 mt  925  949 L
6081  949 mt 6028  949 L
 672  993 mt 
(0.5) s
 873  377 mt  925  377 L
6081  377 mt 6028  377 L
 772  421 mt 
(1) s
 873 2095 mt 6081 2095 L
 873  376 mt 6081  376 L
 873 2095 mt  873  376 L
6081 2095 mt 6081  376 L
gs 873 377 5209 1719 rc
12 w
gr

12 w
64 W
/c8 { 0.000000 0.000000 1.000000 sr} bdef
c8
873 499 PD
64 W
925 484 PD
64 W
977 528 PD
64 W
1029 495 PD
64 W
1081 524 PD
64 W
1133 558 PD
64 W
1185 565 PD
64 W
1237 570 PD
64 W
1289 594 PD
64 W
1341 596 PD
64 W
1393 593 PD
64 W
1445 613 PD
64 W
1497 623 PD
64 W
1550 653 PD
64 W
1602 630 PD
64 W
1654 675 PD
64 W
1706 659 PD
64 W
1758 665 PD
64 W
1810 697 PD
64 W
1862 719 PD
64 W
1914 702 PD
64 W
1966 737 PD
64 W
2018 730 PD
64 W
2070 741 PD
64 W
2122 739 PD
64 W
2175 743 PD
64 W
2227 788 PD
64 W
2279 804 PD
64 W
2331 786 PD
64 W
2383 820 PD
64 W
2435 803 PD
64 W
2487 826 PD
64 W
2539 816 PD
64 W
2591 839 PD
64 W
2643 876 PD
64 W
2695 864 PD
64 W
2747 865 PD
64 W
2799 873 PD
64 W
2852 909 PD
64 W
2904 896 PD
64 W
2956 912 PD
64 W
3008 930 PD
64 W
3060 928 PD
64 W
3112 945 PD
64 W
3164 951 PD
64 W
3216 953 PD
64 W
3268 981 PD
64 W
3320 977 PD
64 W
3372 997 PD
64 W
3424 1001 PD
64 W
3477 1016 PD
64 W
3529 1013 PD
64 W
3581 1023 PD
64 W
3633 1044 PD
64 W
3685 1063 PD
64 W
3737 1067 PD
64 W
3789 1074 PD
64 W
3841 1086 PD
64 W
3893 1104 PD
64 W
3945 1123 PD
64 W
3997 1119 PD
64 W
4049 1128 PD
64 W
4101 1137 PD
64 W
4154 1149 PD
64 W
4206 1164 PD
64 W
4258 1181 PD
64 W
4310 1184 PD
64 W
4362 1195 PD
64 W
4414 1203 PD
64 W
4466 1211 PD
64 W
4518 1224 PD
64 W
4570 1234 PD
64 W
4622 1249 PD
64 W
4674 1257 PD
64 W
4726 1260 PD
64 W
4779 1278 PD
64 W
4831 1280 PD
64 W
4883 1296 PD
64 W
4935 1301 PD
64 W
4987 1320 PD
64 W
5039 1320 PD
64 W
5091 1325 PD
64 W
5143 1343 PD
64 W
5195 1354 PD
64 W
5247 1365 PD
64 W
5299 1370 PD
64 W
5351 1380 PD
64 W
5403 1392 PD
64 W
5456 1401 PD
64 W
5508 1411 PD
64 W
5560 1421 PD
64 W
5612 1434 PD
64 W
5664 1443 PD
64 W
5716 1450 PD
64 W
5768 1462 PD
64 W
5820 1472 PD
64 W
5872 1483 PD
64 W
5924 1492 PD
64 W
5976 1502 PD
64 W
6028 1512 PD
64 W
6081 1522 PD
gs 873 377 5209 1719 rc
/c9 { 1.000000 0.000000 0.000000 sr} bdef
c9
6 1 5 1 5 1 5 1 6 1 5 1 5 1 5 1 
5 1 6 1 5 1 5 1 5 1 5 1 6 1 5 1 
5 1 5 1 5 1 6 1 5 1 5 1 5 1 5 1 
6 1 5 1 5 1 5 1 6 1 5 1 5 1 5 1 
5 1 6 1 5 1 5 1 5 1 5 1 6 1 5 1 
5 1 5 2 5 1 6 1 5 1 5 1 5 1 5 1 
6 1 5 1 5 1 5 1 6 1 5 1 5 1 5 1 
5 1 6 1 5 1 5 1 5 1 5 1 6 1 5 1 
5 1 5 1 5 1 6 1 5 1 5 1 5 1 5 1 
6 1 5 1 5 1 5 1 6 1 5 1 5 1 5 1 
5 1 6 1 5 1 5 1 5 2 5 1 6 1 5 1 
5 1 5 1 5 1 6 1 5 1 5 1 5 1 5 1 
6 1 5 1 5 1 5 1 6 1 5 1 5 1 5 1 
5 1 6 1 5 1 5 1 5 1 5 1 6 1 5 1 
5 1 5 1 5 1 6 1 5 1 5 1 5 1 5 1 
6 1 5 1 5 1 5 1 5 1 6 1 5 2 5 1 
5 1 6 1 5 1 5 1 5 1 5 1 6 1 5 1 
5 1 5 1 5 1 6 1 5 1 5 1 5 1 5 1 
6 1 5 1 5 1 5 1 5 1 6 1 5 1 5 1 
5 1 6 1 5 1 5 1 5 1 5 1 6 1 5 1 
5 1 5 1 5 1 6 1 5 1 5 1 5 1 5 1 
6 1 5 2 5 1 5 1 5 1 6 1 5 1 5 1 
5 1 6 1 5 1 5 1 5 1 5 1 6 1 5 1 
5 1 5 1 5 1 6 1 5 1 5 1 5 1 5 1 
6 1 5 1 5 1 5 1 5 1 6 1 5 1 5 1 
5 1 6 1 5 1 5 1 5 1 5 1 6 1 5 1 
5 1 5 1 5 1 6 1 5 2 5 1 5 1 5 1 
6 1 5 1 5 1 5 1 5 1 6 1 5 1 5 1 
5 1 6 1 5 1 5 1 5 1 5 1 6 1 5 1 
5 1 5 1 5 1 6 1 5 1 5 1 5 1 5 1 
6 1 5 1 5 1 5 1 5 1 6 1 5 1 5 1 
5 1 5 1 6 1 5 1 5 1 5 1 6 1 5 2 
5 1 5 1 5 1 6 1 5 1 5 1 5 1 5 1 
6 1 5 1 5 1 5 1 5 1 6 1 5 1 5 1 
5 1 5 1 6 1 5 1 5 1 5 1 6 1 5 1 
5 1 5 1 5 1 6 1 5 1 5 1 5 1 5 1 
6 1 5 1 5 1 5 1 5 1 6 1 5 1 5 1 
5 1 5 2 6 1 4523 1220 300 MP stroke
5 1 5 1 5 1 6 1 5 1 5 1 5 1 5 1 
6 1 5 1 5 1 5 1 5 1 6 1 5 1 5 1 
5 1 5 1 6 1 5 1 5 1 5 1 5 1 6 1 
5 1 5 1 5 1 6 1 5 1 5 1 5 1 5 1 
6 1 5 1 5 1 5 1 5 1 6 1 5 1 5 1 
5 1 5 2 6 1 5 1 5 1 5 1 5 1 6 1 
5 1 5 1 5 1 6 1 5 1 5 1 5 1 5 1 
6 1 5 1 5 1 5 1 5 1 6 1 5 1 5 1 
5 1 5 1 6 1 5 1 5 1 5 1 5 1 6 1 
5 1 5 1 5 1 5 1 6 1 5 1 5 1 5 1 
6 1 5 1 5 1 5 1 5 2 6 1 5 1 5 1 
5 1 5 1 6 1 5 1 5 1 5 1 5 1 6 1 
5 1 5 1 5 1 5 1 6 1 5 1 5 1 5 1 
6 1 5 1 5 1 5 1 5 1 6 1 5 1 5 1 
5 1 5 1 6 1 5 1 5 1 5 1 5 1 6 1 
5 1 5 1 5 1 5 1 6 1 5 1 5 1 5 2 
6 1 5 1 5 1 5 1 5 1 6 1 5 1 5 1 
5 1 5 1 6 1 5 1 5 1 5 1 5 1 6 1 
5 1 5 1 5 1 5 1 6 1 5 1 5 1 5 1 
6 1 5 1 5 1 5 1 5 1 6 1 5 1 5 1 
5 1 5 1 6 1 5 1 5 1 5 1 5 1 6 1 
5 1 5 2 5 1 5 1 6 1 5 1 5 1 5 1 
6 1 5 1 5 1 5 1 5 1 6 1 5 1 5 1 
5 1 5 1 6 1 5 1 5 1 5 1 5 1 6 1 
5 1 5 1 5 1 5 1 6 1 5 1 5 1 5 1 
5 1 6 1 5 1 5 1 5 1 6 1 5 1 5 1 
5 1 5 1 6 1 5 1 5 2 5 1 5 1 6 1 
5 1 5 1 5 1 5 1 6 1 5 1 5 1 5 1 
5 1 6 1 5 1 5 1 5 1 6 1 5 1 5 1 
5 1 5 1 6 1 5 1 5 1 5 1 5 1 6 1 
5 1 5 1 5 1 5 1 6 1 5 1 5 1 5 1 
5 1 6 1 5 1 5 1 5 1 6 1 5 1 5 2 
5 1 5 1 6 1 5 1 5 1 5 1 5 1 6 1 
5 1 5 1 5 1 5 1 6 1 5 1 5 1 5 1 
5 1 6 1 5 1 5 1 5 1 6 1 5 1 5 1 
5 1 5 1 6 1 5 1 5 1 5 1 5 1 6 1 
5 1 5 1 5 1 5 1 6 1 5 1 5 1 5 1 
5 1 6 1 5 2 2966 914 300 MP stroke
5 1 5 1 6 1 5 1 5 1 5 1 5 1 6 1 
5 1 5 1 5 1 5 1 6 1 5 1 5 1 5 1 
5 1 6 1 5 1 5 1 5 1 5 1 6 1 5 1 
5 1 5 1 5 1 6 1 5 1 5 1 5 1 6 1 
5 1 5 1 5 1 5 1 6 1 5 1 5 1 5 1 
5 1 6 2 5 1 5 1 5 1 5 1 6 1 5 1 
5 1 5 1 5 1 6 1 5 1 5 1 5 1 6 1 
5 1 5 1 5 1 5 1 6 1 5 1 5 1 5 1 
5 1 6 1 5 1 5 1 5 1 5 1 6 1 5 1 
5 1 5 1 5 1 6 1 5 1 5 1 5 1 6 1 
5 1 5 1 5 1 5 1 6 2 5 1 5 1 5 1 
5 1 6 1 5 1 5 1 5 1 5 1 6 1 5 1 
5 1 5 1 5 1 6 1 5 1 5 1 5 1 6 1 
5 1 5 1 5 1 5 1 6 1 5 1 5 1 5 1 
5 1 6 1 5 1 5 1 5 1 5 1 6 1 5 1 
5 1 5 1 5 1 6 1 5 1 5 1 5 1 6 2 
5 1 5 1 5 1 5 1 6 1 5 1 5 1 5 1 
5 1 6 1 5 1 5 1 5 1 5 1 6 1 5 1 
5 1 5 1 5 1 6 1 5 1 5 1 5 1 5 1 
6 1 5 1 5 1 5 1 6 1 5 1 5 1 5 1 
5 1 6 1 5 1 5 1 5 1 5 1 6 1 5 1 
5 1 5 1 5 2 6 1 5 1 5 1 5 1 5 1 
6 1 5 1 5 1 5 1 6 1 5 1 5 1 5 1 
5 1 6 1 5 1 5 1 5 1 5 1 6 1 5 1 
5 1 5 1 5 1 6 1 5 1 5 1 5 1 5 1 
6 1 5 1 5 1 5 1 6 1 5 1 5 1 5 1 
5 1 6 1 5 1 5 1 5 2 5 1 6 1 5 1 
5 1 5 1 5 1 6 1 5 1 5 1 5 1 5 1 
6 1 5 1 5 1 5 1 6 1 5 1 5 1 5 1 
5 1 6 1 5 1 5 1 5 1 5 1 6 1 5 1 
5 1 5 1 5 1 6 1 5 1 5 1 5 1 5 1 
6 1 5 1 5 1 5 1 6 1 5 1 5 1 5 2 
5 1 6 1 5 1 5 1 5 1 5 1 6 1 5 1 
5 1 5 1 5 1 6 1 5 1 5 1 5 1 5 1 
6 1 5 1 5 1 5 1 5 1 6 1 5 1 5 1 
5 1 6 1 5 1 5 1 5 1 5 1 6 1 5 1 
5 1 5 1 5 1 6 1 5 1 5 1 5 1 5 1 
6 1 5 1 5 2 1409 608 300 MP stroke
5 1 5 1 6 1 5 1 5 1 5 1 6 1 5 1 
5 1 5 1 5 1 6 1 5 1 5 1 5 1 5 1 
6 1 5 1 5 1 5 1 5 1 6 1 5 1 5 1 
5 1 5 1 6 1 5 1 5 1 5 1 6 1 5 1 
5 1 5 1 5 1 6 1 5 1 5 1 5 1 5 1 
6 1 5 1 5 2 5 1 5 1 6 1 5 1 5 1 
5 1 5 1 6 1 5 1 5 1 5 1 6 1 5 1 
5 1 5 1 5 1 6 1 5 1 5 1 5 1 5 1 
6 1 5 1 5 1 5 1 5 1 6 1 5 1 5 1 
5 1 5 1 6 1 5 1 5 1 5 1 6 1 5 1 
5 1 5 1 5 1 6 1 5 2 5 1 5 1 5 1 
6 1 5 1 5 1 5 1 5 1 6 1 5 1 5 1 
5 1 5 1 6 1 5 1 5 1 5 1 5 1 873 503 104 MP stroke
gr

c9
0 sg
%%IncludeResource: font Helvetica-Bold
/Helvetica-Bold /ISOLatin1Encoding 144 FMSR

2544 2401 mt 
(Camera translation \(in mm\)) s
 515 1904 mt  -90 rotate
(Width error \(in mm\)) s
90 rotate
%%IncludeResource: font Helvetica
/Helvetica /ISOLatin1Encoding 120 FMSR

 856 2138 mt 
( ) s
6065  419 mt 
( ) s
6 w
1 sg
0 334 1199 0 0 -334 4822 771 4 MP
PP
-1199 0 0 334 1199 0 0 -334 4822 771 5 MP stroke
4 w
DO
SO
6 w
0 sg
4822  771 mt 6021  771 L
4822  437 mt 6021  437 L
4822  771 mt 4822  437 L
6021  771 mt 6021  437 L
4822  771 mt 6021  771 L
4822  771 mt 4822  437 L
4822  771 mt 6021  771 L
4822  437 mt 6021  437 L
4822  771 mt 4822  437 L
6021  771 mt 6021  437 L
5268  572 mt 
(Error data) s
gs 4822 437 1200 335 rc
12 w
gr

12 w
gs 4869 336 387 387 rc
64 W
c8
5062 529 PD
gr

c8
gs 4822 437 1200 335 rc
gr

0 sg
5268  721 mt 
(Linear model) s
gs 4822 437 1200 335 rc
c9
343 0 4890 678 2 MP stroke
6 w
gr

6 w
c9
1 sg
0 1717 5208 0 0 -1717 873 4479 4 MP
PP
-5208 0 0 1717 5208 0 0 -1717 873 4479 5 MP stroke
4 w
DO
0 sg
 873 4479 mt  873 2762 L
 873 2762 mt  873 2762 L
1393 4479 mt 1393 2762 L
1393 2762 mt 1393 2762 L
1914 4479 mt 1914 2762 L
1914 2762 mt 1914 2762 L
2435 4479 mt 2435 2762 L
2435 2762 mt 2435 2762 L
2956 4479 mt 2956 2762 L
2956 2762 mt 2956 2762 L
3477 4479 mt 3477 2762 L
3477 2762 mt 3477 2762 L
3997 4479 mt 3997 2762 L
3997 2762 mt 3997 2762 L
4518 4479 mt 4518 2762 L
4518 2762 mt 4518 2762 L
5039 4479 mt 5039 2762 L
5039 2762 mt 5039 2762 L
5560 4479 mt 5560 2762 L
5560 2762 mt 5560 2762 L
6081 4479 mt 6081 2762 L
6081 2762 mt 6081 2762 L
 873 4479 mt 6081 4479 L
6081 4479 mt 6081 4479 L
 873 4049 mt 6081 4049 L
6081 4049 mt 6081 4049 L
 873 3620 mt 6081 3620 L
6081 3620 mt 6081 3620 L
 873 3191 mt 6081 3191 L
6081 3191 mt 6081 3191 L
 873 2762 mt 6081 2762 L
6081 2762 mt 6081 2762 L
SO
6 w
 873 4479 mt 6081 4479 L
 873 2762 mt 6081 2762 L
 873 4479 mt  873 2762 L
6081 4479 mt 6081 2762 L
 873 4479 mt 6081 4479 L
 873 4479 mt  873 2762 L
 873 4479 mt  873 4426 L
 873 2762 mt  873 2814 L
 703 4624 mt 
(-100) s
1393 4479 mt 1393 4426 L
1393 2762 mt 1393 2814 L
1257 4624 mt 
(-90) s
1914 4479 mt 1914 4426 L
1914 2762 mt 1914 2814 L
1778 4624 mt 
(-80) s
2435 4479 mt 2435 4426 L
2435 2762 mt 2435 2814 L
2299 4624 mt 
(-70) s
2956 4479 mt 2956 4426 L
2956 2762 mt 2956 2814 L
2820 4624 mt 
(-60) s
3477 4479 mt 3477 4426 L
3477 2762 mt 3477 2814 L
3341 4624 mt 
(-50) s
3997 4479 mt 3997 4426 L
3997 2762 mt 3997 2814 L
3861 4624 mt 
(-40) s
4518 4479 mt 4518 4426 L
4518 2762 mt 4518 2814 L
4382 4624 mt 
(-30) s
5039 4479 mt 5039 4426 L
5039 2762 mt 5039 2814 L
4903 4624 mt 
(-20) s
5560 4479 mt 5560 4426 L
5560 2762 mt 5560 2814 L
5424 4624 mt 
(-10) s
6081 4479 mt 6081 4426 L
6081 2762 mt 6081 2814 L
6048 4624 mt 
(0) s
 873 4479 mt  925 4479 L
6081 4479 mt 6028 4479 L
 535 4523 mt 
(-0.04) s
 873 4049 mt  925 4049 L
6081 4049 mt 6028 4049 L
 535 4093 mt 
(-0.02) s
 873 3620 mt  925 3620 L
6081 3620 mt 6028 3620 L
 772 3664 mt 
(0) s
 873 3191 mt  925 3191 L
6081 3191 mt 6028 3191 L
 605 3235 mt 
(0.02) s
 873 2762 mt  925 2762 L
6081 2762 mt 6028 2762 L
 605 2806 mt 
(0.04) s
 873 4479 mt 6081 4479 L
 873 2762 mt 6081 2762 L
 873 4479 mt  873 2762 L
6081 4479 mt 6081 2762 L
gs 873 2762 5209 1718 rc
12 w
gr

12 w
64 W
c8
873 3546 PD
64 W
925 3068 PD
64 W
977 3696 PD
64 W
1029 2888 PD
64 W
1081 3246 PD
64 W
1133 3681 PD
64 W
1185 3626 PD
64 W
1237 3530 PD
64 W
1289 3796 PD
64 W
1341 3641 PD
64 W
1393 3391 PD
64 W
1445 3578 PD
64 W
1497 3569 PD
64 W
1550 3929 PD
64 W
1602 3316 PD
64 W
1654 3958 PD
64 W
1706 3478 PD
64 W
1758 3402 PD
64 W
1810 3811 PD
64 W
1862 4016 PD
64 W
1914 3518 PD
64 W
1966 3980 PD
64 W
2018 3656 PD
64 W
2070 3664 PD
64 W
2122 3441 PD
64 W
2175 3322 PD
64 W
2227 3972 PD
64 W
2279 4082 PD
64 W
2331 3551 PD
64 W
2383 4002 PD
64 W
2435 3478 PD
64 W
2487 3722 PD
64 W
2539 3350 PD
64 W
2591 3590 PD
64 W
2643 4084 PD
64 W
2695 3670 PD
64 W
2747 3490 PD
64 W
2799 3465 PD
64 W
2852 3936 PD
64 W
2904 3500 PD
64 W
2956 3612 PD
64 W
3008 3766 PD
64 W
3060 3536 PD
64 W
3112 3658 PD
64 W
3164 3585 PD
64 W
3216 3419 PD
64 W
3268 3748 PD
64 W
3320 3479 PD
64 W
3372 3665 PD
64 W
3424 3550 PD
64 W
3477 3642 PD
64 W
3529 3392 PD
64 W
3581 3396 PD
64 W
3633 3598 PD
64 W
3685 3753 PD
64 W
3737 3648 PD
64 W
3789 3574 PD
64 W
3841 3606 PD
64 W
3893 3764 PD
64 W
3945 3929 PD
64 W
3997 3655 PD
64 W
4049 3625 PD
64 W
4101 3608 PD
64 W
4154 3646 PD
64 W
4206 3723 PD
64 W
4258 3865 PD
64 W
4310 3730 PD
64 W
4362 3733 PD
64 W
4414 3704 PD
64 W
4466 3660 PD
64 W
4518 3707 PD
64 W
4570 3696 PD
64 W
4622 3798 PD
64 W
4674 3742 PD
64 W
4726 3619 PD
64 W
4779 3755 PD
64 W
4831 3603 PD
64 W
4883 3717 PD
64 W
4935 3621 PD
64 W
4987 3779 PD
64 W
5039 3589 PD
64 W
5091 3489 PD
64 W
5143 3639 PD
64 W
5195 3650 PD
64 W
5247 3664 PD
64 W
5299 3564 PD
64 W
5351 3563 PD
64 W
5403 3599 PD
64 W
5456 3563 PD
64 W
5508 3561 PD
64 W
5560 3564 PD
64 W
5612 3607 PD
64 W
5664 3584 PD
64 W
5716 3537 PD
64 W
5768 3571 PD
64 W
5820 3552 PD
64 W
5872 3577 PD
64 W
5924 3554 PD
64 W
5976 3544 PD
64 W
6028 3538 PD
64 W
6081 3533 PD
gs 873 2762 5209 1718 rc
c9
6 0 5 0 5 0 5 0 6 0 5 0 5 0 5 0 
5 0 6 0 5 0 5 0 5 0 5 0 6 0 5 0 
5 0 5 0 5 0 6 0 5 0 5 0 5 0 5 0 
6 0 5 0 5 0 5 0 6 0 5 0 5 0 5 0 
5 0 6 0 5 0 5 0 5 0 5 0 6 0 5 0 
5 0 5 0 5 0 6 0 5 0 5 0 5 0 5 0 
6 0 5 0 5 0 5 0 6 0 5 0 5 0 5 0 
5 0 6 0 5 0 5 0 5 0 5 0 6 0 5 0 
5 0 5 0 5 0 6 0 5 0 5 0 5 0 5 0 
6 0 5 0 5 0 5 0 6 0 5 0 5 0 5 0 
5 0 6 0 5 0 5 0 5 0 5 0 6 0 5 0 
5 0 5 0 5 0 6 0 5 0 5 0 5 0 5 0 
6 0 5 0 5 0 5 0 6 0 5 0 5 0 5 0 
5 0 6 0 5 0 5 0 5 0 5 0 6 0 5 0 
5 0 5 0 5 0 6 0 5 0 5 0 5 0 5 0 
6 0 5 0 5 0 5 0 5 0 6 0 5 0 5 0 
5 0 6 0 5 0 5 0 5 0 5 0 6 0 5 0 
5 0 5 0 5 0 6 0 5 0 5 0 5 0 5 0 
6 0 5 0 5 0 5 0 5 0 6 0 5 0 5 0 
5 0 6 0 5 0 5 0 5 0 5 0 6 0 5 0 
5 0 5 0 5 0 6 0 5 0 5 0 5 0 5 0 
6 0 5 0 5 0 5 0 5 0 6 0 5 0 5 0 
5 0 6 0 5 0 5 0 5 0 5 0 6 0 5 0 
5 0 5 0 5 0 6 0 5 0 5 0 5 0 5 0 
6 0 5 0 5 0 5 0 5 0 6 0 5 0 5 0 
5 0 6 0 5 0 5 0 5 0 5 0 6 0 5 0 
5 0 5 0 5 0 6 0 5 0 5 0 5 0 5 0 
6 0 5 0 5 0 5 0 5 0 6 0 5 0 5 0 
5 0 6 0 5 0 5 0 5 0 5 0 6 0 5 0 
5 0 5 0 5 0 6 0 5 0 5 0 5 0 5 0 
6 0 5 0 5 0 5 0 5 0 6 0 5 0 5 0 
5 0 5 0 6 0 5 0 5 0 5 0 6 0 5 0 
5 0 5 0 5 0 6 0 5 0 5 0 5 0 5 0 
6 0 5 0 5 0 5 0 5 0 6 0 5 0 5 0 
5 0 5 0 6 0 5 0 5 0 5 0 6 0 5 0 
5 0 5 0 5 0 6 0 5 0 5 0 5 0 5 0 
6 0 5 0 5 0 5 0 5 0 6 0 5 0 5 0 
5 0 5 0 6 0 4523 3620 300 MP stroke
5 0 5 0 5 0 6 0 5 0 5 0 5 0 5 0 
6 0 5 0 5 0 5 0 5 0 6 0 5 0 5 0 
5 0 5 0 6 0 5 0 5 0 5 0 5 0 6 0 
5 0 5 0 5 0 6 0 5 0 5 0 5 0 5 0 
6 0 5 0 5 0 5 0 5 0 6 0 5 0 5 0 
5 0 5 0 6 0 5 0 5 0 5 0 5 0 6 0 
5 0 5 0 5 0 6 0 5 0 5 0 5 0 5 0 
6 0 5 0 5 0 5 0 5 0 6 0 5 0 5 0 
5 0 5 0 6 0 5 0 5 0 5 0 5 0 6 0 
5 0 5 0 5 0 5 0 6 0 5 0 5 0 5 0 
6 0 5 0 5 0 5 0 5 0 6 0 5 0 5 0 
5 0 5 0 6 0 5 0 5 0 5 0 5 0 6 0 
5 0 5 0 5 0 5 0 6 0 5 0 5 0 5 0 
6 0 5 0 5 0 5 0 5 0 6 0 5 0 5 0 
5 0 5 0 6 0 5 0 5 0 5 0 5 0 6 0 
5 0 5 0 5 0 5 0 6 0 5 0 5 0 5 0 
6 0 5 0 5 0 5 0 5 0 6 0 5 0 5 0 
5 0 5 0 6 0 5 0 5 0 5 0 5 0 6 0 
5 0 5 0 5 0 5 0 6 0 5 0 5 0 5 0 
6 0 5 0 5 0 5 0 5 0 6 0 5 0 5 0 
5 0 5 0 6 0 5 0 5 0 5 0 5 0 6 0 
5 0 5 0 5 0 5 0 6 0 5 0 5 0 5 0 
6 0 5 0 5 0 5 0 5 0 6 0 5 0 5 0 
5 0 5 0 6 0 5 0 5 0 5 0 5 0 6 0 
5 0 5 0 5 0 5 0 6 0 5 0 5 0 5 0 
5 0 6 0 5 0 5 0 5 0 6 0 5 0 5 0 
5 0 5 0 6 0 5 0 5 0 5 0 5 0 6 0 
5 0 5 0 5 0 5 0 6 0 5 0 5 0 5 0 
5 0 6 0 5 0 5 0 5 0 6 0 5 0 5 0 
5 0 5 0 6 0 5 0 5 0 5 0 5 0 6 0 
5 0 5 0 5 0 5 0 6 0 5 0 5 0 5 0 
5 0 6 0 5 0 5 0 5 0 6 0 5 0 5 0 
5 0 5 0 6 0 5 0 5 0 5 0 5 0 6 0 
5 0 5 0 5 0 5 0 6 0 5 0 5 0 5 0 
5 0 6 0 5 0 5 0 5 0 6 0 5 0 5 0 
5 0 5 0 6 0 5 0 5 0 5 0 5 0 6 0 
5 0 5 0 5 0 5 0 6 0 5 0 5 0 5 0 
5 0 6 0 5 0 2966 3620 300 MP stroke
5 0 5 0 6 0 5 0 5 0 5 0 5 0 6 0 
5 0 5 0 5 0 5 0 6 0 5 0 5 0 5 0 
5 0 6 0 5 0 5 0 5 0 5 0 6 0 5 0 
5 0 5 0 5 0 6 0 5 0 5 0 5 0 6 0 
5 0 5 0 5 0 5 0 6 0 5 0 5 0 5 0 
5 0 6 0 5 0 5 0 5 0 5 0 6 0 5 0 
5 0 5 0 5 0 6 0 5 0 5 0 5 0 6 0 
5 0 5 0 5 0 5 0 6 0 5 0 5 0 5 0 
5 0 6 0 5 0 5 0 5 0 5 0 6 0 5 0 
5 0 5 0 5 0 6 0 5 0 5 0 5 0 6 0 
5 0 5 0 5 0 5 0 6 0 5 0 5 0 5 0 
5 0 6 0 5 0 5 0 5 0 5 0 6 0 5 0 
5 0 5 0 5 0 6 0 5 0 5 0 5 0 6 0 
5 0 5 0 5 0 5 0 6 0 5 0 5 0 5 0 
5 0 6 0 5 0 5 0 5 0 5 0 6 0 5 0 
5 0 5 0 5 0 6 0 5 0 5 0 5 0 6 0 
5 0 5 0 5 0 5 0 6 0 5 0 5 0 5 0 
5 0 6 0 5 0 5 0 5 0 5 0 6 0 5 0 
5 0 5 0 5 0 6 0 5 0 5 0 5 0 5 0 
6 0 5 0 5 0 5 0 6 0 5 0 5 0 5 0 
5 0 6 0 5 0 5 0 5 0 5 0 6 0 5 0 
5 0 5 0 5 0 6 0 5 0 5 0 5 0 5 0 
6 0 5 0 5 0 5 0 6 0 5 0 5 0 5 0 
5 0 6 0 5 0 5 0 5 0 5 0 6 0 5 0 
5 0 5 0 5 0 6 0 5 0 5 0 5 0 5 0 
6 0 5 0 5 0 5 0 6 0 5 0 5 0 5 0 
5 0 6 0 5 0 5 0 5 0 5 0 6 0 5 0 
5 0 5 0 5 0 6 0 5 0 5 0 5 0 5 0 
6 0 5 0 5 0 5 0 6 0 5 0 5 0 5 0 
5 0 6 0 5 0 5 0 5 0 5 0 6 0 5 0 
5 0 5 0 5 0 6 0 5 0 5 0 5 0 5 0 
6 0 5 0 5 0 5 0 6 0 5 0 5 0 5 0 
5 0 6 0 5 0 5 0 5 0 5 0 6 0 5 0 
5 0 5 0 5 0 6 0 5 0 5 0 5 0 5 0 
6 0 5 0 5 0 5 0 5 0 6 0 5 0 5 0 
5 0 6 0 5 0 5 0 5 0 5 0 6 0 5 0 
5 0 5 0 5 0 6 0 5 0 5 0 5 0 5 0 
6 0 5 0 5 0 1409 3620 300 MP stroke
5 0 5 0 6 0 5 0 5 0 5 0 6 0 5 0 
5 0 5 0 5 0 6 0 5 0 5 0 5 0 5 0 
6 0 5 0 5 0 5 0 5 0 6 0 5 0 5 0 
5 0 5 0 6 0 5 0 5 0 5 0 6 0 5 0 
5 0 5 0 5 0 6 0 5 0 5 0 5 0 5 0 
6 0 5 0 5 0 5 0 5 0 6 0 5 0 5 0 
5 0 5 0 6 0 5 0 5 0 5 0 6 0 5 0 
5 0 5 0 5 0 6 0 5 0 5 0 5 0 5 0 
6 0 5 0 5 0 5 0 5 0 6 0 5 0 5 0 
5 0 5 0 6 0 5 0 5 0 5 0 6 0 5 0 
5 0 5 0 5 0 6 0 5 0 5 0 5 0 5 0 
6 0 5 0 5 0 5 0 5 0 6 0 5 0 5 0 
5 0 5 0 6 0 5 0 5 0 5 0 5 0 873 3620 104 MP stroke
gr

c9
0 sg
%%IncludeResource: font Helvetica-Bold
/Helvetica-Bold /ISOLatin1Encoding 144 FMSR

2544 4785 mt 
(Camera translation \(in mm\)) s
 448 4288 mt  -90 rotate
(Width error \(in mm\)) s
90 rotate
%%IncludeResource: font Helvetica
/Helvetica /ISOLatin1Encoding 120 FMSR

 856 4522 mt 
( ) s
6065 2804 mt 
( ) s
6 w
1 sg
0 334 1816 0 0 -334 4205 3156 4 MP
PP
-1816 0 0 334 1816 0 0 -334 4205 3156 5 MP stroke
4 w
DO
SO
6 w
0 sg
4205 3156 mt 6021 3156 L
4205 2822 mt 6021 2822 L
4205 3156 mt 4205 2822 L
6021 3156 mt 6021 2822 L
4205 3156 mt 6021 3156 L
4205 3156 mt 4205 2822 L
4205 3156 mt 6021 3156 L
4205 2822 mt 6021 2822 L
4205 3156 mt 4205 2822 L
6021 3156 mt 6021 2822 L
4663 2957 mt 
(Linear model - residuals) s
gs 4205 2822 1817 335 rc
12 w
gr

12 w
gs 4258 2721 387 387 rc
64 W
c8
4451 2914 PD
gr

c8
gs 4205 2822 1817 335 rc
gr

0 sg
4663 3106 mt 
(Zero Line) s
gs 4205 2822 1817 335 rc
c9
352 0 4275 3063 2 MP stroke
6 w
gr

6 w
c9

end %%Color Dict

eplot
%%EndObject

epage
end

showpage

%%Trailer
%%EOF
