%!PS-Adobe-3.0 EPSF-3.0
%%Creator: MATLAB, The MathWorks, Inc. Version 8.2.0.701 (R2013b). Operating System: Darwin 11.4.2 Darwin Kernel Version 11.4.2: Thu Aug 23 16:25:48 PDT 2012; root:xnu-1699.32.7~1/RELEASE_X86_64 x86_64.
%%Title: /Users/deepakd/git/matlab-projects/singleCalib_IH/data/cam1/results/cam1p1/polymodel.eps
%%CreationDate: 01/18/2014  20:55:29
%%DocumentNeededFonts: Helvetica
%%+ Helvetica-Bold
%%DocumentProcessColors: Cyan Magenta Yellow Black
%%LanguageLevel: 2
%%Pages: 1
%%BoundingBox:    26   186   585   606
%%EndComments

%%BeginProlog
% MathWorks dictionary
/MathWorks 160 dict begin
% definition operators
/bdef {bind def} bind def
/ldef {load def} bind def
/xdef {exch def} bdef
/xstore {exch store} bdef
% operator abbreviations
/c  /clip ldef
/cc /concat ldef
/cp /closepath ldef
/gr /grestore ldef
/gs /gsave ldef
/mt /moveto ldef
/np /newpath ldef
/cm /currentmatrix ldef
/sm /setmatrix ldef
/rm /rmoveto ldef
/rl /rlineto ldef
/s {show newpath} bdef
/sc {setcmykcolor} bdef
/sr /setrgbcolor ldef
/sg /setgray ldef
/w /setlinewidth ldef
/j /setlinejoin ldef
/cap /setlinecap ldef
/rc {rectclip} bdef
/rf {rectfill} bdef
% page state control
/pgsv () def
/bpage {/pgsv save def} bdef
/epage {pgsv restore} bdef
/bplot /gsave ldef
/eplot {stroke grestore} bdef
% orientation switch
/portraitMode 0 def /landscapeMode 1 def /rotateMode 2 def
% coordinate system mappings
/dpi2point 0 def
% font control
/FontSize 0 def
/FMS {/FontSize xstore findfont [FontSize 0 0 FontSize neg 0 0]
  makefont setfont} bdef
/reencode {exch dup where {pop load} {pop StandardEncoding} ifelse
  exch dup 3 1 roll findfont dup length dict begin
  { 1 index /FID ne {def}{pop pop} ifelse } forall
  /Encoding exch def currentdict end definefont pop} bdef
/isroman {findfont /CharStrings get /Agrave known} bdef
/FMSR {3 1 roll 1 index dup isroman {reencode} {pop pop} ifelse
  exch FMS} bdef
/csm {1 dpi2point div -1 dpi2point div scale neg translate
 dup landscapeMode eq {pop -90 rotate}
  {rotateMode eq {90 rotate} if} ifelse} bdef
% line types: solid, dotted, dashed, dotdash
/SO { [] 0 setdash } bdef
/DO { [.5 dpi2point mul 4 dpi2point mul] 0 setdash } bdef
/DA { [6 dpi2point mul] 0 setdash } bdef
/DD { [.5 dpi2point mul 4 dpi2point mul 6 dpi2point mul 4
  dpi2point mul] 0 setdash } bdef
% macros for lines and objects
/L {lineto stroke} bdef
/MP {3 1 roll moveto 1 sub {rlineto} repeat} bdef
/AP {{rlineto} repeat} bdef
/PDlw -1 def
/W {/PDlw currentlinewidth def setlinewidth} def
/PP {closepath eofill} bdef
/DP {closepath stroke} bdef
/MR {4 -2 roll moveto dup  0 exch rlineto exch 0 rlineto
  neg 0 exch rlineto closepath} bdef
/FR {MR stroke} bdef
/PR {MR fill} bdef
/L1i {{currentfile picstr readhexstring pop} image} bdef
/tMatrix matrix def
/MakeOval {newpath tMatrix currentmatrix pop translate scale
0 0 1 0 360 arc tMatrix setmatrix} bdef
/FO {MakeOval stroke} bdef
/PO {MakeOval fill} bdef
/PD {currentlinewidth 2 div 0 360 arc fill
   PDlw -1 eq not {PDlw w /PDlw -1 def} if} def
/FA {newpath tMatrix currentmatrix pop translate scale
  0 0 1 5 -2 roll arc tMatrix setmatrix stroke} bdef
/PA {newpath tMatrix currentmatrix pop	translate 0 0 moveto scale
  0 0 1 5 -2 roll arc closepath tMatrix setmatrix fill} bdef
/FAn {newpath tMatrix currentmatrix pop translate scale
  0 0 1 5 -2 roll arcn tMatrix setmatrix stroke} bdef
/PAn {newpath tMatrix currentmatrix pop translate 0 0 moveto scale
  0 0 1 5 -2 roll arcn closepath tMatrix setmatrix fill} bdef
/vradius 0 def /hradius 0 def /lry 0 def
/lrx 0 def /uly 0 def /ulx 0 def /rad 0 def
/MRR {/vradius xdef /hradius xdef /lry xdef /lrx xdef /uly xdef
  /ulx xdef newpath tMatrix currentmatrix pop ulx hradius add uly
  vradius add translate hradius vradius scale 0 0 1 180 270 arc 
  tMatrix setmatrix lrx hradius sub uly vradius add translate
  hradius vradius scale 0 0 1 270 360 arc tMatrix setmatrix
  lrx hradius sub lry vradius sub translate hradius vradius scale
  0 0 1 0 90 arc tMatrix setmatrix ulx hradius add lry vradius sub
  translate hradius vradius scale 0 0 1 90 180 arc tMatrix setmatrix
  closepath} bdef
/FRR {MRR stroke } bdef
/PRR {MRR fill } bdef
/MlrRR {/lry xdef /lrx xdef /uly xdef /ulx xdef /rad lry uly sub 2 div def
  newpath tMatrix currentmatrix pop ulx rad add uly rad add translate
  rad rad scale 0 0 1 90 270 arc tMatrix setmatrix lrx rad sub lry rad
  sub translate rad rad scale 0 0 1 270 90 arc tMatrix setmatrix
  closepath} bdef
/FlrRR {MlrRR stroke } bdef
/PlrRR {MlrRR fill } bdef
/MtbRR {/lry xdef /lrx xdef /uly xdef /ulx xdef /rad lrx ulx sub 2 div def
  newpath tMatrix currentmatrix pop ulx rad add uly rad add translate
  rad rad scale 0 0 1 180 360 arc tMatrix setmatrix lrx rad sub lry rad
  sub translate rad rad scale 0 0 1 0 180 arc tMatrix setmatrix
  closepath} bdef
/FtbRR {MtbRR stroke } bdef
/PtbRR {MtbRR fill } bdef
/stri 6 array def /dtri 6 array def
/smat 6 array def /dmat 6 array def
/tmat1 6 array def /tmat2 6 array def /dif 3 array def
/asub {/ind2 exch def /ind1 exch def dup dup
  ind1 get exch ind2 get sub exch } bdef
/tri_to_matrix {
  2 0 asub 3 1 asub 4 0 asub 5 1 asub
  dup 0 get exch 1 get 7 -1 roll astore } bdef
/compute_transform {
  dmat dtri tri_to_matrix tmat1 invertmatrix 
  smat stri tri_to_matrix tmat2 concatmatrix } bdef
/ds {stri astore pop} bdef
/dt {dtri astore pop} bdef
/db {2 copy /cols xdef /rows xdef mul dup 3 mul string
  currentfile 
  3 index 0 eq {/ASCIIHexDecode filter}
  {/ASCII85Decode filter 3 index 2 eq {/RunLengthDecode filter} if }
  ifelse exch readstring pop
  dup 0 3 index getinterval /rbmap xdef
  dup 2 index dup getinterval /gbmap xdef
  1 index dup 2 mul exch getinterval /bbmap xdef pop pop}bdef
/it {gs np dtri aload pop moveto lineto lineto cp c
  cols rows 8 compute_transform 
  rbmap gbmap bbmap true 3 colorimage gr}bdef
/il {newpath moveto lineto stroke}bdef
currentdict end def
%%EndProlog

%%BeginSetup
MathWorks begin

0 cap

end
%%EndSetup

%%Page: 1 1
%%BeginPageSetup
%%PageBoundingBox:    26   186   585   606
MathWorks begin
bpage
%%EndPageSetup

%%BeginObject: obj1
bplot

/dpi2point 12 def
portraitMode 0312 7272 csm

    0     0  6719  5033 rc
85 dict begin %Colortable dictionary
/c0 { 0.000000 0.000000 0.000000 sr} bdef
/c1 { 1.000000 1.000000 1.000000 sr} bdef
/c2 { 0.900000 0.000000 0.000000 sr} bdef
/c3 { 0.000000 0.820000 0.000000 sr} bdef
/c4 { 0.000000 0.000000 0.800000 sr} bdef
/c5 { 0.910000 0.820000 0.320000 sr} bdef
/c6 { 1.000000 0.260000 0.820000 sr} bdef
/c7 { 0.000000 0.820000 0.820000 sr} bdef
c0
1 j
1 sg
   0    0 6720 5034 rf
6 w
0 1718 5208 0 0 -1718 873 2095 4 MP
PP
-5208 0 0 1718 5208 0 0 -1718 873 2095 5 MP stroke
4 w
DO
0 sg
 873 2095 mt  873  377 L
 873  377 mt  873  377 L
1524 2095 mt 1524  377 L
1524  377 mt 1524  377 L
2175 2095 mt 2175  377 L
2175  377 mt 2175  377 L
2826 2095 mt 2826  377 L
2826  377 mt 2826  377 L
3477 2095 mt 3477  377 L
3477  377 mt 3477  377 L
4128 2095 mt 4128  377 L
4128  377 mt 4128  377 L
4779 2095 mt 4779  377 L
4779  377 mt 4779  377 L
5430 2095 mt 5430  377 L
5430  377 mt 5430  377 L
6081 2095 mt 6081  377 L
6081  377 mt 6081  377 L
 873 2095 mt 6081 2095 L
6081 2095 mt 6081 2095 L
 873 1665 mt 6081 1665 L
6081 1665 mt 6081 1665 L
 873 1236 mt 6081 1236 L
6081 1236 mt 6081 1236 L
 873  806 mt 6081  806 L
6081  806 mt 6081  806 L
 873  377 mt 6081  377 L
6081  377 mt 6081  377 L
SO
6 w
 873 2095 mt 6081 2095 L
 873  377 mt 6081  377 L
 873 2095 mt  873  377 L
6081 2095 mt 6081  377 L
 873 2095 mt 6081 2095 L
 873 2095 mt  873  377 L
 873 2095 mt  873 2042 L
 873  377 mt  873  429 L
%%IncludeResource: font Helvetica
/Helvetica /ISOLatin1Encoding 120 FMSR

 840 2240 mt 
(0) s
1524 2095 mt 1524 2042 L
1524  377 mt 1524  429 L
1491 2240 mt 
(5) s
2175 2095 mt 2175 2042 L
2175  377 mt 2175  429 L
2109 2240 mt 
(10) s
2826 2095 mt 2826 2042 L
2826  377 mt 2826  429 L
2760 2240 mt 
(15) s
3477 2095 mt 3477 2042 L
3477  377 mt 3477  429 L
3411 2240 mt 
(20) s
4128 2095 mt 4128 2042 L
4128  377 mt 4128  429 L
4062 2240 mt 
(25) s
4779 2095 mt 4779 2042 L
4779  377 mt 4779  429 L
4713 2240 mt 
(30) s
5430 2095 mt 5430 2042 L
5430  377 mt 5430  429 L
5364 2240 mt 
(35) s
6081 2095 mt 6081 2042 L
6081  377 mt 6081  429 L
6015 2240 mt 
(40) s
 873 2095 mt  925 2095 L
6081 2095 mt 6028 2095 L
 772 2139 mt 
(0) s
 873 1665 mt  925 1665 L
6081 1665 mt 6028 1665 L
 772 1709 mt 
(2) s
 873 1236 mt  925 1236 L
6081 1236 mt 6028 1236 L
 772 1280 mt 
(4) s
 873  806 mt  925  806 L
6081  806 mt 6028  806 L
 772  850 mt 
(6) s
 873  377 mt  925  377 L
6081  377 mt 6028  377 L
 772  421 mt 
(8) s
 873 2095 mt 6081 2095 L
 873  377 mt 6081  377 L
 873 2095 mt  873  377 L
6081 2095 mt 6081  377 L
gs 873 377 5209 1719 rc
12 w
gr

12 w
64 W
/c8 { 0.000000 0.000000 1.000000 sr} bdef
c8
873 2094 PD
64 W
1003 2084 PD
64 W
1133 2072 PD
64 W
1263 2061 PD
64 W
1393 2051 PD
64 W
1524 2037 PD
64 W
1654 2024 PD
64 W
1784 2007 PD
64 W
1914 1995 PD
64 W
2044 1975 PD
64 W
2175 1956 PD
64 W
2305 1940 PD
64 W
2435 1920 PD
64 W
2565 1894 PD
64 W
2695 1879 PD
64 W
2826 1851 PD
64 W
2956 1833 PD
64 W
3086 1783 PD
64 W
3216 1765 PD
64 W
3346 1745 PD
64 W
3477 1701 PD
64 W
3607 1666 PD
64 W
3737 1647 PD
64 W
3867 1573 PD
64 W
3997 1530 PD
64 W
4128 1528 PD
64 W
4258 1467 PD
64 W
4388 1410 PD
64 W
4518 1350 PD
64 W
4648 1321 PD
64 W
4779 1245 PD
64 W
4909 1174 PD
64 W
5039 1125 PD
64 W
5169 1009 PD
64 W
5299 998 PD
64 W
5430 913 PD
64 W
5560 782 PD
64 W
5690 788 PD
64 W
5820 584 PD
64 W
5950 524 PD
64 W
6081 398 PD
gs 873 377 5209 1719 rc
/c9 { 1.000000 0.000000 0.000000 sr} bdef
c9
6 -3 5 -3 5 -3 5 -3 6 -3 5 -3 5 -3 5 -3 
5 -3 6 -3 5 -3 5 -2 5 -3 5 -3 6 -3 5 -3 
5 -3 5 -3 5 -3 6 -3 5 -3 5 -3 5 -2 5 -3 
6 -3 5 -3 5 -3 5 -3 6 -3 5 -3 5 -2 5 -3 
5 -3 6 -3 5 -3 5 -3 5 -3 5 -2 6 -3 5 -3 
5 -3 5 -3 5 -3 6 -2 5 -3 5 -3 5 -3 5 -3 
6 -2 5 -3 5 -3 5 -3 6 -3 5 -3 5 -2 5 -3 
5 -3 6 -3 5 -2 5 -3 5 -3 5 -3 6 -3 5 -2 
5 -3 5 -3 5 -3 6 -2 5 -3 5 -3 5 -3 5 -2 
6 -3 5 -3 5 -3 5 -2 6 -3 5 -3 5 -2 5 -3 
5 -3 6 -3 5 -2 5 -3 5 -3 5 -2 6 -3 5 -3 
5 -3 5 -2 5 -3 6 -3 5 -2 5 -3 5 -3 5 -2 
6 -3 5 -3 5 -2 5 -3 6 -3 5 -2 5 -3 5 -3 
5 -2 6 -3 5 -3 5 -2 5 -3 5 -2 6 -3 5 -3 
5 -2 5 -3 5 -3 6 -2 5 -3 5 -2 5 -3 5 -3 
6 -2 5 -3 5 -2 5 -3 5 -3 6 -2 5 -3 5 -2 
5 -3 6 -2 5 -3 5 -3 5 -2 5 -3 6 -2 5 -3 
5 -2 5 -3 5 -2 6 -3 5 -3 5 -2 5 -3 5 -2 
6 -3 5 -2 5 -3 5 -2 5 -3 6 -2 5 -3 5 -2 
5 -3 6 -2 5 -3 5 -2 5 -3 5 -2 6 -3 5 -2 
5 -3 5 -2 5 -3 6 -2 5 -3 5 -2 5 -3 5 -2 
6 -2 5 -3 5 -2 5 -3 5 -2 6 -3 5 -2 5 -3 
5 -2 6 -2 5 -3 5 -2 5 -3 5 -2 6 -3 5 -2 
5 -2 5 -3 5 -2 6 -3 5 -2 5 -2 5 -3 5 -2 
6 -3 5 -2 5 -2 5 -3 5 -2 6 -2 5 -3 5 -2 
5 -3 6 -2 5 -2 5 -3 5 -2 5 -2 6 -3 5 -2 
5 -2 5 -3 5 -2 6 -2 5 -3 5 -2 5 -2 5 -3 
6 -2 5 -2 5 -3 5 -2 5 -2 6 -2 5 -3 5 -2 
5 -2 6 -3 5 -2 5 -2 5 -2 5 -3 6 -2 5 -2 
5 -3 5 -2 5 -2 6 -2 5 -3 5 -2 5 -2 5 -2 
6 -3 5 -2 5 -2 5 -2 5 -3 6 -2 5 -2 5 -2 
5 -2 5 -3 6 -2 5 -2 5 -2 5 -3 6 -2 5 -2 
5 -2 5 -2 5 -3 6 -2 5 -2 5 -2 5 -2 5 -2 
6 -3 5 -2 5 -2 5 -2 5 -2 6 -2 5 -3 5 -2 
5 -2 5 -2 6 -2 5 -2 5 -2 5 -3 6 -2 5 -2 
5 -2 5 -2 5 -2 6 -2 5 -2 5 -3 5 -2 5 -2 
6 -2 5 -2 5 -2 5 -2 5 -2 6 -2 5 -2 5 -2 
5 -3 5 -2 6 -2 4523 1341 300 MP stroke
5 -2 5 -2 5 -2 6 -2 5 -2 5 -2 5 -2 5 -2 
6 -2 5 -2 5 -2 5 -2 5 -2 6 -2 5 -2 5 -2 
5 -2 5 -2 6 -2 5 -3 5 -2 5 -2 5 -2 6 -2 
5 -2 5 -2 5 -2 6 -2 5 -1 5 -2 5 -2 5 -2 
6 -2 5 -2 5 -2 5 -2 5 -2 6 -2 5 -2 5 -2 
5 -2 5 -2 6 -2 5 -2 5 -2 5 -2 5 -2 6 -2 
5 -2 5 -2 5 -1 6 -2 5 -2 5 -2 5 -2 5 -2 
6 -2 5 -2 5 -2 5 -2 5 -1 6 -2 5 -2 5 -2 
5 -2 5 -2 6 -2 5 -2 5 -2 5 -1 5 -2 6 -2 
5 -2 5 -2 5 -2 5 -1 6 -2 5 -2 5 -2 5 -2 
6 -2 5 -2 5 -1 5 -2 5 -2 6 -2 5 -2 5 -1 
5 -2 5 -2 6 -2 5 -2 5 -1 5 -2 5 -2 6 -2 
5 -2 5 -1 5 -2 5 -2 6 -2 5 -1 5 -2 5 -2 
6 -2 5 -2 5 -1 5 -2 5 -2 6 -2 5 -1 5 -2 
5 -2 5 -1 6 -2 5 -2 5 -2 5 -1 5 -2 6 -2 
5 -2 5 -1 5 -2 5 -2 6 -1 5 -2 5 -2 5 -1 
6 -2 5 -2 5 -2 5 -1 5 -2 6 -2 5 -1 5 -2 
5 -2 5 -1 6 -2 5 -2 5 -1 5 -2 5 -1 6 -2 
5 -2 5 -1 5 -2 5 -2 6 -1 5 -2 5 -2 5 -1 
6 -2 5 -1 5 -2 5 -2 5 -1 6 -2 5 -1 5 -2 
5 -2 5 -1 6 -2 5 -1 5 -2 5 -2 5 -1 6 -2 
5 -1 5 -2 5 -1 5 -2 6 -2 5 -1 5 -2 5 -1 
6 -2 5 -1 5 -2 5 -1 5 -2 6 -1 5 -2 5 -2 
5 -1 5 -2 6 -1 5 -2 5 -1 5 -2 5 -1 6 -2 
5 -1 5 -2 5 -1 5 -2 6 -1 5 -2 5 -1 5 -2 
5 -1 6 -2 5 -1 5 -1 5 -2 6 -1 5 -2 5 -1 
5 -2 5 -1 6 -2 5 -1 5 -2 5 -1 5 -1 6 -2 
5 -1 5 -2 5 -1 5 -2 6 -1 5 -1 5 -2 5 -1 
5 -2 6 -1 5 -1 5 -2 5 -1 6 -2 5 -1 5 -1 
5 -2 5 -1 6 -1 5 -2 5 -1 5 -2 5 -1 6 -1 
5 -2 5 -1 5 -1 5 -2 6 -1 5 -1 5 -2 5 -1 
5 -1 6 -2 5 -1 5 -1 5 -2 6 -1 5 -1 5 -2 
5 -1 5 -1 6 -2 5 -1 5 -1 5 -2 5 -1 6 -1 
5 -1 5 -2 5 -1 5 -1 6 -1 5 -2 5 -1 5 -1 
5 -2 6 -1 5 -1 5 -1 5 -2 6 -1 5 -1 5 -1 
5 -2 5 -1 6 -1 5 -1 5 -1 5 -2 5 -1 6 -1 
5 -1 5 -2 5 -1 5 -1 6 -1 5 -1 5 -2 5 -1 
5 -1 6 -1 5 -1 2966 1827 300 MP stroke
5 -2 5 -1 6 -1 5 -1 5 -1 5 -1 5 -2 6 -1 
5 -1 5 -1 5 -1 5 -1 6 -2 5 -1 5 -1 5 -1 
5 -1 6 -1 5 -1 5 -1 5 -2 5 -1 6 -1 5 -1 
5 -1 5 -1 5 -1 6 -1 5 -1 5 -2 5 -1 6 -1 
5 -1 5 -1 5 -1 5 -1 6 -1 5 -1 5 -1 5 -1 
5 -1 6 -2 5 -1 5 -1 5 -1 5 -1 6 -1 5 -1 
5 -1 5 -1 5 -1 6 -1 5 -1 5 -1 5 -1 6 -1 
5 -1 5 -1 5 -1 5 -1 6 -1 5 -1 5 -1 5 -1 
5 -1 6 -1 5 -1 5 -1 5 -1 5 -1 6 -1 5 -1 
5 -1 5 -1 5 -1 6 -1 5 -1 5 -1 5 -1 6 -1 
5 -1 5 -1 5 -1 5 0 6 -1 5 -1 5 -1 5 -1 
5 -1 6 -1 5 -1 5 -1 5 -1 5 -1 6 -1 5 0 
5 -1 5 -1 5 -1 6 -1 5 -1 5 -1 5 -1 6 -1 
5 0 5 -1 5 -1 5 -1 6 -1 5 -1 5 -1 5 -1 
5 0 6 -1 5 -1 5 -1 5 -1 5 -1 6 0 5 -1 
5 -1 5 -1 5 -1 6 -1 5 0 5 -1 5 -1 6 -1 
5 -1 5 0 5 -1 5 -1 6 -1 5 -1 5 0 5 -1 
5 -1 6 -1 5 0 5 -1 5 -1 5 -1 6 -1 5 0 
5 -1 5 -1 5 -1 6 0 5 -1 5 -1 5 -1 5 0 
6 -1 5 -1 5 0 5 -1 6 -1 5 -1 5 0 5 -1 
5 -1 6 0 5 -1 5 -1 5 -1 5 0 6 -1 5 -1 
5 0 5 -1 5 -1 6 0 5 -1 5 -1 5 0 5 -1 
6 -1 5 0 5 -1 5 -1 6 0 5 -1 5 -1 5 0 
5 -1 6 -1 5 0 5 -1 5 0 5 -1 6 -1 5 0 
5 -1 5 -1 5 0 6 -1 5 0 5 -1 5 -1 5 0 
6 -1 5 0 5 -1 5 0 6 -1 5 -1 5 0 5 -1 
5 0 6 -1 5 0 5 -1 5 -1 5 0 6 -1 5 0 
5 -1 5 0 5 -1 6 0 5 -1 5 0 5 -1 5 0 
6 -1 5 -1 5 0 5 -1 6 0 5 -1 5 0 5 -1 
5 0 6 -1 5 0 5 -1 5 0 5 0 6 -1 5 0 
5 -1 5 0 5 -1 6 0 5 -1 5 0 5 -1 5 0 
6 -1 5 0 5 0 5 -1 6 0 5 -1 5 0 5 -1 
5 0 6 -1 5 0 5 0 5 -1 5 0 6 -1 5 0 
5 0 5 -1 5 0 6 -1 5 0 5 0 5 -1 5 0 
6 0 5 -1 5 0 5 -1 5 0 6 0 5 -1 5 0 
5 0 6 -1 5 0 5 0 5 -1 5 0 6 0 5 -1 
5 0 5 0 5 -1 6 0 5 0 5 -1 5 0 5 0 
6 -1 5 0 5 0 1409 2049 300 MP stroke
5 -1 5 0 6 0 5 0 5 -1 5 0 6 0 5 -1 
5 0 5 0 5 0 6 -1 5 0 5 0 5 0 5 -1 
6 0 5 0 5 0 5 -1 5 0 6 0 5 0 5 -1 
5 0 5 0 6 0 5 0 5 -1 5 0 6 0 5 0 
5 -1 5 0 5 0 6 0 5 0 5 0 5 -1 5 0 
6 0 5 0 5 0 5 -1 5 0 6 0 5 0 5 0 
5 0 5 -1 6 0 5 0 5 0 5 0 6 0 5 0 
5 -1 5 0 5 0 6 0 5 0 5 0 5 0 5 0 
6 0 5 -1 5 0 5 0 5 0 6 0 5 0 5 0 
5 0 5 0 6 0 5 0 5 -1 5 0 6 0 5 0 
5 0 5 0 5 0 6 0 5 0 5 0 5 0 5 0 
6 0 5 0 5 0 5 0 5 0 6 0 5 0 5 0 
5 0 5 0 6 0 5 0 5 0 5 0 5 0 873 2064 104 MP stroke
gr

c9
0 sg
%%IncludeResource: font Helvetica-Bold
/Helvetica-Bold /ISOLatin1Encoding 144 FMSR

2497 2401 mt 
(Camera rotation \(in degrees\)) s
 685 1908 mt  -90 rotate
(Depth error \(in mm\)) s
90 rotate
%%IncludeResource: font Helvetica
/Helvetica /ISOLatin1Encoding 120 FMSR

 856 2138 mt 
( ) s
6065  419 mt 
( ) s
6 w
1 sg
0 389 1510 0 0 -389 3270 779 4 MP
PP
-1510 0 0 389 1510 0 0 -389 3270 779 5 MP stroke
4 w
DO
SO
6 w
0 sg
3270  779 mt 4780  779 L
3270  390 mt 4780  390 L
3270  779 mt 3270  390 L
4780  779 mt 4780  390 L
3270  779 mt 4780  779 L
3270  779 mt 3270  390 L
3270  779 mt 4780  779 L
3270  390 mt 4780  390 L
3270  779 mt 3270  390 L
4780  779 mt 4780  390 L
3738  540 mt 
(Error data) s
gs 3270 390 1511 390 rc
12 w
gr

12 w
gs 3328 304 387 387 rc
64 W
c8
3521 497 PD
gr

c8
gs 3270 390 1511 390 rc
gr

0 sg
3738  714 mt 
(Polynomial model) s
gs 3270 390 1511 390 rc
c9
360 0 3341 671 2 MP stroke
6 w
gr

6 w
c9
1 sg
0 1717 5208 0 0 -1717 873 4479 4 MP
PP
-5208 0 0 1717 5208 0 0 -1717 873 4479 5 MP stroke
4 w
DO
0 sg
 873 4479 mt  873 2762 L
 873 2762 mt  873 2762 L
1524 4479 mt 1524 2762 L
1524 2762 mt 1524 2762 L
2175 4479 mt 2175 2762 L
2175 2762 mt 2175 2762 L
2826 4479 mt 2826 2762 L
2826 2762 mt 2826 2762 L
3477 4479 mt 3477 2762 L
3477 2762 mt 3477 2762 L
4128 4479 mt 4128 2762 L
4128 2762 mt 4128 2762 L
4779 4479 mt 4779 2762 L
4779 2762 mt 4779 2762 L
5430 4479 mt 5430 2762 L
5430 2762 mt 5430 2762 L
6081 4479 mt 6081 2762 L
6081 2762 mt 6081 2762 L
 873 4479 mt 6081 4479 L
6081 4479 mt 6081 4479 L
 873 3906 mt 6081 3906 L
6081 3906 mt 6081 3906 L
 873 3334 mt 6081 3334 L
6081 3334 mt 6081 3334 L
 873 2762 mt 6081 2762 L
6081 2762 mt 6081 2762 L
SO
6 w
 873 4479 mt 6081 4479 L
 873 2762 mt 6081 2762 L
 873 4479 mt  873 2762 L
6081 4479 mt 6081 2762 L
 873 4479 mt 6081 4479 L
 873 4479 mt  873 2762 L
 873 4479 mt  873 4426 L
 873 2762 mt  873 2814 L
 840 4624 mt 
(0) s
1524 4479 mt 1524 4426 L
1524 2762 mt 1524 2814 L
1491 4624 mt 
(5) s
2175 4479 mt 2175 4426 L
2175 2762 mt 2175 2814 L
2109 4624 mt 
(10) s
2826 4479 mt 2826 4426 L
2826 2762 mt 2826 2814 L
2760 4624 mt 
(15) s
3477 4479 mt 3477 4426 L
3477 2762 mt 3477 2814 L
3411 4624 mt 
(20) s
4128 4479 mt 4128 4426 L
4128 2762 mt 4128 2814 L
4062 4624 mt 
(25) s
4779 4479 mt 4779 4426 L
4779 2762 mt 4779 2814 L
4713 4624 mt 
(30) s
5430 4479 mt 5430 4426 L
5430 2762 mt 5430 2814 L
5364 4624 mt 
(35) s
6081 4479 mt 6081 4426 L
6081 2762 mt 6081 2814 L
6015 4624 mt 
(40) s
 873 4479 mt  925 4479 L
6081 4479 mt 6028 4479 L
 602 4523 mt 
(-0.5) s
 873 3906 mt  925 3906 L
6081 3906 mt 6028 3906 L
 772 3950 mt 
(0) s
 873 3334 mt  925 3334 L
6081 3334 mt 6028 3334 L
 672 3378 mt 
(0.5) s
 873 2762 mt  925 2762 L
6081 2762 mt 6028 2762 L
 772 2806 mt 
(1) s
 873 4479 mt 6081 4479 L
 873 2762 mt 6081 2762 L
 873 4479 mt  873 2762 L
6081 4479 mt 6081 2762 L
gs 873 2762 5209 1718 rc
12 w
gr

12 w
64 W
c8
873 4067 PD
64 W
1003 4016 PD
64 W
1133 3965 PD
64 W
1263 3929 PD
64 W
1393 3908 PD
64 W
1524 3879 PD
64 W
1654 3863 PD
64 W
1784 3834 PD
64 W
1914 3847 PD
64 W
2044 3821 PD
64 W
2175 3815 PD
64 W
2305 3830 PD
64 W
2435 3838 PD
64 W
2565 3824 PD
64 W
2695 3873 PD
64 W
2826 3867 PD
64 W
2956 3924 PD
64 W
3086 3819 PD
64 W
3216 3895 PD
64 W
3346 3973 PD
64 W
3477 3929 PD
64 W
3607 3944 PD
64 W
3737 4051 PD
64 W
3867 3882 PD
64 W
3997 3881 PD
64 W
4128 4112 PD
64 W
4258 4038 PD
64 W
4388 3992 PD
64 W
4518 3947 PD
64 W
4648 4070 PD
64 W
4779 3954 PD
64 W
4909 3878 PD
64 W
5039 3928 PD
64 W
5169 3629 PD
64 W
5299 3897 PD
64 W
5430 3787 PD
64 W
5560 3439 PD
64 W
5690 3828 PD
64 W
5820 3109 PD
64 W
5950 3168 PD
64 W
6081 2888 PD
gs 873 2762 5209 1718 rc
c9
6 0 5 0 5 0 5 0 6 0 5 0 5 0 5 0 
5 0 6 0 5 0 5 0 5 0 5 0 6 0 5 0 
5 0 5 0 5 0 6 0 5 0 5 0 5 0 5 0 
6 0 5 0 5 0 5 0 6 0 5 0 5 0 5 0 
5 0 6 0 5 0 5 0 5 0 5 0 6 0 5 0 
5 0 5 0 5 0 6 0 5 0 5 0 5 0 5 0 
6 0 5 0 5 0 5 0 6 0 5 0 5 0 5 0 
5 0 6 0 5 0 5 0 5 0 5 0 6 0 5 0 
5 0 5 0 5 0 6 0 5 0 5 0 5 0 5 0 
6 0 5 0 5 0 5 0 6 0 5 0 5 0 5 0 
5 0 6 0 5 0 5 0 5 0 5 0 6 0 5 0 
5 0 5 0 5 0 6 0 5 0 5 0 5 0 5 0 
6 0 5 0 5 0 5 0 6 0 5 0 5 0 5 0 
5 0 6 0 5 0 5 0 5 0 5 0 6 0 5 0 
5 0 5 0 5 0 6 0 5 0 5 0 5 0 5 0 
6 0 5 0 5 0 5 0 5 0 6 0 5 0 5 0 
5 0 6 0 5 0 5 0 5 0 5 0 6 0 5 0 
5 0 5 0 5 0 6 0 5 0 5 0 5 0 5 0 
6 0 5 0 5 0 5 0 5 0 6 0 5 0 5 0 
5 0 6 0 5 0 5 0 5 0 5 0 6 0 5 0 
5 0 5 0 5 0 6 0 5 0 5 0 5 0 5 0 
6 0 5 0 5 0 5 0 5 0 6 0 5 0 5 0 
5 0 6 0 5 0 5 0 5 0 5 0 6 0 5 0 
5 0 5 0 5 0 6 0 5 0 5 0 5 0 5 0 
6 0 5 0 5 0 5 0 5 0 6 0 5 0 5 0 
5 0 6 0 5 0 5 0 5 0 5 0 6 0 5 0 
5 0 5 0 5 0 6 0 5 0 5 0 5 0 5 0 
6 0 5 0 5 0 5 0 5 0 6 0 5 0 5 0 
5 0 6 0 5 0 5 0 5 0 5 0 6 0 5 0 
5 0 5 0 5 0 6 0 5 0 5 0 5 0 5 0 
6 0 5 0 5 0 5 0 5 0 6 0 5 0 5 0 
5 0 5 0 6 0 5 0 5 0 5 0 6 0 5 0 
5 0 5 0 5 0 6 0 5 0 5 0 5 0 5 0 
6 0 5 0 5 0 5 0 5 0 6 0 5 0 5 0 
5 0 5 0 6 0 5 0 5 0 5 0 6 0 5 0 
5 0 5 0 5 0 6 0 5 0 5 0 5 0 5 0 
6 0 5 0 5 0 5 0 5 0 6 0 5 0 5 0 
5 0 5 0 6 0 4523 3906 300 MP stroke
5 0 5 0 5 0 6 0 5 0 5 0 5 0 5 0 
6 0 5 0 5 0 5 0 5 0 6 0 5 0 5 0 
5 0 5 0 6 0 5 0 5 0 5 0 5 0 6 0 
5 0 5 0 5 0 6 0 5 0 5 0 5 0 5 0 
6 0 5 0 5 0 5 0 5 0 6 0 5 0 5 0 
5 0 5 0 6 0 5 0 5 0 5 0 5 0 6 0 
5 0 5 0 5 0 6 0 5 0 5 0 5 0 5 0 
6 0 5 0 5 0 5 0 5 0 6 0 5 0 5 0 
5 0 5 0 6 0 5 0 5 0 5 0 5 0 6 0 
5 0 5 0 5 0 5 0 6 0 5 0 5 0 5 0 
6 0 5 0 5 0 5 0 5 0 6 0 5 0 5 0 
5 0 5 0 6 0 5 0 5 0 5 0 5 0 6 0 
5 0 5 0 5 0 5 0 6 0 5 0 5 0 5 0 
6 0 5 0 5 0 5 0 5 0 6 0 5 0 5 0 
5 0 5 0 6 0 5 0 5 0 5 0 5 0 6 0 
5 0 5 0 5 0 5 0 6 0 5 0 5 0 5 0 
6 0 5 0 5 0 5 0 5 0 6 0 5 0 5 0 
5 0 5 0 6 0 5 0 5 0 5 0 5 0 6 0 
5 0 5 0 5 0 5 0 6 0 5 0 5 0 5 0 
6 0 5 0 5 0 5 0 5 0 6 0 5 0 5 0 
5 0 5 0 6 0 5 0 5 0 5 0 5 0 6 0 
5 0 5 0 5 0 5 0 6 0 5 0 5 0 5 0 
6 0 5 0 5 0 5 0 5 0 6 0 5 0 5 0 
5 0 5 0 6 0 5 0 5 0 5 0 5 0 6 0 
5 0 5 0 5 0 5 0 6 0 5 0 5 0 5 0 
5 0 6 0 5 0 5 0 5 0 6 0 5 0 5 0 
5 0 5 0 6 0 5 0 5 0 5 0 5 0 6 0 
5 0 5 0 5 0 5 0 6 0 5 0 5 0 5 0 
5 0 6 0 5 0 5 0 5 0 6 0 5 0 5 0 
5 0 5 0 6 0 5 0 5 0 5 0 5 0 6 0 
5 0 5 0 5 0 5 0 6 0 5 0 5 0 5 0 
5 0 6 0 5 0 5 0 5 0 6 0 5 0 5 0 
5 0 5 0 6 0 5 0 5 0 5 0 5 0 6 0 
5 0 5 0 5 0 5 0 6 0 5 0 5 0 5 0 
5 0 6 0 5 0 5 0 5 0 6 0 5 0 5 0 
5 0 5 0 6 0 5 0 5 0 5 0 5 0 6 0 
5 0 5 0 5 0 5 0 6 0 5 0 5 0 5 0 
5 0 6 0 5 0 2966 3906 300 MP stroke
5 0 5 0 6 0 5 0 5 0 5 0 5 0 6 0 
5 0 5 0 5 0 5 0 6 0 5 0 5 0 5 0 
5 0 6 0 5 0 5 0 5 0 5 0 6 0 5 0 
5 0 5 0 5 0 6 0 5 0 5 0 5 0 6 0 
5 0 5 0 5 0 5 0 6 0 5 0 5 0 5 0 
5 0 6 0 5 0 5 0 5 0 5 0 6 0 5 0 
5 0 5 0 5 0 6 0 5 0 5 0 5 0 6 0 
5 0 5 0 5 0 5 0 6 0 5 0 5 0 5 0 
5 0 6 0 5 0 5 0 5 0 5 0 6 0 5 0 
5 0 5 0 5 0 6 0 5 0 5 0 5 0 6 0 
5 0 5 0 5 0 5 0 6 0 5 0 5 0 5 0 
5 0 6 0 5 0 5 0 5 0 5 0 6 0 5 0 
5 0 5 0 5 0 6 0 5 0 5 0 5 0 6 0 
5 0 5 0 5 0 5 0 6 0 5 0 5 0 5 0 
5 0 6 0 5 0 5 0 5 0 5 0 6 0 5 0 
5 0 5 0 5 0 6 0 5 0 5 0 5 0 6 0 
5 0 5 0 5 0 5 0 6 0 5 0 5 0 5 0 
5 0 6 0 5 0 5 0 5 0 5 0 6 0 5 0 
5 0 5 0 5 0 6 0 5 0 5 0 5 0 5 0 
6 0 5 0 5 0 5 0 6 0 5 0 5 0 5 0 
5 0 6 0 5 0 5 0 5 0 5 0 6 0 5 0 
5 0 5 0 5 0 6 0 5 0 5 0 5 0 5 0 
6 0 5 0 5 0 5 0 6 0 5 0 5 0 5 0 
5 0 6 0 5 0 5 0 5 0 5 0 6 0 5 0 
5 0 5 0 5 0 6 0 5 0 5 0 5 0 5 0 
6 0 5 0 5 0 5 0 6 0 5 0 5 0 5 0 
5 0 6 0 5 0 5 0 5 0 5 0 6 0 5 0 
5 0 5 0 5 0 6 0 5 0 5 0 5 0 5 0 
6 0 5 0 5 0 5 0 6 0 5 0 5 0 5 0 
5 0 6 0 5 0 5 0 5 0 5 0 6 0 5 0 
5 0 5 0 5 0 6 0 5 0 5 0 5 0 5 0 
6 0 5 0 5 0 5 0 6 0 5 0 5 0 5 0 
5 0 6 0 5 0 5 0 5 0 5 0 6 0 5 0 
5 0 5 0 5 0 6 0 5 0 5 0 5 0 5 0 
6 0 5 0 5 0 5 0 5 0 6 0 5 0 5 0 
5 0 6 0 5 0 5 0 5 0 5 0 6 0 5 0 
5 0 5 0 5 0 6 0 5 0 5 0 5 0 5 0 
6 0 5 0 5 0 1409 3906 300 MP stroke
5 0 5 0 6 0 5 0 5 0 5 0 6 0 5 0 
5 0 5 0 5 0 6 0 5 0 5 0 5 0 5 0 
6 0 5 0 5 0 5 0 5 0 6 0 5 0 5 0 
5 0 5 0 6 0 5 0 5 0 5 0 6 0 5 0 
5 0 5 0 5 0 6 0 5 0 5 0 5 0 5 0 
6 0 5 0 5 0 5 0 5 0 6 0 5 0 5 0 
5 0 5 0 6 0 5 0 5 0 5 0 6 0 5 0 
5 0 5 0 5 0 6 0 5 0 5 0 5 0 5 0 
6 0 5 0 5 0 5 0 5 0 6 0 5 0 5 0 
5 0 5 0 6 0 5 0 5 0 5 0 6 0 5 0 
5 0 5 0 5 0 6 0 5 0 5 0 5 0 5 0 
6 0 5 0 5 0 5 0 5 0 6 0 5 0 5 0 
5 0 5 0 6 0 5 0 5 0 5 0 5 0 873 3906 104 MP stroke
gr

c9
0 sg
%%IncludeResource: font Helvetica-Bold
/Helvetica-Bold /ISOLatin1Encoding 144 FMSR

2497 4785 mt 
(Camera rotation \(in degrees\)) s
 515 4292 mt  -90 rotate
(Depth error \(in mm\)) s
90 rotate
%%IncludeResource: font Helvetica
/Helvetica /ISOLatin1Encoding 120 FMSR

 856 4522 mt 
( ) s
6065 2804 mt 
( ) s
6 w
1 sg
0 334 2063 0 0 -334 3959 3156 4 MP
PP
-2063 0 0 334 2063 0 0 -334 3959 3156 5 MP stroke
4 w
DO
SO
6 w
0 sg
3959 3156 mt 6022 3156 L
3959 2822 mt 6022 2822 L
3959 3156 mt 3959 2822 L
6022 3156 mt 6022 2822 L
3959 3156 mt 6022 3156 L
3959 3156 mt 3959 2822 L
3959 3156 mt 6022 3156 L
3959 2822 mt 6022 2822 L
3959 3156 mt 3959 2822 L
6022 3156 mt 6022 2822 L
4417 2957 mt 
(Polynomial model - residuals) s
gs 3959 2822 2064 335 rc
12 w
gr

12 w
gs 4012 2721 387 387 rc
64 W
c8
4205 2914 PD
gr

c8
gs 3959 2822 2064 335 rc
gr

0 sg
4417 3106 mt 
(Zero Line) s
gs 3959 2822 2064 335 rc
c9
352 0 4029 3063 2 MP stroke
6 w
gr

6 w
c9

end %%Color Dict

eplot
%%EndObject

epage
end

showpage

%%Trailer
%%EOF
