%!PS-Adobe-3.0 EPSF-3.0
%%Creator: MATLAB, The MathWorks, Inc. Version 8.2.0.701 (R2013b). Operating System: Darwin 11.4.2 Darwin Kernel Version 11.4.2: Thu Aug 23 16:25:48 PDT 2012; root:xnu-1699.32.7~1/RELEASE_X86_64 x86_64.
%%Title: /Users/deepakd/git/matlab-projects/singleCalib_IH/data/cam1/results/cam1p1/widthT.eps
%%CreationDate: 01/17/2014  06:23:16
%%DocumentNeededFonts: Helvetica
%%+ Helvetica-Bold
%%DocumentProcessColors: Cyan Magenta Yellow Black
%%LanguageLevel: 2
%%Pages: 1
%%BoundingBox:    26   186   585   606
%%EndComments

%%BeginProlog
% MathWorks dictionary
/MathWorks 160 dict begin
% definition operators
/bdef {bind def} bind def
/ldef {load def} bind def
/xdef {exch def} bdef
/xstore {exch store} bdef
% operator abbreviations
/c  /clip ldef
/cc /concat ldef
/cp /closepath ldef
/gr /grestore ldef
/gs /gsave ldef
/mt /moveto ldef
/np /newpath ldef
/cm /currentmatrix ldef
/sm /setmatrix ldef
/rm /rmoveto ldef
/rl /rlineto ldef
/s {show newpath} bdef
/sc {setcmykcolor} bdef
/sr /setrgbcolor ldef
/sg /setgray ldef
/w /setlinewidth ldef
/j /setlinejoin ldef
/cap /setlinecap ldef
/rc {rectclip} bdef
/rf {rectfill} bdef
% page state control
/pgsv () def
/bpage {/pgsv save def} bdef
/epage {pgsv restore} bdef
/bplot /gsave ldef
/eplot {stroke grestore} bdef
% orientation switch
/portraitMode 0 def /landscapeMode 1 def /rotateMode 2 def
% coordinate system mappings
/dpi2point 0 def
% font control
/FontSize 0 def
/FMS {/FontSize xstore findfont [FontSize 0 0 FontSize neg 0 0]
  makefont setfont} bdef
/reencode {exch dup where {pop load} {pop StandardEncoding} ifelse
  exch dup 3 1 roll findfont dup length dict begin
  { 1 index /FID ne {def}{pop pop} ifelse } forall
  /Encoding exch def currentdict end definefont pop} bdef
/isroman {findfont /CharStrings get /Agrave known} bdef
/FMSR {3 1 roll 1 index dup isroman {reencode} {pop pop} ifelse
  exch FMS} bdef
/csm {1 dpi2point div -1 dpi2point div scale neg translate
 dup landscapeMode eq {pop -90 rotate}
  {rotateMode eq {90 rotate} if} ifelse} bdef
% line types: solid, dotted, dashed, dotdash
/SO { [] 0 setdash } bdef
/DO { [.5 dpi2point mul 4 dpi2point mul] 0 setdash } bdef
/DA { [6 dpi2point mul] 0 setdash } bdef
/DD { [.5 dpi2point mul 4 dpi2point mul 6 dpi2point mul 4
  dpi2point mul] 0 setdash } bdef
% macros for lines and objects
/L {lineto stroke} bdef
/MP {3 1 roll moveto 1 sub {rlineto} repeat} bdef
/AP {{rlineto} repeat} bdef
/PDlw -1 def
/W {/PDlw currentlinewidth def setlinewidth} def
/PP {closepath eofill} bdef
/DP {closepath stroke} bdef
/MR {4 -2 roll moveto dup  0 exch rlineto exch 0 rlineto
  neg 0 exch rlineto closepath} bdef
/FR {MR stroke} bdef
/PR {MR fill} bdef
/L1i {{currentfile picstr readhexstring pop} image} bdef
/tMatrix matrix def
/MakeOval {newpath tMatrix currentmatrix pop translate scale
0 0 1 0 360 arc tMatrix setmatrix} bdef
/FO {MakeOval stroke} bdef
/PO {MakeOval fill} bdef
/PD {currentlinewidth 2 div 0 360 arc fill
   PDlw -1 eq not {PDlw w /PDlw -1 def} if} def
/FA {newpath tMatrix currentmatrix pop translate scale
  0 0 1 5 -2 roll arc tMatrix setmatrix stroke} bdef
/PA {newpath tMatrix currentmatrix pop	translate 0 0 moveto scale
  0 0 1 5 -2 roll arc closepath tMatrix setmatrix fill} bdef
/FAn {newpath tMatrix currentmatrix pop translate scale
  0 0 1 5 -2 roll arcn tMatrix setmatrix stroke} bdef
/PAn {newpath tMatrix currentmatrix pop translate 0 0 moveto scale
  0 0 1 5 -2 roll arcn closepath tMatrix setmatrix fill} bdef
/vradius 0 def /hradius 0 def /lry 0 def
/lrx 0 def /uly 0 def /ulx 0 def /rad 0 def
/MRR {/vradius xdef /hradius xdef /lry xdef /lrx xdef /uly xdef
  /ulx xdef newpath tMatrix currentmatrix pop ulx hradius add uly
  vradius add translate hradius vradius scale 0 0 1 180 270 arc 
  tMatrix setmatrix lrx hradius sub uly vradius add translate
  hradius vradius scale 0 0 1 270 360 arc tMatrix setmatrix
  lrx hradius sub lry vradius sub translate hradius vradius scale
  0 0 1 0 90 arc tMatrix setmatrix ulx hradius add lry vradius sub
  translate hradius vradius scale 0 0 1 90 180 arc tMatrix setmatrix
  closepath} bdef
/FRR {MRR stroke } bdef
/PRR {MRR fill } bdef
/MlrRR {/lry xdef /lrx xdef /uly xdef /ulx xdef /rad lry uly sub 2 div def
  newpath tMatrix currentmatrix pop ulx rad add uly rad add translate
  rad rad scale 0 0 1 90 270 arc tMatrix setmatrix lrx rad sub lry rad
  sub translate rad rad scale 0 0 1 270 90 arc tMatrix setmatrix
  closepath} bdef
/FlrRR {MlrRR stroke } bdef
/PlrRR {MlrRR fill } bdef
/MtbRR {/lry xdef /lrx xdef /uly xdef /ulx xdef /rad lrx ulx sub 2 div def
  newpath tMatrix currentmatrix pop ulx rad add uly rad add translate
  rad rad scale 0 0 1 180 360 arc tMatrix setmatrix lrx rad sub lry rad
  sub translate rad rad scale 0 0 1 0 180 arc tMatrix setmatrix
  closepath} bdef
/FtbRR {MtbRR stroke } bdef
/PtbRR {MtbRR fill } bdef
/stri 6 array def /dtri 6 array def
/smat 6 array def /dmat 6 array def
/tmat1 6 array def /tmat2 6 array def /dif 3 array def
/asub {/ind2 exch def /ind1 exch def dup dup
  ind1 get exch ind2 get sub exch } bdef
/tri_to_matrix {
  2 0 asub 3 1 asub 4 0 asub 5 1 asub
  dup 0 get exch 1 get 7 -1 roll astore } bdef
/compute_transform {
  dmat dtri tri_to_matrix tmat1 invertmatrix 
  smat stri tri_to_matrix tmat2 concatmatrix } bdef
/ds {stri astore pop} bdef
/dt {dtri astore pop} bdef
/db {2 copy /cols xdef /rows xdef mul dup 3 mul string
  currentfile 
  3 index 0 eq {/ASCIIHexDecode filter}
  {/ASCII85Decode filter 3 index 2 eq {/RunLengthDecode filter} if }
  ifelse exch readstring pop
  dup 0 3 index getinterval /rbmap xdef
  dup 2 index dup getinterval /gbmap xdef
  1 index dup 2 mul exch getinterval /bbmap xdef pop pop}bdef
/it {gs np dtri aload pop moveto lineto lineto cp c
  cols rows 8 compute_transform 
  rbmap gbmap bbmap true 3 colorimage gr}bdef
/il {newpath moveto lineto stroke}bdef
currentdict end def
%%EndProlog

%%BeginSetup
MathWorks begin

0 cap

end
%%EndSetup

%%Page: 1 1
%%BeginPageSetup
%%PageBoundingBox:    26   186   585   606
MathWorks begin
bpage
%%EndPageSetup

%%BeginObject: obj1
bplot

/dpi2point 12 def
portraitMode 0312 7272 csm

    0     0  6719  5033 rc
86 dict begin %Colortable dictionary
/c0 { 0.000000 0.000000 0.000000 sr} bdef
/c1 { 1.000000 1.000000 1.000000 sr} bdef
/c2 { 0.900000 0.000000 0.000000 sr} bdef
/c3 { 0.000000 0.820000 0.000000 sr} bdef
/c4 { 0.000000 0.000000 0.800000 sr} bdef
/c5 { 0.910000 0.820000 0.320000 sr} bdef
/c6 { 1.000000 0.260000 0.820000 sr} bdef
/c7 { 0.000000 0.820000 0.820000 sr} bdef
c0
1 j
1 sg
   0    0 6720 5034 rf
6 w
0 4102 5208 0 0 -4102 873 4479 4 MP
PP
-5208 0 0 4102 5208 0 0 -4102 873 4479 5 MP stroke
4 w
DO
0 sg
 873 4479 mt 6081 4479 L
6081 4479 mt 6081 4479 L
 873 4068 mt 6081 4068 L
6081 4068 mt 6081 4068 L
 873 3658 mt 6081 3658 L
6081 3658 mt 6081 3658 L
 873 3248 mt 6081 3248 L
6081 3248 mt 6081 3248 L
 873 2838 mt 6081 2838 L
6081 2838 mt 6081 2838 L
 873 2428 mt 6081 2428 L
6081 2428 mt 6081 2428 L
 873 2017 mt 6081 2017 L
6081 2017 mt 6081 2017 L
 873 1607 mt 6081 1607 L
6081 1607 mt 6081 1607 L
 873 1197 mt 6081 1197 L
6081 1197 mt 6081 1197 L
 873  787 mt 6081  787 L
6081  787 mt 6081  787 L
 873  377 mt 6081  377 L
6081  377 mt 6081  377 L
SO
6 w
 873 4479 mt 6081 4479 L
 873  377 mt 6081  377 L
 873 4479 mt  873  377 L
6081 4479 mt 6081  377 L
 873 4479 mt 6081 4479 L
 873 4479 mt  873  377 L
 873 4479 mt  873 4426 L
 873  377 mt  873  429 L
%%IncludeResource: font Helvetica
/Helvetica /ISOLatin1Encoding 120 FMSR

 703 4624 mt 
(-100) s
1393 4479 mt 1393 4426 L
1393  377 mt 1393  429 L
1257 4624 mt 
(-80) s
1914 4479 mt 1914 4426 L
1914  377 mt 1914  429 L
1778 4624 mt 
(-60) s
2435 4479 mt 2435 4426 L
2435  377 mt 2435  429 L
2299 4624 mt 
(-40) s
2956 4479 mt 2956 4426 L
2956  377 mt 2956  429 L
2820 4624 mt 
(-20) s
3477 4479 mt 3477 4426 L
3477  377 mt 3477  429 L
3444 4624 mt 
(0) s
3997 4479 mt 3997 4426 L
3997  377 mt 3997  429 L
3931 4624 mt 
(20) s
4518 4479 mt 4518 4426 L
4518  377 mt 4518  429 L
4452 4624 mt 
(40) s
5039 4479 mt 5039 4426 L
5039  377 mt 5039  429 L
4973 4624 mt 
(60) s
5560 4479 mt 5560 4426 L
5560  377 mt 5560  429 L
5494 4624 mt 
(80) s
6081 4479 mt 6081 4426 L
6081  377 mt 6081  429 L
5981 4624 mt 
(100) s
 873 4479 mt  925 4479 L
6081 4479 mt 6028 4479 L
 772 4523 mt 
(0) s
 873 4068 mt  925 4068 L
6081 4068 mt 6028 4068 L
 672 4112 mt 
(0.1) s
 873 3658 mt  925 3658 L
6081 3658 mt 6028 3658 L
 672 3702 mt 
(0.2) s
 873 3248 mt  925 3248 L
6081 3248 mt 6028 3248 L
 672 3292 mt 
(0.3) s
 873 2838 mt  925 2838 L
6081 2838 mt 6028 2838 L
 672 2882 mt 
(0.4) s
 873 2428 mt  925 2428 L
6081 2428 mt 6028 2428 L
 672 2472 mt 
(0.5) s
 873 2017 mt  925 2017 L
6081 2017 mt 6028 2017 L
 672 2061 mt 
(0.6) s
 873 1607 mt  925 1607 L
6081 1607 mt 6028 1607 L
 672 1651 mt 
(0.7) s
 873 1197 mt  925 1197 L
6081 1197 mt 6028 1197 L
 672 1241 mt 
(0.8) s
 873  787 mt  925  787 L
6081  787 mt 6028  787 L
 672  831 mt 
(0.9) s
 873  377 mt  925  377 L
6081  377 mt 6028  377 L
 772  421 mt 
(1) s
 873 4479 mt 6081 4479 L
 873  377 mt 6081  377 L
 873 4479 mt  873  377 L
6081 4479 mt 6081  377 L
gs 873 377 5209 4103 rc
12 w
/c8 { 0.000000 0.000000 1.000000 sr} bdef
c8
27 0 26 0 26 0 26 0 26 0 26 0 26 0 26 0 
26 0 26 0 26 0 26 0 26 0 26 0 26 0 26 0 
26 0 26 0 26 0 26 0 26 0 26 0 26 0 26 0 
26 0 27 0 26 0 26 0 26 0 26 0 26 0 26 -1 
26 0 26 0 26 0 26 0 26 0 26 0 26 0 26 0 
26 0 26 0 26 0 26 0 26 0 26 0 26 0 26 0 
26 0 26 0 27 0 26 0 26 0 26 0 26 0 26 0 
26 0 26 0 26 0 26 0 26 0 26 0 26 0 26 0 
26 0 26 -1 26 0 26 0 26 0 26 0 26 0 26 0 
26 0 26 0 26 0 27 0 26 0 26 0 26 0 26 0 
26 0 26 0 26 0 26 0 26 0 26 0 26 0 26 0 
26 0 26 0 26 0 26 0 26 0 26 0 26 0 26 0 
26 0 26 0 26 0 26 0 27 0 26 0 26 0 26 0 
26 0 26 0 26 0 26 0 26 0 26 0 26 0 26 0 
26 0 26 0 26 0 26 0 26 0 26 0 26 0 26 0 
26 0 26 0 26 0 26 0 26 0 27 0 26 0 26 0 
26 0 26 0 26 0 26 0 26 0 26 0 26 1 26 0 
26 0 26 0 26 0 26 0 26 0 26 0 26 0 26 0 
26 0 26 0 26 0 26 0 26 0 26 0 27 0 26 0 
26 0 26 0 26 0 26 0 26 0 26 0 26 0 26 0 
26 0 26 0 26 0 26 0 26 0 26 0 26 0 26 0 
26 1 26 0 26 -1 26 1 26 0 26 0 26 0 27 0 
26 0 26 0 26 0 26 0 26 0 26 0 26 0 26 0 
26 0 26 0 26 0 26 0 26 0 26 0 26 0 26 0 
26 0 26 0 26 0 26 0 26 0 26 0 26 0 26 1 
873 4475 201 MP stroke
gr

12 w
c8
 855 4475 mt  891 4475 L
 873 4457 mt  873 4493 L
 881 4476 mt  917 4476 L
 899 4458 mt  899 4494 L
 907 4476 mt  943 4476 L
 925 4458 mt  925 4494 L
 933 4476 mt  969 4476 L
 951 4458 mt  951 4494 L
 959 4476 mt  995 4476 L
 977 4458 mt  977 4494 L
 985 4476 mt 1021 4476 L
1003 4458 mt 1003 4494 L
1011 4476 mt 1047 4476 L
1029 4458 mt 1029 4494 L
1037 4476 mt 1073 4476 L
1055 4458 mt 1055 4494 L
1063 4476 mt 1099 4476 L
1081 4458 mt 1081 4494 L
1089 4476 mt 1125 4476 L
1107 4458 mt 1107 4494 L
1115 4476 mt 1151 4476 L
1133 4458 mt 1133 4494 L
1141 4476 mt 1177 4476 L
1159 4458 mt 1159 4494 L
1167 4476 mt 1203 4476 L
1185 4458 mt 1185 4494 L
1193 4476 mt 1229 4476 L
1211 4458 mt 1211 4494 L
1219 4476 mt 1255 4476 L
1237 4458 mt 1237 4494 L
1245 4476 mt 1281 4476 L
1263 4458 mt 1263 4494 L
1271 4476 mt 1307 4476 L
1289 4458 mt 1289 4494 L
1297 4476 mt 1333 4476 L
1315 4458 mt 1315 4494 L
1323 4476 mt 1359 4476 L
1341 4458 mt 1341 4494 L
1349 4476 mt 1385 4476 L
1367 4458 mt 1367 4494 L
1375 4476 mt 1411 4476 L
1393 4458 mt 1393 4494 L
1401 4476 mt 1437 4476 L
1419 4458 mt 1419 4494 L
1427 4476 mt 1463 4476 L
1445 4458 mt 1445 4494 L
1453 4476 mt 1489 4476 L
1471 4458 mt 1471 4494 L
1479 4476 mt 1515 4476 L
1497 4458 mt 1497 4494 L
1506 4476 mt 1542 4476 L
1524 4458 mt 1524 4494 L
1532 4476 mt 1568 4476 L
1550 4458 mt 1550 4494 L
1558 4476 mt 1594 4476 L
1576 4458 mt 1576 4494 L
1584 4476 mt 1620 4476 L
1602 4458 mt 1602 4494 L
1610 4477 mt 1646 4477 L
1628 4459 mt 1628 4495 L
1636 4476 mt 1672 4476 L
1654 4458 mt 1654 4494 L
1662 4476 mt 1698 4476 L
1680 4458 mt 1680 4494 L
1688 4477 mt 1724 4477 L
1706 4459 mt 1706 4495 L
1714 4477 mt 1750 4477 L
1732 4459 mt 1732 4495 L
1740 4477 mt 1776 4477 L
1758 4459 mt 1758 4495 L
1766 4477 mt 1802 4477 L
1784 4459 mt 1784 4495 L
1792 4477 mt 1828 4477 L
1810 4459 mt 1810 4495 L
1818 4477 mt 1854 4477 L
1836 4459 mt 1836 4495 L
1844 4477 mt 1880 4477 L
1862 4459 mt 1862 4495 L
1870 4477 mt 1906 4477 L
1888 4459 mt 1888 4495 L
1896 4477 mt 1932 4477 L
1914 4459 mt 1914 4495 L
1922 4477 mt 1958 4477 L
1940 4459 mt 1940 4495 L
1948 4477 mt 1984 4477 L
1966 4459 mt 1966 4495 L
1974 4477 mt 2010 4477 L
1992 4459 mt 1992 4495 L
2000 4477 mt 2036 4477 L
2018 4459 mt 2018 4495 L
2026 4477 mt 2062 4477 L
2044 4459 mt 2044 4495 L
2052 4477 mt 2088 4477 L
2070 4459 mt 2070 4495 L
2078 4477 mt 2114 4477 L
2096 4459 mt 2096 4495 L
2104 4477 mt 2140 4477 L
2122 4459 mt 2122 4495 L
2130 4477 mt 2166 4477 L
2148 4459 mt 2148 4495 L
2157 4477 mt 2193 4477 L
2175 4459 mt 2175 4495 L
2183 4477 mt 2219 4477 L
2201 4459 mt 2201 4495 L
2209 4477 mt 2245 4477 L
2227 4459 mt 2227 4495 L
2235 4477 mt 2271 4477 L
2253 4459 mt 2253 4495 L
2261 4477 mt 2297 4477 L
2279 4459 mt 2279 4495 L
2287 4477 mt 2323 4477 L
2305 4459 mt 2305 4495 L
2313 4477 mt 2349 4477 L
2331 4459 mt 2331 4495 L
2339 4477 mt 2375 4477 L
2357 4459 mt 2357 4495 L
2365 4477 mt 2401 4477 L
2383 4459 mt 2383 4495 L
2391 4477 mt 2427 4477 L
2409 4459 mt 2409 4495 L
2417 4477 mt 2453 4477 L
2435 4459 mt 2435 4495 L
2443 4477 mt 2479 4477 L
2461 4459 mt 2461 4495 L
2469 4477 mt 2505 4477 L
2487 4459 mt 2487 4495 L
2495 4477 mt 2531 4477 L
2513 4459 mt 2513 4495 L
2521 4477 mt 2557 4477 L
2539 4459 mt 2539 4495 L
2547 4477 mt 2583 4477 L
2565 4459 mt 2565 4495 L
2573 4478 mt 2609 4478 L
2591 4460 mt 2591 4496 L
2599 4478 mt 2635 4478 L
2617 4460 mt 2617 4496 L
2625 4478 mt 2661 4478 L
2643 4460 mt 2643 4496 L
2651 4478 mt 2687 4478 L
2669 4460 mt 2669 4496 L
2677 4478 mt 2713 4478 L
2695 4460 mt 2695 4496 L
2703 4478 mt 2739 4478 L
2721 4460 mt 2721 4496 L
2729 4478 mt 2765 4478 L
2747 4460 mt 2747 4496 L
2755 4478 mt 2791 4478 L
2773 4460 mt 2773 4496 L
2781 4478 mt 2817 4478 L
2799 4460 mt 2799 4496 L
2808 4478 mt 2844 4478 L
2826 4460 mt 2826 4496 L
2834 4478 mt 2870 4478 L
2852 4460 mt 2852 4496 L
2860 4478 mt 2896 4478 L
2878 4460 mt 2878 4496 L
2886 4478 mt 2922 4478 L
2904 4460 mt 2904 4496 L
2912 4478 mt 2948 4478 L
2930 4460 mt 2930 4496 L
2938 4478 mt 2974 4478 L
2956 4460 mt 2956 4496 L
2964 4478 mt 3000 4478 L
2982 4460 mt 2982 4496 L
2990 4478 mt 3026 4478 L
3008 4460 mt 3008 4496 L
3016 4478 mt 3052 4478 L
3034 4460 mt 3034 4496 L
3042 4478 mt 3078 4478 L
3060 4460 mt 3060 4496 L
3068 4478 mt 3104 4478 L
3086 4460 mt 3086 4496 L
3094 4478 mt 3130 4478 L
3112 4460 mt 3112 4496 L
3120 4478 mt 3156 4478 L
3138 4460 mt 3138 4496 L
3146 4478 mt 3182 4478 L
3164 4460 mt 3164 4496 L
3172 4478 mt 3208 4478 L
3190 4460 mt 3190 4496 L
3198 4478 mt 3234 4478 L
3216 4460 mt 3216 4496 L
3224 4478 mt 3260 4478 L
3242 4460 mt 3242 4496 L
3250 4478 mt 3286 4478 L
3268 4460 mt 3268 4496 L
3276 4478 mt 3312 4478 L
3294 4460 mt 3294 4496 L
3302 4478 mt 3338 4478 L
3320 4460 mt 3320 4496 L
3328 4478 mt 3364 4478 L
3346 4460 mt 3346 4496 L
3354 4478 mt 3390 4478 L
3372 4460 mt 3372 4496 L
3380 4478 mt 3416 4478 L
3398 4460 mt 3398 4496 L
3406 4478 mt 3442 4478 L
3424 4460 mt 3424 4496 L
3432 4478 mt 3468 4478 L
3450 4460 mt 3450 4496 L
3459 4478 mt 3495 4478 L
3477 4460 mt 3477 4496 L
3485 4478 mt 3521 4478 L
3503 4460 mt 3503 4496 L
3511 4478 mt 3547 4478 L
3529 4460 mt 3529 4496 L
3537 4478 mt 3573 4478 L
3555 4460 mt 3555 4496 L
3563 4478 mt 3599 4478 L
3581 4460 mt 3581 4496 L
3589 4478 mt 3625 4478 L
3607 4460 mt 3607 4496 L
3615 4478 mt 3651 4478 L
3633 4460 mt 3633 4496 L
3641 4478 mt 3677 4478 L
3659 4460 mt 3659 4496 L
3667 4478 mt 3703 4478 L
3685 4460 mt 3685 4496 L
3693 4478 mt 3729 4478 L
3711 4460 mt 3711 4496 L
3719 4478 mt 3755 4478 L
3737 4460 mt 3737 4496 L
3745 4478 mt 3781 4478 L
3763 4460 mt 3763 4496 L
3771 4478 mt 3807 4478 L
3789 4460 mt 3789 4496 L
3797 4478 mt 3833 4478 L
3815 4460 mt 3815 4496 L
3823 4478 mt 3859 4478 L
3841 4460 mt 3841 4496 L
3849 4478 mt 3885 4478 L
3867 4460 mt 3867 4496 L
3875 4478 mt 3911 4478 L
3893 4460 mt 3893 4496 L
3901 4478 mt 3937 4478 L
3919 4460 mt 3919 4496 L
3927 4478 mt 3963 4478 L
3945 4460 mt 3945 4496 L
3953 4478 mt 3989 4478 L
3971 4460 mt 3971 4496 L
3979 4478 mt 4015 4478 L
3997 4460 mt 3997 4496 L
4005 4478 mt 4041 4478 L
4023 4460 mt 4023 4496 L
4031 4478 mt 4067 4478 L
4049 4460 mt 4049 4496 L
4057 4478 mt 4093 4478 L
4075 4460 mt 4075 4496 L
4083 4478 mt 4119 4478 L
4101 4460 mt 4101 4496 L
4110 4478 mt 4146 4478 L
4128 4460 mt 4128 4496 L
4136 4478 mt 4172 4478 L
4154 4460 mt 4154 4496 L
4162 4478 mt 4198 4478 L
4180 4460 mt 4180 4496 L
4188 4478 mt 4224 4478 L
4206 4460 mt 4206 4496 L
4214 4478 mt 4250 4478 L
4232 4460 mt 4232 4496 L
4240 4478 mt 4276 4478 L
4258 4460 mt 4258 4496 L
4266 4478 mt 4302 4478 L
4284 4460 mt 4284 4496 L
4292 4478 mt 4328 4478 L
4310 4460 mt 4310 4496 L
4318 4478 mt 4354 4478 L
4336 4460 mt 4336 4496 L
4344 4478 mt 4380 4478 L
4362 4460 mt 4362 4496 L
4370 4477 mt 4406 4477 L
4388 4459 mt 4388 4495 L
4396 4477 mt 4432 4477 L
4414 4459 mt 4414 4495 L
4422 4477 mt 4458 4477 L
4440 4459 mt 4440 4495 L
4448 4477 mt 4484 4477 L
4466 4459 mt 4466 4495 L
4474 4477 mt 4510 4477 L
4492 4459 mt 4492 4495 L
4500 4477 mt 4536 4477 L
4518 4459 mt 4518 4495 L
4526 4477 mt 4562 4477 L
4544 4459 mt 4544 4495 L
4552 4477 mt 4588 4477 L
4570 4459 mt 4570 4495 L
4578 4477 mt 4614 4477 L
4596 4459 mt 4596 4495 L
4604 4477 mt 4640 4477 L
4622 4459 mt 4622 4495 L
4630 4477 mt 4666 4477 L
4648 4459 mt 4648 4495 L
4656 4477 mt 4692 4477 L
4674 4459 mt 4674 4495 L
4682 4477 mt 4718 4477 L
4700 4459 mt 4700 4495 L
4708 4477 mt 4744 4477 L
4726 4459 mt 4726 4495 L
4734 4477 mt 4770 4477 L
4752 4459 mt 4752 4495 L
4761 4477 mt 4797 4477 L
4779 4459 mt 4779 4495 L
4787 4477 mt 4823 4477 L
4805 4459 mt 4805 4495 L
4813 4477 mt 4849 4477 L
4831 4459 mt 4831 4495 L
4839 4477 mt 4875 4477 L
4857 4459 mt 4857 4495 L
4865 4477 mt 4901 4477 L
4883 4459 mt 4883 4495 L
4891 4477 mt 4927 4477 L
4909 4459 mt 4909 4495 L
4917 4477 mt 4953 4477 L
4935 4459 mt 4935 4495 L
4943 4477 mt 4979 4477 L
4961 4459 mt 4961 4495 L
4969 4477 mt 5005 4477 L
4987 4459 mt 4987 4495 L
4995 4477 mt 5031 4477 L
5013 4459 mt 5013 4495 L
5021 4477 mt 5057 4477 L
5039 4459 mt 5039 4495 L
5047 4477 mt 5083 4477 L
5065 4459 mt 5065 4495 L
5073 4477 mt 5109 4477 L
5091 4459 mt 5091 4495 L
5099 4477 mt 5135 4477 L
5117 4459 mt 5117 4495 L
5125 4477 mt 5161 4477 L
5143 4459 mt 5143 4495 L
5151 4477 mt 5187 4477 L
5169 4459 mt 5169 4495 L
5177 4477 mt 5213 4477 L
5195 4459 mt 5195 4495 L
5203 4477 mt 5239 4477 L
5221 4459 mt 5221 4495 L
5229 4477 mt 5265 4477 L
5247 4459 mt 5247 4495 L
5255 4476 mt 5291 4476 L
5273 4458 mt 5273 4494 L
5281 4476 mt 5317 4476 L
5299 4458 mt 5299 4494 L
5307 4476 mt 5343 4476 L
5325 4458 mt 5325 4494 L
5333 4476 mt 5369 4476 L
5351 4458 mt 5351 4494 L
5359 4476 mt 5395 4476 L
5377 4458 mt 5377 4494 L
5385 4476 mt 5421 4476 L
5403 4458 mt 5403 4494 L
5412 4476 mt 5448 4476 L
5430 4458 mt 5430 4494 L
5438 4476 mt 5474 4476 L
5456 4458 mt 5456 4494 L
5464 4476 mt 5500 4476 L
5482 4458 mt 5482 4494 L
5490 4476 mt 5526 4476 L
5508 4458 mt 5508 4494 L
5516 4476 mt 5552 4476 L
5534 4458 mt 5534 4494 L
5542 4476 mt 5578 4476 L
5560 4458 mt 5560 4494 L
5568 4476 mt 5604 4476 L
5586 4458 mt 5586 4494 L
5594 4476 mt 5630 4476 L
5612 4458 mt 5612 4494 L
5620 4476 mt 5656 4476 L
5638 4458 mt 5638 4494 L
5646 4476 mt 5682 4476 L
5664 4458 mt 5664 4494 L
5672 4476 mt 5708 4476 L
5690 4458 mt 5690 4494 L
5698 4476 mt 5734 4476 L
5716 4458 mt 5716 4494 L
5724 4476 mt 5760 4476 L
5742 4458 mt 5742 4494 L
5750 4476 mt 5786 4476 L
5768 4458 mt 5768 4494 L
5776 4476 mt 5812 4476 L
5794 4458 mt 5794 4494 L
5802 4476 mt 5838 4476 L
5820 4458 mt 5820 4494 L
5828 4476 mt 5864 4476 L
5846 4458 mt 5846 4494 L
5854 4476 mt 5890 4476 L
5872 4458 mt 5872 4494 L
5880 4476 mt 5916 4476 L
5898 4458 mt 5898 4494 L
5906 4476 mt 5942 4476 L
5924 4458 mt 5924 4494 L
5932 4476 mt 5968 4476 L
5950 4458 mt 5950 4494 L
5958 4476 mt 5994 4476 L
5976 4458 mt 5976 4494 L
5984 4476 mt 6020 4476 L
6002 4458 mt 6002 4494 L
6010 4476 mt 6046 4476 L
6028 4458 mt 6028 4494 L
6036 4476 mt 6072 4476 L
6054 4458 mt 6054 4494 L
6063 4476 mt 6099 4476 L
6081 4458 mt 6081 4494 L
 861 4463 mt  885 4487 L
 885 4463 mt  861 4487 L
 887 4464 mt  911 4488 L
 911 4464 mt  887 4488 L
 913 4464 mt  937 4488 L
 937 4464 mt  913 4488 L
 939 4464 mt  963 4488 L
 963 4464 mt  939 4488 L
 965 4464 mt  989 4488 L
 989 4464 mt  965 4488 L
 991 4464 mt 1015 4488 L
1015 4464 mt  991 4488 L
1017 4464 mt 1041 4488 L
1041 4464 mt 1017 4488 L
1043 4464 mt 1067 4488 L
1067 4464 mt 1043 4488 L
1069 4464 mt 1093 4488 L
1093 4464 mt 1069 4488 L
1095 4464 mt 1119 4488 L
1119 4464 mt 1095 4488 L
1121 4464 mt 1145 4488 L
1145 4464 mt 1121 4488 L
1147 4464 mt 1171 4488 L
1171 4464 mt 1147 4488 L
1173 4464 mt 1197 4488 L
1197 4464 mt 1173 4488 L
1199 4464 mt 1223 4488 L
1223 4464 mt 1199 4488 L
1225 4464 mt 1249 4488 L
1249 4464 mt 1225 4488 L
1251 4464 mt 1275 4488 L
1275 4464 mt 1251 4488 L
1277 4464 mt 1301 4488 L
1301 4464 mt 1277 4488 L
1303 4464 mt 1327 4488 L
1327 4464 mt 1303 4488 L
1329 4464 mt 1353 4488 L
1353 4464 mt 1329 4488 L
1355 4464 mt 1379 4488 L
1379 4464 mt 1355 4488 L
1381 4464 mt 1405 4488 L
1405 4464 mt 1381 4488 L
1407 4464 mt 1431 4488 L
1431 4464 mt 1407 4488 L
1433 4464 mt 1457 4488 L
1457 4464 mt 1433 4488 L
1459 4464 mt 1483 4488 L
1483 4464 mt 1459 4488 L
1485 4464 mt 1509 4488 L
1509 4464 mt 1485 4488 L
1512 4464 mt 1536 4488 L
1536 4464 mt 1512 4488 L
1538 4464 mt 1562 4488 L
1562 4464 mt 1538 4488 L
1564 4464 mt 1588 4488 L
1588 4464 mt 1564 4488 L
1590 4464 mt 1614 4488 L
1614 4464 mt 1590 4488 L
1616 4465 mt 1640 4489 L
1640 4465 mt 1616 4489 L
1642 4464 mt 1666 4488 L
1666 4464 mt 1642 4488 L
1668 4464 mt 1692 4488 L
1692 4464 mt 1668 4488 L
1694 4465 mt 1718 4489 L
1718 4465 mt 1694 4489 L
1720 4465 mt 1744 4489 L
1744 4465 mt 1720 4489 L
1746 4465 mt 1770 4489 L
1770 4465 mt 1746 4489 L
1772 4465 mt 1796 4489 L
1796 4465 mt 1772 4489 L
1798 4465 mt 1822 4489 L
1822 4465 mt 1798 4489 L
1824 4465 mt 1848 4489 L
1848 4465 mt 1824 4489 L
1850 4465 mt 1874 4489 L
1874 4465 mt 1850 4489 L
1876 4465 mt 1900 4489 L
1900 4465 mt 1876 4489 L
1902 4465 mt 1926 4489 L
1926 4465 mt 1902 4489 L
1928 4465 mt 1952 4489 L
1952 4465 mt 1928 4489 L
1954 4465 mt 1978 4489 L
1978 4465 mt 1954 4489 L
1980 4465 mt 2004 4489 L
2004 4465 mt 1980 4489 L
2006 4465 mt 2030 4489 L
2030 4465 mt 2006 4489 L
2032 4465 mt 2056 4489 L
2056 4465 mt 2032 4489 L
2058 4465 mt 2082 4489 L
2082 4465 mt 2058 4489 L
2084 4465 mt 2108 4489 L
2108 4465 mt 2084 4489 L
2110 4465 mt 2134 4489 L
2134 4465 mt 2110 4489 L
2136 4465 mt 2160 4489 L
2160 4465 mt 2136 4489 L
2163 4465 mt 2187 4489 L
2187 4465 mt 2163 4489 L
2189 4465 mt 2213 4489 L
2213 4465 mt 2189 4489 L
2215 4465 mt 2239 4489 L
2239 4465 mt 2215 4489 L
2241 4465 mt 2265 4489 L
2265 4465 mt 2241 4489 L
2267 4465 mt 2291 4489 L
2291 4465 mt 2267 4489 L
2293 4465 mt 2317 4489 L
2317 4465 mt 2293 4489 L
2319 4465 mt 2343 4489 L
2343 4465 mt 2319 4489 L
2345 4465 mt 2369 4489 L
2369 4465 mt 2345 4489 L
2371 4465 mt 2395 4489 L
2395 4465 mt 2371 4489 L
2397 4465 mt 2421 4489 L
2421 4465 mt 2397 4489 L
2423 4465 mt 2447 4489 L
2447 4465 mt 2423 4489 L
2449 4465 mt 2473 4489 L
2473 4465 mt 2449 4489 L
2475 4465 mt 2499 4489 L
2499 4465 mt 2475 4489 L
2501 4465 mt 2525 4489 L
2525 4465 mt 2501 4489 L
2527 4465 mt 2551 4489 L
2551 4465 mt 2527 4489 L
2553 4465 mt 2577 4489 L
2577 4465 mt 2553 4489 L
2579 4466 mt 2603 4490 L
2603 4466 mt 2579 4490 L
2605 4466 mt 2629 4490 L
2629 4466 mt 2605 4490 L
2631 4466 mt 2655 4490 L
2655 4466 mt 2631 4490 L
2657 4466 mt 2681 4490 L
2681 4466 mt 2657 4490 L
2683 4466 mt 2707 4490 L
2707 4466 mt 2683 4490 L
2709 4466 mt 2733 4490 L
2733 4466 mt 2709 4490 L
2735 4466 mt 2759 4490 L
2759 4466 mt 2735 4490 L
2761 4466 mt 2785 4490 L
2785 4466 mt 2761 4490 L
2787 4466 mt 2811 4490 L
2811 4466 mt 2787 4490 L
2814 4466 mt 2838 4490 L
2838 4466 mt 2814 4490 L
2840 4466 mt 2864 4490 L
2864 4466 mt 2840 4490 L
2866 4466 mt 2890 4490 L
2890 4466 mt 2866 4490 L
2892 4466 mt 2916 4490 L
2916 4466 mt 2892 4490 L
2918 4466 mt 2942 4490 L
2942 4466 mt 2918 4490 L
2944 4466 mt 2968 4490 L
2968 4466 mt 2944 4490 L
2970 4466 mt 2994 4490 L
2994 4466 mt 2970 4490 L
2996 4466 mt 3020 4490 L
3020 4466 mt 2996 4490 L
3022 4466 mt 3046 4490 L
3046 4466 mt 3022 4490 L
3048 4466 mt 3072 4490 L
3072 4466 mt 3048 4490 L
3074 4466 mt 3098 4490 L
3098 4466 mt 3074 4490 L
3100 4466 mt 3124 4490 L
3124 4466 mt 3100 4490 L
3126 4466 mt 3150 4490 L
3150 4466 mt 3126 4490 L
3152 4466 mt 3176 4490 L
3176 4466 mt 3152 4490 L
3178 4466 mt 3202 4490 L
3202 4466 mt 3178 4490 L
3204 4466 mt 3228 4490 L
3228 4466 mt 3204 4490 L
3230 4466 mt 3254 4490 L
3254 4466 mt 3230 4490 L
3256 4466 mt 3280 4490 L
3280 4466 mt 3256 4490 L
3282 4466 mt 3306 4490 L
3306 4466 mt 3282 4490 L
3308 4466 mt 3332 4490 L
3332 4466 mt 3308 4490 L
3334 4466 mt 3358 4490 L
3358 4466 mt 3334 4490 L
3360 4466 mt 3384 4490 L
3384 4466 mt 3360 4490 L
3386 4466 mt 3410 4490 L
3410 4466 mt 3386 4490 L
3412 4466 mt 3436 4490 L
3436 4466 mt 3412 4490 L
3438 4466 mt 3462 4490 L
3462 4466 mt 3438 4490 L
3465 4466 mt 3489 4490 L
3489 4466 mt 3465 4490 L
3491 4466 mt 3515 4490 L
3515 4466 mt 3491 4490 L
3517 4466 mt 3541 4490 L
3541 4466 mt 3517 4490 L
3543 4466 mt 3567 4490 L
3567 4466 mt 3543 4490 L
3569 4466 mt 3593 4490 L
3593 4466 mt 3569 4490 L
3595 4466 mt 3619 4490 L
3619 4466 mt 3595 4490 L
3621 4466 mt 3645 4490 L
3645 4466 mt 3621 4490 L
3647 4466 mt 3671 4490 L
3671 4466 mt 3647 4490 L
3673 4466 mt 3697 4490 L
3697 4466 mt 3673 4490 L
3699 4466 mt 3723 4490 L
3723 4466 mt 3699 4490 L
3725 4466 mt 3749 4490 L
3749 4466 mt 3725 4490 L
3751 4466 mt 3775 4490 L
3775 4466 mt 3751 4490 L
3777 4466 mt 3801 4490 L
3801 4466 mt 3777 4490 L
3803 4466 mt 3827 4490 L
3827 4466 mt 3803 4490 L
3829 4466 mt 3853 4490 L
3853 4466 mt 3829 4490 L
3855 4466 mt 3879 4490 L
3879 4466 mt 3855 4490 L
3881 4466 mt 3905 4490 L
3905 4466 mt 3881 4490 L
3907 4466 mt 3931 4490 L
3931 4466 mt 3907 4490 L
3933 4466 mt 3957 4490 L
3957 4466 mt 3933 4490 L
3959 4466 mt 3983 4490 L
3983 4466 mt 3959 4490 L
3985 4466 mt 4009 4490 L
4009 4466 mt 3985 4490 L
4011 4466 mt 4035 4490 L
4035 4466 mt 4011 4490 L
4037 4466 mt 4061 4490 L
4061 4466 mt 4037 4490 L
4063 4466 mt 4087 4490 L
4087 4466 mt 4063 4490 L
4089 4466 mt 4113 4490 L
4113 4466 mt 4089 4490 L
4116 4466 mt 4140 4490 L
4140 4466 mt 4116 4490 L
4142 4466 mt 4166 4490 L
4166 4466 mt 4142 4490 L
4168 4466 mt 4192 4490 L
4192 4466 mt 4168 4490 L
4194 4466 mt 4218 4490 L
4218 4466 mt 4194 4490 L
4220 4466 mt 4244 4490 L
4244 4466 mt 4220 4490 L
4246 4466 mt 4270 4490 L
4270 4466 mt 4246 4490 L
4272 4466 mt 4296 4490 L
4296 4466 mt 4272 4490 L
4298 4466 mt 4322 4490 L
4322 4466 mt 4298 4490 L
4324 4466 mt 4348 4490 L
4348 4466 mt 4324 4490 L
4350 4466 mt 4374 4490 L
4374 4466 mt 4350 4490 L
4376 4465 mt 4400 4489 L
4400 4465 mt 4376 4489 L
4402 4465 mt 4426 4489 L
4426 4465 mt 4402 4489 L
4428 4465 mt 4452 4489 L
4452 4465 mt 4428 4489 L
4454 4465 mt 4478 4489 L
4478 4465 mt 4454 4489 L
4480 4465 mt 4504 4489 L
4504 4465 mt 4480 4489 L
4506 4465 mt 4530 4489 L
4530 4465 mt 4506 4489 L
4532 4465 mt 4556 4489 L
4556 4465 mt 4532 4489 L
4558 4465 mt 4582 4489 L
4582 4465 mt 4558 4489 L
4584 4465 mt 4608 4489 L
4608 4465 mt 4584 4489 L
4610 4465 mt 4634 4489 L
4634 4465 mt 4610 4489 L
4636 4465 mt 4660 4489 L
4660 4465 mt 4636 4489 L
4662 4465 mt 4686 4489 L
4686 4465 mt 4662 4489 L
4688 4465 mt 4712 4489 L
4712 4465 mt 4688 4489 L
4714 4465 mt 4738 4489 L
4738 4465 mt 4714 4489 L
4740 4465 mt 4764 4489 L
4764 4465 mt 4740 4489 L
4767 4465 mt 4791 4489 L
4791 4465 mt 4767 4489 L
4793 4465 mt 4817 4489 L
4817 4465 mt 4793 4489 L
4819 4465 mt 4843 4489 L
4843 4465 mt 4819 4489 L
4845 4465 mt 4869 4489 L
4869 4465 mt 4845 4489 L
4871 4465 mt 4895 4489 L
4895 4465 mt 4871 4489 L
4897 4465 mt 4921 4489 L
4921 4465 mt 4897 4489 L
4923 4465 mt 4947 4489 L
4947 4465 mt 4923 4489 L
4949 4465 mt 4973 4489 L
4973 4465 mt 4949 4489 L
4975 4465 mt 4999 4489 L
4999 4465 mt 4975 4489 L
5001 4465 mt 5025 4489 L
5025 4465 mt 5001 4489 L
5027 4465 mt 5051 4489 L
5051 4465 mt 5027 4489 L
5053 4465 mt 5077 4489 L
5077 4465 mt 5053 4489 L
5079 4465 mt 5103 4489 L
5103 4465 mt 5079 4489 L
5105 4465 mt 5129 4489 L
5129 4465 mt 5105 4489 L
5131 4465 mt 5155 4489 L
5155 4465 mt 5131 4489 L
5157 4465 mt 5181 4489 L
5181 4465 mt 5157 4489 L
5183 4465 mt 5207 4489 L
5207 4465 mt 5183 4489 L
5209 4465 mt 5233 4489 L
5233 4465 mt 5209 4489 L
5235 4465 mt 5259 4489 L
5259 4465 mt 5235 4489 L
5261 4464 mt 5285 4488 L
5285 4464 mt 5261 4488 L
5287 4464 mt 5311 4488 L
5311 4464 mt 5287 4488 L
5313 4464 mt 5337 4488 L
5337 4464 mt 5313 4488 L
5339 4464 mt 5363 4488 L
5363 4464 mt 5339 4488 L
5365 4464 mt 5389 4488 L
5389 4464 mt 5365 4488 L
5391 4464 mt 5415 4488 L
5415 4464 mt 5391 4488 L
5418 4464 mt 5442 4488 L
5442 4464 mt 5418 4488 L
5444 4464 mt 5468 4488 L
5468 4464 mt 5444 4488 L
5470 4464 mt 5494 4488 L
5494 4464 mt 5470 4488 L
5496 4464 mt 5520 4488 L
5520 4464 mt 5496 4488 L
5522 4464 mt 5546 4488 L
5546 4464 mt 5522 4488 L
5548 4464 mt 5572 4488 L
5572 4464 mt 5548 4488 L
5574 4464 mt 5598 4488 L
5598 4464 mt 5574 4488 L
5600 4464 mt 5624 4488 L
5624 4464 mt 5600 4488 L
5626 4464 mt 5650 4488 L
5650 4464 mt 5626 4488 L
5652 4464 mt 5676 4488 L
5676 4464 mt 5652 4488 L
5678 4464 mt 5702 4488 L
5702 4464 mt 5678 4488 L
5704 4464 mt 5728 4488 L
5728 4464 mt 5704 4488 L
5730 4464 mt 5754 4488 L
5754 4464 mt 5730 4488 L
5756 4464 mt 5780 4488 L
5780 4464 mt 5756 4488 L
5782 4464 mt 5806 4488 L
5806 4464 mt 5782 4488 L
5808 4464 mt 5832 4488 L
5832 4464 mt 5808 4488 L
5834 4464 mt 5858 4488 L
5858 4464 mt 5834 4488 L
5860 4464 mt 5884 4488 L
5884 4464 mt 5860 4488 L
5886 4464 mt 5910 4488 L
5910 4464 mt 5886 4488 L
5912 4464 mt 5936 4488 L
5936 4464 mt 5912 4488 L
5938 4464 mt 5962 4488 L
5962 4464 mt 5938 4488 L
5964 4464 mt 5988 4488 L
5988 4464 mt 5964 4488 L
5990 4464 mt 6014 4488 L
6014 4464 mt 5990 4488 L
6016 4464 mt 6040 4488 L
6040 4464 mt 6016 4488 L
6042 4464 mt 6066 4488 L
6066 4464 mt 6042 4488 L
6069 4464 mt 6093 4488 L
6093 4464 mt 6069 4488 L
gs 873 377 5209 4103 rc
/c9 { 0.000000 1.000000 0.000000 sr} bdef
c9
27 -254 26 94 26 34 26 -141 26 94 26 -176 26 136 26 -145 
26 34 26 -56 26 -85 26 -16 26 -41 26 -32 26 -56 26 51 
26 -43 26 23 26 -124 26 8 26 1 26 -138 26 8 26 -12 
26 -88 27 74 26 -149 26 52 26 -37 26 -52 26 -51 26 3 
26 -45 26 37 26 -30 26 -50 26 -99 26 82 26 -138 26 -29 
26 33 26 -72 26 -55 26 11 26 -45 26 -64 26 -9 26 -9 
26 -88 26 59 27 -70 26 -31 26 12 26 -75 26 -30 26 -38 
26 -67 26 -10 26 5 26 -42 26 -1 26 -74 26 -4 26 -59 
26 -32 26 -30 26 -28 26 -22 26 -31 26 -37 26 -28 26 -19 
26 -36 26 -70 26 24 27 -56 26 -27 26 -31 26 -37 26 -6 
26 -27 26 -50 26 -12 26 -36 26 -50 26 -6 26 -40 26 -41 
26 -32 26 -12 26 -34 26 -34 26 -26 26 -30 26 -42 26 -22 
26 -31 26 -29 26 -30 26 -30 27 29 26 32 26 30 26 28 
26 33 26 23 26 34 26 31 26 24 26 47 26 20 26 19 
26 43 26 16 26 31 26 39 26 8 26 50 26 24 26 32 
26 23 26 33 26 26 26 28 26 11 27 41 26 78 26 17 
26 -16 26 60 26 15 26 26 26 21 26 61 26 12 26 65 
26 -3 26 40 26 18 26 57 26 34 26 24 26 -63 26 131 
26 -21 26 66 26 49 26 -23 26 12 26 46 27 28 26 27 
26 66 26 62 26 -40 26 23 26 18 26 65 26 42 26 56 
26 -42 26 124 26 -12 26 37 26 -26 26 63 26 42 26 31 
26 41 26 84 26 -81 26 69 26 -13 26 -63 26 183 27 -23 
26 69 26 -7 26 -28 26 73 26 27 26 42 26 40 26 12 
26 11 26 43 26 77 26 -67 26 109 26 14 26 -70 26 152 
26 -6 26 53 26 97 26 50 26 -95 26 25 26 22 26 48 
873 1565 201 MP stroke
gr

c9
  18   18  873 1565 FO
  18   18  899 1613 FO
  18   18  925 1635 FO
  18   18  951 1660 FO
  18   18  977 1565 FO
  18   18 1003 1615 FO
  18   18 1029 1712 FO
  18   18 1055 1765 FO
  18   18 1081 1759 FO
  18   18 1107 1911 FO
  18   18 1133 1841 FO
  18   18 1159 1855 FO
  18   18 1185 1964 FO
  18   18 1211 1897 FO
  18   18 1237 1974 FO
  18   18 1263 2017 FO
  18   18 1289 2028 FO
  18   18 1315 2040 FO
  18   18 1341 2080 FO
  18   18 1367 2122 FO
  18   18 1393 2149 FO
  18   18 1419 2222 FO
  18   18 1445 2194 FO
  18   18 1471 2187 FO
  18   18 1497 2256 FO
  18   18 1524 2233 FO
  18   18 1550 2416 FO
  18   18 1576 2353 FO
  18   18 1602 2340 FO
  18   18 1628 2409 FO
  18   18 1654 2328 FO
  18   18 1680 2412 FO
  18   18 1706 2453 FO
  18   18 1732 2484 FO
  18   18 1758 2526 FO
  18   18 1784 2589 FO
  18   18 1810 2563 FO
  18   18 1836 2600 FO
  18   18 1862 2588 FO
  18   18 1888 2712 FO
  18   18 1914 2670 FO
  18   18 1940 2726 FO
  18   18 1966 2768 FO
  18   18 1992 2833 FO
  18   18 2018 2851 FO
  18   18 2044 2874 FO
  18   18 2070 2834 FO
  18   18 2096 2896 FO
  18   18 2122 2962 FO
  18   18 2148 2989 FO
  18   18 2175 3017 FO
  18   18 2201 3063 FO
  18   18 2227 3075 FO
  18   18 2253 3052 FO
  18   18 2279 3101 FO
  18   18 2305 3167 FO
  18   18 2331 3146 FO
  18   18 2357 3277 FO
  18   18 2383 3214 FO
  18   18 2409 3238 FO
  18   18 2435 3272 FO
  18   18 2461 3329 FO
  18   18 2487 3347 FO
  18   18 2513 3387 FO
  18   18 2539 3384 FO
  18   18 2565 3449 FO
  18   18 2591 3461 FO
  18   18 2617 3522 FO
  18   18 2643 3543 FO
  18   18 2669 3569 FO
  18   18 2695 3584 FO
  18   18 2721 3644 FO
  18   18 2747 3628 FO
  18   18 2773 3645 FO
  18   18 2799 3723 FO
  18   18 2826 3764 FO
  18   18 2852 3775 FO
  18   18 2878 3803 FO
  18   18 2904 3829 FO
  18   18 2930 3862 FO
  18   18 2956 3885 FO
  18   18 2982 3917 FO
  18   18 3008 3941 FO
  18   18 3034 3991 FO
  18   18 3060 3999 FO
  18   18 3086 4038 FO
  18   18 3112 4069 FO
  18   18 3138 4085 FO
  18   18 3164 4128 FO
  18   18 3190 4147 FO
  18   18 3216 4167 FO
  18   18 3242 4214 FO
  18   18 3268 4238 FO
  18   18 3294 4269 FO
  18   18 3320 4303 FO
  18   18 3346 4326 FO
  18   18 3372 4359 FO
  18   18 3398 4387 FO
  18   18 3424 4417 FO
  18   18 3450 4449 FO
  18   18 3477 4478 FO
  18   18 3503 4448 FO
  18   18 3529 4418 FO
  18   18 3555 4389 FO
  18   18 3581 4358 FO
  18   18 3607 4336 FO
  18   18 3633 4294 FO
  18   18 3659 4264 FO
  18   18 3685 4238 FO
  18   18 3711 4204 FO
  18   18 3737 4170 FO
  18   18 3763 4158 FO
  18   18 3789 4126 FO
  18   18 3815 4085 FO
  18   18 3841 4045 FO
  18   18 3867 4039 FO
  18   18 3893 3989 FO
  18   18 3919 3953 FO
  18   18 3945 3941 FO
  18   18 3971 3891 FO
  18   18 3997 3864 FO
  18   18 4023 3858 FO
  18   18 4049 3821 FO
  18   18 4075 3790 FO
  18   18 4101 3763 FO
  18   18 4128 3707 FO
  18   18 4154 3731 FO
  18   18 4180 3661 FO
  18   18 4206 3625 FO
  18   18 4232 3606 FO
  18   18 4258 3578 FO
  18   18 4284 3541 FO
  18   18 4310 3510 FO
  18   18 4336 3488 FO
  18   18 4362 3460 FO
  18   18 4388 3430 FO
  18   18 4414 3398 FO
  18   18 4440 3339 FO
  18   18 4466 3335 FO
  18   18 4492 3261 FO
  18   18 4518 3260 FO
  18   18 4544 3218 FO
  18   18 4570 3223 FO
  18   18 4596 3213 FO
  18   18 4622 3146 FO
  18   18 4648 3108 FO
  18   18 4674 3078 FO
  18   18 4700 3003 FO
  18   18 4726 3015 FO
  18   18 4752 2984 FO
  18   18 4779 2914 FO
  18   18 4805 2973 FO
  18   18 4831 2885 FO
  18   18 4857 2876 FO
  18   18 4883 2867 FO
  18   18 4909 2803 FO
  18   18 4935 2758 FO
  18   18 4961 2769 FO
  18   18 4987 2714 FO
  18   18 5013 2642 FO
  18   18 5039 2675 FO
  18   18 5065 2646 FO
  18   18 5091 2508 FO
  18   18 5117 2590 FO
  18   18 5143 2491 FO
  18   18 5169 2441 FO
  18   18 5195 2411 FO
  18   18 5221 2448 FO
  18   18 5247 2403 FO
  18   18 5273 2406 FO
  18   18 5299 2355 FO
  18   18 5325 2303 FO
  18   18 5351 2266 FO
  18   18 5377 2318 FO
  18   18 5403 2169 FO
  18   18 5430 2243 FO
  18   18 5456 2155 FO
  18   18 5482 2143 FO
  18   18 5508 2151 FO
  18   18 5534 2013 FO
  18   18 5560 2014 FO
  18   18 5586 2022 FO
  18   18 5612 1898 FO
  18   18 5638 1921 FO
  18   18 5664 1878 FO
  18   18 5690 1929 FO
  18   18 5716 1873 FO
  18   18 5742 1841 FO
  18   18 5768 1800 FO
  18   18 5794 1784 FO
  18   18 5820 1699 FO
  18   18 5846 1643 FO
  18   18 5872 1677 FO
  18   18 5898 1532 FO
  18   18 5924 1668 FO
  18   18 5950 1492 FO
  18   18 5976 1586 FO
  18   18 6002 1445 FO
  18   18 6028 1479 FO
  18   18 6054 1573 FO
  18   18 6081 1319 FO
gs 873 377 5209 4103 rc
/c10 { 1.000000 0.000000 0.000000 sr} bdef
c10
27 -114 26 -18 26 4 26 -20 26 -176 26 132 26 -201 26 55 
26 -43 26 -11 26 -117 26 -100 26 25 26 25 26 -46 26 -15 
26 71 26 -109 26 -88 26 -24 26 -31 26 -27 26 24 26 -108 
26 40 27 -103 26 6 26 -134 26 11 26 62 26 -162 26 23 
26 17 26 -143 26 33 26 -83 26 49 26 -87 26 -75 26 3 
26 5 26 -58 26 -76 26 -1 26 15 26 -101 26 -43 26 -18 
26 -31 26 -6 27 -5 26 -69 26 -13 26 -37 26 -47 26 4 
26 -92 26 -39 26 -52 26 -17 26 -20 26 -37 26 -10 26 -79 
26 -2 26 -33 26 -37 26 -36 26 -59 26 -26 26 -19 26 -24 
26 -30 26 -34 26 -55 27 -56 26 -8 26 -29 26 -39 26 -39 
26 -26 26 -50 26 -45 26 -12 26 -28 26 -44 26 -24 26 -50 
26 -36 26 -35 26 -37 26 -43 26 -27 26 -32 26 -38 26 -39 
26 -36 26 -32 26 -36 26 -36 27 35 26 36 26 35 26 32 
26 41 26 33 26 43 26 28 26 32 26 45 26 37 26 37 
26 29 26 44 26 36 26 18 26 39 26 39 26 65 26 18 
26 0 26 67 26 18 26 59 26 7 27 63 26 13 26 26 
26 56 26 35 26 45 26 29 26 31 26 37 26 11 26 64 
26 51 26 44 26 33 26 31 26 -15 26 68 26 67 26 42 
26 23 26 16 26 67 26 75 26 37 26 -11 27 54 26 15 
26 72 26 -14 26 99 26 5 26 23 26 60 26 -8 26 67 
26 58 26 -47 26 127 26 32 26 2 26 -43 26 131 26 83 
26 -35 26 84 26 -64 26 123 26 -65 26 58 26 161 27 14 
26 -6 26 38 26 -25 26 125 26 -59 26 76 26 115 26 22 
26 -55 26 159 26 -80 26 105 26 35 26 72 26 -11 26 7 
26 88 26 18 26 26 26 120 26 105 26 -118 26 157 26 -55 
873 816 201 MP stroke
gr

c10
0 j
18 23 -18 23 -18 -23 18 -23 873 839 5 MP
DP
18 23 -18 23 -18 -23 18 -23 899 784 5 MP
DP
18 23 -18 23 -18 -23 18 -23 925 941 5 MP
DP
18 23 -18 23 -18 -23 18 -23 951 823 5 MP
DP
18 23 -18 23 -18 -23 18 -23 977 928 5 MP
DP
18 23 -18 23 -18 -23 18 -23 1003 1048 5 MP
DP
18 23 -18 23 -18 -23 18 -23 1029 1074 5 MP
DP
18 23 -18 23 -18 -23 18 -23 1055 1092 5 MP
DP
18 23 -18 23 -18 -23 18 -23 1081 1180 5 MP
DP
18 23 -18 23 -18 -23 18 -23 1107 1187 5 MP
DP
18 23 -18 23 -18 -23 18 -23 1133 1176 5 MP
DP
18 23 -18 23 -18 -23 18 -23 1159 1248 5 MP
DP
18 23 -18 23 -18 -23 18 -23 1185 1283 5 MP
DP
18 23 -18 23 -18 -23 18 -23 1211 1388 5 MP
DP
18 23 -18 23 -18 -23 18 -23 1237 1308 5 MP
DP
18 23 -18 23 -18 -23 18 -23 1263 1467 5 MP
DP
18 23 -18 23 -18 -23 18 -23 1289 1412 5 MP
DP
18 23 -18 23 -18 -23 18 -23 1315 1434 5 MP
DP
18 23 -18 23 -18 -23 18 -23 1341 1549 5 MP
DP
18 23 -18 23 -18 -23 18 -23 1367 1625 5 MP
DP
18 23 -18 23 -18 -23 18 -23 1393 1566 5 MP
DP
18 23 -18 23 -18 -23 18 -23 1419 1691 5 MP
DP
18 23 -18 23 -18 -23 18 -23 1445 1666 5 MP
DP
18 23 -18 23 -18 -23 18 -23 1471 1704 5 MP
DP
18 23 -18 23 -18 -23 18 -23 1497 1698 5 MP
DP
18 23 -18 23 -18 -23 18 -23 1524 1712 5 MP
DP
18 23 -18 23 -18 -23 18 -23 1550 1873 5 MP
DP
18 23 -18 23 -18 -23 18 -23 1576 1931 5 MP
DP
18 23 -18 23 -18 -23 18 -23 1602 1866 5 MP
DP
18 23 -18 23 -18 -23 18 -23 1628 1989 5 MP
DP
18 23 -18 23 -18 -23 18 -23 1654 1925 5 MP
DP
18 23 -18 23 -18 -23 18 -23 1680 2009 5 MP
DP
18 23 -18 23 -18 -23 18 -23 1706 1974 5 MP
DP
18 23 -18 23 -18 -23 18 -23 1732 2057 5 MP
DP
18 23 -18 23 -18 -23 18 -23 1758 2188 5 MP
DP
18 23 -18 23 -18 -23 18 -23 1784 2145 5 MP
DP
18 23 -18 23 -18 -23 18 -23 1810 2147 5 MP
DP
18 23 -18 23 -18 -23 18 -23 1836 2179 5 MP
DP
18 23 -18 23 -18 -23 18 -23 1862 2306 5 MP
DP
18 23 -18 23 -18 -23 18 -23 1888 2259 5 MP
DP
18 23 -18 23 -18 -23 18 -23 1914 2317 5 MP
DP
18 23 -18 23 -18 -23 18 -23 1940 2384 5 MP
DP
18 23 -18 23 -18 -23 18 -23 1966 2376 5 MP
DP
18 23 -18 23 -18 -23 18 -23 1992 2436 5 MP
DP
18 23 -18 23 -18 -23 18 -23 2018 2459 5 MP
DP
18 23 -18 23 -18 -23 18 -23 2044 2464 5 MP
DP
18 23 -18 23 -18 -23 18 -23 2070 2563 5 MP
DP
18 23 -18 23 -18 -23 18 -23 2096 2549 5 MP
DP
18 23 -18 23 -18 -23 18 -23 2122 2621 5 MP
DP
18 23 -18 23 -18 -23 18 -23 2148 2636 5 MP
DP
18 23 -18 23 -18 -23 18 -23 2175 2690 5 MP
DP
18 23 -18 23 -18 -23 18 -23 2201 2679 5 MP
DP
18 23 -18 23 -18 -23 18 -23 2227 2716 5 MP
DP
18 23 -18 23 -18 -23 18 -23 2253 2791 5 MP
DP
18 23 -18 23 -18 -23 18 -23 2279 2858 5 MP
DP
18 23 -18 23 -18 -23 18 -23 2305 2874 5 MP
DP
18 23 -18 23 -18 -23 18 -23 2331 2897 5 MP
DP
18 23 -18 23 -18 -23 18 -23 2357 2939 5 MP
DP
18 23 -18 23 -18 -23 18 -23 2383 3006 5 MP
DP
18 23 -18 23 -18 -23 18 -23 2409 3074 5 MP
DP
18 23 -18 23 -18 -23 18 -23 2435 3059 5 MP
DP
18 23 -18 23 -18 -23 18 -23 2461 3090 5 MP
DP
18 23 -18 23 -18 -23 18 -23 2487 3123 5 MP
DP
18 23 -18 23 -18 -23 18 -23 2513 3167 5 MP
DP
18 23 -18 23 -18 -23 18 -23 2539 3218 5 MP
DP
18 23 -18 23 -18 -23 18 -23 2565 3282 5 MP
DP
18 23 -18 23 -18 -23 18 -23 2591 3293 5 MP
DP
18 23 -18 23 -18 -23 18 -23 2617 3330 5 MP
DP
18 23 -18 23 -18 -23 18 -23 2643 3361 5 MP
DP
18 23 -18 23 -18 -23 18 -23 2669 3390 5 MP
DP
18 23 -18 23 -18 -23 18 -23 2695 3435 5 MP
DP
18 23 -18 23 -18 -23 18 -23 2721 3470 5 MP
DP
18 23 -18 23 -18 -23 18 -23 2747 3526 5 MP
DP
18 23 -18 23 -18 -23 18 -23 2773 3552 5 MP
DP
18 23 -18 23 -18 -23 18 -23 2799 3565 5 MP
DP
18 23 -18 23 -18 -23 18 -23 2826 3628 5 MP
DP
18 23 -18 23 -18 -23 18 -23 2852 3635 5 MP
DP
18 23 -18 23 -18 -23 18 -23 2878 3694 5 MP
DP
18 23 -18 23 -18 -23 18 -23 2904 3712 5 MP
DP
18 23 -18 23 -18 -23 18 -23 2930 3779 5 MP
DP
18 23 -18 23 -18 -23 18 -23 2956 3779 5 MP
DP
18 23 -18 23 -18 -23 18 -23 2982 3797 5 MP
DP
18 23 -18 23 -18 -23 18 -23 3008 3862 5 MP
DP
18 23 -18 23 -18 -23 18 -23 3034 3901 5 MP
DP
18 23 -18 23 -18 -23 18 -23 3060 3940 5 MP
DP
18 23 -18 23 -18 -23 18 -23 3086 3958 5 MP
DP
18 23 -18 23 -18 -23 18 -23 3112 3994 5 MP
DP
18 23 -18 23 -18 -23 18 -23 3138 4038 5 MP
DP
18 23 -18 23 -18 -23 18 -23 3164 4067 5 MP
DP
18 23 -18 23 -18 -23 18 -23 3190 4104 5 MP
DP
18 23 -18 23 -18 -23 18 -23 3216 4141 5 MP
DP
18 23 -18 23 -18 -23 18 -23 3242 4186 5 MP
DP
18 23 -18 23 -18 -23 18 -23 3268 4218 5 MP
DP
18 23 -18 23 -18 -23 18 -23 3294 4246 5 MP
DP
18 23 -18 23 -18 -23 18 -23 3320 4289 5 MP
DP
18 23 -18 23 -18 -23 18 -23 3346 4322 5 MP
DP
18 23 -18 23 -18 -23 18 -23 3372 4363 5 MP
DP
18 23 -18 23 -18 -23 18 -23 3398 4395 5 MP
DP
18 23 -18 23 -18 -23 18 -23 3424 4430 5 MP
DP
18 23 -18 23 -18 -23 18 -23 3450 4466 5 MP
DP
18 23 -18 23 -18 -23 18 -23 3477 4501 5 MP
DP
18 23 -18 23 -18 -23 18 -23 3503 4465 5 MP
DP
18 23 -18 23 -18 -23 18 -23 3529 4429 5 MP
DP
18 23 -18 23 -18 -23 18 -23 3555 4397 5 MP
DP
18 23 -18 23 -18 -23 18 -23 3581 4361 5 MP
DP
18 23 -18 23 -18 -23 18 -23 3607 4322 5 MP
DP
18 23 -18 23 -18 -23 18 -23 3633 4284 5 MP
DP
18 23 -18 23 -18 -23 18 -23 3659 4252 5 MP
DP
18 23 -18 23 -18 -23 18 -23 3685 4225 5 MP
DP
18 23 -18 23 -18 -23 18 -23 3711 4182 5 MP
DP
18 23 -18 23 -18 -23 18 -23 3737 4145 5 MP
DP
18 23 -18 23 -18 -23 18 -23 3763 4110 5 MP
DP
18 23 -18 23 -18 -23 18 -23 3789 4074 5 MP
DP
18 23 -18 23 -18 -23 18 -23 3815 4024 5 MP
DP
18 23 -18 23 -18 -23 18 -23 3841 4000 5 MP
DP
18 23 -18 23 -18 -23 18 -23 3867 3956 5 MP
DP
18 23 -18 23 -18 -23 18 -23 3893 3928 5 MP
DP
18 23 -18 23 -18 -23 18 -23 3919 3916 5 MP
DP
18 23 -18 23 -18 -23 18 -23 3945 3871 5 MP
DP
18 23 -18 23 -18 -23 18 -23 3971 3821 5 MP
DP
18 23 -18 23 -18 -23 18 -23 3997 3795 5 MP
DP
18 23 -18 23 -18 -23 18 -23 4023 3756 5 MP
DP
18 23 -18 23 -18 -23 18 -23 4049 3717 5 MP
DP
18 23 -18 23 -18 -23 18 -23 4075 3688 5 MP
DP
18 23 -18 23 -18 -23 18 -23 4101 3680 5 MP
DP
18 23 -18 23 -18 -23 18 -23 4128 3624 5 MP
DP
18 23 -18 23 -18 -23 18 -23 4154 3569 5 MP
DP
18 23 -18 23 -18 -23 18 -23 4180 3535 5 MP
DP
18 23 -18 23 -18 -23 18 -23 4206 3505 5 MP
DP
18 23 -18 23 -18 -23 18 -23 4232 3481 5 MP
DP
18 23 -18 23 -18 -23 18 -23 4258 3462 5 MP
DP
18 23 -18 23 -18 -23 18 -23 4284 3436 5 MP
DP
18 23 -18 23 -18 -23 18 -23 4310 3377 5 MP
DP
18 23 -18 23 -18 -23 18 -23 4336 3341 5 MP
DP
18 23 -18 23 -18 -23 18 -23 4362 3304 5 MP
DP
18 23 -18 23 -18 -23 18 -23 4388 3271 5 MP
DP
18 23 -18 23 -18 -23 18 -23 4414 3269 5 MP
DP
18 23 -18 23 -18 -23 18 -23 4440 3190 5 MP
DP
18 23 -18 23 -18 -23 18 -23 4466 3180 5 MP
DP
18 23 -18 23 -18 -23 18 -23 4492 3143 5 MP
DP
18 23 -18 23 -18 -23 18 -23 4518 3123 5 MP
DP
18 23 -18 23 -18 -23 18 -23 4544 3106 5 MP
DP
18 23 -18 23 -18 -23 18 -23 4570 3054 5 MP
DP
18 23 -18 23 -18 -23 18 -23 4596 3015 5 MP
DP
18 23 -18 23 -18 -23 18 -23 4622 2923 5 MP
DP
18 23 -18 23 -18 -23 18 -23 4648 2927 5 MP
DP
18 23 -18 23 -18 -23 18 -23 4674 2880 5 MP
DP
18 23 -18 23 -18 -23 18 -23 4700 2843 5 MP
DP
18 23 -18 23 -18 -23 18 -23 4726 2830 5 MP
DP
18 23 -18 23 -18 -23 18 -23 4752 2761 5 MP
DP
18 23 -18 23 -18 -23 18 -23 4779 2756 5 MP
DP
18 23 -18 23 -18 -23 18 -23 4805 2750 5 MP
DP
18 23 -18 23 -18 -23 18 -23 4831 2719 5 MP
DP
18 23 -18 23 -18 -23 18 -23 4857 2701 5 MP
DP
18 23 -18 23 -18 -23 18 -23 4883 2658 5 MP
DP
18 23 -18 23 -18 -23 18 -23 4909 2557 5 MP
DP
18 23 -18 23 -18 -23 18 -23 4935 2572 5 MP
DP
18 23 -18 23 -18 -23 18 -23 4961 2571 5 MP
DP
18 23 -18 23 -18 -23 18 -23 4987 2495 5 MP
DP
18 23 -18 23 -18 -23 18 -23 5013 2437 5 MP
DP
18 23 -18 23 -18 -23 18 -23 5039 2442 5 MP
DP
18 23 -18 23 -18 -23 18 -23 5065 2445 5 MP
DP
18 23 -18 23 -18 -23 18 -23 5091 2370 5 MP
DP
18 23 -18 23 -18 -23 18 -23 5117 2283 5 MP
DP
18 23 -18 23 -18 -23 18 -23 5143 2332 5 MP
DP
18 23 -18 23 -18 -23 18 -23 5169 2249 5 MP
DP
18 23 -18 23 -18 -23 18 -23 5195 2282 5 MP
DP
18 23 -18 23 -18 -23 18 -23 5221 2139 5 MP
DP
18 23 -18 23 -18 -23 18 -23 5247 2156 5 MP
DP
18 23 -18 23 -18 -23 18 -23 5273 2179 5 MP
DP
18 23 -18 23 -18 -23 18 -23 5299 2017 5 MP
DP
18 23 -18 23 -18 -23 18 -23 5325 2079 5 MP
DP
18 23 -18 23 -18 -23 18 -23 5351 2090 5 MP
DP
18 23 -18 23 -18 -23 18 -23 5377 1956 5 MP
DP
18 23 -18 23 -18 -23 18 -23 5403 1962 5 MP
DP
18 23 -18 23 -18 -23 18 -23 5430 1859 5 MP
DP
18 23 -18 23 -18 -23 18 -23 5456 1899 5 MP
DP
18 23 -18 23 -18 -23 18 -23 5482 1791 5 MP
DP
18 23 -18 23 -18 -23 18 -23 5508 1815 5 MP
DP
18 23 -18 23 -18 -23 18 -23 5534 1788 5 MP
DP
18 23 -18 23 -18 -23 18 -23 5560 1757 5 MP
DP
18 23 -18 23 -18 -23 18 -23 5586 1733 5 MP
DP
18 23 -18 23 -18 -23 18 -23 5612 1645 5 MP
DP
18 23 -18 23 -18 -23 18 -23 5638 1536 5 MP
DP
18 23 -18 23 -18 -23 18 -23 5664 1607 5 MP
DP
18 23 -18 23 -18 -23 18 -23 5690 1592 5 MP
DP
18 23 -18 23 -18 -23 18 -23 5716 1546 5 MP
DP
18 23 -18 23 -18 -23 18 -23 5742 1571 5 MP
DP
18 23 -18 23 -18 -23 18 -23 5768 1596 5 MP
DP
18 23 -18 23 -18 -23 18 -23 5794 1496 5 MP
DP
18 23 -18 23 -18 -23 18 -23 5820 1379 5 MP
DP
18 23 -18 23 -18 -23 18 -23 5846 1368 5 MP
DP
18 23 -18 23 -18 -23 18 -23 5872 1325 5 MP
DP
18 23 -18 23 -18 -23 18 -23 5898 1380 5 MP
DP
18 23 -18 23 -18 -23 18 -23 5924 1179 5 MP
DP
18 23 -18 23 -18 -23 18 -23 5950 1311 5 MP
DP
18 23 -18 23 -18 -23 18 -23 5976 1135 5 MP
DP
18 23 -18 23 -18 -23 18 -23 6002 1115 5 MP
DP
18 23 -18 23 -18 -23 18 -23 6028 1119 5 MP
DP
18 23 -18 23 -18 -23 18 -23 6054 1101 5 MP
DP
18 23 -18 23 -18 -23 18 -23 6081 987 5 MP
DP
gs 873 377 5209 4103 rc
gr

0 sg
%%IncludeResource: font Helvetica-Bold
/Helvetica-Bold /ISOLatin1Encoding 144 FMSR

2106 4785 mt 
(Camera position mis-alignment \(in mm\)) s
 585 3664 mt  -90 rotate
(Error in width measurement \(in mm\)) s
90 rotate
%%IncludeResource: font Helvetica
/Helvetica /ISOLatin1Encoding 120 FMSR

 856 4522 mt 
( ) s
6065  419 mt 
( ) s
6 w
1 sg
0 818 852 0 0 -818 3069 1266 4 MP
PP
-852 0 0 818 852 0 0 -818 3069 1266 5 MP stroke
4 w
DO
SO
6 w
0 sg
3069 1266 mt 3921 1266 L
3069  448 mt 3921  448 L
3069 1266 mt 3069  448 L
3921 1266 mt 3921  448 L
3069 1266 mt 3921 1266 L
3069 1266 mt 3069  448 L
3069 1266 mt 3921 1266 L
3069  448 mt 3921  448 L
3069 1266 mt 3069  448 L
3921 1266 mt 3921  448 L
3538  647 mt 
(x axis) s
gs 3069 448 853 819 rc
12 w
c8
360 0 3141 604 2 MP stroke
gr

12 w
c8
3303  604 mt 3339  604 L
3321  586 mt 3321  622 L
3309  592 mt 3333  616 L
3333  592 mt 3309  616 L
gs 3069 448 853 819 rc
gr

0 sg
3538  900 mt 
(y axis) s
gs 3069 448 853 819 rc
c9
360 0 3141 857 2 MP stroke
gr

c9
  18   18 3321  857 FO
gs 3069 448 853 819 rc
gr

0 sg
3538 1152 mt 
(z axis) s
gs 3069 448 853 819 rc
c10
360 0 3141 1109 2 MP stroke
gr

c10
18 23 -18 23 -18 -23 18 -23 3321 1132 5 MP
DP
gs 3069 448 853 819 rc
6 w
gr

6 w

end %%Color Dict

eplot
%%EndObject

epage
end

showpage

%%Trailer
%%EOF
