%!PS-Adobe-3.0 EPSF-3.0
%%Creator: MATLAB, The MathWorks, Inc. Version 8.2.0.701 (R2013b). Operating System: Darwin 11.4.2 Darwin Kernel Version 11.4.2: Thu Aug 23 16:25:48 PDT 2012; root:xnu-1699.32.7~1/RELEASE_X86_64 x86_64.
%%Title: /Users/deepakd/git/matlab-projects/singleCalib_IH/data/cam1/results/cam1p1/widthR.eps
%%CreationDate: 01/17/2014  06:22:54
%%DocumentNeededFonts: Helvetica
%%+ Helvetica-Bold
%%DocumentProcessColors: Cyan Magenta Yellow Black
%%LanguageLevel: 2
%%Pages: 1
%%BoundingBox:    26   186   585   606
%%EndComments

%%BeginProlog
% MathWorks dictionary
/MathWorks 160 dict begin
% definition operators
/bdef {bind def} bind def
/ldef {load def} bind def
/xdef {exch def} bdef
/xstore {exch store} bdef
% operator abbreviations
/c  /clip ldef
/cc /concat ldef
/cp /closepath ldef
/gr /grestore ldef
/gs /gsave ldef
/mt /moveto ldef
/np /newpath ldef
/cm /currentmatrix ldef
/sm /setmatrix ldef
/rm /rmoveto ldef
/rl /rlineto ldef
/s {show newpath} bdef
/sc {setcmykcolor} bdef
/sr /setrgbcolor ldef
/sg /setgray ldef
/w /setlinewidth ldef
/j /setlinejoin ldef
/cap /setlinecap ldef
/rc {rectclip} bdef
/rf {rectfill} bdef
% page state control
/pgsv () def
/bpage {/pgsv save def} bdef
/epage {pgsv restore} bdef
/bplot /gsave ldef
/eplot {stroke grestore} bdef
% orientation switch
/portraitMode 0 def /landscapeMode 1 def /rotateMode 2 def
% coordinate system mappings
/dpi2point 0 def
% font control
/FontSize 0 def
/FMS {/FontSize xstore findfont [FontSize 0 0 FontSize neg 0 0]
  makefont setfont} bdef
/reencode {exch dup where {pop load} {pop StandardEncoding} ifelse
  exch dup 3 1 roll findfont dup length dict begin
  { 1 index /FID ne {def}{pop pop} ifelse } forall
  /Encoding exch def currentdict end definefont pop} bdef
/isroman {findfont /CharStrings get /Agrave known} bdef
/FMSR {3 1 roll 1 index dup isroman {reencode} {pop pop} ifelse
  exch FMS} bdef
/csm {1 dpi2point div -1 dpi2point div scale neg translate
 dup landscapeMode eq {pop -90 rotate}
  {rotateMode eq {90 rotate} if} ifelse} bdef
% line types: solid, dotted, dashed, dotdash
/SO { [] 0 setdash } bdef
/DO { [.5 dpi2point mul 4 dpi2point mul] 0 setdash } bdef
/DA { [6 dpi2point mul] 0 setdash } bdef
/DD { [.5 dpi2point mul 4 dpi2point mul 6 dpi2point mul 4
  dpi2point mul] 0 setdash } bdef
% macros for lines and objects
/L {lineto stroke} bdef
/MP {3 1 roll moveto 1 sub {rlineto} repeat} bdef
/AP {{rlineto} repeat} bdef
/PDlw -1 def
/W {/PDlw currentlinewidth def setlinewidth} def
/PP {closepath eofill} bdef
/DP {closepath stroke} bdef
/MR {4 -2 roll moveto dup  0 exch rlineto exch 0 rlineto
  neg 0 exch rlineto closepath} bdef
/FR {MR stroke} bdef
/PR {MR fill} bdef
/L1i {{currentfile picstr readhexstring pop} image} bdef
/tMatrix matrix def
/MakeOval {newpath tMatrix currentmatrix pop translate scale
0 0 1 0 360 arc tMatrix setmatrix} bdef
/FO {MakeOval stroke} bdef
/PO {MakeOval fill} bdef
/PD {currentlinewidth 2 div 0 360 arc fill
   PDlw -1 eq not {PDlw w /PDlw -1 def} if} def
/FA {newpath tMatrix currentmatrix pop translate scale
  0 0 1 5 -2 roll arc tMatrix setmatrix stroke} bdef
/PA {newpath tMatrix currentmatrix pop	translate 0 0 moveto scale
  0 0 1 5 -2 roll arc closepath tMatrix setmatrix fill} bdef
/FAn {newpath tMatrix currentmatrix pop translate scale
  0 0 1 5 -2 roll arcn tMatrix setmatrix stroke} bdef
/PAn {newpath tMatrix currentmatrix pop translate 0 0 moveto scale
  0 0 1 5 -2 roll arcn closepath tMatrix setmatrix fill} bdef
/vradius 0 def /hradius 0 def /lry 0 def
/lrx 0 def /uly 0 def /ulx 0 def /rad 0 def
/MRR {/vradius xdef /hradius xdef /lry xdef /lrx xdef /uly xdef
  /ulx xdef newpath tMatrix currentmatrix pop ulx hradius add uly
  vradius add translate hradius vradius scale 0 0 1 180 270 arc 
  tMatrix setmatrix lrx hradius sub uly vradius add translate
  hradius vradius scale 0 0 1 270 360 arc tMatrix setmatrix
  lrx hradius sub lry vradius sub translate hradius vradius scale
  0 0 1 0 90 arc tMatrix setmatrix ulx hradius add lry vradius sub
  translate hradius vradius scale 0 0 1 90 180 arc tMatrix setmatrix
  closepath} bdef
/FRR {MRR stroke } bdef
/PRR {MRR fill } bdef
/MlrRR {/lry xdef /lrx xdef /uly xdef /ulx xdef /rad lry uly sub 2 div def
  newpath tMatrix currentmatrix pop ulx rad add uly rad add translate
  rad rad scale 0 0 1 90 270 arc tMatrix setmatrix lrx rad sub lry rad
  sub translate rad rad scale 0 0 1 270 90 arc tMatrix setmatrix
  closepath} bdef
/FlrRR {MlrRR stroke } bdef
/PlrRR {MlrRR fill } bdef
/MtbRR {/lry xdef /lrx xdef /uly xdef /ulx xdef /rad lrx ulx sub 2 div def
  newpath tMatrix currentmatrix pop ulx rad add uly rad add translate
  rad rad scale 0 0 1 180 360 arc tMatrix setmatrix lrx rad sub lry rad
  sub translate rad rad scale 0 0 1 0 180 arc tMatrix setmatrix
  closepath} bdef
/FtbRR {MtbRR stroke } bdef
/PtbRR {MtbRR fill } bdef
/stri 6 array def /dtri 6 array def
/smat 6 array def /dmat 6 array def
/tmat1 6 array def /tmat2 6 array def /dif 3 array def
/asub {/ind2 exch def /ind1 exch def dup dup
  ind1 get exch ind2 get sub exch } bdef
/tri_to_matrix {
  2 0 asub 3 1 asub 4 0 asub 5 1 asub
  dup 0 get exch 1 get 7 -1 roll astore } bdef
/compute_transform {
  dmat dtri tri_to_matrix tmat1 invertmatrix 
  smat stri tri_to_matrix tmat2 concatmatrix } bdef
/ds {stri astore pop} bdef
/dt {dtri astore pop} bdef
/db {2 copy /cols xdef /rows xdef mul dup 3 mul string
  currentfile 
  3 index 0 eq {/ASCIIHexDecode filter}
  {/ASCII85Decode filter 3 index 2 eq {/RunLengthDecode filter} if }
  ifelse exch readstring pop
  dup 0 3 index getinterval /rbmap xdef
  dup 2 index dup getinterval /gbmap xdef
  1 index dup 2 mul exch getinterval /bbmap xdef pop pop}bdef
/it {gs np dtri aload pop moveto lineto lineto cp c
  cols rows 8 compute_transform 
  rbmap gbmap bbmap true 3 colorimage gr}bdef
/il {newpath moveto lineto stroke}bdef
currentdict end def
%%EndProlog

%%BeginSetup
MathWorks begin

0 cap

end
%%EndSetup

%%Page: 1 1
%%BeginPageSetup
%%PageBoundingBox:    26   186   585   606
MathWorks begin
bpage
%%EndPageSetup

%%BeginObject: obj1
bplot

/dpi2point 12 def
portraitMode 0312 7272 csm

    0     0  6719  5033 rc
86 dict begin %Colortable dictionary
/c0 { 0.000000 0.000000 0.000000 sr} bdef
/c1 { 1.000000 1.000000 1.000000 sr} bdef
/c2 { 0.900000 0.000000 0.000000 sr} bdef
/c3 { 0.000000 0.820000 0.000000 sr} bdef
/c4 { 0.000000 0.000000 0.800000 sr} bdef
/c5 { 0.910000 0.820000 0.320000 sr} bdef
/c6 { 1.000000 0.260000 0.820000 sr} bdef
/c7 { 0.000000 0.820000 0.820000 sr} bdef
c0
1 j
1 sg
   0    0 6720 5034 rf
6 w
0 4102 5208 0 0 -4102 873 4479 4 MP
PP
-5208 0 0 4102 5208 0 0 -4102 873 4479 5 MP stroke
4 w
DO
0 sg
 873 4479 mt 6081 4479 L
6081 4479 mt 6081 4479 L
 873 3795 mt 6081 3795 L
6081 3795 mt 6081 3795 L
 873 3111 mt 6081 3111 L
6081 3111 mt 6081 3111 L
 873 2428 mt 6081 2428 L
6081 2428 mt 6081 2428 L
 873 1744 mt 6081 1744 L
6081 1744 mt 6081 1744 L
 873 1060 mt 6081 1060 L
6081 1060 mt 6081 1060 L
 873  377 mt 6081  377 L
6081  377 mt 6081  377 L
SO
6 w
 873 4479 mt 6081 4479 L
 873  377 mt 6081  377 L
 873 4479 mt  873  377 L
6081 4479 mt 6081  377 L
 873 4479 mt 6081 4479 L
 873 4479 mt  873  377 L
 873 4479 mt  873 4426 L
 873  377 mt  873  429 L
%%IncludeResource: font Helvetica
/Helvetica /ISOLatin1Encoding 120 FMSR

 737 4624 mt 
(-40) s
1524 4479 mt 1524 4426 L
1524  377 mt 1524  429 L
1388 4624 mt 
(-30) s
2175 4479 mt 2175 4426 L
2175  377 mt 2175  429 L
2039 4624 mt 
(-20) s
2826 4479 mt 2826 4426 L
2826  377 mt 2826  429 L
2690 4624 mt 
(-10) s
3477 4479 mt 3477 4426 L
3477  377 mt 3477  429 L
3444 4624 mt 
(0) s
4128 4479 mt 4128 4426 L
4128  377 mt 4128  429 L
4062 4624 mt 
(10) s
4779 4479 mt 4779 4426 L
4779  377 mt 4779  429 L
4713 4624 mt 
(20) s
5430 4479 mt 5430 4426 L
5430  377 mt 5430  429 L
5364 4624 mt 
(30) s
6081 4479 mt 6081 4426 L
6081  377 mt 6081  429 L
6015 4624 mt 
(40) s
 873 4479 mt  925 4479 L
6081 4479 mt 6028 4479 L
 772 4523 mt 
(0) s
 873 3795 mt  925 3795 L
6081 3795 mt 6028 3795 L
 772 3839 mt 
(2) s
 873 3111 mt  925 3111 L
6081 3111 mt 6028 3111 L
 772 3155 mt 
(4) s
 873 2428 mt  925 2428 L
6081 2428 mt 6028 2428 L
 772 2472 mt 
(6) s
 873 1744 mt  925 1744 L
6081 1744 mt 6028 1744 L
 772 1788 mt 
(8) s
 873 1060 mt  925 1060 L
6081 1060 mt 6028 1060 L
 705 1104 mt 
(10) s
 873  377 mt  925  377 L
6081  377 mt 6028  377 L
 705  421 mt 
(12) s
 873 4479 mt 6081 4479 L
 873  377 mt 6081  377 L
 873 4479 mt  873  377 L
6081 4479 mt 6081  377 L
gs 873 377 5209 4103 rc
12 w
/c8 { 0.000000 0.000000 1.000000 sr} bdef
c8
66 -113 65 77 65 41 65 -61 65 -94 65 -3 65 8 65 -103 
65 -7 65 48 66 -33 65 -63 65 52 65 -124 65 6 65 -115 
65 -39 65 -28 65 -36 65 -64 66 -37 65 -63 65 -89 65 26 
65 -118 65 -96 65 -54 65 -70 65 -79 65 -89 66 -103 65 -145 
65 -79 65 -113 65 -87 65 -128 65 -118 65 -133 65 -134 65 -146 
66 152 65 158 65 152 65 205 65 193 65 177 65 247 65 227 
65 227 65 188 66 347 65 283 65 333 65 295 65 365 65 353 
54 199 2381 377 58 MP stroke
gr

12 w
c8
2399  576 mt 2471  576 L
2435  540 mt 2435  612 L
2464  929 mt 2536  929 L
2500  893 mt 2500  965 L
2529 1294 mt 2601 1294 L
2565 1258 mt 2565 1330 L
2594 1589 mt 2666 1589 L
2630 1553 mt 2630 1625 L
2659 1922 mt 2731 1922 L
2695 1886 mt 2695 1958 L
2724 2205 mt 2796 2205 L
2760 2169 mt 2760 2241 L
2790 2552 mt 2862 2552 L
2826 2516 mt 2826 2588 L
2855 2740 mt 2927 2740 L
2891 2704 mt 2891 2776 L
2920 2967 mt 2992 2967 L
2956 2931 mt 2956 3003 L
2985 3194 mt 3057 3194 L
3021 3158 mt 3021 3230 L
3050 3441 mt 3122 3441 L
3086 3405 mt 3086 3477 L
3115 3618 mt 3187 3618 L
3151 3582 mt 3151 3654 L
3180 3811 mt 3252 3811 L
3216 3775 mt 3216 3847 L
3245 4016 mt 3317 4016 L
3281 3980 mt 3281 4052 L
3310 4168 mt 3382 4168 L
3346 4132 mt 3346 4204 L
3375 4326 mt 3447 4326 L
3411 4290 mt 3411 4362 L
3441 4478 mt 3513 4478 L
3477 4442 mt 3477 4514 L
3506 4332 mt 3578 4332 L
3542 4296 mt 3542 4368 L
3571 4198 mt 3643 4198 L
3607 4162 mt 3607 4234 L
3636 4065 mt 3708 4065 L
3672 4029 mt 3672 4101 L
3701 3947 mt 3773 3947 L
3737 3911 mt 3737 3983 L
3766 3819 mt 3838 3819 L
3802 3783 mt 3802 3855 L
3831 3732 mt 3903 3732 L
3867 3696 mt 3867 3768 L
3896 3619 mt 3968 3619 L
3932 3583 mt 3932 3655 L
3961 3540 mt 4033 3540 L
3997 3504 mt 3997 3576 L
4026 3395 mt 4098 3395 L
4062 3359 mt 4062 3431 L
4092 3292 mt 4164 3292 L
4128 3256 mt 4128 3328 L
4157 3203 mt 4229 3203 L
4193 3167 mt 4193 3239 L
4222 3124 mt 4294 3124 L
4258 3088 mt 4258 3160 L
4287 3054 mt 4359 3054 L
4323 3018 mt 4323 3090 L
4352 3000 mt 4424 3000 L
4388 2964 mt 4388 3036 L
4417 2904 mt 4489 2904 L
4453 2868 mt 4453 2940 L
4482 2786 mt 4554 2786 L
4518 2750 mt 4518 2822 L
4547 2812 mt 4619 2812 L
4583 2776 mt 4583 2848 L
4612 2723 mt 4684 2723 L
4648 2687 mt 4648 2759 L
4677 2660 mt 4749 2660 L
4713 2624 mt 4713 2696 L
4743 2623 mt 4815 2623 L
4779 2587 mt 4779 2659 L
4808 2559 mt 4880 2559 L
4844 2523 mt 4844 2595 L
4873 2523 mt 4945 2523 L
4909 2487 mt 4909 2559 L
4938 2495 mt 5010 2495 L
4974 2459 mt 4974 2531 L
5003 2456 mt 5075 2456 L
5039 2420 mt 5039 2492 L
5068 2341 mt 5140 2341 L
5104 2305 mt 5104 2377 L
5133 2347 mt 5205 2347 L
5169 2311 mt 5169 2383 L
5198 2223 mt 5270 2223 L
5234 2187 mt 5234 2259 L
5263 2275 mt 5335 2275 L
5299 2239 mt 5299 2311 L
5328 2212 mt 5400 2212 L
5364 2176 mt 5364 2248 L
5394 2179 mt 5466 2179 L
5430 2143 mt 5430 2215 L
5459 2227 mt 5531 2227 L
5495 2191 mt 5495 2263 L
5524 2220 mt 5596 2220 L
5560 2184 mt 5560 2256 L
5589 2117 mt 5661 2117 L
5625 2081 mt 5625 2153 L
5654 2125 mt 5726 2125 L
5690 2089 mt 5690 2161 L
5719 2122 mt 5791 2122 L
5755 2086 mt 5755 2158 L
5784 2028 mt 5856 2028 L
5820 1992 mt 5820 2064 L
5849 1967 mt 5921 1967 L
5885 1931 mt 5885 2003 L
5914 2008 mt 5986 2008 L
5950 1972 mt 5950 2044 L
5979 2085 mt 6051 2085 L
6015 2049 mt 6015 2121 L
6045 1972 mt 6117 1972 L
6081 1936 mt 6081 2008 L
2410  551 mt 2460  601 L
2460  551 mt 2410  601 L
2475  904 mt 2525  954 L
2525  904 mt 2475  954 L
2540 1269 mt 2590 1319 L
2590 1269 mt 2540 1319 L
2605 1564 mt 2655 1614 L
2655 1564 mt 2605 1614 L
2670 1897 mt 2720 1947 L
2720 1897 mt 2670 1947 L
2735 2180 mt 2785 2230 L
2785 2180 mt 2735 2230 L
2801 2527 mt 2851 2577 L
2851 2527 mt 2801 2577 L
2866 2715 mt 2916 2765 L
2916 2715 mt 2866 2765 L
2931 2942 mt 2981 2992 L
2981 2942 mt 2931 2992 L
2996 3169 mt 3046 3219 L
3046 3169 mt 2996 3219 L
3061 3416 mt 3111 3466 L
3111 3416 mt 3061 3466 L
3126 3593 mt 3176 3643 L
3176 3593 mt 3126 3643 L
3191 3786 mt 3241 3836 L
3241 3786 mt 3191 3836 L
3256 3991 mt 3306 4041 L
3306 3991 mt 3256 4041 L
3321 4143 mt 3371 4193 L
3371 4143 mt 3321 4193 L
3386 4301 mt 3436 4351 L
3436 4301 mt 3386 4351 L
3452 4453 mt 3502 4503 L
3502 4453 mt 3452 4503 L
3517 4307 mt 3567 4357 L
3567 4307 mt 3517 4357 L
3582 4173 mt 3632 4223 L
3632 4173 mt 3582 4223 L
3647 4040 mt 3697 4090 L
3697 4040 mt 3647 4090 L
3712 3922 mt 3762 3972 L
3762 3922 mt 3712 3972 L
3777 3794 mt 3827 3844 L
3827 3794 mt 3777 3844 L
3842 3707 mt 3892 3757 L
3892 3707 mt 3842 3757 L
3907 3594 mt 3957 3644 L
3957 3594 mt 3907 3644 L
3972 3515 mt 4022 3565 L
4022 3515 mt 3972 3565 L
4037 3370 mt 4087 3420 L
4087 3370 mt 4037 3420 L
4103 3267 mt 4153 3317 L
4153 3267 mt 4103 3317 L
4168 3178 mt 4218 3228 L
4218 3178 mt 4168 3228 L
4233 3099 mt 4283 3149 L
4283 3099 mt 4233 3149 L
4298 3029 mt 4348 3079 L
4348 3029 mt 4298 3079 L
4363 2975 mt 4413 3025 L
4413 2975 mt 4363 3025 L
4428 2879 mt 4478 2929 L
4478 2879 mt 4428 2929 L
4493 2761 mt 4543 2811 L
4543 2761 mt 4493 2811 L
4558 2787 mt 4608 2837 L
4608 2787 mt 4558 2837 L
4623 2698 mt 4673 2748 L
4673 2698 mt 4623 2748 L
4688 2635 mt 4738 2685 L
4738 2635 mt 4688 2685 L
4754 2598 mt 4804 2648 L
4804 2598 mt 4754 2648 L
4819 2534 mt 4869 2584 L
4869 2534 mt 4819 2584 L
4884 2498 mt 4934 2548 L
4934 2498 mt 4884 2548 L
4949 2470 mt 4999 2520 L
4999 2470 mt 4949 2520 L
5014 2431 mt 5064 2481 L
5064 2431 mt 5014 2481 L
5079 2316 mt 5129 2366 L
5129 2316 mt 5079 2366 L
5144 2322 mt 5194 2372 L
5194 2322 mt 5144 2372 L
5209 2198 mt 5259 2248 L
5259 2198 mt 5209 2248 L
5274 2250 mt 5324 2300 L
5324 2250 mt 5274 2300 L
5339 2187 mt 5389 2237 L
5389 2187 mt 5339 2237 L
5405 2154 mt 5455 2204 L
5455 2154 mt 5405 2204 L
5470 2202 mt 5520 2252 L
5520 2202 mt 5470 2252 L
5535 2195 mt 5585 2245 L
5585 2195 mt 5535 2245 L
5600 2092 mt 5650 2142 L
5650 2092 mt 5600 2142 L
5665 2100 mt 5715 2150 L
5715 2100 mt 5665 2150 L
5730 2097 mt 5780 2147 L
5780 2097 mt 5730 2147 L
5795 2003 mt 5845 2053 L
5845 2003 mt 5795 2053 L
5860 1942 mt 5910 1992 L
5910 1942 mt 5860 1992 L
5925 1983 mt 5975 2033 L
5975 1983 mt 5925 2033 L
5990 2060 mt 6040 2110 L
6040 2060 mt 5990 2110 L
6056 1947 mt 6106 1997 L
6106 1947 mt 6056 1997 L
gs 873 377 5209 4103 rc
/c9 { 0.000000 1.000000 0.000000 sr} bdef
c9
21 -123 65 -246 65 -324 65 -268 65 -344 65 -197 65 -276 65 -227 
65 -110 66 -227 65 -218 65 -201 65 -52 65 -132 65 -140 65 -114 
65 -126 65 -48 65 -149 66 -49 65 -93 65 -61 65 -76 65 -44 
65 -78 65 -44 65 -46 65 -44 65 -44 66 41 65 41 65 40 
65 38 65 29 65 39 65 43 65 46 65 33 65 27 66 44 
65 59 65 66 65 64 65 67 65 61 65 91 65 -5 65 117 
65 156 66 7 65 110 65 156 65 152 65 38 65 181 65 87 
65 238 65 251 65 53 66 356 65 189 65 217 65 400 65 160 
56 409 1142 377 66 MP stroke
gr

c9
  36   36 1198  786 FO
  36   36 1263  946 FO
  36   36 1328 1346 FO
  36   36 1393 1563 FO
  36   36 1458 1752 FO
  36   36 1524 2108 FO
  36   36 1589 2161 FO
  36   36 1654 2412 FO
  36   36 1719 2650 FO
  36   36 1784 2737 FO
  36   36 1849 2918 FO
  36   36 1914 2956 FO
  36   36 1979 3108 FO
  36   36 2044 3264 FO
  36   36 2109 3374 FO
  36   36 2175 3381 FO
  36   36 2240 3537 FO
  36   36 2305 3654 FO
  36   36 2370 3649 FO
  36   36 2435 3740 FO
  36   36 2500 3801 FO
  36   36 2565 3868 FO
  36   36 2630 3932 FO
  36   36 2695 3998 FO
  36   36 2760 4057 FO
  36   36 2826 4101 FO
  36   36 2891 4128 FO
  36   36 2956 4161 FO
  36   36 3021 4207 FO
  36   36 3086 4250 FO
  36   36 3151 4289 FO
  36   36 3216 4318 FO
  36   36 3281 4356 FO
  36   36 3346 4396 FO
  36   36 3411 4437 FO
  36   36 3477 4478 FO
  36   36 3542 4434 FO
  36   36 3607 4390 FO
  36   36 3672 4344 FO
  36   36 3737 4300 FO
  36   36 3802 4222 FO
  36   36 3867 4178 FO
  36   36 3932 4102 FO
  36   36 3997 4041 FO
  36   36 4062 3948 FO
  36   36 4128 3899 FO
  36   36 4193 3750 FO
  36   36 4258 3702 FO
  36   36 4323 3576 FO
  36   36 4388 3462 FO
  36   36 4453 3322 FO
  36   36 4518 3190 FO
  36   36 4583 3138 FO
  36   36 4648 2937 FO
  36   36 4713 2719 FO
  36   36 4779 2492 FO
  36   36 4844 2382 FO
  36   36 4909 2155 FO
  36   36 4974 1879 FO
  36   36 5039 1682 FO
  36   36 5104 1338 FO
  36   36 5169 1070 FO
  36   36 5234  746 FO
  36   36 5299  500 FO
gs 873 377 5209 4103 rc
/c10 { 1.000000 0.000000 0.000000 sr} bdef
c10
66 -62 65 -48 65 -44 65 -87 65 -59 65 -64 65 -97 65 -55 
65 -106 65 57 66 -76 65 -8 65 -82 65 -106 65 31 65 -59 
65 -45 65 -30 65 -58 65 -27 66 -66 65 -8 65 -39 65 -9 
65 -53 65 -42 65 -16 65 -47 65 -38 65 -21 66 -40 65 -12 
65 -41 65 -37 65 -31 65 -35 65 -32 65 -37 65 -35 65 -34 
66 35 65 38 65 40 65 29 65 38 65 34 65 59 65 62 
65 20 65 49 66 15 65 78 65 46 65 58 65 64 65 87 
65 -2 65 55 65 83 65 21 66 87 65 20 65 218 65 -22 
65 70 65 153 65 -21 65 191 65 43 65 66 66 148 65 34 
65 96 65 43 65 157 65 154 65 43 65 142 65 111 65 97 
873 1739 81 MP stroke
gr

c10
0 j
36 47 -36 47 -36 -47 36 -47 873 1786 5 MP
DP
36 47 -36 47 -36 -47 36 -47 938 1883 5 MP
DP
36 47 -36 47 -36 -47 36 -47 1003 1994 5 MP
DP
36 47 -36 47 -36 -47 36 -47 1068 2136 5 MP
DP
36 47 -36 47 -36 -47 36 -47 1133 2179 5 MP
DP
36 47 -36 47 -36 -47 36 -47 1198 2333 5 MP
DP
36 47 -36 47 -36 -47 36 -47 1263 2490 5 MP
DP
36 47 -36 47 -36 -47 36 -47 1328 2533 5 MP
DP
36 47 -36 47 -36 -47 36 -47 1393 2629 5 MP
DP
36 47 -36 47 -36 -47 36 -47 1458 2663 5 MP
DP
36 47 -36 47 -36 -47 36 -47 1524 2811 5 MP
DP
36 47 -36 47 -36 -47 36 -47 1589 2877 5 MP
DP
36 47 -36 47 -36 -47 36 -47 1654 2920 5 MP
DP
36 47 -36 47 -36 -47 36 -47 1719 3111 5 MP
DP
36 47 -36 47 -36 -47 36 -47 1784 3090 5 MP
DP
36 47 -36 47 -36 -47 36 -47 1849 3243 5 MP
DP
36 47 -36 47 -36 -47 36 -47 1914 3313 5 MP
DP
36 47 -36 47 -36 -47 36 -47 1979 3291 5 MP
DP
36 47 -36 47 -36 -47 36 -47 2044 3509 5 MP
DP
36 47 -36 47 -36 -47 36 -47 2109 3529 5 MP
DP
36 47 -36 47 -36 -47 36 -47 2175 3616 5 MP
DP
36 47 -36 47 -36 -47 36 -47 2240 3637 5 MP
DP
36 47 -36 47 -36 -47 36 -47 2305 3720 5 MP
DP
36 47 -36 47 -36 -47 36 -47 2370 3775 5 MP
DP
36 47 -36 47 -36 -47 36 -47 2435 3773 5 MP
DP
36 47 -36 47 -36 -47 36 -47 2500 3860 5 MP
DP
36 47 -36 47 -36 -47 36 -47 2565 3924 5 MP
DP
36 47 -36 47 -36 -47 36 -47 2630 3982 5 MP
DP
36 47 -36 47 -36 -47 36 -47 2695 4028 5 MP
DP
36 47 -36 47 -36 -47 36 -47 2760 4106 5 MP
DP
36 47 -36 47 -36 -47 36 -47 2826 4121 5 MP
DP
36 47 -36 47 -36 -47 36 -47 2891 4170 5 MP
DP
36 47 -36 47 -36 -47 36 -47 2956 4190 5 MP
DP
36 47 -36 47 -36 -47 36 -47 3021 4252 5 MP
DP
36 47 -36 47 -36 -47 36 -47 3086 4311 5 MP
DP
36 47 -36 47 -36 -47 36 -47 3151 4345 5 MP
DP
36 47 -36 47 -36 -47 36 -47 3216 4383 5 MP
DP
36 47 -36 47 -36 -47 36 -47 3281 4412 5 MP
DP
36 47 -36 47 -36 -47 36 -47 3346 4452 5 MP
DP
36 47 -36 47 -36 -47 36 -47 3411 4490 5 MP
DP
36 47 -36 47 -36 -47 36 -47 3477 4525 5 MP
DP
36 47 -36 47 -36 -47 36 -47 3542 4491 5 MP
DP
36 47 -36 47 -36 -47 36 -47 3607 4456 5 MP
DP
36 47 -36 47 -36 -47 36 -47 3672 4419 5 MP
DP
36 47 -36 47 -36 -47 36 -47 3737 4387 5 MP
DP
36 47 -36 47 -36 -47 36 -47 3802 4352 5 MP
DP
36 47 -36 47 -36 -47 36 -47 3867 4321 5 MP
DP
36 47 -36 47 -36 -47 36 -47 3932 4284 5 MP
DP
36 47 -36 47 -36 -47 36 -47 3997 4243 5 MP
DP
36 47 -36 47 -36 -47 36 -47 4062 4231 5 MP
DP
36 47 -36 47 -36 -47 36 -47 4128 4191 5 MP
DP
36 47 -36 47 -36 -47 36 -47 4193 4170 5 MP
DP
36 47 -36 47 -36 -47 36 -47 4258 4132 5 MP
DP
36 47 -36 47 -36 -47 36 -47 4323 4085 5 MP
DP
36 47 -36 47 -36 -47 36 -47 4388 4069 5 MP
DP
36 47 -36 47 -36 -47 36 -47 4453 4027 5 MP
DP
36 47 -36 47 -36 -47 36 -47 4518 3974 5 MP
DP
36 47 -36 47 -36 -47 36 -47 4583 3965 5 MP
DP
36 47 -36 47 -36 -47 36 -47 4648 3926 5 MP
DP
36 47 -36 47 -36 -47 36 -47 4713 3918 5 MP
DP
36 47 -36 47 -36 -47 36 -47 4779 3852 5 MP
DP
36 47 -36 47 -36 -47 36 -47 4844 3825 5 MP
DP
36 47 -36 47 -36 -47 36 -47 4909 3767 5 MP
DP
36 47 -36 47 -36 -47 36 -47 4974 3737 5 MP
DP
36 47 -36 47 -36 -47 36 -47 5039 3692 5 MP
DP
36 47 -36 47 -36 -47 36 -47 5104 3633 5 MP
DP
36 47 -36 47 -36 -47 36 -47 5169 3664 5 MP
DP
36 47 -36 47 -36 -47 36 -47 5234 3558 5 MP
DP
36 47 -36 47 -36 -47 36 -47 5299 3476 5 MP
DP
36 47 -36 47 -36 -47 36 -47 5364 3468 5 MP
DP
36 47 -36 47 -36 -47 36 -47 5430 3392 5 MP
DP
36 47 -36 47 -36 -47 36 -47 5495 3449 5 MP
DP
36 47 -36 47 -36 -47 36 -47 5560 3343 5 MP
DP
36 47 -36 47 -36 -47 36 -47 5625 3288 5 MP
DP
36 47 -36 47 -36 -47 36 -47 5690 3191 5 MP
DP
36 47 -36 47 -36 -47 36 -47 5755 3127 5 MP
DP
36 47 -36 47 -36 -47 36 -47 5820 3068 5 MP
DP
36 47 -36 47 -36 -47 36 -47 5885 2981 5 MP
DP
36 47 -36 47 -36 -47 36 -47 5950 2937 5 MP
DP
36 47 -36 47 -36 -47 36 -47 6015 2889 5 MP
DP
36 47 -36 47 -36 -47 36 -47 6081 2827 5 MP
DP
gs 873 377 5209 4103 rc
gr

0 sg
%%IncludeResource: font Helvetica-Bold
/Helvetica-Bold /ISOLatin1Encoding 144 FMSR

1886 4785 mt 
(Camera orientaton mis-alignment \(in degrees\)) s
 618 3664 mt  -90 rotate
(Error in width measurement \(in mm\)) s
90 rotate
%%IncludeResource: font Helvetica
/Helvetica /ISOLatin1Encoding 120 FMSR

 856 4522 mt 
( ) s
6065  419 mt 
( ) s
6 w
1 sg
0 818 852 0 0 -818 3069 1266 4 MP
PP
-852 0 0 818 852 0 0 -818 3069 1266 5 MP stroke
4 w
DO
SO
6 w
0 sg
3069 1266 mt 3921 1266 L
3069  448 mt 3921  448 L
3069 1266 mt 3069  448 L
3921 1266 mt 3921  448 L
3069 1266 mt 3921 1266 L
3069 1266 mt 3069  448 L
3069 1266 mt 3921 1266 L
3069  448 mt 3921  448 L
3069 1266 mt 3069  448 L
3921 1266 mt 3921  448 L
3538  647 mt 
(x axis) s
gs 3069 448 853 819 rc
12 w
c8
360 0 3141 604 2 MP stroke
gr

12 w
c8
3285  604 mt 3357  604 L
3321  568 mt 3321  640 L
3296  579 mt 3346  629 L
3346  579 mt 3296  629 L
gs 3069 448 853 819 rc
gr

0 sg
3538  900 mt 
(y axis) s
gs 3069 448 853 819 rc
c9
360 0 3141 857 2 MP stroke
gr

c9
  36   36 3321  857 FO
gs 3069 448 853 819 rc
gr

0 sg
3538 1152 mt 
(z axis) s
gs 3069 448 853 819 rc
c10
360 0 3141 1109 2 MP stroke
gr

c10
36 47 -36 47 -36 -47 36 -47 3321 1156 5 MP
DP
gs 3069 448 853 819 rc
6 w
gr

6 w

end %%Color Dict

eplot
%%EndObject

epage
end

showpage

%%Trailer
%%EOF
