%!PS-Adobe-3.0 EPSF-3.0
%%Creator: MATLAB, The MathWorks, Inc. Version 8.2.0.701 (R2013b). Operating System: Microsoft Windows 8.
%%Title: C:\Users\Deepak\Development\Matlabnew\projs\Experiments\exp-diffFBCs\results\s1-epfl-w.eps
%%CreationDate: 06/16/2014  15:47:32
%%DocumentNeededFonts: Helvetica
%%DocumentProcessColors: Cyan Magenta Yellow Black
%%LanguageLevel: 2
%%Pages: 1
%%BoundingBox:    87   262   507   578
%%EndComments

%%BeginProlog
% MathWorks dictionary
/MathWorks 160 dict begin
% definition operators
/bdef {bind def} bind def
/ldef {load def} bind def
/xdef {exch def} bdef
/xstore {exch store} bdef
% operator abbreviations
/c  /clip ldef
/cc /concat ldef
/cp /closepath ldef
/gr /grestore ldef
/gs /gsave ldef
/mt /moveto ldef
/np /newpath ldef
/cm /currentmatrix ldef
/sm /setmatrix ldef
/rm /rmoveto ldef
/rl /rlineto ldef
/s {show newpath} bdef
/sc {setcmykcolor} bdef
/sr /setrgbcolor ldef
/sg /setgray ldef
/w /setlinewidth ldef
/j /setlinejoin ldef
/cap /setlinecap ldef
/rc {rectclip} bdef
/rf {rectfill} bdef
% page state control
/pgsv () def
/bpage {/pgsv save def} bdef
/epage {pgsv restore} bdef
/bplot /gsave ldef
/eplot {stroke grestore} bdef
% orientation switch
/portraitMode 0 def /landscapeMode 1 def /rotateMode 2 def
% coordinate system mappings
/dpi2point 0 def
% font control
/FontSize 0 def
/FMS {/FontSize xstore findfont [FontSize 0 0 FontSize neg 0 0]
  makefont setfont} bdef
/ISOLatin1Encoding where {pop /WindowsLatin1Encoding 256 array bdef
ISOLatin1Encoding WindowsLatin1Encoding copy pop
/.notdef/.notdef/quotesinglbase/florin/quotedblbase/ellipsis/dagger
/daggerdbl/circumflex/perthousand/Scaron/guilsinglleft/OE/.notdef/.notdef
/.notdef/.notdef/quoteleft/quoteright/quotedblleft/quotedblright/bullet
/endash/emdash/tilde/trademark/scaron/guilsinglright/oe/.notdef/.notdef
/Ydieresis WindowsLatin1Encoding 128 32 getinterval astore pop}
{/WindowsLatin1Encoding StandardEncoding bdef} ifelse
/reencode {exch dup where {pop load} {pop StandardEncoding} ifelse
  exch dup 3 1 roll findfont dup length dict begin
  { 1 index /FID ne {def}{pop pop} ifelse } forall
  /Encoding exch def currentdict end definefont pop} bdef
/isroman {findfont /CharStrings get /Agrave known} bdef
/FMSR {3 1 roll 1 index dup isroman {reencode} {pop pop} ifelse
  exch FMS} bdef
/csm {1 dpi2point div -1 dpi2point div scale neg translate
 dup landscapeMode eq {pop -90 rotate}
  {rotateMode eq {90 rotate} if} ifelse} bdef
% line types: solid, dotted, dashed, dotdash
/SO { [] 0 setdash } bdef
/DO { [.5 dpi2point mul 4 dpi2point mul] 0 setdash } bdef
/DA { [6 dpi2point mul] 0 setdash } bdef
/DD { [.5 dpi2point mul 4 dpi2point mul 6 dpi2point mul 4
  dpi2point mul] 0 setdash } bdef
% macros for lines and objects
/L {lineto stroke} bdef
/MP {3 1 roll moveto 1 sub {rlineto} repeat} bdef
/AP {{rlineto} repeat} bdef
/PDlw -1 def
/W {/PDlw currentlinewidth def setlinewidth} def
/PP {closepath eofill} bdef
/DP {closepath stroke} bdef
/MR {4 -2 roll moveto dup  0 exch rlineto exch 0 rlineto
  neg 0 exch rlineto closepath} bdef
/FR {MR stroke} bdef
/PR {MR fill} bdef
/L1i {{currentfile picstr readhexstring pop} image} bdef
/tMatrix matrix def
/MakeOval {newpath tMatrix currentmatrix pop translate scale
0 0 1 0 360 arc tMatrix setmatrix} bdef
/FO {MakeOval stroke} bdef
/PO {MakeOval fill} bdef
/PD {currentlinewidth 2 div 0 360 arc fill
   PDlw -1 eq not {PDlw w /PDlw -1 def} if} def
/FA {newpath tMatrix currentmatrix pop translate scale
  0 0 1 5 -2 roll arc tMatrix setmatrix stroke} bdef
/PA {newpath tMatrix currentmatrix pop	translate 0 0 moveto scale
  0 0 1 5 -2 roll arc closepath tMatrix setmatrix fill} bdef
/FAn {newpath tMatrix currentmatrix pop translate scale
  0 0 1 5 -2 roll arcn tMatrix setmatrix stroke} bdef
/PAn {newpath tMatrix currentmatrix pop translate 0 0 moveto scale
  0 0 1 5 -2 roll arcn closepath tMatrix setmatrix fill} bdef
/vradius 0 def /hradius 0 def /lry 0 def
/lrx 0 def /uly 0 def /ulx 0 def /rad 0 def
/MRR {/vradius xdef /hradius xdef /lry xdef /lrx xdef /uly xdef
  /ulx xdef newpath tMatrix currentmatrix pop ulx hradius add uly
  vradius add translate hradius vradius scale 0 0 1 180 270 arc 
  tMatrix setmatrix lrx hradius sub uly vradius add translate
  hradius vradius scale 0 0 1 270 360 arc tMatrix setmatrix
  lrx hradius sub lry vradius sub translate hradius vradius scale
  0 0 1 0 90 arc tMatrix setmatrix ulx hradius add lry vradius sub
  translate hradius vradius scale 0 0 1 90 180 arc tMatrix setmatrix
  closepath} bdef
/FRR {MRR stroke } bdef
/PRR {MRR fill } bdef
/MlrRR {/lry xdef /lrx xdef /uly xdef /ulx xdef /rad lry uly sub 2 div def
  newpath tMatrix currentmatrix pop ulx rad add uly rad add translate
  rad rad scale 0 0 1 90 270 arc tMatrix setmatrix lrx rad sub lry rad
  sub translate rad rad scale 0 0 1 270 90 arc tMatrix setmatrix
  closepath} bdef
/FlrRR {MlrRR stroke } bdef
/PlrRR {MlrRR fill } bdef
/MtbRR {/lry xdef /lrx xdef /uly xdef /ulx xdef /rad lrx ulx sub 2 div def
  newpath tMatrix currentmatrix pop ulx rad add uly rad add translate
  rad rad scale 0 0 1 180 360 arc tMatrix setmatrix lrx rad sub lry rad
  sub translate rad rad scale 0 0 1 0 180 arc tMatrix setmatrix
  closepath} bdef
/FtbRR {MtbRR stroke } bdef
/PtbRR {MtbRR fill } bdef
/stri 6 array def /dtri 6 array def
/smat 6 array def /dmat 6 array def
/tmat1 6 array def /tmat2 6 array def /dif 3 array def
/asub {/ind2 exch def /ind1 exch def dup dup
  ind1 get exch ind2 get sub exch } bdef
/tri_to_matrix {
  2 0 asub 3 1 asub 4 0 asub 5 1 asub
  dup 0 get exch 1 get 7 -1 roll astore } bdef
/compute_transform {
  dmat dtri tri_to_matrix tmat1 invertmatrix 
  smat stri tri_to_matrix tmat2 concatmatrix } bdef
/ds {stri astore pop} bdef
/dt {dtri astore pop} bdef
/db {2 copy /cols xdef /rows xdef mul dup 3 mul string
  currentfile 
  3 index 0 eq {/ASCIIHexDecode filter}
  {/ASCII85Decode filter 3 index 2 eq {/RunLengthDecode filter} if }
  ifelse exch readstring pop
  dup 0 3 index getinterval /rbmap xdef
  dup 2 index dup getinterval /gbmap xdef
  1 index dup 2 mul exch getinterval /bbmap xdef pop pop}bdef
/it {gs np dtri aload pop moveto lineto lineto cp c
  cols rows 8 compute_transform 
  rbmap gbmap bbmap true 3 colorimage gr}bdef
/il {newpath moveto lineto stroke}bdef
currentdict end def
%%EndProlog

%%BeginSetup
MathWorks begin

0 cap

end
%%EndSetup

%%Page: 1 1
%%BeginPageSetup
%%PageBoundingBox:    87   262   507   578
MathWorks begin
bpage
%%EndPageSetup

%%BeginObject: obj1
bplot

/dpi2point 12 def
portraitMode 1044 6936 csm

    0     0  5045  3782 rc
85 dict begin %Colortable dictionary
/c0 { 0.000000 0.000000 0.000000 sr} bdef
/c1 { 1.000000 1.000000 1.000000 sr} bdef
/c2 { 0.900000 0.000000 0.000000 sr} bdef
/c3 { 0.000000 0.820000 0.000000 sr} bdef
/c4 { 0.000000 0.000000 0.800000 sr} bdef
/c5 { 0.910000 0.820000 0.320000 sr} bdef
/c6 { 1.000000 0.260000 0.820000 sr} bdef
/c7 { 0.000000 0.820000 0.820000 sr} bdef
c0
1 j
1 sg
   0    0 5046 3783 rf
6 w
0 3083 3910 0 0 -3083 656 3366 4 MP
PP
-3910 0 0 3083 3910 0 0 -3083 656 3366 5 MP stroke
4 w
DO
SO
6 w
0 sg
 656  283 mt 4566  283 L
 656 3366 mt 4566 3366 L
4566 3366 mt 4566  283 L
 656 3366 mt  656  283 L
 656 3366 mt 4566 3366 L
 656 3366 mt  656  283 L
1144 3366 mt 1144 3326 L
1144  283 mt 1144  323 L
%%IncludeResource: font Helvetica
/Helvetica /WindowsLatin1Encoding 120 FMSR

 789 3511 mt 
(Vertical crack) s
2122 3366 mt 2122 3326 L
2122  283 mt 2122  323 L
1706 3511 mt 
(Carbon missing) s
3099 3366 mt 3099 3326 L
3099  283 mt 3099  323 L
2801 3511 mt 
(Edge crack) s
4077 3366 mt 4077 3326 L
4077  283 mt 4077  323 L
3819 3511 mt 
(Abnormal) s
 656 3366 mt  695 3366 L
4566 3366 mt 4526 3366 L
 555 3410 mt 
(0) s
 656 3023 mt  695 3023 L
4566 3023 mt 4526 3023 L
 455 3067 mt 
(0.2) s
 656 2681 mt  695 2681 L
4566 2681 mt 4526 2681 L
 455 2725 mt 
(0.4) s
 656 2338 mt  695 2338 L
4566 2338 mt 4526 2338 L
 455 2382 mt 
(0.6) s
 656 1996 mt  695 1996 L
4566 1996 mt 4526 1996 L
 455 2040 mt 
(0.8) s
 656 1653 mt  695 1653 L
4566 1653 mt 4526 1653 L
 555 1697 mt 
(1) s
 656 1311 mt  695 1311 L
4566 1311 mt 4526 1311 L
 455 1355 mt 
(1.2) s
 656  968 mt  695  968 L
4566  968 mt 4526  968 L
 455 1012 mt 
(1.4) s
 656  626 mt  695  626 L
4566  626 mt 4526  626 L
 455  670 mt 
(1.6) s
 656  283 mt  695  283 L
4566  283 mt 4526  283 L
 455  327 mt 
(1.8) s
 656  283 mt 4566  283 L
 656 3366 mt 4566 3366 L
4566 3366 mt 4566  283 L
 656 3366 mt  656  283 L
gs 656 284 3911 3083 rc
/c8 { 0.000000 0.000000 0.562500 sr} bdef
c8
0 1367 223 0 0 -1367 893 3366 4 MP
PP
0 sg
-223 0 0 1367 223 0 0 -1367 893 3366 5 MP stroke
c8
0 663 224 0 0 -663 1870 3366 4 MP
PP
0 sg
-224 0 0 663 224 0 0 -663 1870 3366 5 MP stroke
c8
0 681 223 0 0 -681 2848 3366 4 MP
PP
0 sg
-223 0 0 681 223 0 0 -681 2848 3366 5 MP stroke
c8
0 382 224 0 0 -382 3825 3366 4 MP
PP
0 sg
-224 0 0 382 224 0 0 -382 3825 3366 5 MP stroke
3910 0 656 3366 2 MP stroke
/c9 { 0.500000 0.000000 0.000000 sr} bdef
c9
0 2999 224 0 0 -2999 1172 3366 4 MP
PP
0 sg
-224 0 0 2999 224 0 0 -2999 1172 3366 5 MP stroke
c9
0 669 223 0 0 -669 2150 3366 4 MP
PP
0 sg
-223 0 0 669 223 0 0 -669 2150 3366 5 MP stroke
c9
0 1363 224 0 0 -1363 3127 3366 4 MP
PP
0 sg
-224 0 0 1363 224 0 0 -1363 3127 3366 5 MP stroke
c9
0 1096 223 0 0 -1096 4105 3366 4 MP
PP
0 sg
-223 0 0 1096 223 0 0 -1096 4105 3366 5 MP stroke
gr

2307  189 mt 
(Width Error) s
2408 3654 mt 
(Defects) s
 373 2138 mt  -90 rotate
(Error in mm) s
90 rotate
 639 3409 mt 
( ) s
4550  326 mt 
( ) s
1 sg
0 334 920 0 0 -334 3587 678 4 MP
PP
-920 0 0 334 920 0 0 -334 3587 678 5 MP stroke
4 w
DO
SO
6 w
0 sg
3587  344 mt 4507  344 L
3587  678 mt 4507  678 L
4507  678 mt 4507  344 L
3587  678 mt 3587  344 L
3587  678 mt 4507  678 L
3587  678 mt 3587  344 L
3587  344 mt 4507  344 L
3587  678 mt 4507  678 L
4507  678 mt 4507  344 L
3587  678 mt 3587  344 L
4052  479 mt 
(CBcalib) s
gs 3587 344 921 335 rc
c8
-357 0 0 109 357 0 0 -109 3658 491 5 MP
PP
0 sg
0 0 -357 0 0 109 357 0 0 -109 3658 491 6 MP stroke
gr

4052  628 mt 
(FBcalib) s
gs 3587 344 921 335 rc
c9
-357 0 0 109 357 0 0 -109 3658 639 5 MP
PP
0 sg
0 0 -357 0 0 109 357 0 0 -109 3658 639 6 MP stroke
gr


end %%Color Dict

eplot
%%EndObject

epage
end

showpage

%%Trailer
%%EOF
