%!PS-Adobe-3.0 EPSF-3.0
%%Creator: (MATLAB, The Mathworks, Inc. Version 8.4.0.150421 \(R2014b\). Operating System: Windows 8)
%%Title: C:/Users/deepak/Documents/MATLAB/matlab-projects/projs/Experiments/exp-FBCvsCB/results/timeAll-s2.eps
%%CreationDate: 2015-03-02T22:26:03
%%Pages: (atend)
%%BoundingBox: 0 0 420 315
%%LanguageLevel: 2
%%EndComments
%%BeginProlog
%%BeginResource: procset (Apache XML Graphics Std ProcSet) 1.2 0
%%Version: 1.2 0
%%Copyright: (Copyright 2001-2003,2010 The Apache Software Foundation. License terms: http://www.apache.org/licenses/LICENSE-2.0)
/bd{bind def}bind def
/ld{load def}bd
/GR/grestore ld
/M/moveto ld
/LJ/setlinejoin ld
/C/curveto ld
/f/fill ld
/LW/setlinewidth ld
/GC/setgray ld
/t/show ld
/N/newpath ld
/CT/concat ld
/cp/closepath ld
/S/stroke ld
/L/lineto ld
/CC/setcmykcolor ld
/A/ashow ld
/GS/gsave ld
/RC/setrgbcolor ld
/RM/rmoveto ld
/ML/setmiterlimit ld
/re {4 2 roll M
1 index 0 rlineto
0 exch rlineto
neg 0 rlineto
cp } bd
/_ctm matrix def
/_tm matrix def
/BT { _ctm currentmatrix pop matrix _tm copy pop 0 0 moveto } bd
/ET { _ctm setmatrix } bd
/iTm { _ctm setmatrix _tm concat } bd
/Tm { _tm astore pop iTm 0 0 moveto } bd
/ux 0.0 def
/uy 0.0 def
/F {
  /Tp exch def
  /Tf exch def
  Tf findfont Tp scalefont setfont
  /cf Tf def  /cs Tp def
} bd
/ULS {currentpoint /uy exch def /ux exch def} bd
/ULE {
  /Tcx currentpoint pop def
  gsave
  newpath
  cf findfont cs scalefont dup
  /FontMatrix get 0 get /Ts exch def /FontInfo get dup
  /UnderlinePosition get Ts mul /To exch def
  /UnderlineThickness get Ts mul /Tt exch def
  ux uy To add moveto  Tcx uy To add lineto
  Tt setlinewidth stroke
  grestore
} bd
/OLE {
  /Tcx currentpoint pop def
  gsave
  newpath
  cf findfont cs scalefont dup
  /FontMatrix get 0 get /Ts exch def /FontInfo get dup
  /UnderlinePosition get Ts mul /To exch def
  /UnderlineThickness get Ts mul /Tt exch def
  ux uy To add cs add moveto Tcx uy To add cs add lineto
  Tt setlinewidth stroke
  grestore
} bd
/SOE {
  /Tcx currentpoint pop def
  gsave
  newpath
  cf findfont cs scalefont dup
  /FontMatrix get 0 get /Ts exch def /FontInfo get dup
  /UnderlinePosition get Ts mul /To exch def
  /UnderlineThickness get Ts mul /Tt exch def
  ux uy To add cs 10 mul 26 idiv add moveto Tcx uy To add cs 10 mul 26 idiv add lineto
  Tt setlinewidth stroke
  grestore
} bd
/QT {
/Y22 exch store
/X22 exch store
/Y21 exch store
/X21 exch store
currentpoint
/Y21 load 2 mul add 3 div exch
/X21 load 2 mul add 3 div exch
/X21 load 2 mul /X22 load add 3 div
/Y21 load 2 mul /Y22 load add 3 div
/X22 load /Y22 load curveto
} bd
/SSPD {
dup length /d exch dict def
{
/v exch def
/k exch def
currentpagedevice k known {
/cpdv currentpagedevice k get def
v cpdv ne {
/upd false def
/nullv v type /nulltype eq def
/nullcpdv cpdv type /nulltype eq def
nullv nullcpdv or
{
/upd true def
} {
/sametype v type cpdv type eq def
sametype {
v type /arraytype eq {
/vlen v length def
/cpdvlen cpdv length def
vlen cpdvlen eq {
0 1 vlen 1 sub {
/i exch def
/obj v i get def
/cpdobj cpdv i get def
obj cpdobj ne {
/upd true def
exit
} if
} for
} {
/upd true def
} ifelse
} {
v type /dicttype eq {
v {
/dv exch def
/dk exch def
/cpddv cpdv dk get def
dv cpddv ne {
/upd true def
exit
} if
} forall
} {
/upd true def
} ifelse
} ifelse
} if
} ifelse
upd true eq {
d k v put
} if
} if
} if
} forall
d length 0 gt {
d setpagedevice
} if
} bd
%%EndResource
%%BeginResource: procset (Apache XML Graphics EPS ProcSet) 1.0 0
%%Version: 1.0 0
%%Copyright: (Copyright 2002-2003 The Apache Software Foundation. License terms: http://www.apache.org/licenses/LICENSE-2.0)
/BeginEPSF { %def
/b4_Inc_state save def         % Save state for cleanup
/dict_count countdictstack def % Count objects on dict stack
/op_count count 1 sub def      % Count objects on operand stack
userdict begin                 % Push userdict on dict stack
/showpage { } def              % Redefine showpage, { } = null proc
0 setgray 0 setlinecap         % Prepare graphics state
1 setlinewidth 0 setlinejoin
10 setmiterlimit [ ] 0 setdash newpath
/languagelevel where           % If level not equal to 1 then
{pop languagelevel             % set strokeadjust and
1 ne                           % overprint to their defaults.
{false setstrokeadjust false setoverprint
} if
} if
} bd
/EndEPSF { %def
count op_count sub {pop} repeat            % Clean up stacks
countdictstack dict_count sub {end} repeat
b4_Inc_state restore
} bd
%%EndResource
%FOPBeginFontDict
%%IncludeResource: font Courier-Bold
%%IncludeResource: font Helvetica
%%IncludeResource: font Courier-BoldOblique
%%IncludeResource: font Courier-Oblique
%%IncludeResource: font Times-Roman
%%IncludeResource: font Helvetica-BoldOblique
%%IncludeResource: font Helvetica-Bold
%%IncludeResource: font Helvetica-Oblique
%%IncludeResource: font Times-BoldItalic
%%IncludeResource: font Courier
%%IncludeResource: font Times-Italic
%%IncludeResource: font Times-Bold
%%IncludeResource: font Symbol
%%IncludeResource: font ZapfDingbats
%FOPEndFontDict
%%BeginResource: encoding WinAnsiEncoding
/WinAnsiEncoding [
/.notdef /.notdef /.notdef /.notdef /.notdef
/.notdef /.notdef /.notdef /.notdef /.notdef
/.notdef /.notdef /.notdef /.notdef /.notdef
/.notdef /.notdef /.notdef /.notdef /.notdef
/.notdef /.notdef /.notdef /.notdef /.notdef
/.notdef /.notdef /.notdef /.notdef /.notdef
/.notdef /.notdef /space /exclam /quotedbl
/numbersign /dollar /percent /ampersand /quotesingle
/parenleft /parenright /asterisk /plus /comma
/hyphen /period /slash /zero /one
/two /three /four /five /six
/seven /eight /nine /colon /semicolon
/less /equal /greater /question /at
/A /B /C /D /E
/F /G /H /I /J
/K /L /M /N /O
/P /Q /R /S /T
/U /V /W /X /Y
/Z /bracketleft /backslash /bracketright /asciicircum
/underscore /quoteleft /a /b /c
/d /e /f /g /h
/i /j /k /l /m
/n /o /p /q /r
/s /t /u /v /w
/x /y /z /braceleft /bar
/braceright /asciitilde /bullet /Euro /bullet
/quotesinglbase /florin /quotedblbase /ellipsis /dagger
/daggerdbl /circumflex /perthousand /Scaron /guilsinglleft
/OE /bullet /Zcaron /bullet /bullet
/quoteleft /quoteright /quotedblleft /quotedblright /bullet
/endash /emdash /asciitilde /trademark /scaron
/guilsinglright /oe /bullet /zcaron /Ydieresis
/space /exclamdown /cent /sterling /currency
/yen /brokenbar /section /dieresis /copyright
/ordfeminine /guillemotleft /logicalnot /sfthyphen /registered
/macron /degree /plusminus /twosuperior /threesuperior
/acute /mu /paragraph /middot /cedilla
/onesuperior /ordmasculine /guillemotright /onequarter /onehalf
/threequarters /questiondown /Agrave /Aacute /Acircumflex
/Atilde /Adieresis /Aring /AE /Ccedilla
/Egrave /Eacute /Ecircumflex /Edieresis /Igrave
/Iacute /Icircumflex /Idieresis /Eth /Ntilde
/Ograve /Oacute /Ocircumflex /Otilde /Odieresis
/multiply /Oslash /Ugrave /Uacute /Ucircumflex
/Udieresis /Yacute /Thorn /germandbls /agrave
/aacute /acircumflex /atilde /adieresis /aring
/ae /ccedilla /egrave /eacute /ecircumflex
/edieresis /igrave /iacute /icircumflex /idieresis
/eth /ntilde /ograve /oacute /ocircumflex
/otilde /odieresis /divide /oslash /ugrave
/uacute /ucircumflex /udieresis /yacute /thorn
/ydieresis
] def
%%EndResource
%FOPBeginFontReencode
/Courier-Bold findfont
dup length dict begin
  {1 index /FID ne {def} {pop pop} ifelse} forall
  /Encoding WinAnsiEncoding def
  currentdict
end
/Courier-Bold exch definefont pop
/Helvetica findfont
dup length dict begin
  {1 index /FID ne {def} {pop pop} ifelse} forall
  /Encoding WinAnsiEncoding def
  currentdict
end
/Helvetica exch definefont pop
/Courier-BoldOblique findfont
dup length dict begin
  {1 index /FID ne {def} {pop pop} ifelse} forall
  /Encoding WinAnsiEncoding def
  currentdict
end
/Courier-BoldOblique exch definefont pop
/Courier-Oblique findfont
dup length dict begin
  {1 index /FID ne {def} {pop pop} ifelse} forall
  /Encoding WinAnsiEncoding def
  currentdict
end
/Courier-Oblique exch definefont pop
/Times-Roman findfont
dup length dict begin
  {1 index /FID ne {def} {pop pop} ifelse} forall
  /Encoding WinAnsiEncoding def
  currentdict
end
/Times-Roman exch definefont pop
/Helvetica-BoldOblique findfont
dup length dict begin
  {1 index /FID ne {def} {pop pop} ifelse} forall
  /Encoding WinAnsiEncoding def
  currentdict
end
/Helvetica-BoldOblique exch definefont pop
/Helvetica-Bold findfont
dup length dict begin
  {1 index /FID ne {def} {pop pop} ifelse} forall
  /Encoding WinAnsiEncoding def
  currentdict
end
/Helvetica-Bold exch definefont pop
/Helvetica-Oblique findfont
dup length dict begin
  {1 index /FID ne {def} {pop pop} ifelse} forall
  /Encoding WinAnsiEncoding def
  currentdict
end
/Helvetica-Oblique exch definefont pop
/Times-BoldItalic findfont
dup length dict begin
  {1 index /FID ne {def} {pop pop} ifelse} forall
  /Encoding WinAnsiEncoding def
  currentdict
end
/Times-BoldItalic exch definefont pop
/Courier findfont
dup length dict begin
  {1 index /FID ne {def} {pop pop} ifelse} forall
  /Encoding WinAnsiEncoding def
  currentdict
end
/Courier exch definefont pop
/Times-Italic findfont
dup length dict begin
  {1 index /FID ne {def} {pop pop} ifelse} forall
  /Encoding WinAnsiEncoding def
  currentdict
end
/Times-Italic exch definefont pop
/Times-Bold findfont
dup length dict begin
  {1 index /FID ne {def} {pop pop} ifelse} forall
  /Encoding WinAnsiEncoding def
  currentdict
end
/Times-Bold exch definefont pop
%FOPEndFontReencode
%%EndProlog
%%Page: 1 1
%%PageBoundingBox: 0 0 420 315
%%BeginPageSetup
[1 0 0 -1 0 315] CT
%%EndPageSetup
GS
[0.75 0 0 0.75 0 0] CT
1 GC
N
0 0 560 420 re
f
GR
GS
[0.75 0 0 0.75 0 0] CT
1 GC
N
0 0 560 420 re
f
GR
GS
[0.75 0 0 0.75 0 0] CT
1 GC
N
73 374 M
507 374 L
507 31 L
73 31 L
cp
f
GR
GS
[0.75 0 0 0.75 217.5 297.01366] CT
0.149 GC
/Helvetica 15 F
GS
[1 0 0 1 0 0] CT
-35.427 15.081 moveto 
1 -1 scale
(Algorithms) t 
GR
GR
GS
[0.75 0 0 0.75 0 0] CT
0.149 GC
2 setlinecap
10.0 ML
N
73 374 M
507 374 L
S
GR
GS
[0.75 0 0 0.75 0 0] CT
0.149 GC
2 setlinecap
10.0 ML
N
73 31 M
507 31 L
S
GR
GS
[0.75 0 0 0.75 0 0] CT
0.149 GC
2 setlinecap
10.0 ML
N
127.25 374 M
127.25 369.66 L
S
GR
GS
[0.75 0 0 0.75 0 0] CT
0.149 GC
2 setlinecap
10.0 ML
N
127.25 31 M
127.25 35.34 L
S
GR
GS
[0.75 0 0 0.75 0 0] CT
0.149 GC
2 setlinecap
10.0 ML
N
235.75 374 M
235.75 369.66 L
S
GR
GS
[0.75 0 0 0.75 0 0] CT
0.149 GC
2 setlinecap
10.0 ML
N
235.75 31 M
235.75 35.34 L
S
GR
GS
[0.75 0 0 0.75 0 0] CT
0.149 GC
2 setlinecap
10.0 ML
N
344.25 374 M
344.25 369.66 L
S
GR
GS
[0.75 0 0 0.75 0 0] CT
0.149 GC
2 setlinecap
10.0 ML
N
344.25 31 M
344.25 35.34 L
S
GR
GS
[0.75 0 0 0.75 0 0] CT
0.149 GC
2 setlinecap
10.0 ML
N
452.75 374 M
452.75 369.66 L
S
GR
GS
[0.75 0 0 0.75 0 0] CT
0.149 GC
2 setlinecap
10.0 ML
N
452.75 31 M
452.75 35.34 L
S
GR
GS
[0.75 0 0 0.75 95.4375 284.50001] CT
0.149 GC
/Helvetica 13 F
GS
[1 0 0 1 0 0] CT
-10.48 13.07 moveto 
1 -1 scale
(epfl) t 
GR
GR
GS
[0.75 0 0 0.75 176.8125 284.50001] CT
0.149 GC
/Helvetica 13 F
GS
[1 0 0 1 0 0] CT
-14.46 13.07 moveto 
1 -1 scale
(boug) t 
GR
GR
GS
[0.75 0 0 0.75 258.1875 284.50001] CT
0.149 GC
/Helvetica 13 F
GS
[1 0 0 1 0 0] CT
-17.71 13.07 moveto 
1 -1 scale
(zhang) t 
GR
GR
GS
[0.75 0 0 0.75 339.5625 284.50001] CT
0.149 GC
/Helvetica 13 F
GS
[1 0 0 1 0 0] CT
-12.289 13.07 moveto 
1 -1 scale
(gold) t 
GR
GR
GS
[0 -0.75 0.75 0 23.3512 151.875] CT
0.149 GC
/Helvetica 15 F
GS
[1 0 0 1 0 0] CT
-54.606 -3.787 moveto 
1 -1 scale
(Time in seconds) t 
GR
GR
GS
[0.75 0 0 0.75 0 0] CT
0.149 GC
2 setlinecap
10.0 ML
N
73 374 M
73 31 L
S
GR
GS
[0.75 0 0 0.75 0 0] CT
0.149 GC
2 setlinecap
10.0 ML
N
507 374 M
507 31 L
S
GR
GS
[0.75 0 0 0.75 0 0] CT
0.149 GC
2 setlinecap
10.0 ML
N
73 374 M
77.34 374 L
S
GR
GS
[0.75 0 0 0.75 0 0] CT
0.149 GC
2 setlinecap
10.0 ML
N
507 374 M
502.66 374 L
S
GR
GS
[0.75 0 0 0.75 0 0] CT
0.149 GC
2 setlinecap
10.0 ML
N
73 335.889 M
77.34 335.889 L
S
GR
GS
[0.75 0 0 0.75 0 0] CT
0.149 GC
2 setlinecap
10.0 ML
N
507 335.889 M
502.66 335.889 L
S
GR
GS
[0.75 0 0 0.75 0 0] CT
0.149 GC
2 setlinecap
10.0 ML
N
73 297.778 M
77.34 297.778 L
S
GR
GS
[0.75 0 0 0.75 0 0] CT
0.149 GC
2 setlinecap
10.0 ML
N
507 297.778 M
502.66 297.778 L
S
GR
GS
[0.75 0 0 0.75 0 0] CT
0.149 GC
2 setlinecap
10.0 ML
N
73 259.667 M
77.34 259.667 L
S
GR
GS
[0.75 0 0 0.75 0 0] CT
0.149 GC
2 setlinecap
10.0 ML
N
507 259.667 M
502.66 259.667 L
S
GR
GS
[0.75 0 0 0.75 0 0] CT
0.149 GC
2 setlinecap
10.0 ML
N
73 221.556 M
77.34 221.556 L
S
GR
GS
[0.75 0 0 0.75 0 0] CT
0.149 GC
2 setlinecap
10.0 ML
N
507 221.556 M
502.66 221.556 L
S
GR
GS
[0.75 0 0 0.75 0 0] CT
0.149 GC
2 setlinecap
10.0 ML
N
73 183.444 M
77.34 183.444 L
S
GR
GS
[0.75 0 0 0.75 0 0] CT
0.149 GC
2 setlinecap
10.0 ML
N
507 183.444 M
502.66 183.444 L
S
GR
GS
[0.75 0 0 0.75 0 0] CT
0.149 GC
2 setlinecap
10.0 ML
N
73 145.333 M
77.34 145.333 L
S
GR
GS
[0.75 0 0 0.75 0 0] CT
0.149 GC
2 setlinecap
10.0 ML
N
507 145.333 M
502.66 145.333 L
S
GR
GS
[0.75 0 0 0.75 0 0] CT
0.149 GC
2 setlinecap
10.0 ML
N
73 107.222 M
77.34 107.222 L
S
GR
GS
[0.75 0 0 0.75 0 0] CT
0.149 GC
2 setlinecap
10.0 ML
N
507 107.222 M
502.66 107.222 L
S
GR
GS
[0.75 0 0 0.75 0 0] CT
0.149 GC
2 setlinecap
10.0 ML
N
73 69.111 M
77.34 69.111 L
S
GR
GS
[0.75 0 0 0.75 0 0] CT
0.149 GC
2 setlinecap
10.0 ML
N
507 69.111 M
502.66 69.111 L
S
GR
GS
[0.75 0 0 0.75 0 0] CT
0.149 GC
2 setlinecap
10.0 ML
N
73 31 M
77.34 31 L
S
GR
GS
[0.75 0 0 0.75 0 0] CT
0.149 GC
2 setlinecap
10.0 ML
N
507 31 M
502.66 31 L
S
GR
GS
[0.75 0 0 0.75 50.75 280.5] CT
0.149 GC
/Helvetica 13 F
GS
[1 0 0 1 0 0] CT
-7.23 5.394 moveto 
1 -1 scale
(0) t 
GR
GR
GS
[0.75 0 0 0.75 50.75 251.91666] CT
0.149 GC
/Helvetica 13 F
GS
[1 0 0 1 0 0] CT
-32.532 5.394 moveto 
1 -1 scale
(0.002) t 
GR
GR
GS
[0.75 0 0 0.75 50.75 223.33333] CT
0.149 GC
/Helvetica 13 F
GS
[1 0 0 1 0 0] CT
-32.532 5.394 moveto 
1 -1 scale
(0.004) t 
GR
GR
GS
[0.75 0 0 0.75 50.75 194.74999] CT
0.149 GC
/Helvetica 13 F
GS
[1 0 0 1 0 0] CT
-32.532 5.394 moveto 
1 -1 scale
(0.006) t 
GR
GR
GS
[0.75 0 0 0.75 50.75 166.16666] CT
0.149 GC
/Helvetica 13 F
GS
[1 0 0 1 0 0] CT
-32.532 5.394 moveto 
1 -1 scale
(0.008) t 
GR
GR
GS
[0.75 0 0 0.75 50.75 137.58333] CT
0.149 GC
/Helvetica 13 F
GS
[1 0 0 1 0 0] CT
-25.302 5.394 moveto 
1 -1 scale
(0.01) t 
GR
GR
GS
[0.75 0 0 0.75 50.75 109] CT
0.149 GC
/Helvetica 13 F
GS
[1 0 0 1 0 0] CT
-32.532 5.394 moveto 
1 -1 scale
(0.012) t 
GR
GR
GS
[0.75 0 0 0.75 50.75 80.41666] CT
0.149 GC
/Helvetica 13 F
GS
[1 0 0 1 0 0] CT
-32.532 5.394 moveto 
1 -1 scale
(0.014) t 
GR
GR
GS
[0.75 0 0 0.75 50.75 51.83332] CT
0.149 GC
/Helvetica 13 F
GS
[1 0 0 1 0 0] CT
-32.532 5.394 moveto 
1 -1 scale
(0.016) t 
GR
GR
GS
[0.75 0 0 0.75 50.75 23.25001] CT
0.149 GC
/Helvetica 13 F
GS
[1 0 0 1 0 0] CT
-32.532 5.394 moveto 
1 -1 scale
(0.018) t 
GR
GR
GS
[0.75 0 0 0.75 0 0] CT
0.208 0.165 0.525 RC
N
84.139 374 M
84.139 348.015 L
86.454 348.015 L
86.454 374 L
cp
f
GR
GS
[0.75 0 0 0.75 0 0] CT
0.208 0.165 0.525 RC
N
192.639 374 M
192.639 184.455 L
194.954 184.455 L
194.954 374 L
cp
f
GR
GS
[0.75 0 0 0.75 0 0] CT
0.208 0.165 0.525 RC
N
301.139 374 M
301.139 264.845 L
303.454 264.845 L
303.454 374 L
cp
f
GR
GS
[0.75 0 0 0.75 0 0] CT
0.208 0.165 0.525 RC
N
409.639 374 M
409.639 351.007 L
411.954 351.007 L
411.954 374 L
cp
f
GR
GS
[0.75 0 0 0.75 0 0] CT
2 setlinecap
10.0 ML
N
84.139 374 M
84.139 348.015 L
86.454 348.015 L
86.454 374 L
84.139 374 L
S
GR
GS
[0.75 0 0 0.75 0 0] CT
2 setlinecap
10.0 ML
N
192.639 374 M
192.639 184.455 L
194.954 184.455 L
194.954 374 L
192.639 374 L
S
GR
GS
[0.75 0 0 0.75 0 0] CT
2 setlinecap
10.0 ML
N
301.139 374 M
301.139 264.845 L
303.454 264.845 L
303.454 374 L
301.139 374 L
S
GR
GS
[0.75 0 0 0.75 0 0] CT
2 setlinecap
10.0 ML
N
409.639 374 M
409.639 351.007 L
411.954 351.007 L
411.954 374 L
409.639 374 L
S
GR
GS
[0.75 0 0 0.75 0 0] CT
0.212 0.212 0.624 RC
N
87.033 374 M
87.033 339.963 L
89.347 339.963 L
89.347 374 L
cp
f
GR
GS
[0.75 0 0 0.75 0 0] CT
0.212 0.212 0.624 RC
N
195.533 374 M
195.533 171.291 L
197.847 171.291 L
197.847 374 L
cp
f
GR
GS
[0.75 0 0 0.75 0 0] CT
0.212 0.212 0.624 RC
N
304.033 374 M
304.033 281.196 L
306.347 281.196 L
306.347 374 L
cp
f
GR
GS
[0.75 0 0 0.75 0 0] CT
0.212 0.212 0.624 RC
N
412.533 374 M
412.533 351.903 L
414.847 351.903 L
414.847 374 L
cp
f
GR
GS
[0.75 0 0 0.75 0 0] CT
2 setlinecap
10.0 ML
N
87.033 374 M
87.033 339.963 L
89.347 339.963 L
89.347 374 L
87.033 374 L
S
GR
GS
[0.75 0 0 0.75 0 0] CT
2 setlinecap
10.0 ML
N
195.533 374 M
195.533 171.291 L
197.847 171.291 L
197.847 374 L
195.533 374 L
S
GR
GS
[0.75 0 0 0.75 0 0] CT
2 setlinecap
10.0 ML
N
304.033 374 M
304.033 281.196 L
306.347 281.196 L
306.347 374 L
304.033 374 L
S
GR
GS
[0.75 0 0 0.75 0 0] CT
2 setlinecap
10.0 ML
N
412.533 374 M
412.533 351.903 L
414.847 351.903 L
414.847 374 L
412.533 374 L
S
GR
GS
[0.75 0 0 0.75 0 0] CT
0.192 0.263 0.725 RC
N
89.926 374 M
89.926 340.794 L
92.241 340.794 L
92.241 374 L
cp
f
GR
GS
[0.75 0 0 0.75 0 0] CT
0.192 0.263 0.725 RC
N
198.426 374 M
198.426 78.829 L
200.741 78.829 L
200.741 374 L
cp
f
GR
GS
[0.75 0 0 0.75 0 0] CT
0.192 0.263 0.725 RC
N
306.926 374 M
306.926 280.144 L
309.241 280.144 L
309.241 374 L
cp
f
GR
GS
[0.75 0 0 0.75 0 0] CT
0.192 0.263 0.725 RC
N
415.426 374 M
415.426 353.68 L
417.741 353.68 L
417.741 374 L
cp
f
GR
GS
[0.75 0 0 0.75 0 0] CT
2 setlinecap
10.0 ML
N
89.926 374 M
89.926 340.794 L
92.241 340.794 L
92.241 374 L
89.926 374 L
S
GR
GS
[0.75 0 0 0.75 0 0] CT
2 setlinecap
10.0 ML
N
198.426 374 M
198.426 78.829 L
200.741 78.829 L
200.741 374 L
198.426 374 L
S
GR
GS
[0.75 0 0 0.75 0 0] CT
2 setlinecap
10.0 ML
N
306.926 374 M
306.926 280.144 L
309.241 280.144 L
309.241 374 L
306.926 374 L
S
GR
GS
[0.75 0 0 0.75 0 0] CT
2 setlinecap
10.0 ML
N
415.426 374 M
415.426 353.68 L
417.741 353.68 L
417.741 374 L
415.426 374 L
S
GR
GS
[0.75 0 0 0.75 0 0] CT
0.122 0.322 0.827 RC
N
92.819 374 M
92.819 331.795 L
95.134 331.795 L
95.134 374 L
cp
f
GR
GS
[0.75 0 0 0.75 0 0] CT
0.122 0.322 0.827 RC
N
201.319 374 M
201.319 181.716 L
203.634 181.716 L
203.634 374 L
cp
f
GR
GS
[0.75 0 0 0.75 0 0] CT
0.122 0.322 0.827 RC
N
309.819 374 M
309.819 265.473 L
312.134 265.473 L
312.134 374 L
cp
f
GR
GS
[0.75 0 0 0.75 0 0] CT
0.122 0.322 0.827 RC
N
418.319 374 M
418.319 350.567 L
420.634 350.567 L
420.634 374 L
cp
f
GR
GS
[0.75 0 0 0.75 0 0] CT
2 setlinecap
10.0 ML
N
92.819 374 M
92.819 331.795 L
95.134 331.795 L
95.134 374 L
92.819 374 L
S
GR
GS
[0.75 0 0 0.75 0 0] CT
2 setlinecap
10.0 ML
N
201.319 374 M
201.319 181.716 L
203.634 181.716 L
203.634 374 L
201.319 374 L
S
GR
GS
[0.75 0 0 0.75 0 0] CT
2 setlinecap
10.0 ML
N
309.819 374 M
309.819 265.473 L
312.134 265.473 L
312.134 374 L
309.819 374 L
S
GR
GS
[0.75 0 0 0.75 0 0] CT
2 setlinecap
10.0 ML
N
418.319 374 M
418.319 350.567 L
420.634 350.567 L
420.634 374 L
418.319 374 L
S
GR
GS
[0.75 0 0 0.75 0 0] CT
0.008 0.384 0.878 RC
N
95.713 374 M
95.713 344.462 L
98.027 344.462 L
98.027 374 L
cp
f
GR
GS
[0.75 0 0 0.75 0 0] CT
0.008 0.384 0.878 RC
N
204.213 374 M
204.213 180.534 L
206.527 180.534 L
206.527 374 L
cp
f
GR
GS
[0.75 0 0 0.75 0 0] CT
0.008 0.384 0.878 RC
N
312.713 374 M
312.713 280.666 L
315.027 280.666 L
315.027 374 L
cp
f
GR
GS
[0.75 0 0 0.75 0 0] CT
0.008 0.384 0.878 RC
N
421.213 374 M
421.213 350.917 L
423.527 350.917 L
423.527 374 L
cp
f
GR
GS
[0.75 0 0 0.75 0 0] CT
2 setlinecap
10.0 ML
N
95.713 374 M
95.713 344.462 L
98.027 344.462 L
98.027 374 L
95.713 374 L
S
GR
GS
[0.75 0 0 0.75 0 0] CT
2 setlinecap
10.0 ML
N
204.213 374 M
204.213 180.534 L
206.527 180.534 L
206.527 374 L
204.213 374 L
S
GR
GS
[0.75 0 0 0.75 0 0] CT
2 setlinecap
10.0 ML
N
312.713 374 M
312.713 280.666 L
315.027 280.666 L
315.027 374 L
312.713 374 L
S
GR
GS
[0.75 0 0 0.75 0 0] CT
2 setlinecap
10.0 ML
N
421.213 374 M
421.213 350.917 L
423.527 350.917 L
423.527 374 L
421.213 374 L
S
GR
GS
[0.75 0 0 0.75 0 0] CT
0.031 0.439 0.871 RC
N
98.606 374 M
98.606 344.894 L
100.921 344.894 L
100.921 374 L
cp
f
GR
GS
[0.75 0 0 0.75 0 0] CT
0.031 0.439 0.871 RC
N
207.106 374 M
207.106 73.857 L
209.421 73.857 L
209.421 374 L
cp
f
GR
GS
[0.75 0 0 0.75 0 0] CT
0.031 0.439 0.871 RC
N
315.606 374 M
315.606 270.094 L
317.921 270.094 L
317.921 374 L
cp
f
GR
GS
[0.75 0 0 0.75 0 0] CT
0.031 0.439 0.871 RC
N
424.106 374 M
424.106 354.52 L
426.421 354.52 L
426.421 374 L
cp
f
GR
GS
[0.75 0 0 0.75 0 0] CT
2 setlinecap
10.0 ML
N
98.606 374 M
98.606 344.894 L
100.921 344.894 L
100.921 374 L
98.606 374 L
S
GR
GS
[0.75 0 0 0.75 0 0] CT
2 setlinecap
10.0 ML
N
207.106 374 M
207.106 73.857 L
209.421 73.857 L
209.421 374 L
207.106 374 L
S
GR
GS
[0.75 0 0 0.75 0 0] CT
2 setlinecap
10.0 ML
N
315.606 374 M
315.606 270.094 L
317.921 270.094 L
317.921 374 L
315.606 374 L
S
GR
GS
[0.75 0 0 0.75 0 0] CT
2 setlinecap
10.0 ML
N
424.106 374 M
424.106 354.52 L
426.421 354.52 L
426.421 374 L
424.106 374 L
S
GR
GS
[0.75 0 0 0.75 0 0] CT
0.063 0.471 0.855 RC
N
101.499 374 M
101.499 348.073 L
103.814 348.073 L
103.814 374 L
cp
f
GR
GS
[0.75 0 0 0.75 0 0] CT
0.063 0.471 0.855 RC
N
209.999 374 M
209.999 180.925 L
212.314 180.925 L
212.314 374 L
cp
f
GR
GS
[0.75 0 0 0.75 0 0] CT
0.063 0.471 0.855 RC
N
318.499 374 M
318.499 274.7 L
320.814 274.7 L
320.814 374 L
cp
f
GR
GS
[0.75 0 0 0.75 0 0] CT
0.063 0.471 0.855 RC
N
426.999 374 M
426.999 354.552 L
429.314 354.552 L
429.314 374 L
cp
f
GR
GS
[0.75 0 0 0.75 0 0] CT
2 setlinecap
10.0 ML
N
101.499 374 M
101.499 348.073 L
103.814 348.073 L
103.814 374 L
101.499 374 L
S
GR
GS
[0.75 0 0 0.75 0 0] CT
2 setlinecap
10.0 ML
N
209.999 374 M
209.999 180.925 L
212.314 180.925 L
212.314 374 L
209.999 374 L
S
GR
GS
[0.75 0 0 0.75 0 0] CT
2 setlinecap
10.0 ML
N
318.499 374 M
318.499 274.7 L
320.814 274.7 L
320.814 374 L
318.499 374 L
S
GR
GS
[0.75 0 0 0.75 0 0] CT
2 setlinecap
10.0 ML
N
426.999 374 M
426.999 354.552 L
429.314 354.552 L
429.314 374 L
426.999 374 L
S
GR
GS
[0.75 0 0 0.75 0 0] CT
0.075 0.502 0.835 RC
N
104.393 374 M
104.393 340.264 L
106.707 340.264 L
106.707 374 L
cp
f
GR
GS
[0.75 0 0 0.75 0 0] CT
0.075 0.502 0.835 RC
N
212.893 374 M
212.893 78.984 L
215.207 78.984 L
215.207 374 L
cp
f
GR
GS
[0.75 0 0 0.75 0 0] CT
0.075 0.502 0.835 RC
N
321.393 374 M
321.393 281.188 L
323.707 281.188 L
323.707 374 L
cp
f
GR
GS
[0.75 0 0 0.75 0 0] CT
0.075 0.502 0.835 RC
N
429.893 374 M
429.893 353.827 L
432.207 353.827 L
432.207 374 L
cp
f
GR
GS
[0.75 0 0 0.75 0 0] CT
2 setlinecap
10.0 ML
N
104.393 374 M
104.393 340.264 L
106.707 340.264 L
106.707 374 L
104.393 374 L
S
GR
GS
[0.75 0 0 0.75 0 0] CT
2 setlinecap
10.0 ML
N
212.893 374 M
212.893 78.984 L
215.207 78.984 L
215.207 374 L
212.893 374 L
S
GR
GS
[0.75 0 0 0.75 0 0] CT
2 setlinecap
10.0 ML
N
321.393 374 M
321.393 281.188 L
323.707 281.188 L
323.707 374 L
321.393 374 L
S
GR
GS
[0.75 0 0 0.75 0 0] CT
2 setlinecap
10.0 ML
N
429.893 374 M
429.893 353.827 L
432.207 353.827 L
432.207 374 L
429.893 374 L
S
GR
GS
[0.75 0 0 0.75 0 0] CT
0.075 0.537 0.824 RC
N
107.286 374 M
107.286 337.411 L
109.601 337.411 L
109.601 374 L
cp
f
GR
GS
[0.75 0 0 0.75 0 0] CT
0.075 0.537 0.824 RC
N
215.786 374 M
215.786 77.607 L
218.101 77.607 L
218.101 374 L
cp
f
GR
GS
[0.75 0 0 0.75 0 0] CT
0.075 0.537 0.824 RC
N
324.286 374 M
324.286 269.923 L
326.601 269.923 L
326.601 374 L
cp
f
GR
GS
[0.75 0 0 0.75 0 0] CT
0.075 0.537 0.824 RC
N
432.786 374 M
432.786 354.503 L
435.101 354.503 L
435.101 374 L
cp
f
GR
GS
[0.75 0 0 0.75 0 0] CT
2 setlinecap
10.0 ML
N
107.286 374 M
107.286 337.411 L
109.601 337.411 L
109.601 374 L
107.286 374 L
S
GR
GS
[0.75 0 0 0.75 0 0] CT
2 setlinecap
10.0 ML
N
215.786 374 M
215.786 77.607 L
218.101 77.607 L
218.101 374 L
215.786 374 L
S
GR
GS
[0.75 0 0 0.75 0 0] CT
2 setlinecap
10.0 ML
N
324.286 374 M
324.286 269.923 L
326.601 269.923 L
326.601 374 L
324.286 374 L
S
GR
GS
[0.75 0 0 0.75 0 0] CT
2 setlinecap
10.0 ML
N
432.786 374 M
432.786 354.503 L
435.101 354.503 L
435.101 374 L
432.786 374 L
S
GR
GS
[0.75 0 0 0.75 0 0] CT
0.047 0.576 0.82 RC
N
110.179 374 M
110.179 332.912 L
112.494 332.912 L
112.494 374 L
cp
f
GR
GS
[0.75 0 0 0.75 0 0] CT
0.047 0.576 0.82 RC
N
218.679 374 M
218.679 78.087 L
220.994 78.087 L
220.994 374 L
cp
f
GR
GS
[0.75 0 0 0.75 0 0] CT
0.047 0.576 0.82 RC
N
327.179 374 M
327.179 278.196 L
329.494 278.196 L
329.494 374 L
cp
f
GR
GS
[0.75 0 0 0.75 0 0] CT
0.047 0.576 0.82 RC
N
435.679 374 M
435.679 354.569 L
437.994 354.569 L
437.994 374 L
cp
f
GR
GS
[0.75 0 0 0.75 0 0] CT
2 setlinecap
10.0 ML
N
110.179 374 M
110.179 332.912 L
112.494 332.912 L
112.494 374 L
110.179 374 L
S
GR
GS
[0.75 0 0 0.75 0 0] CT
2 setlinecap
10.0 ML
N
218.679 374 M
218.679 78.087 L
220.994 78.087 L
220.994 374 L
218.679 374 L
S
GR
GS
[0.75 0 0 0.75 0 0] CT
2 setlinecap
10.0 ML
N
327.179 374 M
327.179 278.196 L
329.494 278.196 L
329.494 374 L
327.179 374 L
S
GR
GS
[0.75 0 0 0.75 0 0] CT
2 setlinecap
10.0 ML
N
435.679 374 M
435.679 354.569 L
437.994 354.569 L
437.994 374 L
435.679 374 L
S
GR
GS
[0.75 0 0 0.75 0 0] CT
0.024 0.627 0.8 RC
N
113.073 374 M
113.073 344.111 L
115.387 344.111 L
115.387 374 L
cp
f
GR
GS
[0.75 0 0 0.75 0 0] CT
0.024 0.627 0.8 RC
N
221.573 374 M
221.573 77.672 L
223.887 77.672 L
223.887 374 L
cp
f
GR
GS
[0.75 0 0 0.75 0 0] CT
0.024 0.627 0.8 RC
N
330.073 374 M
330.073 274.3 L
332.387 274.3 L
332.387 374 L
cp
f
GR
GS
[0.75 0 0 0.75 0 0] CT
0.024 0.627 0.8 RC
N
438.573 374 M
438.573 354.455 L
440.887 354.455 L
440.887 374 L
cp
f
GR
GS
[0.75 0 0 0.75 0 0] CT
2 setlinecap
10.0 ML
N
113.073 374 M
113.073 344.111 L
115.387 344.111 L
115.387 374 L
113.073 374 L
S
GR
GS
[0.75 0 0 0.75 0 0] CT
2 setlinecap
10.0 ML
N
221.573 374 M
221.573 77.672 L
223.887 77.672 L
223.887 374 L
221.573 374 L
S
GR
GS
[0.75 0 0 0.75 0 0] CT
2 setlinecap
10.0 ML
N
330.073 374 M
330.073 274.3 L
332.387 274.3 L
332.387 374 L
330.073 374 L
S
GR
GS
[0.75 0 0 0.75 0 0] CT
2 setlinecap
10.0 ML
N
438.573 374 M
438.573 354.455 L
440.887 354.455 L
440.887 374 L
438.573 374 L
S
GR
GS
[0.75 0 0 0.75 0 0] CT
0.02 0.651 0.776 RC
N
115.966 374 M
115.966 330.94 L
118.281 330.94 L
118.281 374 L
cp
f
GR
GS
[0.75 0 0 0.75 0 0] CT
0.02 0.651 0.776 RC
N
224.466 374 M
224.466 195.849 L
226.781 195.849 L
226.781 374 L
cp
f
GR
GS
[0.75 0 0 0.75 0 0] CT
0.02 0.651 0.776 RC
N
332.966 374 M
332.966 276.639 L
335.281 276.639 L
335.281 374 L
cp
f
GR
GS
[0.75 0 0 0.75 0 0] CT
0.02 0.651 0.776 RC
N
441.466 374 M
441.466 354.006 L
443.781 354.006 L
443.781 374 L
cp
f
GR
GS
[0.75 0 0 0.75 0 0] CT
2 setlinecap
10.0 ML
N
115.966 374 M
115.966 330.94 L
118.281 330.94 L
118.281 374 L
115.966 374 L
S
GR
GS
[0.75 0 0 0.75 0 0] CT
2 setlinecap
10.0 ML
N
224.466 374 M
224.466 195.849 L
226.781 195.849 L
226.781 374 L
224.466 374 L
S
GR
GS
[0.75 0 0 0.75 0 0] CT
2 setlinecap
10.0 ML
N
332.966 374 M
332.966 276.639 L
335.281 276.639 L
335.281 374 L
332.966 374 L
S
GR
GS
[0.75 0 0 0.75 0 0] CT
2 setlinecap
10.0 ML
N
441.466 374 M
441.466 354.006 L
443.781 354.006 L
443.781 374 L
441.466 374 L
S
GR
GS
[0.75 0 0 0.75 0 0] CT
0.035 0.671 0.741 RC
N
118.859 374 M
118.859 339.726 L
121.174 339.726 L
121.174 374 L
cp
f
GR
GS
[0.75 0 0 0.75 0 0] CT
0.035 0.671 0.741 RC
N
227.359 374 M
227.359 47.001 L
229.674 47.001 L
229.674 374 L
cp
f
GR
GS
[0.75 0 0 0.75 0 0] CT
0.035 0.671 0.741 RC
N
335.859 374 M
335.859 270.274 L
338.174 270.274 L
338.174 374 L
cp
f
GR
GS
[0.75 0 0 0.75 0 0] CT
0.035 0.671 0.741 RC
N
444.359 374 M
444.359 351.162 L
446.674 351.162 L
446.674 374 L
cp
f
GR
GS
[0.75 0 0 0.75 0 0] CT
2 setlinecap
10.0 ML
N
118.859 374 M
118.859 339.726 L
121.174 339.726 L
121.174 374 L
118.859 374 L
S
GR
GS
[0.75 0 0 0.75 0 0] CT
2 setlinecap
10.0 ML
N
227.359 374 M
227.359 47.001 L
229.674 47.001 L
229.674 374 L
227.359 374 L
S
GR
GS
[0.75 0 0 0.75 0 0] CT
2 setlinecap
10.0 ML
N
335.859 374 M
335.859 270.274 L
338.174 270.274 L
338.174 374 L
335.859 374 L
S
GR
GS
[0.75 0 0 0.75 0 0] CT
2 setlinecap
10.0 ML
N
444.359 374 M
444.359 351.162 L
446.674 351.162 L
446.674 374 L
444.359 374 L
S
GR
GS
[0.75 0 0 0.75 0 0] CT
0.082 0.69 0.706 RC
N
121.753 374 M
121.753 344.128 L
124.067 344.128 L
124.067 374 L
cp
f
GR
GS
[0.75 0 0 0.75 0 0] CT
0.082 0.69 0.706 RC
N
230.253 374 M
230.253 180.061 L
232.567 180.061 L
232.567 374 L
cp
f
GR
GS
[0.75 0 0 0.75 0 0] CT
0.082 0.69 0.706 RC
N
338.753 374 M
338.753 272.173 L
341.067 272.173 L
341.067 374 L
cp
f
GR
GS
[0.75 0 0 0.75 0 0] CT
0.082 0.69 0.706 RC
N
447.253 374 M
447.253 350.224 L
449.567 350.224 L
449.567 374 L
cp
f
GR
GS
[0.75 0 0 0.75 0 0] CT
2 setlinecap
10.0 ML
N
121.753 374 M
121.753 344.128 L
124.067 344.128 L
124.067 374 L
121.753 374 L
S
GR
GS
[0.75 0 0 0.75 0 0] CT
2 setlinecap
10.0 ML
N
230.253 374 M
230.253 180.061 L
232.567 180.061 L
232.567 374 L
230.253 374 L
S
GR
GS
[0.75 0 0 0.75 0 0] CT
2 setlinecap
10.0 ML
N
338.753 374 M
338.753 272.173 L
341.067 272.173 L
341.067 374 L
338.753 374 L
S
GR
GS
[0.75 0 0 0.75 0 0] CT
2 setlinecap
10.0 ML
N
447.253 374 M
447.253 350.224 L
449.567 350.224 L
449.567 374 L
447.253 374 L
S
GR
GS
[0.75 0 0 0.75 0 0] CT
0.145 0.706 0.663 RC
N
124.646 374 M
124.646 335.072 L
126.961 335.072 L
126.961 374 L
cp
f
GR
GS
[0.75 0 0 0.75 0 0] CT
0.145 0.706 0.663 RC
N
233.146 374 M
233.146 44.482 L
235.461 44.482 L
235.461 374 L
cp
f
GR
GS
[0.75 0 0 0.75 0 0] CT
0.145 0.706 0.663 RC
N
341.646 374 M
341.646 280.218 L
343.961 280.218 L
343.961 374 L
cp
f
GR
GS
[0.75 0 0 0.75 0 0] CT
0.145 0.706 0.663 RC
N
450.146 374 M
450.146 350.811 L
452.461 350.811 L
452.461 374 L
cp
f
GR
GS
[0.75 0 0 0.75 0 0] CT
2 setlinecap
10.0 ML
N
124.646 374 M
124.646 335.072 L
126.961 335.072 L
126.961 374 L
124.646 374 L
S
GR
GS
[0.75 0 0 0.75 0 0] CT
2 setlinecap
10.0 ML
N
233.146 374 M
233.146 44.482 L
235.461 44.482 L
235.461 374 L
233.146 374 L
S
GR
GS
[0.75 0 0 0.75 0 0] CT
2 setlinecap
10.0 ML
N
341.646 374 M
341.646 280.218 L
343.961 280.218 L
343.961 374 L
341.646 374 L
S
GR
GS
[0.75 0 0 0.75 0 0] CT
2 setlinecap
10.0 ML
N
450.146 374 M
450.146 350.811 L
452.461 350.811 L
452.461 374 L
450.146 374 L
S
GR
GS
[0.75 0 0 0.75 0 0] CT
0.255 0.729 0.592 RC
N
127.539 374 M
127.539 335.447 L
129.854 335.447 L
129.854 374 L
cp
f
GR
GS
[0.75 0 0 0.75 0 0] CT
0.255 0.729 0.592 RC
N
236.039 374 M
236.039 77.941 L
238.354 77.941 L
238.354 374 L
cp
f
GR
GS
[0.75 0 0 0.75 0 0] CT
0.255 0.729 0.592 RC
N
344.539 374 M
344.539 275.441 L
346.854 275.441 L
346.854 374 L
cp
f
GR
GS
[0.75 0 0 0.75 0 0] CT
0.255 0.729 0.592 RC
N
453.039 374 M
453.039 354.577 L
455.354 354.577 L
455.354 374 L
cp
f
GR
GS
[0.75 0 0 0.75 0 0] CT
2 setlinecap
10.0 ML
N
127.539 374 M
127.539 335.447 L
129.854 335.447 L
129.854 374 L
127.539 374 L
S
GR
GS
[0.75 0 0 0.75 0 0] CT
2 setlinecap
10.0 ML
N
236.039 374 M
236.039 77.941 L
238.354 77.941 L
238.354 374 L
236.039 374 L
S
GR
GS
[0.75 0 0 0.75 0 0] CT
2 setlinecap
10.0 ML
N
344.539 374 M
344.539 275.441 L
346.854 275.441 L
346.854 374 L
344.539 374 L
S
GR
GS
[0.75 0 0 0.75 0 0] CT
2 setlinecap
10.0 ML
N
453.039 374 M
453.039 354.577 L
455.354 354.577 L
455.354 374 L
453.039 374 L
S
GR
GS
[0.75 0 0 0.75 0 0] CT
0.345 0.741 0.545 RC
N
130.433 374 M
130.433 348.236 L
132.747 348.236 L
132.747 374 L
cp
f
GR
GS
[0.75 0 0 0.75 0 0] CT
0.345 0.741 0.545 RC
N
238.933 374 M
238.933 182.14 L
241.247 182.14 L
241.247 374 L
cp
f
GR
GS
[0.75 0 0 0.75 0 0] CT
0.345 0.741 0.545 RC
N
347.433 374 M
347.433 272.906 L
349.747 272.906 L
349.747 374 L
cp
f
GR
GS
[0.75 0 0 0.75 0 0] CT
0.345 0.741 0.545 RC
N
455.933 374 M
455.933 354.585 L
458.247 354.585 L
458.247 374 L
cp
f
GR
GS
[0.75 0 0 0.75 0 0] CT
2 setlinecap
10.0 ML
N
130.433 374 M
130.433 348.236 L
132.747 348.236 L
132.747 374 L
130.433 374 L
S
GR
GS
[0.75 0 0 0.75 0 0] CT
2 setlinecap
10.0 ML
N
238.933 374 M
238.933 182.14 L
241.247 182.14 L
241.247 374 L
238.933 374 L
S
GR
GS
[0.75 0 0 0.75 0 0] CT
2 setlinecap
10.0 ML
N
347.433 374 M
347.433 272.906 L
349.747 272.906 L
349.747 374 L
347.433 374 L
S
GR
GS
[0.75 0 0 0.75 0 0] CT
2 setlinecap
10.0 ML
N
455.933 374 M
455.933 354.585 L
458.247 354.585 L
458.247 374 L
455.933 374 L
S
GR
GS
[0.75 0 0 0.75 0 0] CT
0.439 0.745 0.502 RC
N
133.326 374 M
133.326 338.805 L
135.641 338.805 L
135.641 374 L
cp
f
GR
GS
[0.75 0 0 0.75 0 0] CT
0.439 0.745 0.502 RC
N
241.826 374 M
241.826 78.259 L
244.141 78.259 L
244.141 374 L
cp
f
GR
GS
[0.75 0 0 0.75 0 0] CT
0.439 0.745 0.502 RC
N
350.326 374 M
350.326 281.937 L
352.641 281.937 L
352.641 374 L
cp
f
GR
GS
[0.75 0 0 0.75 0 0] CT
0.439 0.745 0.502 RC
N
458.826 374 M
458.826 354.56 L
461.141 354.56 L
461.141 374 L
cp
f
GR
GS
[0.75 0 0 0.75 0 0] CT
2 setlinecap
10.0 ML
N
133.326 374 M
133.326 338.805 L
135.641 338.805 L
135.641 374 L
133.326 374 L
S
GR
GS
[0.75 0 0 0.75 0 0] CT
2 setlinecap
10.0 ML
N
241.826 374 M
241.826 78.259 L
244.141 78.259 L
244.141 374 L
241.826 374 L
S
GR
GS
[0.75 0 0 0.75 0 0] CT
2 setlinecap
10.0 ML
N
350.326 374 M
350.326 281.937 L
352.641 281.937 L
352.641 374 L
350.326 374 L
S
GR
GS
[0.75 0 0 0.75 0 0] CT
2 setlinecap
10.0 ML
N
458.826 374 M
458.826 354.56 L
461.141 354.56 L
461.141 374 L
458.826 374 L
S
GR
GS
[0.75 0 0 0.75 0 0] CT
0.529 0.749 0.463 RC
N
136.219 374 M
136.219 340.248 L
138.534 340.248 L
138.534 374 L
cp
f
GR
GS
[0.75 0 0 0.75 0 0] CT
0.529 0.749 0.463 RC
N
244.719 374 M
244.719 174.095 L
247.034 174.095 L
247.034 374 L
cp
f
GR
GS
[0.75 0 0 0.75 0 0] CT
0.529 0.749 0.463 RC
N
353.219 374 M
353.219 270.518 L
355.534 270.518 L
355.534 374 L
cp
f
GR
GS
[0.75 0 0 0.75 0 0] CT
0.529 0.749 0.463 RC
N
461.719 374 M
461.719 354.569 L
464.034 354.569 L
464.034 374 L
cp
f
GR
GS
[0.75 0 0 0.75 0 0] CT
2 setlinecap
10.0 ML
N
136.219 374 M
136.219 340.248 L
138.534 340.248 L
138.534 374 L
136.219 374 L
S
GR
GS
[0.75 0 0 0.75 0 0] CT
2 setlinecap
10.0 ML
N
244.719 374 M
244.719 174.095 L
247.034 174.095 L
247.034 374 L
244.719 374 L
S
GR
GS
[0.75 0 0 0.75 0 0] CT
2 setlinecap
10.0 ML
N
353.219 374 M
353.219 270.518 L
355.534 270.518 L
355.534 374 L
353.219 374 L
S
GR
GS
[0.75 0 0 0.75 0 0] CT
2 setlinecap
10.0 ML
N
461.719 374 M
461.719 354.569 L
464.034 354.569 L
464.034 374 L
461.719 374 L
S
GR
GS
[0.75 0 0 0.75 0 0] CT
0.608 0.745 0.431 RC
N
139.113 374 M
139.113 338.952 L
141.427 338.952 L
141.427 374 L
cp
f
GR
GS
[0.75 0 0 0.75 0 0] CT
0.608 0.745 0.431 RC
N
247.613 374 M
247.613 74.493 L
249.927 74.493 L
249.927 374 L
cp
f
GR
GS
[0.75 0 0 0.75 0 0] CT
0.608 0.745 0.431 RC
N
356.113 374 M
356.113 280.976 L
358.427 280.976 L
358.427 374 L
cp
f
GR
GS
[0.75 0 0 0.75 0 0] CT
0.608 0.745 0.431 RC
N
464.613 374 M
464.613 354.52 L
466.927 354.52 L
466.927 374 L
cp
f
GR
GS
[0.75 0 0 0.75 0 0] CT
2 setlinecap
10.0 ML
N
139.113 374 M
139.113 338.952 L
141.427 338.952 L
141.427 374 L
139.113 374 L
S
GR
GS
[0.75 0 0 0.75 0 0] CT
2 setlinecap
10.0 ML
N
247.613 374 M
247.613 74.493 L
249.927 74.493 L
249.927 374 L
247.613 374 L
S
GR
GS
[0.75 0 0 0.75 0 0] CT
2 setlinecap
10.0 ML
N
356.113 374 M
356.113 280.976 L
358.427 280.976 L
358.427 374 L
356.113 374 L
S
GR
GS
[0.75 0 0 0.75 0 0] CT
2 setlinecap
10.0 ML
N
464.613 374 M
464.613 354.52 L
466.927 354.52 L
466.927 374 L
464.613 374 L
S
GR
GS
[0.75 0 0 0.75 0 0] CT
0.718 0.737 0.388 RC
N
142.006 374 M
142.006 338.936 L
144.321 338.936 L
144.321 374 L
cp
f
GR
GS
[0.75 0 0 0.75 0 0] CT
0.718 0.737 0.388 RC
N
250.506 374 M
250.506 163.564 L
252.821 163.564 L
252.821 374 L
cp
f
GR
GS
[0.75 0 0 0.75 0 0] CT
0.718 0.737 0.388 RC
N
359.006 374 M
359.006 282.704 L
361.321 282.704 L
361.321 374 L
cp
f
GR
GS
[0.75 0 0 0.75 0 0] CT
0.718 0.737 0.388 RC
N
467.506 374 M
467.506 354.226 L
469.821 354.226 L
469.821 374 L
cp
f
GR
GS
[0.75 0 0 0.75 0 0] CT
2 setlinecap
10.0 ML
N
142.006 374 M
142.006 338.936 L
144.321 338.936 L
144.321 374 L
142.006 374 L
S
GR
GS
[0.75 0 0 0.75 0 0] CT
2 setlinecap
10.0 ML
N
250.506 374 M
250.506 163.564 L
252.821 163.564 L
252.821 374 L
250.506 374 L
S
GR
GS
[0.75 0 0 0.75 0 0] CT
2 setlinecap
10.0 ML
N
359.006 374 M
359.006 282.704 L
361.321 282.704 L
361.321 374 L
359.006 374 L
S
GR
GS
[0.75 0 0 0.75 0 0] CT
2 setlinecap
10.0 ML
N
467.506 374 M
467.506 354.226 L
469.821 354.226 L
469.821 374 L
467.506 374 L
S
GR
GS
[0.75 0 0 0.75 0 0] CT
0.784 0.733 0.361 RC
N
144.899 374 M
144.899 340.37 L
147.214 340.37 L
147.214 374 L
cp
f
GR
GS
[0.75 0 0 0.75 0 0] CT
0.784 0.733 0.361 RC
N
253.399 374 M
253.399 50.929 L
255.714 50.929 L
255.714 374 L
cp
f
GR
GS
[0.75 0 0 0.75 0 0] CT
0.784 0.733 0.361 RC
N
361.899 374 M
361.899 266.59 L
364.214 266.59 L
364.214 374 L
cp
f
GR
GS
[0.75 0 0 0.75 0 0] CT
0.784 0.733 0.361 RC
N
470.399 374 M
470.399 354.455 L
472.714 354.455 L
472.714 374 L
cp
f
GR
GS
[0.75 0 0 0.75 0 0] CT
2 setlinecap
10.0 ML
N
144.899 374 M
144.899 340.37 L
147.214 340.37 L
147.214 374 L
144.899 374 L
S
GR
GS
[0.75 0 0 0.75 0 0] CT
2 setlinecap
10.0 ML
N
253.399 374 M
253.399 50.929 L
255.714 50.929 L
255.714 374 L
253.399 374 L
S
GR
GS
[0.75 0 0 0.75 0 0] CT
2 setlinecap
10.0 ML
N
361.899 374 M
361.899 266.59 L
364.214 266.59 L
364.214 374 L
361.899 374 L
S
GR
GS
[0.75 0 0 0.75 0 0] CT
2 setlinecap
10.0 ML
N
470.399 374 M
470.399 354.455 L
472.714 354.455 L
472.714 374 L
470.399 374 L
S
GR
GS
[0.75 0 0 0.75 0 0] CT
0.847 0.729 0.333 RC
N
147.793 374 M
147.793 348.162 L
150.107 348.162 L
150.107 374 L
cp
f
GR
GS
[0.75 0 0 0.75 0 0] CT
0.847 0.729 0.333 RC
N
256.293 374 M
256.293 181.471 L
258.607 181.471 L
258.607 374 L
cp
f
GR
GS
[0.75 0 0 0.75 0 0] CT
0.847 0.729 0.333 RC
N
364.793 374 M
364.793 270.763 L
367.107 270.763 L
367.107 374 L
cp
f
GR
GS
[0.75 0 0 0.75 0 0] CT
0.847 0.729 0.333 RC
N
473.293 374 M
473.293 353.705 L
475.607 353.705 L
475.607 374 L
cp
f
GR
GS
[0.75 0 0 0.75 0 0] CT
2 setlinecap
10.0 ML
N
147.793 374 M
147.793 348.162 L
150.107 348.162 L
150.107 374 L
147.793 374 L
S
GR
GS
[0.75 0 0 0.75 0 0] CT
2 setlinecap
10.0 ML
N
256.293 374 M
256.293 181.471 L
258.607 181.471 L
258.607 374 L
256.293 374 L
S
GR
GS
[0.75 0 0 0.75 0 0] CT
2 setlinecap
10.0 ML
N
364.793 374 M
364.793 270.763 L
367.107 270.763 L
367.107 374 L
364.793 374 L
S
GR
GS
[0.75 0 0 0.75 0 0] CT
2 setlinecap
10.0 ML
N
473.293 374 M
473.293 353.705 L
475.607 353.705 L
475.607 374 L
473.293 374 L
S
GR
GS
[0.75 0 0 0.75 0 0] CT
0.914 0.725 0.306 RC
N
150.686 374 M
150.686 348.187 L
153.001 348.187 L
153.001 374 L
cp
f
GR
GS
[0.75 0 0 0.75 0 0] CT
0.914 0.725 0.306 RC
N
259.186 374 M
259.186 76.196 L
261.501 76.196 L
261.501 374 L
cp
f
GR
GS
[0.75 0 0 0.75 0 0] CT
0.914 0.725 0.306 RC
N
367.686 374 M
367.686 273.143 L
370.001 273.143 L
370.001 374 L
cp
f
GR
GS
[0.75 0 0 0.75 0 0] CT
0.914 0.725 0.306 RC
N
476.186 374 M
476.186 354.601 L
478.501 354.601 L
478.501 374 L
cp
f
GR
GS
[0.75 0 0 0.75 0 0] CT
2 setlinecap
10.0 ML
N
150.686 374 M
150.686 348.187 L
153.001 348.187 L
153.001 374 L
150.686 374 L
S
GR
GS
[0.75 0 0 0.75 0 0] CT
2 setlinecap
10.0 ML
N
259.186 374 M
259.186 76.196 L
261.501 76.196 L
261.501 374 L
259.186 374 L
S
GR
GS
[0.75 0 0 0.75 0 0] CT
2 setlinecap
10.0 ML
N
367.686 374 M
367.686 273.143 L
370.001 273.143 L
370.001 374 L
367.686 374 L
S
GR
GS
[0.75 0 0 0.75 0 0] CT
2 setlinecap
10.0 ML
N
476.186 374 M
476.186 354.601 L
478.501 354.601 L
478.501 374 L
476.186 374 L
S
GR
GS
[0.75 0 0 0.75 0 0] CT
0.973 0.729 0.263 RC
N
153.579 374 M
153.579 337.86 L
155.894 337.86 L
155.894 374 L
cp
f
GR
GS
[0.75 0 0 0.75 0 0] CT
0.973 0.729 0.263 RC
N
262.079 374 M
262.079 72.309 L
264.394 72.309 L
264.394 374 L
cp
f
GR
GS
[0.75 0 0 0.75 0 0] CT
0.973 0.729 0.263 RC
N
370.579 374 M
370.579 278.213 L
372.894 278.213 L
372.894 374 L
cp
f
GR
GS
[0.75 0 0 0.75 0 0] CT
0.973 0.729 0.263 RC
N
479.079 374 M
479.079 350.876 L
481.394 350.876 L
481.394 374 L
cp
f
GR
GS
[0.75 0 0 0.75 0 0] CT
2 setlinecap
10.0 ML
N
153.579 374 M
153.579 337.86 L
155.894 337.86 L
155.894 374 L
153.579 374 L
S
GR
GS
[0.75 0 0 0.75 0 0] CT
2 setlinecap
10.0 ML
N
262.079 374 M
262.079 72.309 L
264.394 72.309 L
264.394 374 L
262.079 374 L
S
GR
GS
[0.75 0 0 0.75 0 0] CT
2 setlinecap
10.0 ML
N
370.579 374 M
370.579 278.213 L
372.894 278.213 L
372.894 374 L
370.579 374 L
S
GR
GS
[0.75 0 0 0.75 0 0] CT
2 setlinecap
10.0 ML
N
479.079 374 M
479.079 350.876 L
481.394 350.876 L
481.394 374 L
479.079 374 L
S
GR
GS
[0.75 0 0 0.75 0 0] CT
0.992 0.784 0.196 RC
N
156.473 374 M
156.473 338.805 L
158.787 338.805 L
158.787 374 L
cp
f
GR
GS
[0.75 0 0 0.75 0 0] CT
0.992 0.784 0.196 RC
N
264.973 374 M
264.973 179.377 L
267.287 179.377 L
267.287 374 L
cp
f
GR
GS
[0.75 0 0 0.75 0 0] CT
0.992 0.784 0.196 RC
N
373.473 374 M
373.473 275.816 L
375.787 275.816 L
375.787 374 L
cp
f
GR
GS
[0.75 0 0 0.75 0 0] CT
0.992 0.784 0.196 RC
N
481.973 374 M
481.973 354.357 L
484.287 354.357 L
484.287 374 L
cp
f
GR
GS
[0.75 0 0 0.75 0 0] CT
2 setlinecap
10.0 ML
N
156.473 374 M
156.473 338.805 L
158.787 338.805 L
158.787 374 L
156.473 374 L
S
GR
GS
[0.75 0 0 0.75 0 0] CT
2 setlinecap
10.0 ML
N
264.973 374 M
264.973 179.377 L
267.287 179.377 L
267.287 374 L
264.973 374 L
S
GR
GS
[0.75 0 0 0.75 0 0] CT
2 setlinecap
10.0 ML
N
373.473 374 M
373.473 275.816 L
375.787 275.816 L
375.787 374 L
373.473 374 L
S
GR
GS
[0.75 0 0 0.75 0 0] CT
2 setlinecap
10.0 ML
N
481.973 374 M
481.973 354.357 L
484.287 354.357 L
484.287 374 L
481.973 374 L
S
GR
GS
[0.75 0 0 0.75 0 0] CT
0.976 0.824 0.161 RC
N
159.366 374 M
159.366 348.276 L
161.681 348.276 L
161.681 374 L
cp
f
GR
GS
[0.75 0 0 0.75 0 0] CT
0.976 0.824 0.161 RC
N
267.866 374 M
267.866 178.757 L
270.181 178.757 L
270.181 374 L
cp
f
GR
GS
[0.75 0 0 0.75 0 0] CT
0.976 0.824 0.161 RC
N
376.366 374 M
376.366 267.551 L
378.681 267.551 L
378.681 374 L
cp
f
GR
GS
[0.75 0 0 0.75 0 0] CT
0.976 0.824 0.161 RC
N
484.866 374 M
484.866 354.536 L
487.181 354.536 L
487.181 374 L
cp
f
GR
GS
[0.75 0 0 0.75 0 0] CT
2 setlinecap
10.0 ML
N
159.366 374 M
159.366 348.276 L
161.681 348.276 L
161.681 374 L
159.366 374 L
S
GR
GS
[0.75 0 0 0.75 0 0] CT
2 setlinecap
10.0 ML
N
267.866 374 M
267.866 178.757 L
270.181 178.757 L
270.181 374 L
267.866 374 L
S
GR
GS
[0.75 0 0 0.75 0 0] CT
2 setlinecap
10.0 ML
N
376.366 374 M
376.366 267.551 L
378.681 267.551 L
378.681 374 L
376.366 374 L
S
GR
GS
[0.75 0 0 0.75 0 0] CT
2 setlinecap
10.0 ML
N
484.866 374 M
484.866 354.536 L
487.181 354.536 L
487.181 374 L
484.866 374 L
S
GR
GS
[0.75 0 0 0.75 0 0] CT
0.961 0.867 0.129 RC
N
162.259 374 M
162.259 348.407 L
164.574 348.407 L
164.574 374 L
cp
f
GR
GS
[0.75 0 0 0.75 0 0] CT
0.961 0.867 0.129 RC
N
270.759 374 M
270.759 153.743 L
273.074 153.743 L
273.074 374 L
cp
f
GR
GS
[0.75 0 0 0.75 0 0] CT
0.961 0.867 0.129 RC
N
379.259 374 M
379.259 280.976 L
381.574 280.976 L
381.574 374 L
cp
f
GR
GS
[0.75 0 0 0.75 0 0] CT
0.961 0.867 0.129 RC
N
487.759 374 M
487.759 354.552 L
490.074 354.552 L
490.074 374 L
cp
f
GR
GS
[0.75 0 0 0.75 0 0] CT
2 setlinecap
10.0 ML
N
162.259 374 M
162.259 348.407 L
164.574 348.407 L
164.574 374 L
162.259 374 L
S
GR
GS
[0.75 0 0 0.75 0 0] CT
2 setlinecap
10.0 ML
N
270.759 374 M
270.759 153.743 L
273.074 153.743 L
273.074 374 L
270.759 374 L
S
GR
GS
[0.75 0 0 0.75 0 0] CT
2 setlinecap
10.0 ML
N
379.259 374 M
379.259 280.976 L
381.574 280.976 L
381.574 374 L
379.259 374 L
S
GR
GS
[0.75 0 0 0.75 0 0] CT
2 setlinecap
10.0 ML
N
487.759 374 M
487.759 354.552 L
490.074 354.552 L
490.074 374 L
487.759 374 L
S
GR
GS
[0.75 0 0 0.75 0 0] CT
0.957 0.922 0.094 RC
N
165.153 374 M
165.153 338.398 L
167.467 338.398 L
167.467 374 L
cp
f
GR
GS
[0.75 0 0 0.75 0 0] CT
0.957 0.922 0.094 RC
N
273.653 374 M
273.653 179.825 L
275.967 179.825 L
275.967 374 L
cp
f
GR
GS
[0.75 0 0 0.75 0 0] CT
0.957 0.922 0.094 RC
N
382.153 374 M
382.153 278.669 L
384.467 278.669 L
384.467 374 L
cp
f
GR
GS
[0.75 0 0 0.75 0 0] CT
0.957 0.922 0.094 RC
N
490.653 374 M
490.653 354.479 L
492.967 354.479 L
492.967 374 L
cp
f
GR
GS
[0.75 0 0 0.75 0 0] CT
2 setlinecap
10.0 ML
N
165.153 374 M
165.153 338.398 L
167.467 338.398 L
167.467 374 L
165.153 374 L
S
GR
GS
[0.75 0 0 0.75 0 0] CT
2 setlinecap
10.0 ML
N
273.653 374 M
273.653 179.825 L
275.967 179.825 L
275.967 374 L
273.653 374 L
S
GR
GS
[0.75 0 0 0.75 0 0] CT
2 setlinecap
10.0 ML
N
382.153 374 M
382.153 278.669 L
384.467 278.669 L
384.467 374 L
382.153 374 L
S
GR
GS
[0.75 0 0 0.75 0 0] CT
2 setlinecap
10.0 ML
N
490.653 374 M
490.653 354.479 L
492.967 354.479 L
492.967 374 L
490.653 374 L
S
GR
GS
[0.75 0 0 0.75 0 0] CT
0.973 0.98 0.051 RC
N
168.046 374 M
168.046 347.991 L
170.361 347.991 L
170.361 374 L
cp
f
GR
GS
[0.75 0 0 0.75 0 0] CT
0.973 0.98 0.051 RC
N
276.546 374 M
276.546 200.789 L
278.861 200.789 L
278.861 374 L
cp
f
GR
GS
[0.75 0 0 0.75 0 0] CT
0.973 0.98 0.051 RC
N
385.046 374 M
385.046 266.679 L
387.361 266.679 L
387.361 374 L
cp
f
GR
GS
[0.75 0 0 0.75 0 0] CT
0.973 0.98 0.051 RC
N
493.546 374 M
493.546 354.137 L
495.861 354.137 L
495.861 374 L
cp
f
GR
GS
[0.75 0 0 0.75 0 0] CT
2 setlinecap
10.0 ML
N
168.046 374 M
168.046 347.991 L
170.361 347.991 L
170.361 374 L
168.046 374 L
S
GR
GS
[0.75 0 0 0.75 0 0] CT
2 setlinecap
10.0 ML
N
276.546 374 M
276.546 200.789 L
278.861 200.789 L
278.861 374 L
276.546 374 L
S
GR
GS
[0.75 0 0 0.75 0 0] CT
2 setlinecap
10.0 ML
N
385.046 374 M
385.046 266.679 L
387.361 266.679 L
387.361 374 L
385.046 374 L
S
GR
GS
[0.75 0 0 0.75 0 0] CT
2 setlinecap
10.0 ML
N
493.546 374 M
493.546 354.137 L
495.861 354.137 L
495.861 374 L
493.546 374 L
S
GR
GS
[0.75 0 0 0.75 217.5 20.5] CT
/Helvetica-Bold 15 F
GS
[1 0 0 1 0 0] CT
-53.346 -3.787 moveto 
1 -1 scale
(Execution time) t 
GR
GR
GS
[0.75 0 0 0.75 0 0] CT
0.149 GC
2 setlinecap
10.0 ML
N
73 374 M
507 374 L
S
GR
%%Trailer
%%Pages: 1
%%EOF
