%!PS-Adobe-3.0 EPSF-3.0
%%Creator: (MATLAB, The Mathworks, Inc. Version 8.4.0.150421 \(R2014b\). Operating System: Windows 8)
%%Title: C:/Users/deepak/Documents/MATLAB/matlab-projects/projs/Experiments/exp-FBCvsCB/results/timeAll-s1.eps
%%CreationDate: 2015-03-02T22:25:12
%%Pages: (atend)
%%BoundingBox: 0 0 420 315
%%LanguageLevel: 2
%%EndComments
%%BeginProlog
%%BeginResource: procset (Apache XML Graphics Std ProcSet) 1.2 0
%%Version: 1.2 0
%%Copyright: (Copyright 2001-2003,2010 The Apache Software Foundation. License terms: http://www.apache.org/licenses/LICENSE-2.0)
/bd{bind def}bind def
/ld{load def}bd
/GR/grestore ld
/M/moveto ld
/LJ/setlinejoin ld
/C/curveto ld
/f/fill ld
/LW/setlinewidth ld
/GC/setgray ld
/t/show ld
/N/newpath ld
/CT/concat ld
/cp/closepath ld
/S/stroke ld
/L/lineto ld
/CC/setcmykcolor ld
/A/ashow ld
/GS/gsave ld
/RC/setrgbcolor ld
/RM/rmoveto ld
/ML/setmiterlimit ld
/re {4 2 roll M
1 index 0 rlineto
0 exch rlineto
neg 0 rlineto
cp } bd
/_ctm matrix def
/_tm matrix def
/BT { _ctm currentmatrix pop matrix _tm copy pop 0 0 moveto } bd
/ET { _ctm setmatrix } bd
/iTm { _ctm setmatrix _tm concat } bd
/Tm { _tm astore pop iTm 0 0 moveto } bd
/ux 0.0 def
/uy 0.0 def
/F {
  /Tp exch def
  /Tf exch def
  Tf findfont Tp scalefont setfont
  /cf Tf def  /cs Tp def
} bd
/ULS {currentpoint /uy exch def /ux exch def} bd
/ULE {
  /Tcx currentpoint pop def
  gsave
  newpath
  cf findfont cs scalefont dup
  /FontMatrix get 0 get /Ts exch def /FontInfo get dup
  /UnderlinePosition get Ts mul /To exch def
  /UnderlineThickness get Ts mul /Tt exch def
  ux uy To add moveto  Tcx uy To add lineto
  Tt setlinewidth stroke
  grestore
} bd
/OLE {
  /Tcx currentpoint pop def
  gsave
  newpath
  cf findfont cs scalefont dup
  /FontMatrix get 0 get /Ts exch def /FontInfo get dup
  /UnderlinePosition get Ts mul /To exch def
  /UnderlineThickness get Ts mul /Tt exch def
  ux uy To add cs add moveto Tcx uy To add cs add lineto
  Tt setlinewidth stroke
  grestore
} bd
/SOE {
  /Tcx currentpoint pop def
  gsave
  newpath
  cf findfont cs scalefont dup
  /FontMatrix get 0 get /Ts exch def /FontInfo get dup
  /UnderlinePosition get Ts mul /To exch def
  /UnderlineThickness get Ts mul /Tt exch def
  ux uy To add cs 10 mul 26 idiv add moveto Tcx uy To add cs 10 mul 26 idiv add lineto
  Tt setlinewidth stroke
  grestore
} bd
/QT {
/Y22 exch store
/X22 exch store
/Y21 exch store
/X21 exch store
currentpoint
/Y21 load 2 mul add 3 div exch
/X21 load 2 mul add 3 div exch
/X21 load 2 mul /X22 load add 3 div
/Y21 load 2 mul /Y22 load add 3 div
/X22 load /Y22 load curveto
} bd
/SSPD {
dup length /d exch dict def
{
/v exch def
/k exch def
currentpagedevice k known {
/cpdv currentpagedevice k get def
v cpdv ne {
/upd false def
/nullv v type /nulltype eq def
/nullcpdv cpdv type /nulltype eq def
nullv nullcpdv or
{
/upd true def
} {
/sametype v type cpdv type eq def
sametype {
v type /arraytype eq {
/vlen v length def
/cpdvlen cpdv length def
vlen cpdvlen eq {
0 1 vlen 1 sub {
/i exch def
/obj v i get def
/cpdobj cpdv i get def
obj cpdobj ne {
/upd true def
exit
} if
} for
} {
/upd true def
} ifelse
} {
v type /dicttype eq {
v {
/dv exch def
/dk exch def
/cpddv cpdv dk get def
dv cpddv ne {
/upd true def
exit
} if
} forall
} {
/upd true def
} ifelse
} ifelse
} if
} ifelse
upd true eq {
d k v put
} if
} if
} if
} forall
d length 0 gt {
d setpagedevice
} if
} bd
%%EndResource
%%BeginResource: procset (Apache XML Graphics EPS ProcSet) 1.0 0
%%Version: 1.0 0
%%Copyright: (Copyright 2002-2003 The Apache Software Foundation. License terms: http://www.apache.org/licenses/LICENSE-2.0)
/BeginEPSF { %def
/b4_Inc_state save def         % Save state for cleanup
/dict_count countdictstack def % Count objects on dict stack
/op_count count 1 sub def      % Count objects on operand stack
userdict begin                 % Push userdict on dict stack
/showpage { } def              % Redefine showpage, { } = null proc
0 setgray 0 setlinecap         % Prepare graphics state
1 setlinewidth 0 setlinejoin
10 setmiterlimit [ ] 0 setdash newpath
/languagelevel where           % If level not equal to 1 then
{pop languagelevel             % set strokeadjust and
1 ne                           % overprint to their defaults.
{false setstrokeadjust false setoverprint
} if
} if
} bd
/EndEPSF { %def
count op_count sub {pop} repeat            % Clean up stacks
countdictstack dict_count sub {end} repeat
b4_Inc_state restore
} bd
%%EndResource
%FOPBeginFontDict
%%IncludeResource: font Courier-Bold
%%IncludeResource: font Helvetica
%%IncludeResource: font Courier-BoldOblique
%%IncludeResource: font Courier-Oblique
%%IncludeResource: font Times-Roman
%%IncludeResource: font Helvetica-BoldOblique
%%IncludeResource: font Helvetica-Bold
%%IncludeResource: font Helvetica-Oblique
%%IncludeResource: font Times-BoldItalic
%%IncludeResource: font Courier
%%IncludeResource: font Times-Italic
%%IncludeResource: font Times-Bold
%%IncludeResource: font Symbol
%%IncludeResource: font ZapfDingbats
%FOPEndFontDict
%%BeginResource: encoding WinAnsiEncoding
/WinAnsiEncoding [
/.notdef /.notdef /.notdef /.notdef /.notdef
/.notdef /.notdef /.notdef /.notdef /.notdef
/.notdef /.notdef /.notdef /.notdef /.notdef
/.notdef /.notdef /.notdef /.notdef /.notdef
/.notdef /.notdef /.notdef /.notdef /.notdef
/.notdef /.notdef /.notdef /.notdef /.notdef
/.notdef /.notdef /space /exclam /quotedbl
/numbersign /dollar /percent /ampersand /quotesingle
/parenleft /parenright /asterisk /plus /comma
/hyphen /period /slash /zero /one
/two /three /four /five /six
/seven /eight /nine /colon /semicolon
/less /equal /greater /question /at
/A /B /C /D /E
/F /G /H /I /J
/K /L /M /N /O
/P /Q /R /S /T
/U /V /W /X /Y
/Z /bracketleft /backslash /bracketright /asciicircum
/underscore /quoteleft /a /b /c
/d /e /f /g /h
/i /j /k /l /m
/n /o /p /q /r
/s /t /u /v /w
/x /y /z /braceleft /bar
/braceright /asciitilde /bullet /Euro /bullet
/quotesinglbase /florin /quotedblbase /ellipsis /dagger
/daggerdbl /circumflex /perthousand /Scaron /guilsinglleft
/OE /bullet /Zcaron /bullet /bullet
/quoteleft /quoteright /quotedblleft /quotedblright /bullet
/endash /emdash /asciitilde /trademark /scaron
/guilsinglright /oe /bullet /zcaron /Ydieresis
/space /exclamdown /cent /sterling /currency
/yen /brokenbar /section /dieresis /copyright
/ordfeminine /guillemotleft /logicalnot /sfthyphen /registered
/macron /degree /plusminus /twosuperior /threesuperior
/acute /mu /paragraph /middot /cedilla
/onesuperior /ordmasculine /guillemotright /onequarter /onehalf
/threequarters /questiondown /Agrave /Aacute /Acircumflex
/Atilde /Adieresis /Aring /AE /Ccedilla
/Egrave /Eacute /Ecircumflex /Edieresis /Igrave
/Iacute /Icircumflex /Idieresis /Eth /Ntilde
/Ograve /Oacute /Ocircumflex /Otilde /Odieresis
/multiply /Oslash /Ugrave /Uacute /Ucircumflex
/Udieresis /Yacute /Thorn /germandbls /agrave
/aacute /acircumflex /atilde /adieresis /aring
/ae /ccedilla /egrave /eacute /ecircumflex
/edieresis /igrave /iacute /icircumflex /idieresis
/eth /ntilde /ograve /oacute /ocircumflex
/otilde /odieresis /divide /oslash /ugrave
/uacute /ucircumflex /udieresis /yacute /thorn
/ydieresis
] def
%%EndResource
%FOPBeginFontReencode
/Courier-Bold findfont
dup length dict begin
  {1 index /FID ne {def} {pop pop} ifelse} forall
  /Encoding WinAnsiEncoding def
  currentdict
end
/Courier-Bold exch definefont pop
/Helvetica findfont
dup length dict begin
  {1 index /FID ne {def} {pop pop} ifelse} forall
  /Encoding WinAnsiEncoding def
  currentdict
end
/Helvetica exch definefont pop
/Courier-BoldOblique findfont
dup length dict begin
  {1 index /FID ne {def} {pop pop} ifelse} forall
  /Encoding WinAnsiEncoding def
  currentdict
end
/Courier-BoldOblique exch definefont pop
/Courier-Oblique findfont
dup length dict begin
  {1 index /FID ne {def} {pop pop} ifelse} forall
  /Encoding WinAnsiEncoding def
  currentdict
end
/Courier-Oblique exch definefont pop
/Times-Roman findfont
dup length dict begin
  {1 index /FID ne {def} {pop pop} ifelse} forall
  /Encoding WinAnsiEncoding def
  currentdict
end
/Times-Roman exch definefont pop
/Helvetica-BoldOblique findfont
dup length dict begin
  {1 index /FID ne {def} {pop pop} ifelse} forall
  /Encoding WinAnsiEncoding def
  currentdict
end
/Helvetica-BoldOblique exch definefont pop
/Helvetica-Bold findfont
dup length dict begin
  {1 index /FID ne {def} {pop pop} ifelse} forall
  /Encoding WinAnsiEncoding def
  currentdict
end
/Helvetica-Bold exch definefont pop
/Helvetica-Oblique findfont
dup length dict begin
  {1 index /FID ne {def} {pop pop} ifelse} forall
  /Encoding WinAnsiEncoding def
  currentdict
end
/Helvetica-Oblique exch definefont pop
/Times-BoldItalic findfont
dup length dict begin
  {1 index /FID ne {def} {pop pop} ifelse} forall
  /Encoding WinAnsiEncoding def
  currentdict
end
/Times-BoldItalic exch definefont pop
/Courier findfont
dup length dict begin
  {1 index /FID ne {def} {pop pop} ifelse} forall
  /Encoding WinAnsiEncoding def
  currentdict
end
/Courier exch definefont pop
/Times-Italic findfont
dup length dict begin
  {1 index /FID ne {def} {pop pop} ifelse} forall
  /Encoding WinAnsiEncoding def
  currentdict
end
/Times-Italic exch definefont pop
/Times-Bold findfont
dup length dict begin
  {1 index /FID ne {def} {pop pop} ifelse} forall
  /Encoding WinAnsiEncoding def
  currentdict
end
/Times-Bold exch definefont pop
%FOPEndFontReencode
%%EndProlog
%%Page: 1 1
%%PageBoundingBox: 0 0 420 315
%%BeginPageSetup
[1 0 0 -1 0 315] CT
%%EndPageSetup
GS
[0.75 0 0 0.75 0 0] CT
1 GC
N
0 0 560 420 re
f
GR
GS
[0.75 0 0 0.75 0 0] CT
1 GC
N
0 0 560 420 re
f
GR
GS
[0.75 0 0 0.75 0 0] CT
1 GC
N
73 374 M
507 374 L
507 31 L
73 31 L
cp
f
GR
GS
[0.75 0 0 0.75 217.5 297.01366] CT
0.149 GC
/Helvetica 15 F
GS
[1 0 0 1 0 0] CT
-35.427 15.081 moveto 
1 -1 scale
(Algorithms) t 
GR
GR
GS
[0.75 0 0 0.75 0 0] CT
0.149 GC
2 setlinecap
10.0 ML
N
73 374 M
507 374 L
S
GR
GS
[0.75 0 0 0.75 0 0] CT
0.149 GC
2 setlinecap
10.0 ML
N
73 31 M
507 31 L
S
GR
GS
[0.75 0 0 0.75 0 0] CT
0.149 GC
2 setlinecap
10.0 ML
N
127.25 374 M
127.25 369.66 L
S
GR
GS
[0.75 0 0 0.75 0 0] CT
0.149 GC
2 setlinecap
10.0 ML
N
127.25 31 M
127.25 35.34 L
S
GR
GS
[0.75 0 0 0.75 0 0] CT
0.149 GC
2 setlinecap
10.0 ML
N
235.75 374 M
235.75 369.66 L
S
GR
GS
[0.75 0 0 0.75 0 0] CT
0.149 GC
2 setlinecap
10.0 ML
N
235.75 31 M
235.75 35.34 L
S
GR
GS
[0.75 0 0 0.75 0 0] CT
0.149 GC
2 setlinecap
10.0 ML
N
344.25 374 M
344.25 369.66 L
S
GR
GS
[0.75 0 0 0.75 0 0] CT
0.149 GC
2 setlinecap
10.0 ML
N
344.25 31 M
344.25 35.34 L
S
GR
GS
[0.75 0 0 0.75 0 0] CT
0.149 GC
2 setlinecap
10.0 ML
N
452.75 374 M
452.75 369.66 L
S
GR
GS
[0.75 0 0 0.75 0 0] CT
0.149 GC
2 setlinecap
10.0 ML
N
452.75 31 M
452.75 35.34 L
S
GR
GS
[0.75 0 0 0.75 95.4375 284.50001] CT
0.149 GC
/Helvetica 13 F
GS
[1 0 0 1 0 0] CT
-10.48 13.07 moveto 
1 -1 scale
(epfl) t 
GR
GR
GS
[0.75 0 0 0.75 176.8125 284.50001] CT
0.149 GC
/Helvetica 13 F
GS
[1 0 0 1 0 0] CT
-14.46 13.07 moveto 
1 -1 scale
(boug) t 
GR
GR
GS
[0.75 0 0 0.75 258.1875 284.50001] CT
0.149 GC
/Helvetica 13 F
GS
[1 0 0 1 0 0] CT
-17.71 13.07 moveto 
1 -1 scale
(zhang) t 
GR
GR
GS
[0.75 0 0 0.75 339.5625 284.50001] CT
0.149 GC
/Helvetica 13 F
GS
[1 0 0 1 0 0] CT
-12.289 13.07 moveto 
1 -1 scale
(gold) t 
GR
GR
GS
[0 -0.75 0.75 0 23.3512 151.875] CT
0.149 GC
/Helvetica 15 F
GS
[1 0 0 1 0 0] CT
-54.606 -3.787 moveto 
1 -1 scale
(Time in seconds) t 
GR
GR
GS
[0.75 0 0 0.75 0 0] CT
0.149 GC
2 setlinecap
10.0 ML
N
73 374 M
73 31 L
S
GR
GS
[0.75 0 0 0.75 0 0] CT
0.149 GC
2 setlinecap
10.0 ML
N
507 374 M
507 31 L
S
GR
GS
[0.75 0 0 0.75 0 0] CT
0.149 GC
2 setlinecap
10.0 ML
N
73 374 M
77.34 374 L
S
GR
GS
[0.75 0 0 0.75 0 0] CT
0.149 GC
2 setlinecap
10.0 ML
N
507 374 M
502.66 374 L
S
GR
GS
[0.75 0 0 0.75 0 0] CT
0.149 GC
2 setlinecap
10.0 ML
N
73 335.889 M
77.34 335.889 L
S
GR
GS
[0.75 0 0 0.75 0 0] CT
0.149 GC
2 setlinecap
10.0 ML
N
507 335.889 M
502.66 335.889 L
S
GR
GS
[0.75 0 0 0.75 0 0] CT
0.149 GC
2 setlinecap
10.0 ML
N
73 297.778 M
77.34 297.778 L
S
GR
GS
[0.75 0 0 0.75 0 0] CT
0.149 GC
2 setlinecap
10.0 ML
N
507 297.778 M
502.66 297.778 L
S
GR
GS
[0.75 0 0 0.75 0 0] CT
0.149 GC
2 setlinecap
10.0 ML
N
73 259.667 M
77.34 259.667 L
S
GR
GS
[0.75 0 0 0.75 0 0] CT
0.149 GC
2 setlinecap
10.0 ML
N
507 259.667 M
502.66 259.667 L
S
GR
GS
[0.75 0 0 0.75 0 0] CT
0.149 GC
2 setlinecap
10.0 ML
N
73 221.556 M
77.34 221.556 L
S
GR
GS
[0.75 0 0 0.75 0 0] CT
0.149 GC
2 setlinecap
10.0 ML
N
507 221.556 M
502.66 221.556 L
S
GR
GS
[0.75 0 0 0.75 0 0] CT
0.149 GC
2 setlinecap
10.0 ML
N
73 183.444 M
77.34 183.444 L
S
GR
GS
[0.75 0 0 0.75 0 0] CT
0.149 GC
2 setlinecap
10.0 ML
N
507 183.444 M
502.66 183.444 L
S
GR
GS
[0.75 0 0 0.75 0 0] CT
0.149 GC
2 setlinecap
10.0 ML
N
73 145.333 M
77.34 145.333 L
S
GR
GS
[0.75 0 0 0.75 0 0] CT
0.149 GC
2 setlinecap
10.0 ML
N
507 145.333 M
502.66 145.333 L
S
GR
GS
[0.75 0 0 0.75 0 0] CT
0.149 GC
2 setlinecap
10.0 ML
N
73 107.222 M
77.34 107.222 L
S
GR
GS
[0.75 0 0 0.75 0 0] CT
0.149 GC
2 setlinecap
10.0 ML
N
507 107.222 M
502.66 107.222 L
S
GR
GS
[0.75 0 0 0.75 0 0] CT
0.149 GC
2 setlinecap
10.0 ML
N
73 69.111 M
77.34 69.111 L
S
GR
GS
[0.75 0 0 0.75 0 0] CT
0.149 GC
2 setlinecap
10.0 ML
N
507 69.111 M
502.66 69.111 L
S
GR
GS
[0.75 0 0 0.75 0 0] CT
0.149 GC
2 setlinecap
10.0 ML
N
73 31 M
77.34 31 L
S
GR
GS
[0.75 0 0 0.75 0 0] CT
0.149 GC
2 setlinecap
10.0 ML
N
507 31 M
502.66 31 L
S
GR
GS
[0.75 0 0 0.75 50.75 280.5] CT
0.149 GC
/Helvetica 13 F
GS
[1 0 0 1 0 0] CT
-7.23 5.394 moveto 
1 -1 scale
(0) t 
GR
GR
GS
[0.75 0 0 0.75 50.75 251.91666] CT
0.149 GC
/Helvetica 13 F
GS
[1 0 0 1 0 0] CT
-32.532 5.394 moveto 
1 -1 scale
(0.002) t 
GR
GR
GS
[0.75 0 0 0.75 50.75 223.33333] CT
0.149 GC
/Helvetica 13 F
GS
[1 0 0 1 0 0] CT
-32.532 5.394 moveto 
1 -1 scale
(0.004) t 
GR
GR
GS
[0.75 0 0 0.75 50.75 194.74999] CT
0.149 GC
/Helvetica 13 F
GS
[1 0 0 1 0 0] CT
-32.532 5.394 moveto 
1 -1 scale
(0.006) t 
GR
GR
GS
[0.75 0 0 0.75 50.75 166.16666] CT
0.149 GC
/Helvetica 13 F
GS
[1 0 0 1 0 0] CT
-32.532 5.394 moveto 
1 -1 scale
(0.008) t 
GR
GR
GS
[0.75 0 0 0.75 50.75 137.58333] CT
0.149 GC
/Helvetica 13 F
GS
[1 0 0 1 0 0] CT
-25.302 5.394 moveto 
1 -1 scale
(0.01) t 
GR
GR
GS
[0.75 0 0 0.75 50.75 109] CT
0.149 GC
/Helvetica 13 F
GS
[1 0 0 1 0 0] CT
-32.532 5.394 moveto 
1 -1 scale
(0.012) t 
GR
GR
GS
[0.75 0 0 0.75 50.75 80.41666] CT
0.149 GC
/Helvetica 13 F
GS
[1 0 0 1 0 0] CT
-32.532 5.394 moveto 
1 -1 scale
(0.014) t 
GR
GR
GS
[0.75 0 0 0.75 50.75 51.83332] CT
0.149 GC
/Helvetica 13 F
GS
[1 0 0 1 0 0] CT
-32.532 5.394 moveto 
1 -1 scale
(0.016) t 
GR
GR
GS
[0.75 0 0 0.75 50.75 23.25001] CT
0.149 GC
/Helvetica 13 F
GS
[1 0 0 1 0 0] CT
-32.532 5.394 moveto 
1 -1 scale
(0.018) t 
GR
GR
GS
[0.75 0 0 0.75 0 0] CT
0.208 0.165 0.525 RC
N
84.718 374 M
84.718 335.512 L
91.662 335.512 L
91.662 374 L
cp
f
GR
GS
[0.75 0 0 0.75 0 0] CT
0.208 0.165 0.525 RC
N
193.218 374 M
193.218 77.501 L
200.162 77.501 L
200.162 374 L
cp
f
GR
GS
[0.75 0 0 0.75 0 0] CT
0.208 0.165 0.525 RC
N
301.718 374 M
301.718 271.146 L
308.662 271.146 L
308.662 374 L
cp
f
GR
GS
[0.75 0 0 0.75 0 0] CT
0.208 0.165 0.525 RC
N
410.218 374 M
410.218 354.593 L
417.162 354.593 L
417.162 374 L
cp
f
GR
GS
[0.75 0 0 0.75 0 0] CT
2 setlinecap
10.0 ML
N
84.718 374 M
84.718 335.512 L
91.662 335.512 L
91.662 374 L
84.718 374 L
S
GR
GS
[0.75 0 0 0.75 0 0] CT
2 setlinecap
10.0 ML
N
193.218 374 M
193.218 77.501 L
200.162 77.501 L
200.162 374 L
193.218 374 L
S
GR
GS
[0.75 0 0 0.75 0 0] CT
2 setlinecap
10.0 ML
N
301.718 374 M
301.718 271.146 L
308.662 271.146 L
308.662 374 L
301.718 374 L
S
GR
GS
[0.75 0 0 0.75 0 0] CT
2 setlinecap
10.0 ML
N
410.218 374 M
410.218 354.593 L
417.162 354.593 L
417.162 374 L
410.218 374 L
S
GR
GS
[0.75 0 0 0.75 0 0] CT
0.059 0.357 0.867 RC
N
93.398 374 M
93.398 345.847 L
100.342 345.847 L
100.342 374 L
cp
f
GR
GS
[0.75 0 0 0.75 0 0] CT
0.059 0.357 0.867 RC
N
201.898 374 M
201.898 53.391 L
208.842 53.391 L
208.842 374 L
cp
f
GR
GS
[0.75 0 0 0.75 0 0] CT
0.059 0.357 0.867 RC
N
310.398 374 M
310.398 276.819 L
317.342 276.819 L
317.342 374 L
cp
f
GR
GS
[0.75 0 0 0.75 0 0] CT
0.059 0.357 0.867 RC
N
418.898 374 M
418.898 354.471 L
425.842 354.471 L
425.842 374 L
cp
f
GR
GS
[0.75 0 0 0.75 0 0] CT
2 setlinecap
10.0 ML
N
93.398 374 M
93.398 345.847 L
100.342 345.847 L
100.342 374 L
93.398 374 L
S
GR
GS
[0.75 0 0 0.75 0 0] CT
2 setlinecap
10.0 ML
N
201.898 374 M
201.898 53.391 L
208.842 53.391 L
208.842 374 L
201.898 374 L
S
GR
GS
[0.75 0 0 0.75 0 0] CT
2 setlinecap
10.0 ML
N
310.398 374 M
310.398 276.819 L
317.342 276.819 L
317.342 374 L
310.398 374 L
S
GR
GS
[0.75 0 0 0.75 0 0] CT
2 setlinecap
10.0 ML
N
418.898 374 M
418.898 354.471 L
425.842 354.471 L
425.842 374 L
418.898 374 L
S
GR
GS
[0.75 0 0 0.75 0 0] CT
0.071 0.486 0.843 RC
N
102.078 374 M
102.078 336.441 L
109.022 336.441 L
109.022 374 L
cp
f
GR
GS
[0.75 0 0 0.75 0 0] CT
0.071 0.486 0.843 RC
N
210.578 374 M
210.578 77.99 L
217.522 77.99 L
217.522 374 L
cp
f
GR
GS
[0.75 0 0 0.75 0 0] CT
0.071 0.486 0.843 RC
N
319.078 374 M
319.078 283.021 L
326.022 283.021 L
326.022 374 L
cp
f
GR
GS
[0.75 0 0 0.75 0 0] CT
0.071 0.486 0.843 RC
N
427.578 374 M
427.578 354.52 L
434.522 354.52 L
434.522 374 L
cp
f
GR
GS
[0.75 0 0 0.75 0 0] CT
2 setlinecap
10.0 ML
N
102.078 374 M
102.078 336.441 L
109.022 336.441 L
109.022 374 L
102.078 374 L
S
GR
GS
[0.75 0 0 0.75 0 0] CT
2 setlinecap
10.0 ML
N
210.578 374 M
210.578 77.99 L
217.522 77.99 L
217.522 374 L
210.578 374 L
S
GR
GS
[0.75 0 0 0.75 0 0] CT
2 setlinecap
10.0 ML
N
319.078 374 M
319.078 283.021 L
326.022 283.021 L
326.022 374 L
319.078 374 L
S
GR
GS
[0.75 0 0 0.75 0 0] CT
2 setlinecap
10.0 ML
N
427.578 374 M
427.578 354.52 L
434.522 354.52 L
434.522 374 L
427.578 374 L
S
GR
GS
[0.75 0 0 0.75 0 0] CT
0.024 0.612 0.812 RC
N
110.758 374 M
110.758 338.316 L
117.702 338.316 L
117.702 374 L
cp
f
GR
GS
[0.75 0 0 0.75 0 0] CT
0.024 0.612 0.812 RC
N
219.258 374 M
219.258 78.919 L
226.202 78.919 L
226.202 374 L
cp
f
GR
GS
[0.75 0 0 0.75 0 0] CT
0.024 0.612 0.812 RC
N
327.758 374 M
327.758 265.269 L
334.702 265.269 L
334.702 374 L
cp
f
GR
GS
[0.75 0 0 0.75 0 0] CT
0.024 0.612 0.812 RC
N
436.258 374 M
436.258 351.846 L
443.202 351.846 L
443.202 374 L
cp
f
GR
GS
[0.75 0 0 0.75 0 0] CT
2 setlinecap
10.0 ML
N
110.758 374 M
110.758 338.316 L
117.702 338.316 L
117.702 374 L
110.758 374 L
S
GR
GS
[0.75 0 0 0.75 0 0] CT
2 setlinecap
10.0 ML
N
219.258 374 M
219.258 78.919 L
226.202 78.919 L
226.202 374 L
219.258 374 L
S
GR
GS
[0.75 0 0 0.75 0 0] CT
2 setlinecap
10.0 ML
N
327.758 374 M
327.758 265.269 L
334.702 265.269 L
334.702 374 L
327.758 374 L
S
GR
GS
[0.75 0 0 0.75 0 0] CT
2 setlinecap
10.0 ML
N
436.258 374 M
436.258 351.846 L
443.202 351.846 L
443.202 374 L
436.258 374 L
S
GR
GS
[0.75 0 0 0.75 0 0] CT
0.082 0.69 0.706 RC
N
119.438 374 M
119.438 346.133 L
126.382 346.133 L
126.382 374 L
cp
f
GR
GS
[0.75 0 0 0.75 0 0] CT
0.082 0.69 0.706 RC
N
227.938 374 M
227.938 194.284 L
234.882 194.284 L
234.882 374 L
cp
f
GR
GS
[0.75 0 0 0.75 0 0] CT
0.082 0.69 0.706 RC
N
336.438 374 M
336.438 268.725 L
343.382 268.725 L
343.382 374 L
cp
f
GR
GS
[0.75 0 0 0.75 0 0] CT
0.082 0.69 0.706 RC
N
444.938 374 M
444.938 351.977 L
451.882 351.977 L
451.882 374 L
cp
f
GR
GS
[0.75 0 0 0.75 0 0] CT
2 setlinecap
10.0 ML
N
119.438 374 M
119.438 346.133 L
126.382 346.133 L
126.382 374 L
119.438 374 L
S
GR
GS
[0.75 0 0 0.75 0 0] CT
2 setlinecap
10.0 ML
N
227.938 374 M
227.938 194.284 L
234.882 194.284 L
234.882 374 L
227.938 374 L
S
GR
GS
[0.75 0 0 0.75 0 0] CT
2 setlinecap
10.0 ML
N
336.438 374 M
336.438 268.725 L
343.382 268.725 L
343.382 374 L
336.438 374 L
S
GR
GS
[0.75 0 0 0.75 0 0] CT
2 setlinecap
10.0 ML
N
444.938 374 M
444.938 351.977 L
451.882 351.977 L
451.882 374 L
444.938 374 L
S
GR
GS
[0.75 0 0 0.75 0 0] CT
0.345 0.741 0.545 RC
N
128.118 374 M
128.118 336.564 L
135.062 336.564 L
135.062 374 L
cp
f
GR
GS
[0.75 0 0 0.75 0 0] CT
0.345 0.741 0.545 RC
N
236.618 374 M
236.618 179.336 L
243.562 179.336 L
243.562 374 L
cp
f
GR
GS
[0.75 0 0 0.75 0 0] CT
0.345 0.741 0.545 RC
N
345.118 374 M
345.118 275.115 L
352.062 275.115 L
352.062 374 L
cp
f
GR
GS
[0.75 0 0 0.75 0 0] CT
0.345 0.741 0.545 RC
N
453.618 374 M
453.618 353.794 L
460.562 353.794 L
460.562 374 L
cp
f
GR
GS
[0.75 0 0 0.75 0 0] CT
2 setlinecap
10.0 ML
N
128.118 374 M
128.118 336.564 L
135.062 336.564 L
135.062 374 L
128.118 374 L
S
GR
GS
[0.75 0 0 0.75 0 0] CT
2 setlinecap
10.0 ML
N
236.618 374 M
236.618 179.336 L
243.562 179.336 L
243.562 374 L
236.618 374 L
S
GR
GS
[0.75 0 0 0.75 0 0] CT
2 setlinecap
10.0 ML
N
345.118 374 M
345.118 275.115 L
352.062 275.115 L
352.062 374 L
345.118 374 L
S
GR
GS
[0.75 0 0 0.75 0 0] CT
2 setlinecap
10.0 ML
N
453.618 374 M
453.618 353.794 L
460.562 353.794 L
460.562 374 L
453.618 374 L
S
GR
GS
[0.75 0 0 0.75 0 0] CT
0.647 0.745 0.416 RC
N
136.798 374 M
136.798 343.003 L
143.742 343.003 L
143.742 374 L
cp
f
GR
GS
[0.75 0 0 0.75 0 0] CT
0.647 0.745 0.416 RC
N
245.298 374 M
245.298 169.84 L
252.242 169.84 L
252.242 374 L
cp
f
GR
GS
[0.75 0 0 0.75 0 0] CT
0.647 0.745 0.416 RC
N
353.798 374 M
353.798 275.963 L
360.742 275.963 L
360.742 374 L
cp
f
GR
GS
[0.75 0 0 0.75 0 0] CT
0.647 0.745 0.416 RC
N
462.298 374 M
462.298 350.453 L
469.242 350.453 L
469.242 374 L
cp
f
GR
GS
[0.75 0 0 0.75 0 0] CT
2 setlinecap
10.0 ML
N
136.798 374 M
136.798 343.003 L
143.742 343.003 L
143.742 374 L
136.798 374 L
S
GR
GS
[0.75 0 0 0.75 0 0] CT
2 setlinecap
10.0 ML
N
245.298 374 M
245.298 169.84 L
252.242 169.84 L
252.242 374 L
245.298 374 L
S
GR
GS
[0.75 0 0 0.75 0 0] CT
2 setlinecap
10.0 ML
N
353.798 374 M
353.798 275.963 L
360.742 275.963 L
360.742 374 L
353.798 374 L
S
GR
GS
[0.75 0 0 0.75 0 0] CT
2 setlinecap
10.0 ML
N
462.298 374 M
462.298 350.453 L
469.242 350.453 L
469.242 374 L
462.298 374 L
S
GR
GS
[0.75 0 0 0.75 0 0] CT
0.882 0.725 0.322 RC
N
145.478 374 M
145.478 343.736 L
152.422 343.736 L
152.422 374 L
cp
f
GR
GS
[0.75 0 0 0.75 0 0] CT
0.882 0.725 0.322 RC
N
253.978 374 M
253.978 179.165 L
260.922 179.165 L
260.922 374 L
cp
f
GR
GS
[0.75 0 0 0.75 0 0] CT
0.882 0.725 0.322 RC
N
362.478 374 M
362.478 276.525 L
369.422 276.525 L
369.422 374 L
cp
f
GR
GS
[0.75 0 0 0.75 0 0] CT
0.882 0.725 0.322 RC
N
470.978 374 M
470.978 351.406 L
477.922 351.406 L
477.922 374 L
cp
f
GR
GS
[0.75 0 0 0.75 0 0] CT
2 setlinecap
10.0 ML
N
145.478 374 M
145.478 343.736 L
152.422 343.736 L
152.422 374 L
145.478 374 L
S
GR
GS
[0.75 0 0 0.75 0 0] CT
2 setlinecap
10.0 ML
N
253.978 374 M
253.978 179.165 L
260.922 179.165 L
260.922 374 L
253.978 374 L
S
GR
GS
[0.75 0 0 0.75 0 0] CT
2 setlinecap
10.0 ML
N
362.478 374 M
362.478 276.525 L
369.422 276.525 L
369.422 374 L
362.478 374 L
S
GR
GS
[0.75 0 0 0.75 0 0] CT
2 setlinecap
10.0 ML
N
470.978 374 M
470.978 351.406 L
477.922 351.406 L
477.922 374 L
470.978 374 L
S
GR
GS
[0.75 0 0 0.75 0 0] CT
0.984 0.804 0.176 RC
N
154.158 374 M
154.158 339.857 L
161.102 339.857 L
161.102 374 L
cp
f
GR
GS
[0.75 0 0 0.75 0 0] CT
0.984 0.804 0.176 RC
N
262.658 374 M
262.658 152.112 L
269.602 152.112 L
269.602 374 L
cp
f
GR
GS
[0.75 0 0 0.75 0 0] CT
0.984 0.804 0.176 RC
N
371.158 374 M
371.158 264.813 L
378.102 264.813 L
378.102 374 L
cp
f
GR
GS
[0.75 0 0 0.75 0 0] CT
0.984 0.804 0.176 RC
N
479.658 374 M
479.658 354.528 L
486.602 354.528 L
486.602 374 L
cp
f
GR
GS
[0.75 0 0 0.75 0 0] CT
2 setlinecap
10.0 ML
N
154.158 374 M
154.158 339.857 L
161.102 339.857 L
161.102 374 L
154.158 374 L
S
GR
GS
[0.75 0 0 0.75 0 0] CT
2 setlinecap
10.0 ML
N
262.658 374 M
262.658 152.112 L
269.602 152.112 L
269.602 374 L
262.658 374 L
S
GR
GS
[0.75 0 0 0.75 0 0] CT
2 setlinecap
10.0 ML
N
371.158 374 M
371.158 264.813 L
378.102 264.813 L
378.102 374 L
371.158 374 L
S
GR
GS
[0.75 0 0 0.75 0 0] CT
2 setlinecap
10.0 ML
N
479.658 374 M
479.658 354.528 L
486.602 354.528 L
486.602 374 L
479.658 374 L
S
GR
GS
[0.75 0 0 0.75 0 0] CT
0.973 0.98 0.051 RC
N
162.838 374 M
162.838 335.105 L
169.782 335.105 L
169.782 374 L
cp
f
GR
GS
[0.75 0 0 0.75 0 0] CT
0.973 0.98 0.051 RC
N
271.338 374 M
271.338 189.28 L
278.282 189.28 L
278.282 374 L
cp
f
GR
GS
[0.75 0 0 0.75 0 0] CT
0.973 0.98 0.051 RC
N
379.838 374 M
379.838 273.754 L
386.782 273.754 L
386.782 374 L
cp
f
GR
GS
[0.75 0 0 0.75 0 0] CT
0.973 0.98 0.051 RC
N
488.338 374 M
488.338 354.569 L
495.282 354.569 L
495.282 374 L
cp
f
GR
GS
[0.75 0 0 0.75 0 0] CT
2 setlinecap
10.0 ML
N
162.838 374 M
162.838 335.105 L
169.782 335.105 L
169.782 374 L
162.838 374 L
S
GR
GS
[0.75 0 0 0.75 0 0] CT
2 setlinecap
10.0 ML
N
271.338 374 M
271.338 189.28 L
278.282 189.28 L
278.282 374 L
271.338 374 L
S
GR
GS
[0.75 0 0 0.75 0 0] CT
2 setlinecap
10.0 ML
N
379.838 374 M
379.838 273.754 L
386.782 273.754 L
386.782 374 L
379.838 374 L
S
GR
GS
[0.75 0 0 0.75 0 0] CT
2 setlinecap
10.0 ML
N
488.338 374 M
488.338 354.569 L
495.282 354.569 L
495.282 374 L
488.338 374 L
S
GR
GS
[0.75 0 0 0.75 217.5 20.5] CT
/Helvetica-Bold 15 F
GS
[1 0 0 1 0 0] CT
-53.346 -3.787 moveto 
1 -1 scale
(Execution time) t 
GR
GR
GS
[0.75 0 0 0.75 0 0] CT
0.149 GC
2 setlinecap
10.0 ML
N
73 374 M
507 374 L
S
GR
%%Trailer
%%Pages: 1
%%EOF
