%!PS-Adobe-3.0 EPSF-3.0
%%Creator: (MATLAB, The Mathworks, Inc. Version 9.0.0.341360 \(R2016a\). Operating System: Mac OS X)
%%Title: /Users/deepak/Documents/MATLAB/matlabprojects/singleCalib_IH/source/drxn.eps
%%CreationDate: 2016-11-26T22:40:32
%%Pages: (atend)
%%BoundingBox: 0 0 560 420
%%LanguageLevel: 3
%%EndComments
%%BeginProlog
%%BeginResource: procset (Apache XML Graphics Std ProcSet) 1.2 0
%%Version: 1.2 0
%%Copyright: (Copyright 2001-2003,2010 The Apache Software Foundation. License terms: http://www.apache.org/licenses/LICENSE-2.0)
/bd{bind def}bind def
/ld{load def}bd
/GR/grestore ld
/M/moveto ld
/LJ/setlinejoin ld
/C/curveto ld
/f/fill ld
/LW/setlinewidth ld
/GC/setgray ld
/t/show ld
/N/newpath ld
/CT/concat ld
/cp/closepath ld
/S/stroke ld
/L/lineto ld
/CC/setcmykcolor ld
/A/ashow ld
/GS/gsave ld
/RC/setrgbcolor ld
/RM/rmoveto ld
/ML/setmiterlimit ld
/re {4 2 roll M
1 index 0 rlineto
0 exch rlineto
neg 0 rlineto
cp } bd
/_ctm matrix def
/_tm matrix def
/BT { _ctm currentmatrix pop matrix _tm copy pop 0 0 moveto } bd
/ET { _ctm setmatrix } bd
/iTm { _ctm setmatrix _tm concat } bd
/Tm { _tm astore pop iTm 0 0 moveto } bd
/ux 0.0 def
/uy 0.0 def
/F {
  /Tp exch def
  /Tf exch def
  Tf findfont Tp scalefont setfont
  /cf Tf def  /cs Tp def
} bd
/ULS {currentpoint /uy exch def /ux exch def} bd
/ULE {
  /Tcx currentpoint pop def
  gsave
  newpath
  cf findfont cs scalefont dup
  /FontMatrix get 0 get /Ts exch def /FontInfo get dup
  /UnderlinePosition get Ts mul /To exch def
  /UnderlineThickness get Ts mul /Tt exch def
  ux uy To add moveto  Tcx uy To add lineto
  Tt setlinewidth stroke
  grestore
} bd
/OLE {
  /Tcx currentpoint pop def
  gsave
  newpath
  cf findfont cs scalefont dup
  /FontMatrix get 0 get /Ts exch def /FontInfo get dup
  /UnderlinePosition get Ts mul /To exch def
  /UnderlineThickness get Ts mul /Tt exch def
  ux uy To add cs add moveto Tcx uy To add cs add lineto
  Tt setlinewidth stroke
  grestore
} bd
/SOE {
  /Tcx currentpoint pop def
  gsave
  newpath
  cf findfont cs scalefont dup
  /FontMatrix get 0 get /Ts exch def /FontInfo get dup
  /UnderlinePosition get Ts mul /To exch def
  /UnderlineThickness get Ts mul /Tt exch def
  ux uy To add cs 10 mul 26 idiv add moveto Tcx uy To add cs 10 mul 26 idiv add lineto
  Tt setlinewidth stroke
  grestore
} bd
/QT {
/Y22 exch store
/X22 exch store
/Y21 exch store
/X21 exch store
currentpoint
/Y21 load 2 mul add 3 div exch
/X21 load 2 mul add 3 div exch
/X21 load 2 mul /X22 load add 3 div
/Y21 load 2 mul /Y22 load add 3 div
/X22 load /Y22 load curveto
} bd
/SSPD {
dup length /d exch dict def
{
/v exch def
/k exch def
currentpagedevice k known {
/cpdv currentpagedevice k get def
v cpdv ne {
/upd false def
/nullv v type /nulltype eq def
/nullcpdv cpdv type /nulltype eq def
nullv nullcpdv or
{
/upd true def
} {
/sametype v type cpdv type eq def
sametype {
v type /arraytype eq {
/vlen v length def
/cpdvlen cpdv length def
vlen cpdvlen eq {
0 1 vlen 1 sub {
/i exch def
/obj v i get def
/cpdobj cpdv i get def
obj cpdobj ne {
/upd true def
exit
} if
} for
} {
/upd true def
} ifelse
} {
v type /dicttype eq {
v {
/dv exch def
/dk exch def
/cpddv cpdv dk get def
dv cpddv ne {
/upd true def
exit
} if
} forall
} {
/upd true def
} ifelse
} ifelse
} if
} ifelse
upd true eq {
d k v put
} if
} if
} if
} forall
d length 0 gt {
d setpagedevice
} if
} bd
%%EndResource
%%BeginResource: procset (Apache XML Graphics EPS ProcSet) 1.0 0
%%Version: 1.0 0
%%Copyright: (Copyright 2002-2003 The Apache Software Foundation. License terms: http://www.apache.org/licenses/LICENSE-2.0)
/BeginEPSF { %def
/b4_Inc_state save def         % Save state for cleanup
/dict_count countdictstack def % Count objects on dict stack
/op_count count 1 sub def      % Count objects on operand stack
userdict begin                 % Push userdict on dict stack
/showpage { } def              % Redefine showpage, { } = null proc
0 setgray 0 setlinecap         % Prepare graphics state
1 setlinewidth 0 setlinejoin
10 setmiterlimit [ ] 0 setdash newpath
/languagelevel where           % If level not equal to 1 then
{pop languagelevel             % set strokeadjust and
1 ne                           % overprint to their defaults.
{false setstrokeadjust false setoverprint
} if
} if
} bd
/EndEPSF { %def
count op_count sub {pop} repeat            % Clean up stacks
countdictstack dict_count sub {end} repeat
b4_Inc_state restore
} bd
%%EndResource
%FOPBeginFontDict
%%IncludeResource: font Courier-Bold
%%IncludeResource: font Helvetica
%%IncludeResource: font Courier-BoldOblique
%%IncludeResource: font Courier-Oblique
%%IncludeResource: font Times-Roman
%%IncludeResource: font Helvetica-BoldOblique
%%IncludeResource: font Helvetica-Bold
%%IncludeResource: font Helvetica-Oblique
%%IncludeResource: font Times-BoldItalic
%%IncludeResource: font Courier
%%IncludeResource: font Times-Italic
%%IncludeResource: font Times-Bold
%%IncludeResource: font Symbol
%%IncludeResource: font ZapfDingbats
%FOPEndFontDict
%%BeginResource: encoding WinAnsiEncoding
/WinAnsiEncoding [
/.notdef /.notdef /.notdef /.notdef /.notdef
/.notdef /.notdef /.notdef /.notdef /.notdef
/.notdef /.notdef /.notdef /.notdef /.notdef
/.notdef /.notdef /.notdef /.notdef /.notdef
/.notdef /.notdef /.notdef /.notdef /.notdef
/.notdef /.notdef /.notdef /.notdef /.notdef
/.notdef /.notdef /space /exclam /quotedbl
/numbersign /dollar /percent /ampersand /quotesingle
/parenleft /parenright /asterisk /plus /comma
/hyphen /period /slash /zero /one
/two /three /four /five /six
/seven /eight /nine /colon /semicolon
/less /equal /greater /question /at
/A /B /C /D /E
/F /G /H /I /J
/K /L /M /N /O
/P /Q /R /S /T
/U /V /W /X /Y
/Z /bracketleft /backslash /bracketright /asciicircum
/underscore /quoteleft /a /b /c
/d /e /f /g /h
/i /j /k /l /m
/n /o /p /q /r
/s /t /u /v /w
/x /y /z /braceleft /bar
/braceright /asciitilde /bullet /Euro /bullet
/quotesinglbase /florin /quotedblbase /ellipsis /dagger
/daggerdbl /circumflex /perthousand /Scaron /guilsinglleft
/OE /bullet /Zcaron /bullet /bullet
/quoteleft /quoteright /quotedblleft /quotedblright /bullet
/endash /emdash /asciitilde /trademark /scaron
/guilsinglright /oe /bullet /zcaron /Ydieresis
/space /exclamdown /cent /sterling /currency
/yen /brokenbar /section /dieresis /copyright
/ordfeminine /guillemotleft /logicalnot /sfthyphen /registered
/macron /degree /plusminus /twosuperior /threesuperior
/acute /mu /paragraph /middot /cedilla
/onesuperior /ordmasculine /guillemotright /onequarter /onehalf
/threequarters /questiondown /Agrave /Aacute /Acircumflex
/Atilde /Adieresis /Aring /AE /Ccedilla
/Egrave /Eacute /Ecircumflex /Edieresis /Igrave
/Iacute /Icircumflex /Idieresis /Eth /Ntilde
/Ograve /Oacute /Ocircumflex /Otilde /Odieresis
/multiply /Oslash /Ugrave /Uacute /Ucircumflex
/Udieresis /Yacute /Thorn /germandbls /agrave
/aacute /acircumflex /atilde /adieresis /aring
/ae /ccedilla /egrave /eacute /ecircumflex
/edieresis /igrave /iacute /icircumflex /idieresis
/eth /ntilde /ograve /oacute /ocircumflex
/otilde /odieresis /divide /oslash /ugrave
/uacute /ucircumflex /udieresis /yacute /thorn
/ydieresis
] def
%%EndResource
%FOPBeginFontReencode
/Courier-Bold findfont
dup length dict begin
  {1 index /FID ne {def} {pop pop} ifelse} forall
  /Encoding WinAnsiEncoding def
  currentdict
end
/Courier-Bold exch definefont pop
/Helvetica findfont
dup length dict begin
  {1 index /FID ne {def} {pop pop} ifelse} forall
  /Encoding WinAnsiEncoding def
  currentdict
end
/Helvetica exch definefont pop
/Courier-BoldOblique findfont
dup length dict begin
  {1 index /FID ne {def} {pop pop} ifelse} forall
  /Encoding WinAnsiEncoding def
  currentdict
end
/Courier-BoldOblique exch definefont pop
/Courier-Oblique findfont
dup length dict begin
  {1 index /FID ne {def} {pop pop} ifelse} forall
  /Encoding WinAnsiEncoding def
  currentdict
end
/Courier-Oblique exch definefont pop
/Times-Roman findfont
dup length dict begin
  {1 index /FID ne {def} {pop pop} ifelse} forall
  /Encoding WinAnsiEncoding def
  currentdict
end
/Times-Roman exch definefont pop
/Helvetica-BoldOblique findfont
dup length dict begin
  {1 index /FID ne {def} {pop pop} ifelse} forall
  /Encoding WinAnsiEncoding def
  currentdict
end
/Helvetica-BoldOblique exch definefont pop
/Helvetica-Bold findfont
dup length dict begin
  {1 index /FID ne {def} {pop pop} ifelse} forall
  /Encoding WinAnsiEncoding def
  currentdict
end
/Helvetica-Bold exch definefont pop
/Helvetica-Oblique findfont
dup length dict begin
  {1 index /FID ne {def} {pop pop} ifelse} forall
  /Encoding WinAnsiEncoding def
  currentdict
end
/Helvetica-Oblique exch definefont pop
/Times-BoldItalic findfont
dup length dict begin
  {1 index /FID ne {def} {pop pop} ifelse} forall
  /Encoding WinAnsiEncoding def
  currentdict
end
/Times-BoldItalic exch definefont pop
/Courier findfont
dup length dict begin
  {1 index /FID ne {def} {pop pop} ifelse} forall
  /Encoding WinAnsiEncoding def
  currentdict
end
/Courier exch definefont pop
/Times-Italic findfont
dup length dict begin
  {1 index /FID ne {def} {pop pop} ifelse} forall
  /Encoding WinAnsiEncoding def
  currentdict
end
/Times-Italic exch definefont pop
/Times-Bold findfont
dup length dict begin
  {1 index /FID ne {def} {pop pop} ifelse} forall
  /Encoding WinAnsiEncoding def
  currentdict
end
/Times-Bold exch definefont pop
%FOPEndFontReencode
%%EndProlog
%%Page: 1 1
%%PageBoundingBox: 0 0 560 420
%%BeginPageSetup
[1 0 0 -1 0 420] CT
%%EndPageSetup
GS
1 GC
N
0 0 560 420 re
f
GR
GS
1 GC
N
0 0 560 420 re
f
GR
GS
1 GC
N
73 175 M
507 175 L
507 31 L
73 31 L
cp
f
GR
GS
0.873 GC
1 LJ
0.5 LW
N
73 175 M
73 31 L
S
GR
GS
0.873 GC
1 LJ
0.5 LW
N
159.8 175 M
159.8 31 L
S
GR
GS
0.873 GC
1 LJ
0.5 LW
N
246.6 175 M
246.6 31 L
S
GR
GS
0.873 GC
1 LJ
0.5 LW
N
333.4 175 M
333.4 31 L
S
GR
GS
0.873 GC
1 LJ
0.5 LW
N
420.2 175 M
420.2 31 L
S
GR
GS
0.873 GC
1 LJ
0.5 LW
N
507 175 M
507 31 L
S
GR
GS
0.873 GC
1 LJ
0.5 LW
N
507 175 M
73 175 L
S
GR
GS
0.873 GC
1 LJ
0.5 LW
N
507 146.2 M
73 146.2 L
S
GR
GS
0.873 GC
1 LJ
0.5 LW
N
507 117.4 M
73 117.4 L
S
GR
GS
0.873 GC
1 LJ
0.5 LW
N
507 88.6 M
73 88.6 L
S
GR
GS
0.873 GC
1 LJ
0.5 LW
N
507 59.8 M
73 59.8 L
S
GR
GS
0.873 GC
1 LJ
0.5 LW
N
507 31 M
73 31 L
S
GR
GS
0.149 GC
2 setlinecap
1 LJ
0.5 LW
N
73 175 M
507 175 L
S
GR
GS
0.149 GC
2 setlinecap
1 LJ
0.5 LW
N
73 31 M
507 31 L
S
GR
GS
0.149 GC
2 setlinecap
1 LJ
0.5 LW
N
73 175 M
73 170.66 L
S
GR
GS
0.149 GC
2 setlinecap
1 LJ
0.5 LW
N
159.8 175 M
159.8 170.66 L
S
GR
GS
0.149 GC
2 setlinecap
1 LJ
0.5 LW
N
246.6 175 M
246.6 170.66 L
S
GR
GS
0.149 GC
2 setlinecap
1 LJ
0.5 LW
N
333.4 175 M
333.4 170.66 L
S
GR
GS
0.149 GC
2 setlinecap
1 LJ
0.5 LW
N
420.2 175 M
420.2 170.66 L
S
GR
GS
0.149 GC
2 setlinecap
1 LJ
0.5 LW
N
507 175 M
507 170.66 L
S
GR
GS
0.149 GC
2 setlinecap
1 LJ
0.5 LW
N
73 31 M
73 35.34 L
S
GR
GS
0.149 GC
2 setlinecap
1 LJ
0.5 LW
N
159.8 31 M
159.8 35.34 L
S
GR
GS
0.149 GC
2 setlinecap
1 LJ
0.5 LW
N
246.6 31 M
246.6 35.34 L
S
GR
GS
0.149 GC
2 setlinecap
1 LJ
0.5 LW
N
333.4 31 M
333.4 35.34 L
S
GR
GS
0.149 GC
2 setlinecap
1 LJ
0.5 LW
N
420.2 31 M
420.2 35.34 L
S
GR
GS
0.149 GC
2 setlinecap
1 LJ
0.5 LW
N
507 31 M
507 35.34 L
S
GR
GS
[1 0 0 1 73 179] CT
0.149 GC
/Helvetica 10 F
GS
[1 0 0 1 0 0] CT
-8 10 moveto 
1 -1 scale
(-25) t 
GR
GR
GS
[1 0 0 1 159.8 179] CT
0.149 GC
/Helvetica 10 F
GS
[1 0 0 1 0 0] CT
-8 10 moveto 
1 -1 scale
(-20) t 
GR
GR
GS
[1 0 0 1 246.60001 179] CT
0.149 GC
/Helvetica 10 F
GS
[1 0 0 1 0 0] CT
-8 10 moveto 
1 -1 scale
(-15) t 
GR
GR
GS
[1 0 0 1 333.39999 179] CT
0.149 GC
/Helvetica 10 F
GS
[1 0 0 1 0 0] CT
-8 10 moveto 
1 -1 scale
(-10) t 
GR
GR
GS
[1 0 0 1 420.20001 179] CT
0.149 GC
/Helvetica 10 F
GS
[1 0 0 1 0 0] CT
-5 10 moveto 
1 -1 scale
(-5) t 
GR
GR
GS
[1 0 0 1 507 179] CT
0.149 GC
/Helvetica 10 F
GS
[1 0 0 1 0 0] CT
-3 10 moveto 
1 -1 scale
(0) t 
GR
GR
GS
[1 0 0 1 290.00021 193] CT
0.149 GC
/Helvetica-Bold 12 F
GS
[1 0 0 1 0 0] CT
-82 12 moveto 
1 -1 scale
(Camera rotation \(in degrees\)) t 
GR
GR
GS
0.149 GC
2 setlinecap
1 LJ
0.5 LW
N
73 175 M
73 31 L
S
GR
GS
0.149 GC
2 setlinecap
1 LJ
0.5 LW
N
507 175 M
507 31 L
S
GR
GS
0.149 GC
2 setlinecap
1 LJ
0.5 LW
N
73 175 M
77.34 175 L
S
GR
GS
0.149 GC
2 setlinecap
1 LJ
0.5 LW
N
73 146.2 M
77.34 146.2 L
S
GR
GS
0.149 GC
2 setlinecap
1 LJ
0.5 LW
N
73 117.4 M
77.34 117.4 L
S
GR
GS
0.149 GC
2 setlinecap
1 LJ
0.5 LW
N
73 88.6 M
77.34 88.6 L
S
GR
GS
0.149 GC
2 setlinecap
1 LJ
0.5 LW
N
73 59.8 M
77.34 59.8 L
S
GR
GS
0.149 GC
2 setlinecap
1 LJ
0.5 LW
N
73 31 M
77.34 31 L
S
GR
GS
0.149 GC
2 setlinecap
1 LJ
0.5 LW
N
507 175 M
502.66 175 L
S
GR
GS
0.149 GC
2 setlinecap
1 LJ
0.5 LW
N
507 146.2 M
502.66 146.2 L
S
GR
GS
0.149 GC
2 setlinecap
1 LJ
0.5 LW
N
507 117.4 M
502.66 117.4 L
S
GR
GS
0.149 GC
2 setlinecap
1 LJ
0.5 LW
N
507 88.6 M
502.66 88.6 L
S
GR
GS
0.149 GC
2 setlinecap
1 LJ
0.5 LW
N
507 59.8 M
502.66 59.8 L
S
GR
GS
0.149 GC
2 setlinecap
1 LJ
0.5 LW
N
507 31 M
502.66 31 L
S
GR
GS
[1 0 0 1 68.99999 175] CT
0.149 GC
/Helvetica 10 F
GS
[1 0 0 1 0 0] CT
-6 3.5 moveto 
1 -1 scale
(0) t 
GR
GR
GS
[1 0 0 1 68.99999 146.2] CT
0.149 GC
/Helvetica 10 F
GS
[1 0 0 1 0 0] CT
-12 3.5 moveto 
1 -1 scale
(10) t 
GR
GR
GS
[1 0 0 1 68.99999 117.4] CT
0.149 GC
/Helvetica 10 F
GS
[1 0 0 1 0 0] CT
-12 3.5 moveto 
1 -1 scale
(20) t 
GR
GR
GS
[1 0 0 1 68.99999 88.6] CT
0.149 GC
/Helvetica 10 F
GS
[1 0 0 1 0 0] CT
-12 3.5 moveto 
1 -1 scale
(30) t 
GR
GR
GS
[1 0 0 1 68.99999 59.8] CT
0.149 GC
/Helvetica 10 F
GS
[1 0 0 1 0 0] CT
-12 3.5 moveto 
1 -1 scale
(40) t 
GR
GR
GS
[1 0 0 1 68.99999 31] CT
0.149 GC
/Helvetica 10 F
GS
[1 0 0 1 0 0] CT
-12 3.5 moveto 
1 -1 scale
(50) t 
GR
GR
GS
[0 -1 1 0 53.99998 102.99993] CT
0.149 GC
/Helvetica-Bold 12 F
GS
[1 0 0 1 0 0] CT
-56 -3 moveto 
1 -1 scale
(Depth error \(in mm\)) t 
GR
GR
GS
[1 0 0 1 73 33.05776] CT
0 0 1 RC
N
2.667 0 M
2.667 1.473 1.473 2.667 0 2.667 C
-1.473 2.667 -2.667 1.473 -2.667 0 C
-2.667 -1.473 -1.473 -2.667 0 -2.667 C
1.473 -2.667 2.667 -1.473 2.667 0 C
cp
f
GR
GS
[1 0 0 1 90.36 48.22313] CT
0 0 1 RC
N
2.667 0 M
2.667 1.473 1.473 2.667 0 2.667 C
-1.473 2.667 -2.667 1.473 -2.667 0 C
-2.667 -1.473 -1.473 -2.667 0 -2.667 C
1.473 -2.667 2.667 -1.473 2.667 0 C
cp
f
GR
GS
[1 0 0 1 107.72 61.82803] CT
0 0 1 RC
N
2.667 0 M
2.667 1.473 1.473 2.667 0 2.667 C
-1.473 2.667 -2.667 1.473 -2.667 0 C
-2.667 -1.473 -1.473 -2.667 0 -2.667 C
1.473 -2.667 2.667 -1.473 2.667 0 C
cp
f
GR
GS
[1 0 0 1 125.08 80.29592] CT
0 0 1 RC
N
2.667 0 M
2.667 1.473 1.473 2.667 0 2.667 C
-1.473 2.667 -2.667 1.473 -2.667 0 C
-2.667 -1.473 -1.473 -2.667 0 -2.667 C
1.473 -2.667 2.667 -1.473 2.667 0 C
cp
f
GR
GS
[1 0 0 1 142.44 89.73973] CT
0 0 1 RC
N
2.667 0 M
2.667 1.473 1.473 2.667 0 2.667 C
-1.473 2.667 -2.667 1.473 -2.667 0 C
-2.667 -1.473 -1.473 -2.667 0 -2.667 C
1.473 -2.667 2.667 -1.473 2.667 0 C
cp
f
GR
GS
[1 0 0 1 159.8 95.66495] CT
0 0 1 RC
N
2.667 0 M
2.667 1.473 1.473 2.667 0 2.667 C
-1.473 2.667 -2.667 1.473 -2.667 0 C
-2.667 -1.473 -1.473 -2.667 0 -2.667 C
1.473 -2.667 2.667 -1.473 2.667 0 C
cp
f
GR
GS
[1 0 0 1 177.16 105.77052] CT
0 0 1 RC
N
2.667 0 M
2.667 1.473 1.473 2.667 0 2.667 C
-1.473 2.667 -2.667 1.473 -2.667 0 C
-2.667 -1.473 -1.473 -2.667 0 -2.667 C
1.473 -2.667 2.667 -1.473 2.667 0 C
cp
f
GR
GS
[1 0 0 1 194.52 113.91399] CT
0 0 1 RC
N
2.667 0 M
2.667 1.473 1.473 2.667 0 2.667 C
-1.473 2.667 -2.667 1.473 -2.667 0 C
-2.667 -1.473 -1.473 -2.667 0 -2.667 C
1.473 -2.667 2.667 -1.473 2.667 0 C
cp
f
GR
GS
[1 0 0 1 211.88 120.53902] CT
0 0 1 RC
N
2.667 0 M
2.667 1.473 1.473 2.667 0 2.667 C
-1.473 2.667 -2.667 1.473 -2.667 0 C
-2.667 -1.473 -1.473 -2.667 0 -2.667 C
1.473 -2.667 2.667 -1.473 2.667 0 C
cp
f
GR
GS
[1 0 0 1 229.24001 126.69823] CT
0 0 1 RC
N
2.667 0 M
2.667 1.473 1.473 2.667 0 2.667 C
-1.473 2.667 -2.667 1.473 -2.667 0 C
-2.667 -1.473 -1.473 -2.667 0 -2.667 C
1.473 -2.667 2.667 -1.473 2.667 0 C
cp
f
GR
GS
[1 0 0 1 246.60001 131.78807] CT
0 0 1 RC
N
2.667 0 M
2.667 1.473 1.473 2.667 0 2.667 C
-1.473 2.667 -2.667 1.473 -2.667 0 C
-2.667 -1.473 -1.473 -2.667 0 -2.667 C
1.473 -2.667 2.667 -1.473 2.667 0 C
cp
f
GR
GS
[1 0 0 1 263.95999 137.69086] CT
0 0 1 RC
N
2.667 0 M
2.667 1.473 1.473 2.667 0 2.667 C
-1.473 2.667 -2.667 1.473 -2.667 0 C
-2.667 -1.473 -1.473 -2.667 0 -2.667 C
1.473 -2.667 2.667 -1.473 2.667 0 C
cp
f
GR
GS
[1 0 0 1 281.32001 139.97079] CT
0 0 1 RC
N
2.667 0 M
2.667 1.473 1.473 2.667 0 2.667 C
-1.473 2.667 -2.667 1.473 -2.667 0 C
-2.667 -1.473 -1.473 -2.667 0 -2.667 C
1.473 -2.667 2.667 -1.473 2.667 0 C
cp
f
GR
GS
[1 0 0 1 298.67999 146.13652] CT
0 0 1 RC
N
2.667 0 M
2.667 1.473 1.473 2.667 0 2.667 C
-1.473 2.667 -2.667 1.473 -2.667 0 C
-2.667 -1.473 -1.473 -2.667 0 -2.667 C
1.473 -2.667 2.667 -1.473 2.667 0 C
cp
f
GR
GS
[1 0 0 1 316.04001 150.25766] CT
0 0 1 RC
N
2.667 0 M
2.667 1.473 1.473 2.667 0 2.667 C
-1.473 2.667 -2.667 1.473 -2.667 0 C
-2.667 -1.473 -1.473 -2.667 0 -2.667 C
1.473 -2.667 2.667 -1.473 2.667 0 C
cp
f
GR
GS
[1 0 0 1 333.39999 152.8553] CT
0 0 1 RC
N
2.667 0 M
2.667 1.473 1.473 2.667 0 2.667 C
-1.473 2.667 -2.667 1.473 -2.667 0 C
-2.667 -1.473 -1.473 -2.667 0 -2.667 C
1.473 -2.667 2.667 -1.473 2.667 0 C
cp
f
GR
GS
[1 0 0 1 350.76001 156.02657] CT
0 0 1 RC
N
2.667 0 M
2.667 1.473 1.473 2.667 0 2.667 C
-1.473 2.667 -2.667 1.473 -2.667 0 C
-2.667 -1.473 -1.473 -2.667 0 -2.667 C
1.473 -2.667 2.667 -1.473 2.667 0 C
cp
f
GR
GS
[1 0 0 1 368.12 158.75978] CT
0 0 1 RC
N
2.667 0 M
2.667 1.473 1.473 2.667 0 2.667 C
-1.473 2.667 -2.667 1.473 -2.667 0 C
-2.667 -1.473 -1.473 -2.667 0 -2.667 C
1.473 -2.667 2.667 -1.473 2.667 0 C
cp
f
GR
GS
[1 0 0 1 385.48001 161.75034] CT
0 0 1 RC
N
2.667 0 M
2.667 1.473 1.473 2.667 0 2.667 C
-1.473 2.667 -2.667 1.473 -2.667 0 C
-2.667 -1.473 -1.473 -2.667 0 -2.667 C
1.473 -2.667 2.667 -1.473 2.667 0 C
cp
f
GR
GS
[1 0 0 1 402.84 164.11508] CT
0 0 1 RC
N
2.667 0 M
2.667 1.473 1.473 2.667 0 2.667 C
-1.473 2.667 -2.667 1.473 -2.667 0 C
-2.667 -1.473 -1.473 -2.667 0 -2.667 C
1.473 -2.667 2.667 -1.473 2.667 0 C
cp
f
GR
GS
[1 0 0 1 420.20001 165.95753] CT
0 0 1 RC
N
2.667 0 M
2.667 1.473 1.473 2.667 0 2.667 C
-1.473 2.667 -2.667 1.473 -2.667 0 C
-2.667 -1.473 -1.473 -2.667 0 -2.667 C
1.473 -2.667 2.667 -1.473 2.667 0 C
cp
f
GR
GS
[1 0 0 1 437.56 168.04364] CT
0 0 1 RC
N
2.667 0 M
2.667 1.473 1.473 2.667 0 2.667 C
-1.473 2.667 -2.667 1.473 -2.667 0 C
-2.667 -1.473 -1.473 -2.667 0 -2.667 C
1.473 -2.667 2.667 -1.473 2.667 0 C
cp
f
GR
GS
[1 0 0 1 454.92001 169.96155] CT
0 0 1 RC
N
2.667 0 M
2.667 1.473 1.473 2.667 0 2.667 C
-1.473 2.667 -2.667 1.473 -2.667 0 C
-2.667 -1.473 -1.473 -2.667 0 -2.667 C
1.473 -2.667 2.667 -1.473 2.667 0 C
cp
f
GR
GS
[1 0 0 1 472.28 171.85063] CT
0 0 1 RC
N
2.667 0 M
2.667 1.473 1.473 2.667 0 2.667 C
-1.473 2.667 -2.667 1.473 -2.667 0 C
-2.667 -1.473 -1.473 -2.667 0 -2.667 C
1.473 -2.667 2.667 -1.473 2.667 0 C
cp
f
GR
GS
[1 0 0 1 489.64001 173.46715] CT
0 0 1 RC
N
2.667 0 M
2.667 1.473 1.473 2.667 0 2.667 C
-1.473 2.667 -2.667 1.473 -2.667 0 C
-2.667 -1.473 -1.473 -2.667 0 -2.667 C
1.473 -2.667 2.667 -1.473 2.667 0 C
cp
f
GR
GS
[1 0 0 1 507 175] CT
0 0 1 RC
N
2.667 0 M
2.667 1.473 1.473 2.667 0 2.667 C
-1.473 2.667 -2.667 1.473 -2.667 0 C
-2.667 -1.473 -1.473 -2.667 0 -2.667 C
1.473 -2.667 2.667 -1.473 2.667 0 C
cp
f
GR
GS
1 0 0 RC
1 LJ
N
73 56.448 M
73.434 56.678 L
73.868 56.909 L
74.302 57.139 L
74.736 57.369 L
75.17 57.598 L
75.604 57.828 L
76.038 58.057 L
76.472 58.286 L
76.906 58.515 L
77.34 58.743 L
77.774 58.972 L
78.208 59.2 L
78.642 59.428 L
79.076 59.655 L
79.51 59.883 L
79.944 60.11 L
80.378 60.337 L
80.812 60.564 L
81.246 60.79 L
81.68 61.016 L
82.114 61.242 L
82.548 61.468 L
82.982 61.694 L
83.416 61.919 L
83.85 62.144 L
84.284 62.369 L
84.718 62.594 L
85.152 62.818 L
85.586 63.042 L
86.02 63.266 L
86.454 63.49 L
86.888 63.714 L
87.322 63.937 L
87.756 64.16 L
88.19 64.383 L
88.624 64.605 L
89.058 64.828 L
89.492 65.05 L
89.926 65.272 L
90.36 65.493 L
90.794 65.715 L
91.228 65.936 L
91.662 66.157 L
92.096 66.378 L
92.53 66.598 L
92.964 66.819 L
93.398 67.039 L
93.832 67.258 L
94.266 67.478 L
94.7 67.697 L
95.134 67.917 L
95.568 68.135 L
96.002 68.354 L
96.436 68.573 L
96.87 68.791 L
97.304 69.009 L
97.738 69.227 L
98.172 69.444 L
98.606 69.661 L
99.04 69.878 L
99.474 70.095 L
99.908 70.312 L
100.342 70.528 L
100.776 70.744 L
101.21 70.96 L
101.644 71.176 L
102.078 71.391 L
102.512 71.607 L
102.946 71.822 L
103.38 72.036 L
103.814 72.251 L
104.248 72.465 L
104.682 72.679 L
105.116 72.893 L
105.55 73.107 L
105.984 73.32 L
106.418 73.533 L
106.852 73.746 L
107.286 73.959 L
107.72 74.172 L
108.154 74.384 L
108.588 74.596 L
109.022 74.808 L
109.456 75.019 L
109.89 75.231 L
110.324 75.442 L
110.758 75.652 L
111.192 75.863 L
111.626 76.074 L
112.06 76.284 L
112.494 76.494 L
112.928 76.703 L
113.362 76.913 L
113.796 77.122 L
114.23 77.331 L
114.664 77.54 L
115.098 77.749 L
115.532 77.957 L
115.966 78.165 L
116.4 78.373 L
116.834 78.581 L
117.268 78.788 L
117.702 78.995 L
118.136 79.202 L
118.57 79.409 L
119.004 79.615 L
119.438 79.822 L
119.872 80.028 L
120.306 80.233 L
120.74 80.439 L
121.174 80.644 L
121.608 80.85 L
122.042 81.054 L
122.476 81.259 L
122.91 81.464 L
123.344 81.668 L
123.778 81.872 L
124.212 82.075 L
124.646 82.279 L
125.08 82.482 L
125.514 82.685 L
125.948 82.888 L
126.382 83.091 L
126.816 83.293 L
127.25 83.495 L
127.684 83.697 L
128.118 83.899 L
128.552 84.1 L
128.986 84.302 L
129.42 84.503 L
129.854 84.703 L
130.288 84.904 L
130.722 85.104 L
131.156 85.304 L
131.59 85.504 L
132.024 85.704 L
132.458 85.903 L
132.892 86.102 L
133.326 86.301 L
133.76 86.5 L
134.194 86.698 L
134.628 86.897 L
135.062 87.095 L
135.496 87.292 L
135.93 87.49 L
136.364 87.687 L
136.798 87.884 L
137.232 88.081 L
137.666 88.278 L
138.1 88.474 L
138.534 88.67 L
138.968 88.866 L
139.402 89.062 L
139.836 89.257 L
140.27 89.453 L
140.704 89.648 L
141.138 89.843 L
141.572 90.037 L
142.006 90.231 L
142.44 90.425 L
142.874 90.619 L
143.308 90.813 L
143.742 91.006 L
144.176 91.2 L
144.61 91.393 L
145.044 91.585 L
145.478 91.778 L
145.912 91.97 L
146.346 92.162 L
146.78 92.354 L
147.214 92.545 L
147.648 92.737 L
148.082 92.928 L
148.516 93.119 L
148.95 93.309 L
149.384 93.5 L
149.818 93.69 L
150.252 93.88 L
150.686 94.07 L
151.12 94.259 L
151.554 94.449 L
151.988 94.638 L
152.422 94.826 L
152.856 95.015 L
153.29 95.203 L
153.724 95.391 L
154.158 95.579 L
154.592 95.767 L
155.026 95.954 L
155.46 96.142 L
155.894 96.329 L
156.328 96.515 L
156.762 96.702 L
157.196 96.888 L
157.63 97.074 L
158.064 97.26 L
158.498 97.446 L
158.932 97.631 L
159.366 97.816 L
159.8 98.001 L
160.234 98.186 L
160.668 98.37 L
161.102 98.555 L
161.536 98.739 L
161.97 98.922 L
162.404 99.106 L
162.838 99.289 L
163.272 99.472 L
163.706 99.655 L
164.14 99.838 L
164.574 100.02 L
165.008 100.202 L
165.442 100.384 L
165.876 100.566 L
166.31 100.747 L
166.744 100.929 L
167.178 101.11 L
167.612 101.29 L
168.046 101.471 L
168.48 101.651 L
168.914 101.831 L
169.348 102.011 L
169.782 102.191 L
170.216 102.37 L
170.65 102.549 L
171.084 102.728 L
171.518 102.907 L
171.952 103.085 L
172.386 103.264 L
172.82 103.442 L
173.254 103.62 L
173.688 103.797 L
174.122 103.974 L
174.556 104.152 L
174.99 104.328 L
175.424 104.505 L
175.858 104.681 L
176.292 104.858 L
176.726 105.034 L
177.16 105.209 L
177.594 105.385 L
178.028 105.56 L
178.462 105.735 L
178.896 105.91 L
179.33 106.084 L
179.764 106.259 L
180.198 106.433 L
180.632 106.607 L
181.066 106.78 L
181.5 106.954 L
181.934 107.127 L
182.368 107.3 L
182.802 107.473 L
183.236 107.645 L
183.67 107.818 L
184.104 107.99 L
184.538 108.161 L
184.972 108.333 L
185.406 108.504 L
185.84 108.676 L
186.274 108.846 L
186.708 109.017 L
187.142 109.188 L
187.576 109.358 L
188.01 109.528 L
188.444 109.698 L
188.878 109.867 L
189.312 110.036 L
189.746 110.205 L
190.18 110.374 L
190.614 110.543 L
191.048 110.711 L
191.482 110.879 L
191.916 111.047 L
192.35 111.215 L
192.784 111.382 L
193.218 111.55 L
193.652 111.717 L
194.086 111.883 L
194.52 112.05 L
194.954 112.216 L
195.388 112.382 L
195.822 112.548 L
196.256 112.714 L
196.69 112.879 L
197.124 113.044 L
197.558 113.209 L
197.992 113.374 L
198.426 113.538 L
198.86 113.703 L
199.294 113.867 L
199.728 114.03 L
200.162 114.194 L
200.596 114.357 L
201.03 114.52 L
201.464 114.683 L
201.898 114.846 L
202.332 115.008 L
202.766 115.17 L
203.2 115.332 L
203.634 115.494 L
204.068 115.656 L
204.502 115.817 L
204.936 115.978 L
205.37 116.139 L
205.804 116.299 L
206.238 116.46 L
206.672 116.62 L
207.106 116.78 L
207.54 116.939 L
207.974 117.099 L
208.408 117.258 L
208.842 117.417 L
209.276 117.575 L
209.71 117.734 L
210.144 117.892 L
210.578 118.05 L
211.012 118.208 L
211.446 118.366 L
211.88 118.523 L
212.314 118.68 L
212.748 118.837 L
213.182 118.994 L
213.616 119.15 L
214.05 119.306 L
214.484 119.462 L
214.918 119.618 L
215.352 119.774 L
215.786 119.929 L
216.22 120.084 L
216.654 120.239 L
217.088 120.393 L
217.522 120.548 L
217.956 120.702 L
218.39 120.856 L
218.824 121.009 L
219.258 121.163 L
219.692 121.316 L
220.126 121.469 L
220.56 121.622 L
220.994 121.774 L
221.428 121.927 L
221.862 122.079 L
222.296 122.23 L
222.73 122.382 L
223.164 122.533 L
223.598 122.685 L
224.032 122.836 L
224.466 122.986 L
224.9 123.137 L
225.334 123.287 L
225.768 123.437 L
226.202 123.587 L
226.636 123.736 L
227.07 123.886 L
227.504 124.035 L
227.938 124.183 L
228.372 124.332 L
228.806 124.48 L
229.24 124.629 L
229.674 124.777 L
230.108 124.924 L
230.542 125.072 L
230.976 125.219 L
231.41 125.366 L
231.844 125.513 L
232.278 125.659 L
232.712 125.806 L
233.146 125.952 L
233.58 126.098 L
234.014 126.243 L
234.448 126.389 L
234.882 126.534 L
235.316 126.679 L
235.75 126.823 L
236.184 126.968 L
236.618 127.112 L
237.052 127.256 L
237.486 127.4 L
237.92 127.544 L
238.354 127.687 L
238.788 127.83 L
239.222 127.973 L
239.656 128.116 L
240.09 128.258 L
240.524 128.4 L
240.958 128.542 L
241.392 128.684 L
241.826 128.825 L
242.26 128.967 L
242.694 129.108 L
243.128 129.248 L
243.562 129.389 L
243.996 129.529 L
244.43 129.669 L
244.864 129.809 L
245.298 129.949 L
245.732 130.088 L
246.166 130.228 L
246.6 130.367 L
247.034 130.505 L
247.468 130.644 L
247.902 130.782 L
248.336 130.92 L
248.77 131.058 L
249.204 131.196 L
249.638 131.333 L
250.072 131.47 L
250.506 131.607 L
250.94 131.744 L
251.374 131.88 L
251.808 132.016 L
252.242 132.152 L
252.676 132.288 L
253.11 132.424 L
253.544 132.559 L
253.978 132.694 L
254.412 132.829 L
254.846 132.963 L
255.28 133.098 L
255.714 133.232 L
256.148 133.366 L
256.582 133.5 L
257.016 133.633 L
257.45 133.766 L
257.884 133.899 L
258.318 134.032 L
258.752 134.165 L
259.186 134.297 L
259.62 134.429 L
260.054 134.561 L
260.488 134.692 L
260.922 134.824 L
261.356 134.955 L
261.79 135.086 L
262.224 135.217 L
262.658 135.347 L
263.092 135.477 L
263.526 135.607 L
263.96 135.737 L
264.394 135.867 L
264.828 135.996 L
265.262 136.125 L
265.696 136.254 L
266.13 136.383 L
266.564 136.511 L
266.998 136.639 L
267.432 136.767 L
267.866 136.895 L
268.3 137.022 L
268.734 137.15 L
269.168 137.277 L
269.602 137.403 L
270.036 137.53 L
270.47 137.656 L
270.904 137.782 L
271.338 137.908 L
271.772 138.034 L
272.206 138.159 L
272.64 138.285 L
273.074 138.41 L
273.508 138.534 L
273.942 138.659 L
274.376 138.783 L
274.81 138.907 L
275.244 139.031 L
275.678 139.155 L
276.112 139.278 L
276.546 139.401 L
276.98 139.524 L
277.414 139.647 L
277.848 139.769 L
278.282 139.891 L
278.716 140.013 L
279.15 140.135 L
279.584 140.256 L
280.018 140.378 L
280.452 140.499 L
280.886 140.62 L
281.32 140.74 L
281.754 140.861 L
282.188 140.981 L
282.622 141.101 L
283.056 141.22 L
283.49 141.34 L
283.924 141.459 L
284.358 141.578 L
284.792 141.697 L
285.226 141.815 L
285.66 141.934 L
286.094 142.052 L
286.528 142.169 L
286.962 142.287 L
287.396 142.404 L
287.83 142.522 L
288.264 142.638 L
288.698 142.755 L
289.132 142.872 L
289.566 142.988 L
290 143.104 L
290.434 143.22 L
290.868 143.335 L
291.302 143.451 L
291.736 143.566 L
292.17 143.68 L
292.604 143.795 L
293.038 143.909 L
293.472 144.024 L
293.906 144.138 L
294.34 144.251 L
294.774 144.365 L
295.208 144.478 L
295.642 144.591 L
296.076 144.704 L
296.51 144.816 L
296.944 144.929 L
297.378 145.041 L
297.812 145.153 L
298.246 145.264 L
298.68 145.376 L
299.114 145.487 L
299.548 145.598 L
299.982 145.709 L
300.416 145.819 L
300.85 145.929 L
301.284 146.039 L
301.718 146.149 L
302.152 146.259 L
302.586 146.368 L
303.02 146.477 L
303.454 146.586 L
303.888 146.695 L
304.322 146.803 L
304.756 146.911 L
305.19 147.019 L
305.624 147.127 L
306.058 147.234 L
306.492 147.342 L
306.926 147.449 L
307.36 147.556 L
307.794 147.662 L
308.228 147.769 L
308.662 147.875 L
309.096 147.981 L
309.53 148.086 L
309.964 148.192 L
310.398 148.297 L
310.832 148.402 L
311.266 148.507 L
311.7 148.611 L
312.134 148.715 L
312.568 148.819 L
313.002 148.923 L
313.436 149.027 L
313.87 149.13 L
314.304 149.233 L
314.738 149.336 L
315.172 149.439 L
315.606 149.541 L
316.04 149.644 L
316.474 149.746 L
316.908 149.847 L
317.342 149.949 L
317.776 150.05 L
318.21 150.151 L
318.644 150.252 L
319.078 150.353 L
319.512 150.453 L
319.946 150.553 L
320.38 150.653 L
320.814 150.753 L
321.248 150.852 L
321.682 150.952 L
322.116 151.051 L
322.55 151.149 L
322.984 151.248 L
323.418 151.346 L
323.852 151.444 L
324.286 151.542 L
324.72 151.64 L
325.154 151.737 L
325.588 151.834 L
326.022 151.931 L
326.456 152.028 L
326.89 152.124 L
327.324 152.221 L
327.758 152.317 L
328.192 152.413 L
328.626 152.508 L
329.06 152.603 L
329.494 152.699 L
329.928 152.793 L
330.362 152.888 L
330.796 152.982 L
331.23 153.077 L
331.664 153.171 L
332.098 153.264 L
332.532 153.358 L
332.966 153.451 L
333.4 153.544 L
333.834 153.637 L
334.268 153.729 L
334.702 153.822 L
335.136 153.914 L
335.57 154.006 L
336.004 154.097 L
336.438 154.189 L
336.872 154.28 L
337.306 154.371 L
337.74 154.462 L
338.174 154.552 L
338.608 154.643 L
339.042 154.733 L
339.476 154.822 L
339.91 154.912 L
340.344 155.001 L
340.778 155.09 L
341.212 155.179 L
341.646 155.268 L
342.08 155.356 L
342.514 155.445 L
342.948 155.533 L
343.382 155.62 L
343.816 155.708 L
344.25 155.795 L
344.684 155.882 L
345.118 155.969 L
345.552 156.056 L
345.986 156.142 L
346.42 156.228 L
346.854 156.314 L
347.288 156.4 L
347.722 156.485 L
348.156 156.57 L
348.59 156.655 L
349.024 156.74 L
349.458 156.825 L
349.892 156.909 L
350.326 156.993 L
350.76 157.077 L
351.194 157.161 L
351.628 157.244 L
352.062 157.327 L
352.496 157.41 L
352.93 157.493 L
353.364 157.575 L
353.798 157.657 L
354.232 157.739 L
354.666 157.821 L
355.1 157.903 L
355.534 157.984 L
355.968 158.065 L
356.402 158.146 L
356.836 158.227 L
357.27 158.307 L
357.704 158.387 L
358.138 158.467 L
358.572 158.547 L
359.006 158.626 L
359.44 158.706 L
359.874 158.785 L
360.308 158.863 L
360.742 158.942 L
361.176 159.02 L
361.61 159.098 L
362.044 159.176 L
362.478 159.254 L
362.912 159.331 L
363.346 159.409 L
363.78 159.485 L
364.214 159.562 L
364.648 159.639 L
365.082 159.715 L
365.516 159.791 L
365.95 159.867 L
366.384 159.942 L
366.818 160.018 L
367.252 160.093 L
367.686 160.168 L
368.12 160.242 L
368.554 160.317 L
368.988 160.391 L
369.422 160.465 L
369.856 160.539 L
370.29 160.612 L
370.724 160.685 L
371.158 160.759 L
371.592 160.831 L
372.026 160.904 L
372.46 160.976 L
372.894 161.048 L
373.328 161.12 L
373.762 161.192 L
374.196 161.263 L
374.63 161.335 L
375.064 161.406 L
375.498 161.476 L
375.932 161.547 L
376.366 161.617 L
376.8 161.687 L
377.234 161.757 L
377.668 161.827 L
378.102 161.896 L
378.536 161.965 L
378.97 162.034 L
379.404 162.103 L
379.838 162.171 L
380.272 162.239 L
380.706 162.307 L
381.14 162.375 L
381.574 162.443 L
382.008 162.51 L
382.442 162.577 L
382.876 162.644 L
383.31 162.711 L
383.744 162.777 L
384.178 162.843 L
384.612 162.909 L
385.046 162.975 L
385.48 163.04 L
385.914 163.105 L
386.348 163.17 L
386.782 163.235 L
387.216 163.3 L
387.65 163.364 L
388.084 163.428 L
388.518 163.492 L
388.952 163.556 L
389.386 163.619 L
389.82 163.682 L
390.254 163.745 L
390.688 163.808 L
391.122 163.87 L
391.556 163.933 L
391.99 163.995 L
392.424 164.056 L
392.858 164.118 L
393.292 164.179 L
393.726 164.24 L
394.16 164.301 L
394.594 164.362 L
395.028 164.422 L
395.462 164.483 L
395.896 164.543 L
396.33 164.602 L
396.764 164.662 L
397.198 164.721 L
397.632 164.78 L
398.066 164.839 L
398.5 164.897 L
398.934 164.956 L
399.368 165.014 L
399.802 165.072 L
400.236 165.129 L
400.67 165.187 L
401.104 165.244 L
401.538 165.301 L
401.972 165.358 L
402.406 165.414 L
402.84 165.471 L
403.274 165.527 L
403.708 165.582 L
404.142 165.638 L
404.576 165.693 L
405.01 165.749 L
405.444 165.803 L
405.878 165.858 L
406.312 165.913 L
406.746 165.967 L
407.18 166.021 L
407.614 166.074 L
408.048 166.128 L
408.482 166.181 L
408.916 166.234 L
409.35 166.287 L
409.784 166.34 L
410.218 166.392 L
410.652 166.444 L
411.086 166.496 L
411.52 166.548 L
411.954 166.599 L
412.388 166.651 L
412.822 166.702 L
413.256 166.752 L
413.69 166.803 L
414.124 166.853 L
414.558 166.903 L
414.992 166.953 L
415.426 167.003 L
415.86 167.052 L
416.294 167.101 L
416.728 167.15 L
417.162 167.199 L
417.596 167.247 L
418.03 167.296 L
418.464 167.344 L
418.898 167.391 L
419.332 167.439 L
419.766 167.486 L
420.2 167.533 L
420.634 167.58 L
421.068 167.627 L
421.502 167.673 L
421.936 167.719 L
422.37 167.765 L
422.804 167.811 L
423.238 167.857 L
423.672 167.902 L
424.106 167.947 L
424.54 167.992 L
424.974 168.036 L
425.408 168.081 L
425.842 168.125 L
426.276 168.169 L
426.71 168.212 L
427.144 168.256 L
427.578 168.299 L
428.012 168.342 L
428.446 168.384 L
428.88 168.427 L
429.314 168.469 L
429.748 168.511 L
430.182 168.553 L
430.616 168.595 L
431.05 168.636 L
431.484 168.677 L
431.918 168.718 L
432.352 168.759 L
432.786 168.799 L
433.22 168.839 L
433.654 168.879 L
434.088 168.919 L
434.522 168.959 L
434.956 168.998 L
435.39 169.037 L
435.824 169.076 L
436.258 169.114 L
436.692 169.153 L
437.126 169.191 L
437.56 169.229 L
437.994 169.266 L
438.428 169.304 L
438.862 169.341 L
439.296 169.378 L
439.73 169.415 L
440.164 169.451 L
440.598 169.488 L
441.032 169.524 L
441.466 169.559 L
441.9 169.595 L
442.334 169.63 L
442.768 169.666 L
443.202 169.701 L
443.636 169.735 L
444.07 169.77 L
444.504 169.804 L
444.938 169.838 L
445.372 169.872 L
445.806 169.905 L
446.24 169.939 L
446.674 169.972 L
447.108 170.004 L
447.542 170.037 L
447.976 170.069 L
448.41 170.102 L
448.844 170.134 L
449.278 170.165 L
449.712 170.197 L
450.146 170.228 L
450.58 170.259 L
451.014 170.29 L
451.448 170.32 L
451.882 170.351 L
452.316 170.381 L
452.75 170.411 L
453.184 170.44 L
453.618 170.47 L
454.052 170.499 L
454.486 170.528 L
454.92 170.556 L
455.354 170.585 L
455.788 170.613 L
456.222 170.641 L
456.656 170.669 L
457.09 170.697 L
457.524 170.724 L
457.958 170.751 L
458.392 170.778 L
458.826 170.805 L
459.26 170.831 L
459.694 170.857 L
460.128 170.883 L
460.562 170.909 L
460.996 170.934 L
461.43 170.96 L
461.864 170.985 L
462.298 171.009 L
462.732 171.034 L
463.166 171.058 L
463.6 171.083 L
464.034 171.106 L
464.468 171.13 L
464.902 171.154 L
465.336 171.177 L
465.77 171.2 L
466.204 171.222 L
466.638 171.245 L
467.072 171.267 L
467.506 171.289 L
467.94 171.311 L
468.374 171.333 L
468.808 171.354 L
469.242 171.375 L
469.676 171.396 L
470.11 171.417 L
470.544 171.437 L
470.978 171.457 L
471.412 171.477 L
471.846 171.497 L
472.28 171.517 L
472.714 171.536 L
473.148 171.555 L
473.582 171.574 L
474.016 171.593 L
474.45 171.611 L
474.884 171.629 L
475.318 171.647 L
475.752 171.665 L
476.186 171.682 L
476.62 171.699 L
477.054 171.716 L
477.488 171.733 L
477.922 171.75 L
478.356 171.766 L
478.79 171.782 L
479.224 171.798 L
479.658 171.814 L
480.092 171.829 L
480.526 171.844 L
480.96 171.859 L
481.394 171.874 L
481.828 171.888 L
482.262 171.902 L
482.696 171.916 L
483.13 171.93 L
483.564 171.944 L
483.998 171.957 L
484.432 171.97 L
484.866 171.983 L
485.3 171.996 L
485.734 172.008 L
486.168 172.02 L
486.602 172.032 L
487.036 172.044 L
487.47 172.055 L
487.904 172.067 L
488.338 172.078 L
488.772 172.089 L
489.206 172.099 L
489.64 172.109 L
490.074 172.12 L
490.508 172.129 L
490.942 172.139 L
491.376 172.148 L
491.81 172.158 L
492.244 172.167 L
492.678 172.175 L
493.112 172.184 L
493.546 172.192 L
493.98 172.2 L
494.414 172.208 L
494.848 172.216 L
495.282 172.223 L
495.716 172.23 L
496.15 172.237 L
496.584 172.244 L
497.018 172.25 L
497.452 172.256 L
497.886 172.262 L
498.32 172.268 L
498.754 172.273 L
499.188 172.279 L
499.622 172.284 L
500.056 172.289 L
500.49 172.293 L
500.924 172.298 L
501.358 172.302 L
501.792 172.306 L
502.226 172.309 L
502.66 172.313 L
503.094 172.316 L
503.528 172.319 L
503.962 172.322 L
504.396 172.324 L
504.83 172.327 L
505.264 172.329 L
505.698 172.331 L
506.132 172.332 L
506.566 172.333 L
507 172.335 L
S
GR
GS
1 GC
N
387 64 M
387 38 L
500 38 L
500 64 L
cp
f
GR
GS
[1 0 0 1 424 45.35849] CT
/Helvetica 9 F
GS
[1 0 0 1 0 0] CT
0 3.5 moveto 
1 -1 scale
(Error data) t 
GR
GR
GS
[1 0 0 1 406 45.35849] CT
0 0 1 RC
N
2.667 0 M
2.667 1.473 1.473 2.667 0 2.667 C
-1.473 2.667 -2.667 1.473 -2.667 0 C
-2.667 -1.473 -1.473 -2.667 0 -2.667 C
1.473 -2.667 2.667 -1.473 2.667 0 C
cp
f
GR
GS
[1 0 0 1 424 56.64151] CT
/Helvetica 9 F
GS
[1 0 0 1 0 0] CT
0 3.5 moveto 
1 -1 scale
(Polynomial model) t 
GR
GR
GS
1 0 0 RC
1 LJ
N
391 56.642 M
421 56.642 L
S
GR
GS
0.149 GC
10.0 ML
0.5 LW
N
387 64 M
387 38 L
500 38 L
500 64 L
cp
S
GR
GS
1 GC
N
73 374 M
507 374 L
507 231 L
73 231 L
cp
f
GR
GS
0.873 GC
1 LJ
0.5 LW
N
73 374 M
73 231 L
S
GR
GS
0.873 GC
1 LJ
0.5 LW
N
159.8 374 M
159.8 231 L
S
GR
GS
0.873 GC
1 LJ
0.5 LW
N
246.6 374 M
246.6 231 L
S
GR
GS
0.873 GC
1 LJ
0.5 LW
N
333.4 374 M
333.4 231 L
S
GR
GS
0.873 GC
1 LJ
0.5 LW
N
420.2 374 M
420.2 231 L
S
GR
GS
0.873 GC
1 LJ
0.5 LW
N
507 374 M
507 231 L
S
GR
GS
0.873 GC
1 LJ
0.5 LW
N
507 374 M
73 374 L
S
GR
GS
0.873 GC
1 LJ
0.5 LW
N
507 350.167 M
73 350.167 L
S
GR
GS
0.873 GC
1 LJ
0.5 LW
N
507 326.333 M
73 326.333 L
S
GR
GS
0.873 GC
1 LJ
0.5 LW
N
507 302.5 M
73 302.5 L
S
GR
GS
0.873 GC
1 LJ
0.5 LW
N
507 278.667 M
73 278.667 L
S
GR
GS
0.873 GC
1 LJ
0.5 LW
N
507 254.833 M
73 254.833 L
S
GR
GS
0.873 GC
1 LJ
0.5 LW
N
507 231 M
73 231 L
S
GR
GS
0.149 GC
2 setlinecap
1 LJ
0.5 LW
N
73 374 M
507 374 L
S
GR
GS
0.149 GC
2 setlinecap
1 LJ
0.5 LW
N
73 231 M
507 231 L
S
GR
GS
0.149 GC
2 setlinecap
1 LJ
0.5 LW
N
73 374 M
73 369.66 L
S
GR
GS
0.149 GC
2 setlinecap
1 LJ
0.5 LW
N
159.8 374 M
159.8 369.66 L
S
GR
GS
0.149 GC
2 setlinecap
1 LJ
0.5 LW
N
246.6 374 M
246.6 369.66 L
S
GR
GS
0.149 GC
2 setlinecap
1 LJ
0.5 LW
N
333.4 374 M
333.4 369.66 L
S
GR
GS
0.149 GC
2 setlinecap
1 LJ
0.5 LW
N
420.2 374 M
420.2 369.66 L
S
GR
GS
0.149 GC
2 setlinecap
1 LJ
0.5 LW
N
507 374 M
507 369.66 L
S
GR
GS
0.149 GC
2 setlinecap
1 LJ
0.5 LW
N
73 231 M
73 235.34 L
S
GR
GS
0.149 GC
2 setlinecap
1 LJ
0.5 LW
N
159.8 231 M
159.8 235.34 L
S
GR
GS
0.149 GC
2 setlinecap
1 LJ
0.5 LW
N
246.6 231 M
246.6 235.34 L
S
GR
GS
0.149 GC
2 setlinecap
1 LJ
0.5 LW
N
333.4 231 M
333.4 235.34 L
S
GR
GS
0.149 GC
2 setlinecap
1 LJ
0.5 LW
N
420.2 231 M
420.2 235.34 L
S
GR
GS
0.149 GC
2 setlinecap
1 LJ
0.5 LW
N
507 231 M
507 235.34 L
S
GR
GS
[1 0 0 1 73 378] CT
0.149 GC
/Helvetica 10 F
GS
[1 0 0 1 0 0] CT
-8 10 moveto 
1 -1 scale
(-25) t 
GR
GR
GS
[1 0 0 1 159.8 378] CT
0.149 GC
/Helvetica 10 F
GS
[1 0 0 1 0 0] CT
-8 10 moveto 
1 -1 scale
(-20) t 
GR
GR
GS
[1 0 0 1 246.60001 378] CT
0.149 GC
/Helvetica 10 F
GS
[1 0 0 1 0 0] CT
-8 10 moveto 
1 -1 scale
(-15) t 
GR
GR
GS
[1 0 0 1 333.39999 378] CT
0.149 GC
/Helvetica 10 F
GS
[1 0 0 1 0 0] CT
-8 10 moveto 
1 -1 scale
(-10) t 
GR
GR
GS
[1 0 0 1 420.20001 378] CT
0.149 GC
/Helvetica 10 F
GS
[1 0 0 1 0 0] CT
-5 10 moveto 
1 -1 scale
(-5) t 
GR
GR
GS
[1 0 0 1 507 378] CT
0.149 GC
/Helvetica 10 F
GS
[1 0 0 1 0 0] CT
-3 10 moveto 
1 -1 scale
(0) t 
GR
GR
GS
[1 0 0 1 290.00021 392] CT
0.149 GC
/Helvetica-Bold 12 F
GS
[1 0 0 1 0 0] CT
-82 12 moveto 
1 -1 scale
(Camera rotation \(in degrees\)) t 
GR
GR
GS
0.149 GC
2 setlinecap
1 LJ
0.5 LW
N
73 374 M
73 231 L
S
GR
GS
0.149 GC
2 setlinecap
1 LJ
0.5 LW
N
507 374 M
507 231 L
S
GR
GS
0.149 GC
2 setlinecap
1 LJ
0.5 LW
N
73 374 M
77.34 374 L
S
GR
GS
0.149 GC
2 setlinecap
1 LJ
0.5 LW
N
73 350.167 M
77.34 350.167 L
S
GR
GS
0.149 GC
2 setlinecap
1 LJ
0.5 LW
N
73 326.333 M
77.34 326.333 L
S
GR
GS
0.149 GC
2 setlinecap
1 LJ
0.5 LW
N
73 302.5 M
77.34 302.5 L
S
GR
GS
0.149 GC
2 setlinecap
1 LJ
0.5 LW
N
73 278.667 M
77.34 278.667 L
S
GR
GS
0.149 GC
2 setlinecap
1 LJ
0.5 LW
N
73 254.833 M
77.34 254.833 L
S
GR
GS
0.149 GC
2 setlinecap
1 LJ
0.5 LW
N
73 231 M
77.34 231 L
S
GR
GS
0.149 GC
2 setlinecap
1 LJ
0.5 LW
N
507 374 M
502.66 374 L
S
GR
GS
0.149 GC
2 setlinecap
1 LJ
0.5 LW
N
507 350.167 M
502.66 350.167 L
S
GR
GS
0.149 GC
2 setlinecap
1 LJ
0.5 LW
N
507 326.333 M
502.66 326.333 L
S
GR
GS
0.149 GC
2 setlinecap
1 LJ
0.5 LW
N
507 302.5 M
502.66 302.5 L
S
GR
GS
0.149 GC
2 setlinecap
1 LJ
0.5 LW
N
507 278.667 M
502.66 278.667 L
S
GR
GS
0.149 GC
2 setlinecap
1 LJ
0.5 LW
N
507 254.833 M
502.66 254.833 L
S
GR
GS
0.149 GC
2 setlinecap
1 LJ
0.5 LW
N
507 231 M
502.66 231 L
S
GR
GS
[1 0 0 1 68.99999 374] CT
0.149 GC
/Helvetica 10 F
GS
[1 0 0 1 0 0] CT
-10 3.5 moveto 
1 -1 scale
(-2) t 
GR
GR
GS
[1 0 0 1 68.99999 350.16666] CT
0.149 GC
/Helvetica 10 F
GS
[1 0 0 1 0 0] CT
-6 3.5 moveto 
1 -1 scale
(0) t 
GR
GR
GS
[1 0 0 1 68.99999 326.33334] CT
0.149 GC
/Helvetica 10 F
GS
[1 0 0 1 0 0] CT
-6 3.5 moveto 
1 -1 scale
(2) t 
GR
GR
GS
[1 0 0 1 68.99999 302.5] CT
0.149 GC
/Helvetica 10 F
GS
[1 0 0 1 0 0] CT
-6 3.5 moveto 
1 -1 scale
(4) t 
GR
GR
GS
[1 0 0 1 68.99999 278.66666] CT
0.149 GC
/Helvetica 10 F
GS
[1 0 0 1 0 0] CT
-6 3.5 moveto 
1 -1 scale
(6) t 
GR
GR
GS
[1 0 0 1 68.99999 254.83333] CT
0.149 GC
/Helvetica 10 F
GS
[1 0 0 1 0 0] CT
-6 3.5 moveto 
1 -1 scale
(8) t 
GR
GR
GS
[1 0 0 1 68.99999 231] CT
0.149 GC
/Helvetica 10 F
GS
[1 0 0 1 0 0] CT
-12 3.5 moveto 
1 -1 scale
(10) t 
GR
GR
GS
[0 -1 1 0 53.99998 302.49994] CT
0.149 GC
/Helvetica-Bold 12 F
GS
[1 0 0 1 0 0] CT
-56 -3 moveto 
1 -1 scale
(Depth error \(in mm\)) t 
GR
GR
GS
[1 0 0 1 73 253.38583] CT
0 0 1 RC
N
2.667 0 M
2.667 1.473 1.473 2.667 0 2.667 C
-1.473 2.667 -2.667 1.473 -2.667 0 C
-2.667 -1.473 -1.473 -2.667 0 -2.667 C
1.473 -2.667 2.667 -1.473 2.667 0 C
cp
f
GR
GS
[1 0 0 1 90.36 278.70718] CT
0 0 1 RC
N
2.667 0 M
2.667 1.473 1.473 2.667 0 2.667 C
-1.473 2.667 -2.667 1.473 -2.667 0 C
-2.667 -1.473 -1.473 -2.667 0 -2.667 C
1.473 -2.667 2.667 -1.473 2.667 0 C
cp
f
GR
GS
[1 0 0 1 107.72 299.09235] CT
0 0 1 RC
N
2.667 0 M
2.667 1.473 1.473 2.667 0 2.667 C
-1.473 2.667 -2.667 1.473 -2.667 0 C
-2.667 -1.473 -1.473 -2.667 0 -2.667 C
1.473 -2.667 2.667 -1.473 2.667 0 C
cp
f
GR
GS
[1 0 0 1 125.08 341.12] CT
0 0 1 RC
N
2.667 0 M
2.667 1.473 1.473 2.667 0 2.667 C
-1.473 2.667 -2.667 1.473 -2.667 0 C
-2.667 -1.473 -1.473 -2.667 0 -2.667 C
1.473 -2.667 2.667 -1.473 2.667 0 C
cp
f
GR
GS
[1 0 0 1 142.44 347.32916] CT
0 0 1 RC
N
2.667 0 M
2.667 1.473 1.473 2.667 0 2.667 C
-1.473 2.667 -2.667 1.473 -2.667 0 C
-2.667 -1.473 -1.473 -2.667 0 -2.667 C
1.473 -2.667 2.667 -1.473 2.667 0 C
cp
f
GR
GS
[1 0 0 1 159.8 340.50003] CT
0 0 1 RC
N
2.667 0 M
2.667 1.473 1.473 2.667 0 2.667 C
-1.473 2.667 -2.667 1.473 -2.667 0 C
-2.667 -1.473 -1.473 -2.667 0 -2.667 C
1.473 -2.667 2.667 -1.473 2.667 0 C
cp
f
GR
GS
[1 0 0 1 177.16 352.4888] CT
0 0 1 RC
N
2.667 0 M
2.667 1.473 1.473 2.667 0 2.667 C
-1.473 2.667 -2.667 1.473 -2.667 0 C
-2.667 -1.473 -1.473 -2.667 0 -2.667 C
1.473 -2.667 2.667 -1.473 2.667 0 C
cp
f
GR
GS
[1 0 0 1 194.52 357.87964] CT
0 0 1 RC
N
2.667 0 M
2.667 1.473 1.473 2.667 0 2.667 C
-1.473 2.667 -2.667 1.473 -2.667 0 C
-2.667 -1.473 -1.473 -2.667 0 -2.667 C
1.473 -2.667 2.667 -1.473 2.667 0 C
cp
f
GR
GS
[1 0 0 1 211.88 358.5083] CT
0 0 1 RC
N
2.667 0 M
2.667 1.473 1.473 2.667 0 2.667 C
-1.473 2.667 -2.667 1.473 -2.667 0 C
-2.667 -1.473 -1.473 -2.667 0 -2.667 C
1.473 -2.667 2.667 -1.473 2.667 0 C
cp
f
GR
GS
[1 0 0 1 229.24001 358.73022] CT
0 0 1 RC
N
2.667 0 M
2.667 1.473 1.473 2.667 0 2.667 C
-1.473 2.667 -2.667 1.473 -2.667 0 C
-2.667 -1.473 -1.473 -2.667 0 -2.667 C
1.473 -2.667 2.667 -1.473 2.667 0 C
cp
f
GR
GS
[1 0 0 1 246.60001 356.04813] CT
0 0 1 RC
N
2.667 0 M
2.667 1.473 1.473 2.667 0 2.667 C
-1.473 2.667 -2.667 1.473 -2.667 0 C
-2.667 -1.473 -1.473 -2.667 0 -2.667 C
1.473 -2.667 2.667 -1.473 2.667 0 C
cp
f
GR
GS
[1 0 0 1 263.95999 358.25046] CT
0 0 1 RC
N
2.667 0 M
2.667 1.473 1.473 2.667 0 2.667 C
-1.473 2.667 -2.667 1.473 -2.667 0 C
-2.667 -1.473 -1.473 -2.667 0 -2.667 C
1.473 -2.667 2.667 -1.473 2.667 0 C
cp
f
GR
GS
[1 0 0 1 281.32001 346.98309] CT
0 0 1 RC
N
2.667 0 M
2.667 1.473 1.473 2.667 0 2.667 C
-1.473 2.667 -2.667 1.473 -2.667 0 C
-2.667 -1.473 -1.473 -2.667 0 -2.667 C
1.473 -2.667 2.667 -1.473 2.667 0 C
cp
f
GR
GS
[1 0 0 1 298.67999 353.31482] CT
0 0 1 RC
N
2.667 0 M
2.667 1.473 1.473 2.667 0 2.667 C
-1.473 2.667 -2.667 1.473 -2.667 0 C
-2.667 -1.473 -1.473 -2.667 0 -2.667 C
1.473 -2.667 2.667 -1.473 2.667 0 C
cp
f
GR
GS
[1 0 0 1 316.04001 352.70737] CT
0 0 1 RC
N
2.667 0 M
2.667 1.473 1.473 2.667 0 2.667 C
-1.473 2.667 -2.667 1.473 -2.667 0 C
-2.667 -1.473 -1.473 -2.667 0 -2.667 C
1.473 -2.667 2.667 -1.473 2.667 0 C
cp
f
GR
GS
[1 0 0 1 333.39999 347.31671] CT
0 0 1 RC
N
2.667 0 M
2.667 1.473 1.473 2.667 0 2.667 C
-1.473 2.667 -2.667 1.473 -2.667 0 C
-2.667 -1.473 -1.473 -2.667 0 -2.667 C
1.473 -2.667 2.667 -1.473 2.667 0 C
cp
f
GR
GS
[1 0 0 1 350.76001 345.82034] CT
0 0 1 RC
N
2.667 0 M
2.667 1.473 1.473 2.667 0 2.667 C
-1.473 2.667 -2.667 1.473 -2.667 0 C
-2.667 -1.473 -1.473 -2.667 0 -2.667 C
1.473 -2.667 2.667 -1.473 2.667 0 C
cp
f
GR
GS
[1 0 0 1 368.12 344.03214] CT
0 0 1 RC
N
2.667 0 M
2.667 1.473 1.473 2.667 0 2.667 C
-1.473 2.667 -2.667 1.473 -2.667 0 C
-2.667 -1.473 -1.473 -2.667 0 -2.667 C
1.473 -2.667 2.667 -1.473 2.667 0 C
cp
f
GR
GS
[1 0 0 1 385.48001 344.82944] CT
0 0 1 RC
N
2.667 0 M
2.667 1.473 1.473 2.667 0 2.667 C
-1.473 2.667 -2.667 1.473 -2.667 0 C
-2.667 -1.473 -1.473 -2.667 0 -2.667 C
1.473 -2.667 2.667 -1.473 2.667 0 C
cp
f
GR
GS
[1 0 0 1 402.84 344.55798] CT
0 0 1 RC
N
2.667 0 M
2.667 1.473 1.473 2.667 0 2.667 C
-1.473 2.667 -2.667 1.473 -2.667 0 C
-2.667 -1.473 -1.473 -2.667 0 -2.667 C
1.473 -2.667 2.667 -1.473 2.667 0 C
cp
f
GR
GS
[1 0 0 1 420.20001 343.64621] CT
0 0 1 RC
N
2.667 0 M
2.667 1.473 1.473 2.667 0 2.667 C
-1.473 2.667 -2.667 1.473 -2.667 0 C
-2.667 -1.473 -1.473 -2.667 0 -2.667 C
1.473 -2.667 2.667 -1.473 2.667 0 C
cp
f
GR
GS
[1 0 0 1 437.56 345.26328] CT
0 0 1 RC
N
2.667 0 M
2.667 1.473 1.473 2.667 0 2.667 C
-1.473 2.667 -2.667 1.473 -2.667 0 C
-2.667 -1.473 -1.473 -2.667 0 -2.667 C
1.473 -2.667 2.667 -1.473 2.667 0 C
cp
f
GR
GS
[1 0 0 1 454.92001 347.70505] CT
0 0 1 RC
N
2.667 0 M
2.667 1.473 1.473 2.667 0 2.667 C
-1.473 2.667 -2.667 1.473 -2.667 0 C
-2.667 -1.473 -1.473 -2.667 0 -2.667 C
1.473 -2.667 2.667 -1.473 2.667 0 C
cp
f
GR
GS
[1 0 0 1 472.28 351.54834] CT
0 0 1 RC
N
2.667 0 M
2.667 1.473 1.473 2.667 0 2.667 C
-1.473 2.667 -2.667 1.473 -2.667 0 C
-2.667 -1.473 -1.473 -2.667 0 -2.667 C
1.473 -2.667 2.667 -1.473 2.667 0 C
cp
f
GR
GS
[1 0 0 1 489.64001 355.78452] CT
0 0 1 RC
N
2.667 0 M
2.667 1.473 1.473 2.667 0 2.667 C
-1.473 2.667 -2.667 1.473 -2.667 0 C
-2.667 -1.473 -1.473 -2.667 0 -2.667 C
1.473 -2.667 2.667 -1.473 2.667 0 C
cp
f
GR
GS
[1 0 0 1 507 361.19522] CT
0 0 1 RC
N
2.667 0 M
2.667 1.473 1.473 2.667 0 2.667 C
-1.473 2.667 -2.667 1.473 -2.667 0 C
-2.667 -1.473 -1.473 -2.667 0 -2.667 C
1.473 -2.667 2.667 -1.473 2.667 0 C
cp
f
GR
GS
1 0 0 RC
1 LJ
N
73 350.167 M
73.434 350.167 L
73.868 350.167 L
74.302 350.167 L
74.736 350.167 L
75.17 350.167 L
75.604 350.167 L
76.038 350.167 L
76.472 350.167 L
76.906 350.167 L
77.34 350.167 L
77.774 350.167 L
78.208 350.167 L
78.642 350.167 L
79.076 350.167 L
79.51 350.167 L
79.944 350.167 L
80.378 350.167 L
80.812 350.167 L
81.246 350.167 L
81.68 350.167 L
82.114 350.167 L
82.548 350.167 L
82.982 350.167 L
83.416 350.167 L
83.85 350.167 L
84.284 350.167 L
84.718 350.167 L
85.152 350.167 L
85.586 350.167 L
86.02 350.167 L
86.454 350.167 L
86.888 350.167 L
87.322 350.167 L
87.756 350.167 L
88.19 350.167 L
88.624 350.167 L
89.058 350.167 L
89.492 350.167 L
89.926 350.167 L
90.36 350.167 L
90.794 350.167 L
91.228 350.167 L
91.662 350.167 L
92.096 350.167 L
92.53 350.167 L
92.964 350.167 L
93.398 350.167 L
93.832 350.167 L
94.266 350.167 L
94.7 350.167 L
95.134 350.167 L
95.568 350.167 L
96.002 350.167 L
96.436 350.167 L
96.87 350.167 L
97.304 350.167 L
97.738 350.167 L
98.172 350.167 L
98.606 350.167 L
99.04 350.167 L
99.474 350.167 L
99.908 350.167 L
100.342 350.167 L
100.776 350.167 L
101.21 350.167 L
101.644 350.167 L
102.078 350.167 L
102.512 350.167 L
102.946 350.167 L
103.38 350.167 L
103.814 350.167 L
104.248 350.167 L
104.682 350.167 L
105.116 350.167 L
105.55 350.167 L
105.984 350.167 L
106.418 350.167 L
106.852 350.167 L
107.286 350.167 L
107.72 350.167 L
108.154 350.167 L
108.588 350.167 L
109.022 350.167 L
109.456 350.167 L
109.89 350.167 L
110.324 350.167 L
110.758 350.167 L
111.192 350.167 L
111.626 350.167 L
112.06 350.167 L
112.494 350.167 L
112.928 350.167 L
113.362 350.167 L
113.796 350.167 L
114.23 350.167 L
114.664 350.167 L
115.098 350.167 L
115.532 350.167 L
115.966 350.167 L
116.4 350.167 L
116.834 350.167 L
117.268 350.167 L
117.702 350.167 L
118.136 350.167 L
118.57 350.167 L
119.004 350.167 L
119.438 350.167 L
119.872 350.167 L
120.306 350.167 L
120.74 350.167 L
121.174 350.167 L
121.608 350.167 L
122.042 350.167 L
122.476 350.167 L
122.91 350.167 L
123.344 350.167 L
123.778 350.167 L
124.212 350.167 L
124.646 350.167 L
125.08 350.167 L
125.514 350.167 L
125.948 350.167 L
126.382 350.167 L
126.816 350.167 L
127.25 350.167 L
127.684 350.167 L
128.118 350.167 L
128.552 350.167 L
128.986 350.167 L
129.42 350.167 L
129.854 350.167 L
130.288 350.167 L
130.722 350.167 L
131.156 350.167 L
131.59 350.167 L
132.024 350.167 L
132.458 350.167 L
132.892 350.167 L
133.326 350.167 L
133.76 350.167 L
134.194 350.167 L
134.628 350.167 L
135.062 350.167 L
135.496 350.167 L
135.93 350.167 L
136.364 350.167 L
136.798 350.167 L
137.232 350.167 L
137.666 350.167 L
138.1 350.167 L
138.534 350.167 L
138.968 350.167 L
139.402 350.167 L
139.836 350.167 L
140.27 350.167 L
140.704 350.167 L
141.138 350.167 L
141.572 350.167 L
142.006 350.167 L
142.44 350.167 L
142.874 350.167 L
143.308 350.167 L
143.742 350.167 L
144.176 350.167 L
144.61 350.167 L
145.044 350.167 L
145.478 350.167 L
145.912 350.167 L
146.346 350.167 L
146.78 350.167 L
147.214 350.167 L
147.648 350.167 L
148.082 350.167 L
148.516 350.167 L
148.95 350.167 L
149.384 350.167 L
149.818 350.167 L
150.252 350.167 L
150.686 350.167 L
151.12 350.167 L
151.554 350.167 L
151.988 350.167 L
152.422 350.167 L
152.856 350.167 L
153.29 350.167 L
153.724 350.167 L
154.158 350.167 L
154.592 350.167 L
155.026 350.167 L
155.46 350.167 L
155.894 350.167 L
156.328 350.167 L
156.762 350.167 L
157.196 350.167 L
157.63 350.167 L
158.064 350.167 L
158.498 350.167 L
158.932 350.167 L
159.366 350.167 L
159.8 350.167 L
160.234 350.167 L
160.668 350.167 L
161.102 350.167 L
161.536 350.167 L
161.97 350.167 L
162.404 350.167 L
162.838 350.167 L
163.272 350.167 L
163.706 350.167 L
164.14 350.167 L
164.574 350.167 L
165.008 350.167 L
165.442 350.167 L
165.876 350.167 L
166.31 350.167 L
166.744 350.167 L
167.178 350.167 L
167.612 350.167 L
168.046 350.167 L
168.48 350.167 L
168.914 350.167 L
169.348 350.167 L
169.782 350.167 L
170.216 350.167 L
170.65 350.167 L
171.084 350.167 L
171.518 350.167 L
171.952 350.167 L
172.386 350.167 L
172.82 350.167 L
173.254 350.167 L
173.688 350.167 L
174.122 350.167 L
174.556 350.167 L
174.99 350.167 L
175.424 350.167 L
175.858 350.167 L
176.292 350.167 L
176.726 350.167 L
177.16 350.167 L
177.594 350.167 L
178.028 350.167 L
178.462 350.167 L
178.896 350.167 L
179.33 350.167 L
179.764 350.167 L
180.198 350.167 L
180.632 350.167 L
181.066 350.167 L
181.5 350.167 L
181.934 350.167 L
182.368 350.167 L
182.802 350.167 L
183.236 350.167 L
183.67 350.167 L
184.104 350.167 L
184.538 350.167 L
184.972 350.167 L
185.406 350.167 L
185.84 350.167 L
186.274 350.167 L
186.708 350.167 L
187.142 350.167 L
187.576 350.167 L
188.01 350.167 L
188.444 350.167 L
188.878 350.167 L
189.312 350.167 L
189.746 350.167 L
190.18 350.167 L
190.614 350.167 L
191.048 350.167 L
191.482 350.167 L
191.916 350.167 L
192.35 350.167 L
192.784 350.167 L
193.218 350.167 L
193.652 350.167 L
194.086 350.167 L
194.52 350.167 L
194.954 350.167 L
195.388 350.167 L
195.822 350.167 L
196.256 350.167 L
196.69 350.167 L
197.124 350.167 L
197.558 350.167 L
197.992 350.167 L
198.426 350.167 L
198.86 350.167 L
199.294 350.167 L
199.728 350.167 L
200.162 350.167 L
200.596 350.167 L
201.03 350.167 L
201.464 350.167 L
201.898 350.167 L
202.332 350.167 L
202.766 350.167 L
203.2 350.167 L
203.634 350.167 L
204.068 350.167 L
204.502 350.167 L
204.936 350.167 L
205.37 350.167 L
205.804 350.167 L
206.238 350.167 L
206.672 350.167 L
207.106 350.167 L
207.54 350.167 L
207.974 350.167 L
208.408 350.167 L
208.842 350.167 L
209.276 350.167 L
209.71 350.167 L
210.144 350.167 L
210.578 350.167 L
211.012 350.167 L
211.446 350.167 L
211.88 350.167 L
212.314 350.167 L
212.748 350.167 L
213.182 350.167 L
213.616 350.167 L
214.05 350.167 L
214.484 350.167 L
214.918 350.167 L
215.352 350.167 L
215.786 350.167 L
216.22 350.167 L
216.654 350.167 L
217.088 350.167 L
217.522 350.167 L
217.956 350.167 L
218.39 350.167 L
218.824 350.167 L
219.258 350.167 L
219.692 350.167 L
220.126 350.167 L
220.56 350.167 L
220.994 350.167 L
221.428 350.167 L
221.862 350.167 L
222.296 350.167 L
222.73 350.167 L
223.164 350.167 L
223.598 350.167 L
224.032 350.167 L
224.466 350.167 L
224.9 350.167 L
225.334 350.167 L
225.768 350.167 L
226.202 350.167 L
226.636 350.167 L
227.07 350.167 L
227.504 350.167 L
227.938 350.167 L
228.372 350.167 L
228.806 350.167 L
229.24 350.167 L
229.674 350.167 L
230.108 350.167 L
230.542 350.167 L
230.976 350.167 L
231.41 350.167 L
231.844 350.167 L
232.278 350.167 L
232.712 350.167 L
233.146 350.167 L
233.58 350.167 L
234.014 350.167 L
234.448 350.167 L
234.882 350.167 L
235.316 350.167 L
235.75 350.167 L
236.184 350.167 L
236.618 350.167 L
237.052 350.167 L
237.486 350.167 L
237.92 350.167 L
238.354 350.167 L
238.788 350.167 L
239.222 350.167 L
239.656 350.167 L
240.09 350.167 L
240.524 350.167 L
240.958 350.167 L
241.392 350.167 L
241.826 350.167 L
242.26 350.167 L
242.694 350.167 L
243.128 350.167 L
243.562 350.167 L
243.996 350.167 L
244.43 350.167 L
244.864 350.167 L
245.298 350.167 L
245.732 350.167 L
246.166 350.167 L
246.6 350.167 L
247.034 350.167 L
247.468 350.167 L
247.902 350.167 L
248.336 350.167 L
248.77 350.167 L
249.204 350.167 L
249.638 350.167 L
250.072 350.167 L
250.506 350.167 L
250.94 350.167 L
251.374 350.167 L
251.808 350.167 L
252.242 350.167 L
252.676 350.167 L
253.11 350.167 L
253.544 350.167 L
253.978 350.167 L
254.412 350.167 L
254.846 350.167 L
255.28 350.167 L
255.714 350.167 L
256.148 350.167 L
256.582 350.167 L
257.016 350.167 L
257.45 350.167 L
257.884 350.167 L
258.318 350.167 L
258.752 350.167 L
259.186 350.167 L
259.62 350.167 L
260.054 350.167 L
260.488 350.167 L
260.922 350.167 L
261.356 350.167 L
261.79 350.167 L
262.224 350.167 L
262.658 350.167 L
263.092 350.167 L
263.526 350.167 L
263.96 350.167 L
264.394 350.167 L
264.828 350.167 L
265.262 350.167 L
265.696 350.167 L
266.13 350.167 L
266.564 350.167 L
266.998 350.167 L
267.432 350.167 L
267.866 350.167 L
268.3 350.167 L
268.734 350.167 L
269.168 350.167 L
269.602 350.167 L
270.036 350.167 L
270.47 350.167 L
270.904 350.167 L
271.338 350.167 L
271.772 350.167 L
272.206 350.167 L
272.64 350.167 L
273.074 350.167 L
273.508 350.167 L
273.942 350.167 L
274.376 350.167 L
274.81 350.167 L
275.244 350.167 L
275.678 350.167 L
276.112 350.167 L
276.546 350.167 L
276.98 350.167 L
277.414 350.167 L
277.848 350.167 L
278.282 350.167 L
278.716 350.167 L
279.15 350.167 L
279.584 350.167 L
280.018 350.167 L
280.452 350.167 L
280.886 350.167 L
281.32 350.167 L
281.754 350.167 L
282.188 350.167 L
282.622 350.167 L
283.056 350.167 L
283.49 350.167 L
283.924 350.167 L
284.358 350.167 L
284.792 350.167 L
285.226 350.167 L
285.66 350.167 L
286.094 350.167 L
286.528 350.167 L
286.962 350.167 L
287.396 350.167 L
287.83 350.167 L
288.264 350.167 L
288.698 350.167 L
289.132 350.167 L
289.566 350.167 L
290 350.167 L
290.434 350.167 L
290.868 350.167 L
291.302 350.167 L
291.736 350.167 L
292.17 350.167 L
292.604 350.167 L
293.038 350.167 L
293.472 350.167 L
293.906 350.167 L
294.34 350.167 L
294.774 350.167 L
295.208 350.167 L
295.642 350.167 L
296.076 350.167 L
296.51 350.167 L
296.944 350.167 L
297.378 350.167 L
297.812 350.167 L
298.246 350.167 L
298.68 350.167 L
299.114 350.167 L
299.548 350.167 L
299.982 350.167 L
300.416 350.167 L
300.85 350.167 L
301.284 350.167 L
301.718 350.167 L
302.152 350.167 L
302.586 350.167 L
303.02 350.167 L
303.454 350.167 L
303.888 350.167 L
304.322 350.167 L
304.756 350.167 L
305.19 350.167 L
305.624 350.167 L
306.058 350.167 L
306.492 350.167 L
306.926 350.167 L
307.36 350.167 L
307.794 350.167 L
308.228 350.167 L
308.662 350.167 L
309.096 350.167 L
309.53 350.167 L
309.964 350.167 L
310.398 350.167 L
310.832 350.167 L
311.266 350.167 L
311.7 350.167 L
312.134 350.167 L
312.568 350.167 L
313.002 350.167 L
313.436 350.167 L
313.87 350.167 L
314.304 350.167 L
314.738 350.167 L
315.172 350.167 L
315.606 350.167 L
316.04 350.167 L
316.474 350.167 L
316.908 350.167 L
317.342 350.167 L
317.776 350.167 L
318.21 350.167 L
318.644 350.167 L
319.078 350.167 L
319.512 350.167 L
319.946 350.167 L
320.38 350.167 L
320.814 350.167 L
321.248 350.167 L
321.682 350.167 L
322.116 350.167 L
322.55 350.167 L
322.984 350.167 L
323.418 350.167 L
323.852 350.167 L
324.286 350.167 L
324.72 350.167 L
325.154 350.167 L
325.588 350.167 L
326.022 350.167 L
326.456 350.167 L
326.89 350.167 L
327.324 350.167 L
327.758 350.167 L
328.192 350.167 L
328.626 350.167 L
329.06 350.167 L
329.494 350.167 L
329.928 350.167 L
330.362 350.167 L
330.796 350.167 L
331.23 350.167 L
331.664 350.167 L
332.098 350.167 L
332.532 350.167 L
332.966 350.167 L
333.4 350.167 L
333.834 350.167 L
334.268 350.167 L
334.702 350.167 L
335.136 350.167 L
335.57 350.167 L
336.004 350.167 L
336.438 350.167 L
336.872 350.167 L
337.306 350.167 L
337.74 350.167 L
338.174 350.167 L
338.608 350.167 L
339.042 350.167 L
339.476 350.167 L
339.91 350.167 L
340.344 350.167 L
340.778 350.167 L
341.212 350.167 L
341.646 350.167 L
342.08 350.167 L
342.514 350.167 L
342.948 350.167 L
343.382 350.167 L
343.816 350.167 L
344.25 350.167 L
344.684 350.167 L
345.118 350.167 L
345.552 350.167 L
345.986 350.167 L
346.42 350.167 L
346.854 350.167 L
347.288 350.167 L
347.722 350.167 L
348.156 350.167 L
348.59 350.167 L
349.024 350.167 L
349.458 350.167 L
349.892 350.167 L
350.326 350.167 L
350.76 350.167 L
351.194 350.167 L
351.628 350.167 L
352.062 350.167 L
352.496 350.167 L
352.93 350.167 L
353.364 350.167 L
353.798 350.167 L
354.232 350.167 L
354.666 350.167 L
355.1 350.167 L
355.534 350.167 L
355.968 350.167 L
356.402 350.167 L
356.836 350.167 L
357.27 350.167 L
357.704 350.167 L
358.138 350.167 L
358.572 350.167 L
359.006 350.167 L
359.44 350.167 L
359.874 350.167 L
360.308 350.167 L
360.742 350.167 L
361.176 350.167 L
361.61 350.167 L
362.044 350.167 L
362.478 350.167 L
362.912 350.167 L
363.346 350.167 L
363.78 350.167 L
364.214 350.167 L
364.648 350.167 L
365.082 350.167 L
365.516 350.167 L
365.95 350.167 L
366.384 350.167 L
366.818 350.167 L
367.252 350.167 L
367.686 350.167 L
368.12 350.167 L
368.554 350.167 L
368.988 350.167 L
369.422 350.167 L
369.856 350.167 L
370.29 350.167 L
370.724 350.167 L
371.158 350.167 L
371.592 350.167 L
372.026 350.167 L
372.46 350.167 L
372.894 350.167 L
373.328 350.167 L
373.762 350.167 L
374.196 350.167 L
374.63 350.167 L
375.064 350.167 L
375.498 350.167 L
375.932 350.167 L
376.366 350.167 L
376.8 350.167 L
377.234 350.167 L
377.668 350.167 L
378.102 350.167 L
378.536 350.167 L
378.97 350.167 L
379.404 350.167 L
379.838 350.167 L
380.272 350.167 L
380.706 350.167 L
381.14 350.167 L
381.574 350.167 L
382.008 350.167 L
382.442 350.167 L
382.876 350.167 L
383.31 350.167 L
383.744 350.167 L
384.178 350.167 L
384.612 350.167 L
385.046 350.167 L
385.48 350.167 L
385.914 350.167 L
386.348 350.167 L
386.782 350.167 L
387.216 350.167 L
387.65 350.167 L
388.084 350.167 L
388.518 350.167 L
388.952 350.167 L
389.386 350.167 L
389.82 350.167 L
390.254 350.167 L
390.688 350.167 L
391.122 350.167 L
391.556 350.167 L
391.99 350.167 L
392.424 350.167 L
392.858 350.167 L
393.292 350.167 L
393.726 350.167 L
394.16 350.167 L
394.594 350.167 L
395.028 350.167 L
395.462 350.167 L
395.896 350.167 L
396.33 350.167 L
396.764 350.167 L
397.198 350.167 L
397.632 350.167 L
398.066 350.167 L
398.5 350.167 L
398.934 350.167 L
399.368 350.167 L
399.802 350.167 L
400.236 350.167 L
400.67 350.167 L
401.104 350.167 L
401.538 350.167 L
401.972 350.167 L
402.406 350.167 L
402.84 350.167 L
403.274 350.167 L
403.708 350.167 L
404.142 350.167 L
404.576 350.167 L
405.01 350.167 L
405.444 350.167 L
405.878 350.167 L
406.312 350.167 L
406.746 350.167 L
407.18 350.167 L
407.614 350.167 L
408.048 350.167 L
408.482 350.167 L
408.916 350.167 L
409.35 350.167 L
409.784 350.167 L
410.218 350.167 L
410.652 350.167 L
411.086 350.167 L
411.52 350.167 L
411.954 350.167 L
412.388 350.167 L
412.822 350.167 L
413.256 350.167 L
413.69 350.167 L
414.124 350.167 L
414.558 350.167 L
414.992 350.167 L
415.426 350.167 L
415.86 350.167 L
416.294 350.167 L
416.728 350.167 L
417.162 350.167 L
417.596 350.167 L
418.03 350.167 L
418.464 350.167 L
418.898 350.167 L
419.332 350.167 L
419.766 350.167 L
420.2 350.167 L
420.634 350.167 L
421.068 350.167 L
421.502 350.167 L
421.936 350.167 L
422.37 350.167 L
422.804 350.167 L
423.238 350.167 L
423.672 350.167 L
424.106 350.167 L
424.54 350.167 L
424.974 350.167 L
425.408 350.167 L
425.842 350.167 L
426.276 350.167 L
426.71 350.167 L
427.144 350.167 L
427.578 350.167 L
428.012 350.167 L
428.446 350.167 L
428.88 350.167 L
429.314 350.167 L
429.748 350.167 L
430.182 350.167 L
430.616 350.167 L
431.05 350.167 L
431.484 350.167 L
431.918 350.167 L
432.352 350.167 L
432.786 350.167 L
433.22 350.167 L
433.654 350.167 L
434.088 350.167 L
434.522 350.167 L
434.956 350.167 L
435.39 350.167 L
435.824 350.167 L
436.258 350.167 L
436.692 350.167 L
437.126 350.167 L
437.56 350.167 L
437.994 350.167 L
438.428 350.167 L
438.862 350.167 L
439.296 350.167 L
439.73 350.167 L
440.164 350.167 L
440.598 350.167 L
441.032 350.167 L
441.466 350.167 L
441.9 350.167 L
442.334 350.167 L
442.768 350.167 L
443.202 350.167 L
443.636 350.167 L
444.07 350.167 L
444.504 350.167 L
444.938 350.167 L
445.372 350.167 L
445.806 350.167 L
446.24 350.167 L
446.674 350.167 L
447.108 350.167 L
447.542 350.167 L
447.976 350.167 L
448.41 350.167 L
448.844 350.167 L
449.278 350.167 L
449.712 350.167 L
450.146 350.167 L
450.58 350.167 L
451.014 350.167 L
451.448 350.167 L
451.882 350.167 L
452.316 350.167 L
452.75 350.167 L
453.184 350.167 L
453.618 350.167 L
454.052 350.167 L
454.486 350.167 L
454.92 350.167 L
455.354 350.167 L
455.788 350.167 L
456.222 350.167 L
456.656 350.167 L
457.09 350.167 L
457.524 350.167 L
457.958 350.167 L
458.392 350.167 L
458.826 350.167 L
459.26 350.167 L
459.694 350.167 L
460.128 350.167 L
460.562 350.167 L
460.996 350.167 L
461.43 350.167 L
461.864 350.167 L
462.298 350.167 L
462.732 350.167 L
463.166 350.167 L
463.6 350.167 L
464.034 350.167 L
464.468 350.167 L
464.902 350.167 L
465.336 350.167 L
465.77 350.167 L
466.204 350.167 L
466.638 350.167 L
467.072 350.167 L
467.506 350.167 L
467.94 350.167 L
468.374 350.167 L
468.808 350.167 L
469.242 350.167 L
469.676 350.167 L
470.11 350.167 L
470.544 350.167 L
470.978 350.167 L
471.412 350.167 L
471.846 350.167 L
472.28 350.167 L
472.714 350.167 L
473.148 350.167 L
473.582 350.167 L
474.016 350.167 L
474.45 350.167 L
474.884 350.167 L
475.318 350.167 L
475.752 350.167 L
476.186 350.167 L
476.62 350.167 L
477.054 350.167 L
477.488 350.167 L
477.922 350.167 L
478.356 350.167 L
478.79 350.167 L
479.224 350.167 L
479.658 350.167 L
480.092 350.167 L
480.526 350.167 L
480.96 350.167 L
481.394 350.167 L
481.828 350.167 L
482.262 350.167 L
482.696 350.167 L
483.13 350.167 L
483.564 350.167 L
483.998 350.167 L
484.432 350.167 L
484.866 350.167 L
485.3 350.167 L
485.734 350.167 L
486.168 350.167 L
486.602 350.167 L
487.036 350.167 L
487.47 350.167 L
487.904 350.167 L
488.338 350.167 L
488.772 350.167 L
489.206 350.167 L
489.64 350.167 L
490.074 350.167 L
490.508 350.167 L
490.942 350.167 L
491.376 350.167 L
491.81 350.167 L
492.244 350.167 L
492.678 350.167 L
493.112 350.167 L
493.546 350.167 L
493.98 350.167 L
494.414 350.167 L
494.848 350.167 L
495.282 350.167 L
495.716 350.167 L
496.15 350.167 L
496.584 350.167 L
497.018 350.167 L
497.452 350.167 L
497.886 350.167 L
498.32 350.167 L
498.754 350.167 L
499.188 350.167 L
499.622 350.167 L
500.056 350.167 L
500.49 350.167 L
500.924 350.167 L
501.358 350.167 L
501.792 350.167 L
502.226 350.167 L
502.66 350.167 L
503.094 350.167 L
503.528 350.167 L
503.962 350.167 L
504.396 350.167 L
504.83 350.167 L
505.264 350.167 L
505.698 350.167 L
506.132 350.167 L
506.566 350.167 L
507 350.167 L
S
GR
GS
1 GC
N
342 263 M
342 237 L
500 237 L
500 263 L
cp
f
GR
GS
[1 0 0 1 379 244.35849] CT
/Helvetica 9 F
GS
[1 0 0 1 0 0] CT
0 3.5 moveto 
1 -1 scale
(Polynomial model - residuals) t 
GR
GR
GS
[1 0 0 1 361 244.35849] CT
0 0 1 RC
N
2.667 0 M
2.667 1.473 1.473 2.667 0 2.667 C
-1.473 2.667 -2.667 1.473 -2.667 0 C
-2.667 -1.473 -1.473 -2.667 0 -2.667 C
1.473 -2.667 2.667 -1.473 2.667 0 C
cp
f
GR
GS
[1 0 0 1 379 255.64151] CT
/Helvetica 9 F
GS
[1 0 0 1 0 0] CT
0 3.5 moveto 
1 -1 scale
(Zero Line) t 
GR
GR
GS
1 0 0 RC
1 LJ
N
346 255.642 M
376 255.642 L
S
GR
GS
0.149 GC
10.0 ML
0.5 LW
N
342 263 M
342 237 L
500 237 L
500 263 L
cp
S
GR
%%Trailer
%%Pages: 1
%%EOF
