%!PS-Adobe-3.0 EPSF-3.0
%%Creator: (MATLAB, The Mathworks, Inc. Version 9.0.0.341360 \(R2016a\). Operating System: Mac OS X)
%%Title: /Users/deepak/Documents/MATLAB/matlabprojects/singleCalib_IH/source/drxp.eps
%%CreationDate: 2016-11-26T22:23:25
%%Pages: (atend)
%%BoundingBox: 0 0 560 420
%%LanguageLevel: 3
%%EndComments
%%BeginProlog
%%BeginResource: procset (Apache XML Graphics Std ProcSet) 1.2 0
%%Version: 1.2 0
%%Copyright: (Copyright 2001-2003,2010 The Apache Software Foundation. License terms: http://www.apache.org/licenses/LICENSE-2.0)
/bd{bind def}bind def
/ld{load def}bd
/GR/grestore ld
/M/moveto ld
/LJ/setlinejoin ld
/C/curveto ld
/f/fill ld
/LW/setlinewidth ld
/GC/setgray ld
/t/show ld
/N/newpath ld
/CT/concat ld
/cp/closepath ld
/S/stroke ld
/L/lineto ld
/CC/setcmykcolor ld
/A/ashow ld
/GS/gsave ld
/RC/setrgbcolor ld
/RM/rmoveto ld
/ML/setmiterlimit ld
/re {4 2 roll M
1 index 0 rlineto
0 exch rlineto
neg 0 rlineto
cp } bd
/_ctm matrix def
/_tm matrix def
/BT { _ctm currentmatrix pop matrix _tm copy pop 0 0 moveto } bd
/ET { _ctm setmatrix } bd
/iTm { _ctm setmatrix _tm concat } bd
/Tm { _tm astore pop iTm 0 0 moveto } bd
/ux 0.0 def
/uy 0.0 def
/F {
  /Tp exch def
  /Tf exch def
  Tf findfont Tp scalefont setfont
  /cf Tf def  /cs Tp def
} bd
/ULS {currentpoint /uy exch def /ux exch def} bd
/ULE {
  /Tcx currentpoint pop def
  gsave
  newpath
  cf findfont cs scalefont dup
  /FontMatrix get 0 get /Ts exch def /FontInfo get dup
  /UnderlinePosition get Ts mul /To exch def
  /UnderlineThickness get Ts mul /Tt exch def
  ux uy To add moveto  Tcx uy To add lineto
  Tt setlinewidth stroke
  grestore
} bd
/OLE {
  /Tcx currentpoint pop def
  gsave
  newpath
  cf findfont cs scalefont dup
  /FontMatrix get 0 get /Ts exch def /FontInfo get dup
  /UnderlinePosition get Ts mul /To exch def
  /UnderlineThickness get Ts mul /Tt exch def
  ux uy To add cs add moveto Tcx uy To add cs add lineto
  Tt setlinewidth stroke
  grestore
} bd
/SOE {
  /Tcx currentpoint pop def
  gsave
  newpath
  cf findfont cs scalefont dup
  /FontMatrix get 0 get /Ts exch def /FontInfo get dup
  /UnderlinePosition get Ts mul /To exch def
  /UnderlineThickness get Ts mul /Tt exch def
  ux uy To add cs 10 mul 26 idiv add moveto Tcx uy To add cs 10 mul 26 idiv add lineto
  Tt setlinewidth stroke
  grestore
} bd
/QT {
/Y22 exch store
/X22 exch store
/Y21 exch store
/X21 exch store
currentpoint
/Y21 load 2 mul add 3 div exch
/X21 load 2 mul add 3 div exch
/X21 load 2 mul /X22 load add 3 div
/Y21 load 2 mul /Y22 load add 3 div
/X22 load /Y22 load curveto
} bd
/SSPD {
dup length /d exch dict def
{
/v exch def
/k exch def
currentpagedevice k known {
/cpdv currentpagedevice k get def
v cpdv ne {
/upd false def
/nullv v type /nulltype eq def
/nullcpdv cpdv type /nulltype eq def
nullv nullcpdv or
{
/upd true def
} {
/sametype v type cpdv type eq def
sametype {
v type /arraytype eq {
/vlen v length def
/cpdvlen cpdv length def
vlen cpdvlen eq {
0 1 vlen 1 sub {
/i exch def
/obj v i get def
/cpdobj cpdv i get def
obj cpdobj ne {
/upd true def
exit
} if
} for
} {
/upd true def
} ifelse
} {
v type /dicttype eq {
v {
/dv exch def
/dk exch def
/cpddv cpdv dk get def
dv cpddv ne {
/upd true def
exit
} if
} forall
} {
/upd true def
} ifelse
} ifelse
} if
} ifelse
upd true eq {
d k v put
} if
} if
} if
} forall
d length 0 gt {
d setpagedevice
} if
} bd
%%EndResource
%%BeginResource: procset (Apache XML Graphics EPS ProcSet) 1.0 0
%%Version: 1.0 0
%%Copyright: (Copyright 2002-2003 The Apache Software Foundation. License terms: http://www.apache.org/licenses/LICENSE-2.0)
/BeginEPSF { %def
/b4_Inc_state save def         % Save state for cleanup
/dict_count countdictstack def % Count objects on dict stack
/op_count count 1 sub def      % Count objects on operand stack
userdict begin                 % Push userdict on dict stack
/showpage { } def              % Redefine showpage, { } = null proc
0 setgray 0 setlinecap         % Prepare graphics state
1 setlinewidth 0 setlinejoin
10 setmiterlimit [ ] 0 setdash newpath
/languagelevel where           % If level not equal to 1 then
{pop languagelevel             % set strokeadjust and
1 ne                           % overprint to their defaults.
{false setstrokeadjust false setoverprint
} if
} if
} bd
/EndEPSF { %def
count op_count sub {pop} repeat            % Clean up stacks
countdictstack dict_count sub {end} repeat
b4_Inc_state restore
} bd
%%EndResource
%FOPBeginFontDict
%%IncludeResource: font Courier-Bold
%%IncludeResource: font Helvetica
%%IncludeResource: font Courier-BoldOblique
%%IncludeResource: font Courier-Oblique
%%IncludeResource: font Times-Roman
%%IncludeResource: font Helvetica-BoldOblique
%%IncludeResource: font Helvetica-Bold
%%IncludeResource: font Helvetica-Oblique
%%IncludeResource: font Times-BoldItalic
%%IncludeResource: font Courier
%%IncludeResource: font Times-Italic
%%IncludeResource: font Times-Bold
%%IncludeResource: font Symbol
%%IncludeResource: font ZapfDingbats
%FOPEndFontDict
%%BeginResource: encoding WinAnsiEncoding
/WinAnsiEncoding [
/.notdef /.notdef /.notdef /.notdef /.notdef
/.notdef /.notdef /.notdef /.notdef /.notdef
/.notdef /.notdef /.notdef /.notdef /.notdef
/.notdef /.notdef /.notdef /.notdef /.notdef
/.notdef /.notdef /.notdef /.notdef /.notdef
/.notdef /.notdef /.notdef /.notdef /.notdef
/.notdef /.notdef /space /exclam /quotedbl
/numbersign /dollar /percent /ampersand /quotesingle
/parenleft /parenright /asterisk /plus /comma
/hyphen /period /slash /zero /one
/two /three /four /five /six
/seven /eight /nine /colon /semicolon
/less /equal /greater /question /at
/A /B /C /D /E
/F /G /H /I /J
/K /L /M /N /O
/P /Q /R /S /T
/U /V /W /X /Y
/Z /bracketleft /backslash /bracketright /asciicircum
/underscore /quoteleft /a /b /c
/d /e /f /g /h
/i /j /k /l /m
/n /o /p /q /r
/s /t /u /v /w
/x /y /z /braceleft /bar
/braceright /asciitilde /bullet /Euro /bullet
/quotesinglbase /florin /quotedblbase /ellipsis /dagger
/daggerdbl /circumflex /perthousand /Scaron /guilsinglleft
/OE /bullet /Zcaron /bullet /bullet
/quoteleft /quoteright /quotedblleft /quotedblright /bullet
/endash /emdash /asciitilde /trademark /scaron
/guilsinglright /oe /bullet /zcaron /Ydieresis
/space /exclamdown /cent /sterling /currency
/yen /brokenbar /section /dieresis /copyright
/ordfeminine /guillemotleft /logicalnot /sfthyphen /registered
/macron /degree /plusminus /twosuperior /threesuperior
/acute /mu /paragraph /middot /cedilla
/onesuperior /ordmasculine /guillemotright /onequarter /onehalf
/threequarters /questiondown /Agrave /Aacute /Acircumflex
/Atilde /Adieresis /Aring /AE /Ccedilla
/Egrave /Eacute /Ecircumflex /Edieresis /Igrave
/Iacute /Icircumflex /Idieresis /Eth /Ntilde
/Ograve /Oacute /Ocircumflex /Otilde /Odieresis
/multiply /Oslash /Ugrave /Uacute /Ucircumflex
/Udieresis /Yacute /Thorn /germandbls /agrave
/aacute /acircumflex /atilde /adieresis /aring
/ae /ccedilla /egrave /eacute /ecircumflex
/edieresis /igrave /iacute /icircumflex /idieresis
/eth /ntilde /ograve /oacute /ocircumflex
/otilde /odieresis /divide /oslash /ugrave
/uacute /ucircumflex /udieresis /yacute /thorn
/ydieresis
] def
%%EndResource
%FOPBeginFontReencode
/Courier-Bold findfont
dup length dict begin
  {1 index /FID ne {def} {pop pop} ifelse} forall
  /Encoding WinAnsiEncoding def
  currentdict
end
/Courier-Bold exch definefont pop
/Helvetica findfont
dup length dict begin
  {1 index /FID ne {def} {pop pop} ifelse} forall
  /Encoding WinAnsiEncoding def
  currentdict
end
/Helvetica exch definefont pop
/Courier-BoldOblique findfont
dup length dict begin
  {1 index /FID ne {def} {pop pop} ifelse} forall
  /Encoding WinAnsiEncoding def
  currentdict
end
/Courier-BoldOblique exch definefont pop
/Courier-Oblique findfont
dup length dict begin
  {1 index /FID ne {def} {pop pop} ifelse} forall
  /Encoding WinAnsiEncoding def
  currentdict
end
/Courier-Oblique exch definefont pop
/Times-Roman findfont
dup length dict begin
  {1 index /FID ne {def} {pop pop} ifelse} forall
  /Encoding WinAnsiEncoding def
  currentdict
end
/Times-Roman exch definefont pop
/Helvetica-BoldOblique findfont
dup length dict begin
  {1 index /FID ne {def} {pop pop} ifelse} forall
  /Encoding WinAnsiEncoding def
  currentdict
end
/Helvetica-BoldOblique exch definefont pop
/Helvetica-Bold findfont
dup length dict begin
  {1 index /FID ne {def} {pop pop} ifelse} forall
  /Encoding WinAnsiEncoding def
  currentdict
end
/Helvetica-Bold exch definefont pop
/Helvetica-Oblique findfont
dup length dict begin
  {1 index /FID ne {def} {pop pop} ifelse} forall
  /Encoding WinAnsiEncoding def
  currentdict
end
/Helvetica-Oblique exch definefont pop
/Times-BoldItalic findfont
dup length dict begin
  {1 index /FID ne {def} {pop pop} ifelse} forall
  /Encoding WinAnsiEncoding def
  currentdict
end
/Times-BoldItalic exch definefont pop
/Courier findfont
dup length dict begin
  {1 index /FID ne {def} {pop pop} ifelse} forall
  /Encoding WinAnsiEncoding def
  currentdict
end
/Courier exch definefont pop
/Times-Italic findfont
dup length dict begin
  {1 index /FID ne {def} {pop pop} ifelse} forall
  /Encoding WinAnsiEncoding def
  currentdict
end
/Times-Italic exch definefont pop
/Times-Bold findfont
dup length dict begin
  {1 index /FID ne {def} {pop pop} ifelse} forall
  /Encoding WinAnsiEncoding def
  currentdict
end
/Times-Bold exch definefont pop
%FOPEndFontReencode
%%EndProlog
%%Page: 1 1
%%PageBoundingBox: 0 0 560 420
%%BeginPageSetup
[1 0 0 -1 0 420] CT
%%EndPageSetup
GS
1 GC
N
0 0 560 420 re
f
GR
GS
1 GC
N
0 0 560 420 re
f
GR
GS
1 GC
N
73 175 M
507 175 L
507 31 L
73 31 L
cp
f
GR
GS
0.873 GC
1 LJ
0.5 LW
N
73 175 M
73 31 L
S
GR
GS
0.873 GC
1 LJ
0.5 LW
N
127.25 175 M
127.25 31 L
S
GR
GS
0.873 GC
1 LJ
0.5 LW
N
181.5 175 M
181.5 31 L
S
GR
GS
0.873 GC
1 LJ
0.5 LW
N
235.75 175 M
235.75 31 L
S
GR
GS
0.873 GC
1 LJ
0.5 LW
N
290 175 M
290 31 L
S
GR
GS
0.873 GC
1 LJ
0.5 LW
N
344.25 175 M
344.25 31 L
S
GR
GS
0.873 GC
1 LJ
0.5 LW
N
398.5 175 M
398.5 31 L
S
GR
GS
0.873 GC
1 LJ
0.5 LW
N
452.75 175 M
452.75 31 L
S
GR
GS
0.873 GC
1 LJ
0.5 LW
N
507 175 M
507 31 L
S
GR
GS
0.873 GC
1 LJ
0.5 LW
N
507 175 M
73 175 L
S
GR
GS
0.873 GC
1 LJ
0.5 LW
N
507 139 M
73 139 L
S
GR
GS
0.873 GC
1 LJ
0.5 LW
N
507 103 M
73 103 L
S
GR
GS
0.873 GC
1 LJ
0.5 LW
N
507 67 M
73 67 L
S
GR
GS
0.873 GC
1 LJ
0.5 LW
N
507 31 M
73 31 L
S
GR
GS
0.149 GC
2 setlinecap
1 LJ
0.5 LW
N
73 175 M
507 175 L
S
GR
GS
0.149 GC
2 setlinecap
1 LJ
0.5 LW
N
73 31 M
507 31 L
S
GR
GS
0.149 GC
2 setlinecap
1 LJ
0.5 LW
N
73 175 M
73 170.66 L
S
GR
GS
0.149 GC
2 setlinecap
1 LJ
0.5 LW
N
127.25 175 M
127.25 170.66 L
S
GR
GS
0.149 GC
2 setlinecap
1 LJ
0.5 LW
N
181.5 175 M
181.5 170.66 L
S
GR
GS
0.149 GC
2 setlinecap
1 LJ
0.5 LW
N
235.75 175 M
235.75 170.66 L
S
GR
GS
0.149 GC
2 setlinecap
1 LJ
0.5 LW
N
290 175 M
290 170.66 L
S
GR
GS
0.149 GC
2 setlinecap
1 LJ
0.5 LW
N
344.25 175 M
344.25 170.66 L
S
GR
GS
0.149 GC
2 setlinecap
1 LJ
0.5 LW
N
398.5 175 M
398.5 170.66 L
S
GR
GS
0.149 GC
2 setlinecap
1 LJ
0.5 LW
N
452.75 175 M
452.75 170.66 L
S
GR
GS
0.149 GC
2 setlinecap
1 LJ
0.5 LW
N
507 175 M
507 170.66 L
S
GR
GS
0.149 GC
2 setlinecap
1 LJ
0.5 LW
N
73 31 M
73 35.34 L
S
GR
GS
0.149 GC
2 setlinecap
1 LJ
0.5 LW
N
127.25 31 M
127.25 35.34 L
S
GR
GS
0.149 GC
2 setlinecap
1 LJ
0.5 LW
N
181.5 31 M
181.5 35.34 L
S
GR
GS
0.149 GC
2 setlinecap
1 LJ
0.5 LW
N
235.75 31 M
235.75 35.34 L
S
GR
GS
0.149 GC
2 setlinecap
1 LJ
0.5 LW
N
290 31 M
290 35.34 L
S
GR
GS
0.149 GC
2 setlinecap
1 LJ
0.5 LW
N
344.25 31 M
344.25 35.34 L
S
GR
GS
0.149 GC
2 setlinecap
1 LJ
0.5 LW
N
398.5 31 M
398.5 35.34 L
S
GR
GS
0.149 GC
2 setlinecap
1 LJ
0.5 LW
N
452.75 31 M
452.75 35.34 L
S
GR
GS
0.149 GC
2 setlinecap
1 LJ
0.5 LW
N
507 31 M
507 35.34 L
S
GR
GS
[1 0 0 1 73 179] CT
0.149 GC
/Helvetica 10 F
GS
[1 0 0 1 0 0] CT
-3 10 moveto 
1 -1 scale
(0) t 
GR
GR
GS
[1 0 0 1 127.25 179] CT
0.149 GC
/Helvetica 10 F
GS
[1 0 0 1 0 0] CT
-3 10 moveto 
1 -1 scale
(5) t 
GR
GR
GS
[1 0 0 1 181.5 179] CT
0.149 GC
/Helvetica 10 F
GS
[1 0 0 1 0 0] CT
-6 10 moveto 
1 -1 scale
(10) t 
GR
GR
GS
[1 0 0 1 235.75 179] CT
0.149 GC
/Helvetica 10 F
GS
[1 0 0 1 0 0] CT
-6 10 moveto 
1 -1 scale
(15) t 
GR
GR
GS
[1 0 0 1 290 179] CT
0.149 GC
/Helvetica 10 F
GS
[1 0 0 1 0 0] CT
-6 10 moveto 
1 -1 scale
(20) t 
GR
GR
GS
[1 0 0 1 344.25 179] CT
0.149 GC
/Helvetica 10 F
GS
[1 0 0 1 0 0] CT
-6 10 moveto 
1 -1 scale
(25) t 
GR
GR
GS
[1 0 0 1 398.5 179] CT
0.149 GC
/Helvetica 10 F
GS
[1 0 0 1 0 0] CT
-6 10 moveto 
1 -1 scale
(30) t 
GR
GR
GS
[1 0 0 1 452.75 179] CT
0.149 GC
/Helvetica 10 F
GS
[1 0 0 1 0 0] CT
-6 10 moveto 
1 -1 scale
(35) t 
GR
GR
GS
[1 0 0 1 507 179] CT
0.149 GC
/Helvetica 10 F
GS
[1 0 0 1 0 0] CT
-6 10 moveto 
1 -1 scale
(40) t 
GR
GR
GS
[1 0 0 1 290.00021 193] CT
0.149 GC
/Helvetica-Bold 12 F
GS
[1 0 0 1 0 0] CT
-82 12 moveto 
1 -1 scale
(Camera rotation \(in degrees\)) t 
GR
GR
GS
0.149 GC
2 setlinecap
1 LJ
0.5 LW
N
73 175 M
73 31 L
S
GR
GS
0.149 GC
2 setlinecap
1 LJ
0.5 LW
N
507 175 M
507 31 L
S
GR
GS
0.149 GC
2 setlinecap
1 LJ
0.5 LW
N
73 175 M
77.34 175 L
S
GR
GS
0.149 GC
2 setlinecap
1 LJ
0.5 LW
N
73 139 M
77.34 139 L
S
GR
GS
0.149 GC
2 setlinecap
1 LJ
0.5 LW
N
73 103 M
77.34 103 L
S
GR
GS
0.149 GC
2 setlinecap
1 LJ
0.5 LW
N
73 67 M
77.34 67 L
S
GR
GS
0.149 GC
2 setlinecap
1 LJ
0.5 LW
N
73 31 M
77.34 31 L
S
GR
GS
0.149 GC
2 setlinecap
1 LJ
0.5 LW
N
507 175 M
502.66 175 L
S
GR
GS
0.149 GC
2 setlinecap
1 LJ
0.5 LW
N
507 139 M
502.66 139 L
S
GR
GS
0.149 GC
2 setlinecap
1 LJ
0.5 LW
N
507 103 M
502.66 103 L
S
GR
GS
0.149 GC
2 setlinecap
1 LJ
0.5 LW
N
507 67 M
502.66 67 L
S
GR
GS
0.149 GC
2 setlinecap
1 LJ
0.5 LW
N
507 31 M
502.66 31 L
S
GR
GS
[1 0 0 1 69 175] CT
0.149 GC
/Helvetica 10 F
GS
[1 0 0 1 0 0] CT
-6 3.5 moveto 
1 -1 scale
(0) t 
GR
GR
GS
[1 0 0 1 69 139] CT
0.149 GC
/Helvetica 10 F
GS
[1 0 0 1 0 0] CT
-6 3.5 moveto 
1 -1 scale
(2) t 
GR
GR
GS
[1 0 0 1 69 103] CT
0.149 GC
/Helvetica 10 F
GS
[1 0 0 1 0 0] CT
-6 3.5 moveto 
1 -1 scale
(4) t 
GR
GR
GS
[1 0 0 1 69 67] CT
0.149 GC
/Helvetica 10 F
GS
[1 0 0 1 0 0] CT
-6 3.5 moveto 
1 -1 scale
(6) t 
GR
GR
GS
[1 0 0 1 69 31] CT
0.149 GC
/Helvetica 10 F
GS
[1 0 0 1 0 0] CT
-6 3.5 moveto 
1 -1 scale
(8) t 
GR
GR
GS
[0 -1 1 0 60 102.99993] CT
0.149 GC
/Helvetica-Bold 12 F
GS
[1 0 0 1 0 0] CT
-56 -3 moveto 
1 -1 scale
(Depth error \(in mm\)) t 
GR
GR
GS
[1 0 0 1 73 175] CT
0 0 1 RC
N
2.667 0 M
2.667 1.473 1.473 2.667 0 2.667 C
-1.473 2.667 -2.667 1.473 -2.667 0 C
-2.667 -1.473 -1.473 -2.667 0 -2.667 C
1.473 -2.667 2.667 -1.473 2.667 0 C
cp
f
GR
GS
[1 0 0 1 83.85 165.8913] CT
0 0 1 RC
N
2.667 0 M
2.667 1.473 1.473 2.667 0 2.667 C
-1.473 2.667 -2.667 1.473 -2.667 0 C
-2.667 -1.473 -1.473 -2.667 0 -2.667 C
1.473 -2.667 2.667 -1.473 2.667 0 C
cp
f
GR
GS
[1 0 0 1 94.7 157.71109] CT
0 0 1 RC
N
2.667 0 M
2.667 1.473 1.473 2.667 0 2.667 C
-1.473 2.667 -2.667 1.473 -2.667 0 C
-2.667 -1.473 -1.473 -2.667 0 -2.667 C
1.473 -2.667 2.667 -1.473 2.667 0 C
cp
f
GR
GS
[1 0 0 1 105.55 149.71162] CT
0 0 1 RC
N
2.667 0 M
2.667 1.473 1.473 2.667 0 2.667 C
-1.473 2.667 -2.667 1.473 -2.667 0 C
-2.667 -1.473 -1.473 -2.667 0 -2.667 C
1.473 -2.667 2.667 -1.473 2.667 0 C
cp
f
GR
GS
[1 0 0 1 116.4 142.96632] CT
0 0 1 RC
N
2.667 0 M
2.667 1.473 1.473 2.667 0 2.667 C
-1.473 2.667 -2.667 1.473 -2.667 0 C
-2.667 -1.473 -1.473 -2.667 0 -2.667 C
1.473 -2.667 2.667 -1.473 2.667 0 C
cp
f
GR
GS
[1 0 0 1 127.25 135.02176] CT
0 0 1 RC
N
2.667 0 M
2.667 1.473 1.473 2.667 0 2.667 C
-1.473 2.667 -2.667 1.473 -2.667 0 C
-2.667 -1.473 -1.473 -2.667 0 -2.667 C
1.473 -2.667 2.667 -1.473 2.667 0 C
cp
f
GR
GS
[1 0 0 1 138.10001 129.80026] CT
0 0 1 RC
N
2.667 0 M
2.667 1.473 1.473 2.667 0 2.667 C
-1.473 2.667 -2.667 1.473 -2.667 0 C
-2.667 -1.473 -1.473 -2.667 0 -2.667 C
1.473 -2.667 2.667 -1.473 2.667 0 C
cp
f
GR
GS
[1 0 0 1 148.95 122.90493] CT
0 0 1 RC
N
2.667 0 M
2.667 1.473 1.473 2.667 0 2.667 C
-1.473 2.667 -2.667 1.473 -2.667 0 C
-2.667 -1.473 -1.473 -2.667 0 -2.667 C
1.473 -2.667 2.667 -1.473 2.667 0 C
cp
f
GR
GS
[1 0 0 1 159.8 118.48223] CT
0 0 1 RC
N
2.667 0 M
2.667 1.473 1.473 2.667 0 2.667 C
-1.473 2.667 -2.667 1.473 -2.667 0 C
-2.667 -1.473 -1.473 -2.667 0 -2.667 C
1.473 -2.667 2.667 -1.473 2.667 0 C
cp
f
GR
GS
[1 0 0 1 170.64999 113.69283] CT
0 0 1 RC
N
2.667 0 M
2.667 1.473 1.473 2.667 0 2.667 C
-1.473 2.667 -2.667 1.473 -2.667 0 C
-2.667 -1.473 -1.473 -2.667 0 -2.667 C
1.473 -2.667 2.667 -1.473 2.667 0 C
cp
f
GR
GS
[1 0 0 1 181.5 106.80682] CT
0 0 1 RC
N
2.667 0 M
2.667 1.473 1.473 2.667 0 2.667 C
-1.473 2.667 -2.667 1.473 -2.667 0 C
-2.667 -1.473 -1.473 -2.667 0 -2.667 C
1.473 -2.667 2.667 -1.473 2.667 0 C
cp
f
GR
GS
[1 0 0 1 192.35001 102.92037] CT
0 0 1 RC
N
2.667 0 M
2.667 1.473 1.473 2.667 0 2.667 C
-1.473 2.667 -2.667 1.473 -2.667 0 C
-2.667 -1.473 -1.473 -2.667 0 -2.667 C
1.473 -2.667 2.667 -1.473 2.667 0 C
cp
f
GR
GS
[1 0 0 1 203.2 98.694] CT
0 0 1 RC
N
2.667 0 M
2.667 1.473 1.473 2.667 0 2.667 C
-1.473 2.667 -2.667 1.473 -2.667 0 C
-2.667 -1.473 -1.473 -2.667 0 -2.667 C
1.473 -2.667 2.667 -1.473 2.667 0 C
cp
f
GR
GS
[1 0 0 1 214.05 94.70644] CT
0 0 1 RC
N
2.667 0 M
2.667 1.473 1.473 2.667 0 2.667 C
-1.473 2.667 -2.667 1.473 -2.667 0 C
-2.667 -1.473 -1.473 -2.667 0 -2.667 C
1.473 -2.667 2.667 -1.473 2.667 0 C
cp
f
GR
GS
[1 0 0 1 224.89999 89.7355] CT
0 0 1 RC
N
2.667 0 M
2.667 1.473 1.473 2.667 0 2.667 C
-1.473 2.667 -2.667 1.473 -2.667 0 C
-2.667 -1.473 -1.473 -2.667 0 -2.667 C
1.473 -2.667 2.667 -1.473 2.667 0 C
cp
f
GR
GS
[1 0 0 1 235.75 85.36018] CT
0 0 1 RC
N
2.667 0 M
2.667 1.473 1.473 2.667 0 2.667 C
-1.473 2.667 -2.667 1.473 -2.667 0 C
-2.667 -1.473 -1.473 -2.667 0 -2.667 C
1.473 -2.667 2.667 -1.473 2.667 0 C
cp
f
GR
GS
[1 0 0 1 246.60001 82.8213] CT
0 0 1 RC
N
2.667 0 M
2.667 1.473 1.473 2.667 0 2.667 C
-1.473 2.667 -2.667 1.473 -2.667 0 C
-2.667 -1.473 -1.473 -2.667 0 -2.667 C
1.473 -2.667 2.667 -1.473 2.667 0 C
cp
f
GR
GS
[1 0 0 1 257.45001 79.02088] CT
0 0 1 RC
N
2.667 0 M
2.667 1.473 1.473 2.667 0 2.667 C
-1.473 2.667 -2.667 1.473 -2.667 0 C
-2.667 -1.473 -1.473 -2.667 0 -2.667 C
1.473 -2.667 2.667 -1.473 2.667 0 C
cp
f
GR
GS
[1 0 0 1 268.29999 77.92699] CT
0 0 1 RC
N
2.667 0 M
2.667 1.473 1.473 2.667 0 2.667 C
-1.473 2.667 -2.667 1.473 -2.667 0 C
-2.667 -1.473 -1.473 -2.667 0 -2.667 C
1.473 -2.667 2.667 -1.473 2.667 0 C
cp
f
GR
GS
[1 0 0 1 279.14999 69.82182] CT
0 0 1 RC
N
2.667 0 M
2.667 1.473 1.473 2.667 0 2.667 C
-1.473 2.667 -2.667 1.473 -2.667 0 C
-2.667 -1.473 -1.473 -2.667 0 -2.667 C
1.473 -2.667 2.667 -1.473 2.667 0 C
cp
f
GR
GS
[1 0 0 1 290 72.81354] CT
0 0 1 RC
N
2.667 0 M
2.667 1.473 1.473 2.667 0 2.667 C
-1.473 2.667 -2.667 1.473 -2.667 0 C
-2.667 -1.473 -1.473 -2.667 0 -2.667 C
1.473 -2.667 2.667 -1.473 2.667 0 C
cp
f
GR
GS
[1 0 0 1 300.85001 68.27621] CT
0 0 1 RC
N
2.667 0 M
2.667 1.473 1.473 2.667 0 2.667 C
-1.473 2.667 -2.667 1.473 -2.667 0 C
-2.667 -1.473 -1.473 -2.667 0 -2.667 C
1.473 -2.667 2.667 -1.473 2.667 0 C
cp
f
GR
GS
[1 0 0 1 311.70001 65.26162] CT
0 0 1 RC
N
2.667 0 M
2.667 1.473 1.473 2.667 0 2.667 C
-1.473 2.667 -2.667 1.473 -2.667 0 C
-2.667 -1.473 -1.473 -2.667 0 -2.667 C
1.473 -2.667 2.667 -1.473 2.667 0 C
cp
f
GR
GS
[1 0 0 1 322.54999 63.36164] CT
0 0 1 RC
N
2.667 0 M
2.667 1.473 1.473 2.667 0 2.667 C
-1.473 2.667 -2.667 1.473 -2.667 0 C
-2.667 -1.473 -1.473 -2.667 0 -2.667 C
1.473 -2.667 2.667 -1.473 2.667 0 C
cp
f
GR
GS
[1 0 0 1 333.39999 60.92871] CT
0 0 1 RC
N
2.667 0 M
2.667 1.473 1.473 2.667 0 2.667 C
-1.473 2.667 -2.667 1.473 -2.667 0 C
-2.667 -1.473 -1.473 -2.667 0 -2.667 C
1.473 -2.667 2.667 -1.473 2.667 0 C
cp
f
GR
GS
[1 0 0 1 344.25 60.01506] CT
0 0 1 RC
N
2.667 0 M
2.667 1.473 1.473 2.667 0 2.667 C
-1.473 2.667 -2.667 1.473 -2.667 0 C
-2.667 -1.473 -1.473 -2.667 0 -2.667 C
1.473 -2.667 2.667 -1.473 2.667 0 C
cp
f
GR
GS
[1 0 0 1 355.10001 60.13274] CT
0 0 1 RC
N
2.667 0 M
2.667 1.473 1.473 2.667 0 2.667 C
-1.473 2.667 -2.667 1.473 -2.667 0 C
-2.667 -1.473 -1.473 -2.667 0 -2.667 C
1.473 -2.667 2.667 -1.473 2.667 0 C
cp
f
GR
GS
[1 0 0 1 365.95001 54.43415] CT
0 0 1 RC
N
2.667 0 M
2.667 1.473 1.473 2.667 0 2.667 C
-1.473 2.667 -2.667 1.473 -2.667 0 C
-2.667 -1.473 -1.473 -2.667 0 -2.667 C
1.473 -2.667 2.667 -1.473 2.667 0 C
cp
f
GR
GS
[1 0 0 1 376.79999 56.08449] CT
0 0 1 RC
N
2.667 0 M
2.667 1.473 1.473 2.667 0 2.667 C
-1.473 2.667 -2.667 1.473 -2.667 0 C
-2.667 -1.473 -1.473 -2.667 0 -2.667 C
1.473 -2.667 2.667 -1.473 2.667 0 C
cp
f
GR
GS
[1 0 0 1 387.64999 54.99506] CT
0 0 1 RC
N
2.667 0 M
2.667 1.473 1.473 2.667 0 2.667 C
-1.473 2.667 -2.667 1.473 -2.667 0 C
-2.667 -1.473 -1.473 -2.667 0 -2.667 C
1.473 -2.667 2.667 -1.473 2.667 0 C
cp
f
GR
GS
[1 0 0 1 398.5 50.04009] CT
0 0 1 RC
N
2.667 0 M
2.667 1.473 1.473 2.667 0 2.667 C
-1.473 2.667 -2.667 1.473 -2.667 0 C
-2.667 -1.473 -1.473 -2.667 0 -2.667 C
1.473 -2.667 2.667 -1.473 2.667 0 C
cp
f
GR
GS
[1 0 0 1 409.35001 48.84829] CT
0 0 1 RC
N
2.667 0 M
2.667 1.473 1.473 2.667 0 2.667 C
-1.473 2.667 -2.667 1.473 -2.667 0 C
-2.667 -1.473 -1.473 -2.667 0 -2.667 C
1.473 -2.667 2.667 -1.473 2.667 0 C
cp
f
GR
GS
[1 0 0 1 420.20001 48.52396] CT
0 0 1 RC
N
2.667 0 M
2.667 1.473 1.473 2.667 0 2.667 C
-1.473 2.667 -2.667 1.473 -2.667 0 C
-2.667 -1.473 -1.473 -2.667 0 -2.667 C
1.473 -2.667 2.667 -1.473 2.667 0 C
cp
f
GR
GS
[1 0 0 1 431.04999 45.60184] CT
0 0 1 RC
N
2.667 0 M
2.667 1.473 1.473 2.667 0 2.667 C
-1.473 2.667 -2.667 1.473 -2.667 0 C
-2.667 -1.473 -1.473 -2.667 0 -2.667 C
1.473 -2.667 2.667 -1.473 2.667 0 C
cp
f
GR
GS
[1 0 0 1 441.89999 43.70293] CT
0 0 1 RC
N
2.667 0 M
2.667 1.473 1.473 2.667 0 2.667 C
-1.473 2.667 -2.667 1.473 -2.667 0 C
-2.667 -1.473 -1.473 -2.667 0 -2.667 C
1.473 -2.667 2.667 -1.473 2.667 0 C
cp
f
GR
GS
[1 0 0 1 452.75 44.60429] CT
0 0 1 RC
N
2.667 0 M
2.667 1.473 1.473 2.667 0 2.667 C
-1.473 2.667 -2.667 1.473 -2.667 0 C
-2.667 -1.473 -1.473 -2.667 0 -2.667 C
1.473 -2.667 2.667 -1.473 2.667 0 C
cp
f
GR
GS
[1 0 0 1 463.60001 44.48473] CT
0 0 1 RC
N
2.667 0 M
2.667 1.473 1.473 2.667 0 2.667 C
-1.473 2.667 -2.667 1.473 -2.667 0 C
-2.667 -1.473 -1.473 -2.667 0 -2.667 C
1.473 -2.667 2.667 -1.473 2.667 0 C
cp
f
GR
GS
[1 0 0 1 474.45001 46.34787] CT
0 0 1 RC
N
2.667 0 M
2.667 1.473 1.473 2.667 0 2.667 C
-1.473 2.667 -2.667 1.473 -2.667 0 C
-2.667 -1.473 -1.473 -2.667 0 -2.667 C
1.473 -2.667 2.667 -1.473 2.667 0 C
cp
f
GR
GS
[1 0 0 1 485.29999 43.69294] CT
0 0 1 RC
N
2.667 0 M
2.667 1.473 1.473 2.667 0 2.667 C
-1.473 2.667 -2.667 1.473 -2.667 0 C
-2.667 -1.473 -1.473 -2.667 0 -2.667 C
1.473 -2.667 2.667 -1.473 2.667 0 C
cp
f
GR
GS
[1 0 0 1 496.14999 43.88909] CT
0 0 1 RC
N
2.667 0 M
2.667 1.473 1.473 2.667 0 2.667 C
-1.473 2.667 -2.667 1.473 -2.667 0 C
-2.667 -1.473 -1.473 -2.667 0 -2.667 C
1.473 -2.667 2.667 -1.473 2.667 0 C
cp
f
GR
GS
[1 0 0 1 507 44.04942] CT
0 0 1 RC
N
2.667 0 M
2.667 1.473 1.473 2.667 0 2.667 C
-1.473 2.667 -2.667 1.473 -2.667 0 C
-2.667 -1.473 -1.473 -2.667 0 -2.667 C
1.473 -2.667 2.667 -1.473 2.667 0 C
cp
f
GR
GS
1 0 0 RC
1 LJ
N
73 167.318 M
73.434 167.051 L
73.868 166.785 L
74.302 166.52 L
74.736 166.254 L
75.17 165.989 L
75.604 165.724 L
76.038 165.46 L
76.472 165.195 L
76.906 164.931 L
77.34 164.668 L
77.774 164.404 L
78.208 164.141 L
78.642 163.878 L
79.076 163.616 L
79.51 163.354 L
79.944 163.092 L
80.378 162.83 L
80.812 162.569 L
81.246 162.308 L
81.68 162.047 L
82.114 161.786 L
82.548 161.526 L
82.982 161.266 L
83.416 161.007 L
83.85 160.747 L
84.284 160.488 L
84.718 160.23 L
85.152 159.971 L
85.586 159.713 L
86.02 159.455 L
86.454 159.198 L
86.888 158.94 L
87.322 158.683 L
87.756 158.427 L
88.19 158.17 L
88.624 157.914 L
89.058 157.658 L
89.492 157.403 L
89.926 157.147 L
90.36 156.893 L
90.794 156.638 L
91.228 156.383 L
91.662 156.129 L
92.096 155.876 L
92.53 155.622 L
92.964 155.369 L
93.398 155.116 L
93.832 154.863 L
94.266 154.611 L
94.7 154.359 L
95.134 154.107 L
95.568 153.856 L
96.002 153.604 L
96.436 153.354 L
96.87 153.103 L
97.304 152.853 L
97.738 152.603 L
98.172 152.353 L
98.606 152.103 L
99.04 151.854 L
99.474 151.605 L
99.908 151.357 L
100.342 151.109 L
100.776 150.861 L
101.21 150.613 L
101.644 150.365 L
102.078 150.118 L
102.512 149.872 L
102.946 149.625 L
103.38 149.379 L
103.814 149.133 L
104.248 148.887 L
104.682 148.642 L
105.116 148.397 L
105.55 148.152 L
105.984 147.907 L
106.418 147.663 L
106.852 147.419 L
107.286 147.176 L
107.72 146.932 L
108.154 146.689 L
108.588 146.447 L
109.022 146.204 L
109.456 145.962 L
109.89 145.72 L
110.324 145.478 L
110.758 145.237 L
111.192 144.996 L
111.626 144.755 L
112.06 144.515 L
112.494 144.275 L
112.928 144.035 L
113.362 143.795 L
113.796 143.556 L
114.23 143.317 L
114.664 143.078 L
115.098 142.84 L
115.532 142.602 L
115.966 142.364 L
116.4 142.127 L
116.834 141.889 L
117.268 141.652 L
117.702 141.416 L
118.136 141.179 L
118.57 140.943 L
119.004 140.707 L
119.438 140.472 L
119.872 140.237 L
120.306 140.002 L
120.74 139.767 L
121.174 139.533 L
121.608 139.299 L
122.042 139.065 L
122.476 138.832 L
122.91 138.599 L
123.344 138.366 L
123.778 138.133 L
124.212 137.901 L
124.646 137.669 L
125.08 137.437 L
125.514 137.206 L
125.948 136.974 L
126.382 136.744 L
126.816 136.513 L
127.25 136.283 L
127.684 136.053 L
128.118 135.823 L
128.552 135.594 L
128.986 135.365 L
129.42 135.136 L
129.854 134.907 L
130.288 134.679 L
130.722 134.451 L
131.156 134.223 L
131.59 133.996 L
132.024 133.769 L
132.458 133.542 L
132.892 133.316 L
133.326 133.09 L
133.76 132.864 L
134.194 132.638 L
134.628 132.413 L
135.062 132.188 L
135.496 131.963 L
135.93 131.739 L
136.364 131.514 L
136.798 131.29 L
137.232 131.067 L
137.666 130.844 L
138.1 130.621 L
138.534 130.398 L
138.968 130.176 L
139.402 129.953 L
139.836 129.732 L
140.27 129.51 L
140.704 129.289 L
141.138 129.068 L
141.572 128.847 L
142.006 128.627 L
142.44 128.407 L
142.874 128.187 L
143.308 127.967 L
143.742 127.748 L
144.176 127.529 L
144.61 127.31 L
145.044 127.092 L
145.478 126.874 L
145.912 126.656 L
146.346 126.439 L
146.78 126.222 L
147.214 126.005 L
147.648 125.788 L
148.082 125.572 L
148.516 125.356 L
148.95 125.14 L
149.384 124.925 L
149.818 124.709 L
150.252 124.495 L
150.686 124.28 L
151.12 124.066 L
151.554 123.852 L
151.988 123.638 L
152.422 123.425 L
152.856 123.212 L
153.29 122.999 L
153.724 122.786 L
154.158 122.574 L
154.592 122.362 L
155.026 122.15 L
155.46 121.939 L
155.894 121.728 L
156.328 121.517 L
156.762 121.306 L
157.196 121.096 L
157.63 120.886 L
158.064 120.677 L
158.498 120.467 L
158.932 120.258 L
159.366 120.05 L
159.8 119.841 L
160.234 119.633 L
160.668 119.425 L
161.102 119.217 L
161.536 119.01 L
161.97 118.803 L
162.404 118.596 L
162.838 118.39 L
163.272 118.184 L
163.706 117.978 L
164.14 117.772 L
164.574 117.567 L
165.008 117.362 L
165.442 117.157 L
165.876 116.953 L
166.31 116.749 L
166.744 116.545 L
167.178 116.342 L
167.612 116.138 L
168.046 115.935 L
168.48 115.733 L
168.914 115.53 L
169.348 115.328 L
169.782 115.126 L
170.216 114.925 L
170.65 114.724 L
171.084 114.523 L
171.518 114.322 L
171.952 114.122 L
172.386 113.922 L
172.82 113.722 L
173.254 113.523 L
173.688 113.323 L
174.122 113.125 L
174.556 112.926 L
174.99 112.728 L
175.424 112.53 L
175.858 112.332 L
176.292 112.134 L
176.726 111.937 L
177.16 111.74 L
177.594 111.544 L
178.028 111.348 L
178.462 111.152 L
178.896 110.956 L
179.33 110.761 L
179.764 110.565 L
180.198 110.371 L
180.632 110.176 L
181.066 109.982 L
181.5 109.788 L
181.934 109.594 L
182.368 109.401 L
182.802 109.208 L
183.236 109.015 L
183.67 108.823 L
184.104 108.63 L
184.538 108.438 L
184.972 108.247 L
185.406 108.056 L
185.84 107.864 L
186.274 107.674 L
186.708 107.483 L
187.142 107.293 L
187.576 107.103 L
188.01 106.914 L
188.444 106.724 L
188.878 106.535 L
189.312 106.347 L
189.746 106.158 L
190.18 105.97 L
190.614 105.782 L
191.048 105.595 L
191.482 105.407 L
191.916 105.22 L
192.35 105.034 L
192.784 104.847 L
193.218 104.661 L
193.652 104.475 L
194.086 104.29 L
194.52 104.105 L
194.954 103.92 L
195.388 103.735 L
195.822 103.551 L
196.256 103.367 L
196.69 103.183 L
197.124 102.999 L
197.558 102.816 L
197.992 102.633 L
198.426 102.451 L
198.86 102.268 L
199.294 102.086 L
199.728 101.905 L
200.162 101.723 L
200.596 101.542 L
201.03 101.361 L
201.464 101.181 L
201.898 101 L
202.332 100.82 L
202.766 100.641 L
203.2 100.461 L
203.634 100.282 L
204.068 100.103 L
204.502 99.925 L
204.936 99.746 L
205.37 99.568 L
205.804 99.391 L
206.238 99.213 L
206.672 99.036 L
207.106 98.859 L
207.54 98.683 L
207.974 98.507 L
208.408 98.331 L
208.842 98.155 L
209.276 97.98 L
209.71 97.805 L
210.144 97.63 L
210.578 97.456 L
211.012 97.281 L
211.446 97.107 L
211.88 96.934 L
212.314 96.761 L
212.748 96.587 L
213.182 96.415 L
213.616 96.242 L
214.05 96.07 L
214.484 95.898 L
214.918 95.727 L
215.352 95.555 L
215.786 95.384 L
216.22 95.214 L
216.654 95.043 L
217.088 94.873 L
217.522 94.703 L
217.956 94.534 L
218.39 94.365 L
218.824 94.196 L
219.258 94.027 L
219.692 93.859 L
220.126 93.691 L
220.56 93.523 L
220.994 93.355 L
221.428 93.188 L
221.862 93.021 L
222.296 92.854 L
222.73 92.688 L
223.164 92.522 L
223.598 92.356 L
224.032 92.191 L
224.466 92.026 L
224.9 91.861 L
225.334 91.696 L
225.768 91.532 L
226.202 91.368 L
226.636 91.204 L
227.07 91.041 L
227.504 90.878 L
227.938 90.715 L
228.372 90.552 L
228.806 90.39 L
229.24 90.228 L
229.674 90.066 L
230.108 89.905 L
230.542 89.744 L
230.976 89.583 L
231.41 89.422 L
231.844 89.262 L
232.278 89.102 L
232.712 88.942 L
233.146 88.783 L
233.58 88.624 L
234.014 88.465 L
234.448 88.307 L
234.882 88.149 L
235.316 87.991 L
235.75 87.833 L
236.184 87.676 L
236.618 87.519 L
237.052 87.362 L
237.486 87.205 L
237.92 87.049 L
238.354 86.893 L
238.788 86.738 L
239.222 86.582 L
239.656 86.427 L
240.09 86.273 L
240.524 86.118 L
240.958 85.964 L
241.392 85.81 L
241.826 85.657 L
242.26 85.503 L
242.694 85.35 L
243.128 85.198 L
243.562 85.045 L
243.996 84.893 L
244.43 84.741 L
244.864 84.59 L
245.298 84.439 L
245.732 84.288 L
246.166 84.137 L
246.6 83.987 L
247.034 83.837 L
247.468 83.687 L
247.902 83.537 L
248.336 83.388 L
248.77 83.239 L
249.204 83.091 L
249.638 82.942 L
250.072 82.794 L
250.506 82.647 L
250.94 82.499 L
251.374 82.352 L
251.808 82.205 L
252.242 82.059 L
252.676 81.912 L
253.11 81.766 L
253.544 81.621 L
253.978 81.475 L
254.412 81.33 L
254.846 81.185 L
255.28 81.041 L
255.714 80.896 L
256.148 80.752 L
256.582 80.609 L
257.016 80.465 L
257.45 80.322 L
257.884 80.179 L
258.318 80.037 L
258.752 79.895 L
259.186 79.753 L
259.62 79.611 L
260.054 79.47 L
260.488 79.329 L
260.922 79.188 L
261.356 79.047 L
261.79 78.907 L
262.224 78.767 L
262.658 78.628 L
263.092 78.488 L
263.526 78.349 L
263.96 78.211 L
264.394 78.072 L
264.828 77.934 L
265.262 77.796 L
265.696 77.659 L
266.13 77.521 L
266.564 77.384 L
266.998 77.248 L
267.432 77.111 L
267.866 76.975 L
268.3 76.839 L
268.734 76.704 L
269.168 76.568 L
269.602 76.433 L
270.036 76.299 L
270.47 76.164 L
270.904 76.03 L
271.338 75.896 L
271.772 75.763 L
272.206 75.63 L
272.64 75.497 L
273.074 75.364 L
273.508 75.232 L
273.942 75.1 L
274.376 74.968 L
274.81 74.837 L
275.244 74.705 L
275.678 74.574 L
276.112 74.444 L
276.546 74.314 L
276.98 74.183 L
277.414 74.054 L
277.848 73.924 L
278.282 73.795 L
278.716 73.666 L
279.15 73.538 L
279.584 73.409 L
280.018 73.281 L
280.452 73.154 L
280.886 73.026 L
281.32 72.899 L
281.754 72.772 L
282.188 72.646 L
282.622 72.52 L
283.056 72.394 L
283.49 72.268 L
283.924 72.143 L
284.358 72.018 L
284.792 71.893 L
285.226 71.768 L
285.66 71.644 L
286.094 71.52 L
286.528 71.397 L
286.962 71.273 L
287.396 71.15 L
287.83 71.027 L
288.264 70.905 L
288.698 70.783 L
289.132 70.661 L
289.566 70.539 L
290 70.418 L
290.434 70.297 L
290.868 70.176 L
291.302 70.056 L
291.736 69.936 L
292.17 69.816 L
292.604 69.696 L
293.038 69.577 L
293.472 69.458 L
293.906 69.339 L
294.34 69.221 L
294.774 69.103 L
295.208 68.985 L
295.642 68.867 L
296.076 68.75 L
296.51 68.633 L
296.944 68.517 L
297.378 68.4 L
297.812 68.284 L
298.246 68.168 L
298.68 68.053 L
299.114 67.938 L
299.548 67.823 L
299.982 67.708 L
300.416 67.594 L
300.85 67.48 L
301.284 67.366 L
301.718 67.252 L
302.152 67.139 L
302.586 67.026 L
303.02 66.914 L
303.454 66.802 L
303.888 66.69 L
304.322 66.578 L
304.756 66.466 L
305.19 66.355 L
305.624 66.244 L
306.058 66.134 L
306.492 66.024 L
306.926 65.914 L
307.36 65.804 L
307.794 65.695 L
308.228 65.585 L
308.662 65.477 L
309.096 65.368 L
309.53 65.26 L
309.964 65.152 L
310.398 65.044 L
310.832 64.937 L
311.266 64.83 L
311.7 64.723 L
312.134 64.617 L
312.568 64.51 L
313.002 64.404 L
313.436 64.299 L
313.87 64.194 L
314.304 64.089 L
314.738 63.984 L
315.172 63.879 L
315.606 63.775 L
316.04 63.671 L
316.474 63.568 L
316.908 63.464 L
317.342 63.361 L
317.776 63.259 L
318.21 63.156 L
318.644 63.054 L
319.078 62.952 L
319.512 62.851 L
319.946 62.749 L
320.38 62.649 L
320.814 62.548 L
321.248 62.447 L
321.682 62.347 L
322.116 62.248 L
322.55 62.148 L
322.984 62.049 L
323.418 61.95 L
323.852 61.851 L
324.286 61.753 L
324.72 61.655 L
325.154 61.557 L
325.588 61.46 L
326.022 61.362 L
326.456 61.265 L
326.89 61.169 L
327.324 61.073 L
327.758 60.977 L
328.192 60.881 L
328.626 60.785 L
329.06 60.69 L
329.494 60.595 L
329.928 60.501 L
330.362 60.406 L
330.796 60.312 L
331.23 60.219 L
331.664 60.125 L
332.098 60.032 L
332.532 59.939 L
332.966 59.847 L
333.4 59.755 L
333.834 59.663 L
334.268 59.571 L
334.702 59.48 L
335.136 59.389 L
335.57 59.298 L
336.004 59.207 L
336.438 59.117 L
336.872 59.027 L
337.306 58.937 L
337.74 58.848 L
338.174 58.759 L
338.608 58.67 L
339.042 58.582 L
339.476 58.494 L
339.91 58.406 L
340.344 58.318 L
340.778 58.231 L
341.212 58.144 L
341.646 58.057 L
342.08 57.971 L
342.514 57.884 L
342.948 57.799 L
343.382 57.713 L
343.816 57.628 L
344.25 57.543 L
344.684 57.458 L
345.118 57.374 L
345.552 57.29 L
345.986 57.206 L
346.42 57.122 L
346.854 57.039 L
347.288 56.956 L
347.722 56.873 L
348.156 56.791 L
348.59 56.709 L
349.024 56.627 L
349.458 56.546 L
349.892 56.464 L
350.326 56.383 L
350.76 56.303 L
351.194 56.223 L
351.628 56.142 L
352.062 56.063 L
352.496 55.983 L
352.93 55.904 L
353.364 55.825 L
353.798 55.747 L
354.232 55.668 L
354.666 55.59 L
355.1 55.513 L
355.534 55.435 L
355.968 55.358 L
356.402 55.281 L
356.836 55.205 L
357.27 55.128 L
357.704 55.052 L
358.138 54.977 L
358.572 54.901 L
359.006 54.826 L
359.44 54.751 L
359.874 54.677 L
360.308 54.603 L
360.742 54.529 L
361.176 54.455 L
361.61 54.382 L
362.044 54.308 L
362.478 54.236 L
362.912 54.163 L
363.346 54.091 L
363.78 54.019 L
364.214 53.947 L
364.648 53.876 L
365.082 53.805 L
365.516 53.734 L
365.95 53.664 L
366.384 53.594 L
366.818 53.524 L
367.252 53.454 L
367.686 53.385 L
368.12 53.316 L
368.554 53.247 L
368.988 53.179 L
369.422 53.111 L
369.856 53.043 L
370.29 52.975 L
370.724 52.908 L
371.158 52.841 L
371.592 52.774 L
372.026 52.708 L
372.46 52.642 L
372.894 52.576 L
373.328 52.511 L
373.762 52.445 L
374.196 52.38 L
374.63 52.316 L
375.064 52.251 L
375.498 52.187 L
375.932 52.124 L
376.366 52.06 L
376.8 51.997 L
377.234 51.934 L
377.668 51.871 L
378.102 51.809 L
378.536 51.747 L
378.97 51.685 L
379.404 51.624 L
379.838 51.563 L
380.272 51.502 L
380.706 51.441 L
381.14 51.381 L
381.574 51.321 L
382.008 51.261 L
382.442 51.202 L
382.876 51.143 L
383.31 51.084 L
383.744 51.025 L
384.178 50.967 L
384.612 50.909 L
385.046 50.851 L
385.48 50.794 L
385.914 50.737 L
386.348 50.68 L
386.782 50.624 L
387.216 50.567 L
387.65 50.511 L
388.084 50.456 L
388.518 50.4 L
388.952 50.345 L
389.386 50.291 L
389.82 50.236 L
390.254 50.182 L
390.688 50.128 L
391.122 50.074 L
391.556 50.021 L
391.99 49.968 L
392.424 49.915 L
392.858 49.863 L
393.292 49.811 L
393.726 49.759 L
394.16 49.707 L
394.594 49.656 L
395.028 49.605 L
395.462 49.554 L
395.896 49.504 L
396.33 49.454 L
396.764 49.404 L
397.198 49.354 L
397.632 49.305 L
398.066 49.256 L
398.5 49.208 L
398.934 49.159 L
399.368 49.111 L
399.802 49.063 L
400.236 49.016 L
400.67 48.969 L
401.104 48.922 L
401.538 48.875 L
401.972 48.829 L
402.406 48.783 L
402.84 48.737 L
403.274 48.691 L
403.708 48.646 L
404.142 48.601 L
404.576 48.557 L
405.01 48.512 L
405.444 48.468 L
405.878 48.425 L
406.312 48.381 L
406.746 48.338 L
407.18 48.295 L
407.614 48.253 L
408.048 48.21 L
408.482 48.168 L
408.916 48.127 L
409.35 48.085 L
409.784 48.044 L
410.218 48.003 L
410.652 47.963 L
411.086 47.923 L
411.52 47.883 L
411.954 47.843 L
412.388 47.804 L
412.822 47.765 L
413.256 47.726 L
413.69 47.687 L
414.124 47.649 L
414.558 47.611 L
414.992 47.573 L
415.426 47.536 L
415.86 47.499 L
416.294 47.462 L
416.728 47.426 L
417.162 47.39 L
417.596 47.354 L
418.03 47.318 L
418.464 47.283 L
418.898 47.248 L
419.332 47.213 L
419.766 47.179 L
420.2 47.145 L
420.634 47.111 L
421.068 47.077 L
421.502 47.044 L
421.936 47.011 L
422.37 46.978 L
422.804 46.946 L
423.238 46.914 L
423.672 46.882 L
424.106 46.85 L
424.54 46.819 L
424.974 46.788 L
425.408 46.758 L
425.842 46.727 L
426.276 46.697 L
426.71 46.667 L
427.144 46.638 L
427.578 46.609 L
428.012 46.58 L
428.446 46.551 L
428.88 46.523 L
429.314 46.495 L
429.748 46.467 L
430.182 46.44 L
430.616 46.412 L
431.05 46.386 L
431.484 46.359 L
431.918 46.333 L
432.352 46.307 L
432.786 46.281 L
433.22 46.256 L
433.654 46.23 L
434.088 46.206 L
434.522 46.181 L
434.956 46.157 L
435.39 46.133 L
435.824 46.109 L
436.258 46.086 L
436.692 46.063 L
437.126 46.04 L
437.56 46.017 L
437.994 45.995 L
438.428 45.973 L
438.862 45.951 L
439.296 45.93 L
439.73 45.909 L
440.164 45.888 L
440.598 45.868 L
441.032 45.848 L
441.466 45.828 L
441.9 45.808 L
442.334 45.789 L
442.768 45.77 L
443.202 45.751 L
443.636 45.733 L
444.07 45.714 L
444.504 45.697 L
444.938 45.679 L
445.372 45.662 L
445.806 45.645 L
446.24 45.628 L
446.674 45.612 L
447.108 45.595 L
447.542 45.58 L
447.976 45.564 L
448.41 45.549 L
448.844 45.534 L
449.278 45.519 L
449.712 45.505 L
450.146 45.491 L
450.58 45.477 L
451.014 45.463 L
451.448 45.45 L
451.882 45.437 L
452.316 45.425 L
452.75 45.412 L
453.184 45.4 L
453.618 45.388 L
454.052 45.377 L
454.486 45.366 L
454.92 45.355 L
455.354 45.344 L
455.788 45.334 L
456.222 45.324 L
456.656 45.314 L
457.09 45.305 L
457.524 45.296 L
457.958 45.287 L
458.392 45.278 L
458.826 45.27 L
459.26 45.262 L
459.694 45.254 L
460.128 45.247 L
460.562 45.24 L
460.996 45.233 L
461.43 45.226 L
461.864 45.22 L
462.298 45.214 L
462.732 45.208 L
463.166 45.203 L
463.6 45.198 L
464.034 45.193 L
464.468 45.189 L
464.902 45.184 L
465.336 45.181 L
465.77 45.177 L
466.204 45.174 L
466.638 45.17 L
467.072 45.168 L
467.506 45.165 L
467.94 45.163 L
468.374 45.161 L
468.808 45.16 L
469.242 45.158 L
469.676 45.157 L
470.11 45.157 L
470.544 45.156 L
470.978 45.156 L
471.412 45.156 L
471.846 45.157 L
472.28 45.157 L
472.714 45.158 L
473.148 45.16 L
473.582 45.161 L
474.016 45.163 L
474.45 45.165 L
474.884 45.168 L
475.318 45.17 L
475.752 45.174 L
476.186 45.177 L
476.62 45.181 L
477.054 45.184 L
477.488 45.189 L
477.922 45.193 L
478.356 45.198 L
478.79 45.203 L
479.224 45.208 L
479.658 45.214 L
480.092 45.22 L
480.526 45.226 L
480.96 45.233 L
481.394 45.24 L
481.828 45.247 L
482.262 45.254 L
482.696 45.262 L
483.13 45.27 L
483.564 45.278 L
483.998 45.287 L
484.432 45.296 L
484.866 45.305 L
485.3 45.314 L
485.734 45.324 L
486.168 45.334 L
486.602 45.344 L
487.036 45.355 L
487.47 45.366 L
487.904 45.377 L
488.338 45.388 L
488.772 45.4 L
489.206 45.412 L
489.64 45.425 L
490.074 45.437 L
490.508 45.45 L
490.942 45.463 L
491.376 45.477 L
491.81 45.491 L
492.244 45.505 L
492.678 45.519 L
493.112 45.534 L
493.546 45.549 L
493.98 45.564 L
494.414 45.58 L
494.848 45.595 L
495.282 45.612 L
495.716 45.628 L
496.15 45.645 L
496.584 45.662 L
497.018 45.679 L
497.452 45.697 L
497.886 45.714 L
498.32 45.733 L
498.754 45.751 L
499.188 45.77 L
499.622 45.789 L
500.056 45.808 L
500.49 45.828 L
500.924 45.848 L
501.358 45.868 L
501.792 45.888 L
502.226 45.909 L
502.66 45.93 L
503.094 45.952 L
503.528 45.973 L
503.962 45.995 L
504.396 46.017 L
504.83 46.04 L
505.264 46.063 L
505.698 46.086 L
506.132 46.109 L
506.566 46.133 L
507 46.157 L
S
GR
GS
1 GC
N
79 64 M
79 38 L
192 38 L
192 64 L
cp
f
GR
GS
[1 0 0 1 116 45.35849] CT
/Helvetica 9 F
GS
[1 0 0 1 0 0] CT
0 3.5 moveto 
1 -1 scale
(Error data) t 
GR
GR
GS
[1 0 0 1 98 45.35849] CT
0 0 1 RC
N
2.667 0 M
2.667 1.473 1.473 2.667 0 2.667 C
-1.473 2.667 -2.667 1.473 -2.667 0 C
-2.667 -1.473 -1.473 -2.667 0 -2.667 C
1.473 -2.667 2.667 -1.473 2.667 0 C
cp
f
GR
GS
[1 0 0 1 116 56.64151] CT
/Helvetica 9 F
GS
[1 0 0 1 0 0] CT
0 3.5 moveto 
1 -1 scale
(Polynomial model) t 
GR
GR
GS
1 0 0 RC
1 LJ
N
83 56.642 M
113 56.642 L
S
GR
GS
0.149 GC
10.0 ML
0.5 LW
N
79 64 M
79 38 L
192 38 L
192 64 L
cp
S
GR
GS
1 GC
N
73 374 M
507 374 L
507 231 L
73 231 L
cp
f
GR
GS
0.873 GC
1 LJ
0.5 LW
N
73 374 M
73 231 L
S
GR
GS
0.873 GC
1 LJ
0.5 LW
N
127.25 374 M
127.25 231 L
S
GR
GS
0.873 GC
1 LJ
0.5 LW
N
181.5 374 M
181.5 231 L
S
GR
GS
0.873 GC
1 LJ
0.5 LW
N
235.75 374 M
235.75 231 L
S
GR
GS
0.873 GC
1 LJ
0.5 LW
N
290 374 M
290 231 L
S
GR
GS
0.873 GC
1 LJ
0.5 LW
N
344.25 374 M
344.25 231 L
S
GR
GS
0.873 GC
1 LJ
0.5 LW
N
398.5 374 M
398.5 231 L
S
GR
GS
0.873 GC
1 LJ
0.5 LW
N
452.75 374 M
452.75 231 L
S
GR
GS
0.873 GC
1 LJ
0.5 LW
N
507 374 M
507 231 L
S
GR
GS
0.873 GC
1 LJ
0.5 LW
N
507 374 M
73 374 L
S
GR
GS
0.873 GC
1 LJ
0.5 LW
N
507 345.4 M
73 345.4 L
S
GR
GS
0.873 GC
1 LJ
0.5 LW
N
507 316.8 M
73 316.8 L
S
GR
GS
0.873 GC
1 LJ
0.5 LW
N
507 288.2 M
73 288.2 L
S
GR
GS
0.873 GC
1 LJ
0.5 LW
N
507 259.6 M
73 259.6 L
S
GR
GS
0.873 GC
1 LJ
0.5 LW
N
507 231 M
73 231 L
S
GR
GS
0.149 GC
2 setlinecap
1 LJ
0.5 LW
N
73 374 M
507 374 L
S
GR
GS
0.149 GC
2 setlinecap
1 LJ
0.5 LW
N
73 231 M
507 231 L
S
GR
GS
0.149 GC
2 setlinecap
1 LJ
0.5 LW
N
73 374 M
73 369.66 L
S
GR
GS
0.149 GC
2 setlinecap
1 LJ
0.5 LW
N
127.25 374 M
127.25 369.66 L
S
GR
GS
0.149 GC
2 setlinecap
1 LJ
0.5 LW
N
181.5 374 M
181.5 369.66 L
S
GR
GS
0.149 GC
2 setlinecap
1 LJ
0.5 LW
N
235.75 374 M
235.75 369.66 L
S
GR
GS
0.149 GC
2 setlinecap
1 LJ
0.5 LW
N
290 374 M
290 369.66 L
S
GR
GS
0.149 GC
2 setlinecap
1 LJ
0.5 LW
N
344.25 374 M
344.25 369.66 L
S
GR
GS
0.149 GC
2 setlinecap
1 LJ
0.5 LW
N
398.5 374 M
398.5 369.66 L
S
GR
GS
0.149 GC
2 setlinecap
1 LJ
0.5 LW
N
452.75 374 M
452.75 369.66 L
S
GR
GS
0.149 GC
2 setlinecap
1 LJ
0.5 LW
N
507 374 M
507 369.66 L
S
GR
GS
0.149 GC
2 setlinecap
1 LJ
0.5 LW
N
73 231 M
73 235.34 L
S
GR
GS
0.149 GC
2 setlinecap
1 LJ
0.5 LW
N
127.25 231 M
127.25 235.34 L
S
GR
GS
0.149 GC
2 setlinecap
1 LJ
0.5 LW
N
181.5 231 M
181.5 235.34 L
S
GR
GS
0.149 GC
2 setlinecap
1 LJ
0.5 LW
N
235.75 231 M
235.75 235.34 L
S
GR
GS
0.149 GC
2 setlinecap
1 LJ
0.5 LW
N
290 231 M
290 235.34 L
S
GR
GS
0.149 GC
2 setlinecap
1 LJ
0.5 LW
N
344.25 231 M
344.25 235.34 L
S
GR
GS
0.149 GC
2 setlinecap
1 LJ
0.5 LW
N
398.5 231 M
398.5 235.34 L
S
GR
GS
0.149 GC
2 setlinecap
1 LJ
0.5 LW
N
452.75 231 M
452.75 235.34 L
S
GR
GS
0.149 GC
2 setlinecap
1 LJ
0.5 LW
N
507 231 M
507 235.34 L
S
GR
GS
[1 0 0 1 73 378] CT
0.149 GC
/Helvetica 10 F
GS
[1 0 0 1 0 0] CT
-3 10 moveto 
1 -1 scale
(0) t 
GR
GR
GS
[1 0 0 1 127.25 378] CT
0.149 GC
/Helvetica 10 F
GS
[1 0 0 1 0 0] CT
-3 10 moveto 
1 -1 scale
(5) t 
GR
GR
GS
[1 0 0 1 181.5 378] CT
0.149 GC
/Helvetica 10 F
GS
[1 0 0 1 0 0] CT
-6 10 moveto 
1 -1 scale
(10) t 
GR
GR
GS
[1 0 0 1 235.75 378] CT
0.149 GC
/Helvetica 10 F
GS
[1 0 0 1 0 0] CT
-6 10 moveto 
1 -1 scale
(15) t 
GR
GR
GS
[1 0 0 1 290 378] CT
0.149 GC
/Helvetica 10 F
GS
[1 0 0 1 0 0] CT
-6 10 moveto 
1 -1 scale
(20) t 
GR
GR
GS
[1 0 0 1 344.25 378] CT
0.149 GC
/Helvetica 10 F
GS
[1 0 0 1 0 0] CT
-6 10 moveto 
1 -1 scale
(25) t 
GR
GR
GS
[1 0 0 1 398.5 378] CT
0.149 GC
/Helvetica 10 F
GS
[1 0 0 1 0 0] CT
-6 10 moveto 
1 -1 scale
(30) t 
GR
GR
GS
[1 0 0 1 452.75 378] CT
0.149 GC
/Helvetica 10 F
GS
[1 0 0 1 0 0] CT
-6 10 moveto 
1 -1 scale
(35) t 
GR
GR
GS
[1 0 0 1 507 378] CT
0.149 GC
/Helvetica 10 F
GS
[1 0 0 1 0 0] CT
-6 10 moveto 
1 -1 scale
(40) t 
GR
GR
GS
[1 0 0 1 290.00021 392] CT
0.149 GC
/Helvetica-Bold 12 F
GS
[1 0 0 1 0 0] CT
-82 12 moveto 
1 -1 scale
(Camera rotation \(in degrees\)) t 
GR
GR
GS
0.149 GC
2 setlinecap
1 LJ
0.5 LW
N
73 374 M
73 231 L
S
GR
GS
0.149 GC
2 setlinecap
1 LJ
0.5 LW
N
507 374 M
507 231 L
S
GR
GS
0.149 GC
2 setlinecap
1 LJ
0.5 LW
N
73 374 M
77.34 374 L
S
GR
GS
0.149 GC
2 setlinecap
1 LJ
0.5 LW
N
73 345.4 M
77.34 345.4 L
S
GR
GS
0.149 GC
2 setlinecap
1 LJ
0.5 LW
N
73 316.8 M
77.34 316.8 L
S
GR
GS
0.149 GC
2 setlinecap
1 LJ
0.5 LW
N
73 288.2 M
77.34 288.2 L
S
GR
GS
0.149 GC
2 setlinecap
1 LJ
0.5 LW
N
73 259.6 M
77.34 259.6 L
S
GR
GS
0.149 GC
2 setlinecap
1 LJ
0.5 LW
N
73 231 M
77.34 231 L
S
GR
GS
0.149 GC
2 setlinecap
1 LJ
0.5 LW
N
507 374 M
502.66 374 L
S
GR
GS
0.149 GC
2 setlinecap
1 LJ
0.5 LW
N
507 345.4 M
502.66 345.4 L
S
GR
GS
0.149 GC
2 setlinecap
1 LJ
0.5 LW
N
507 316.8 M
502.66 316.8 L
S
GR
GS
0.149 GC
2 setlinecap
1 LJ
0.5 LW
N
507 288.2 M
502.66 288.2 L
S
GR
GS
0.149 GC
2 setlinecap
1 LJ
0.5 LW
N
507 259.6 M
502.66 259.6 L
S
GR
GS
0.149 GC
2 setlinecap
1 LJ
0.5 LW
N
507 231 M
502.66 231 L
S
GR
GS
[1 0 0 1 69 374] CT
0.149 GC
/Helvetica 10 F
GS
[1 0 0 1 0 0] CT
-18 3.5 moveto 
1 -1 scale
(-0.6) t 
GR
GR
GS
[1 0 0 1 69 345.39999] CT
0.149 GC
/Helvetica 10 F
GS
[1 0 0 1 0 0] CT
-18 3.5 moveto 
1 -1 scale
(-0.4) t 
GR
GR
GS
[1 0 0 1 69 316.79999] CT
0.149 GC
/Helvetica 10 F
GS
[1 0 0 1 0 0] CT
-18 3.5 moveto 
1 -1 scale
(-0.2) t 
GR
GR
GS
[1 0 0 1 69 288.20001] CT
0.149 GC
/Helvetica 10 F
GS
[1 0 0 1 0 0] CT
-6 3.5 moveto 
1 -1 scale
(0) t 
GR
GR
GS
[1 0 0 1 69 259.60001] CT
0.149 GC
/Helvetica 10 F
GS
[1 0 0 1 0 0] CT
-14 3.5 moveto 
1 -1 scale
(0.2) t 
GR
GR
GS
[1 0 0 1 69 231] CT
0.149 GC
/Helvetica 10 F
GS
[1 0 0 1 0 0] CT
-14 3.5 moveto 
1 -1 scale
(0.4) t 
GR
GR
GS
[0 -1 1 0 48 302.49994] CT
0.149 GC
/Helvetica-Bold 12 F
GS
[1 0 0 1 0 0] CT
-56 -3 moveto 
1 -1 scale
(Depth error \(in mm\)) t 
GR
GR
GS
[1 0 0 1 73 349.23267] CT
0 0 1 RC
N
2.667 0 M
2.667 1.473 1.473 2.667 0 2.667 C
-1.473 2.667 -2.667 1.473 -2.667 0 C
-2.667 -1.473 -1.473 -2.667 0 -2.667 C
1.473 -2.667 2.667 -1.473 2.667 0 C
cp
f
GR
GS
[1 0 0 1 83.85 329.06525] CT
0 0 1 RC
N
2.667 0 M
2.667 1.473 1.473 2.667 0 2.667 C
-1.473 2.667 -2.667 1.473 -2.667 0 C
-2.667 -1.473 -1.473 -2.667 0 -2.667 C
1.473 -2.667 2.667 -1.473 2.667 0 C
cp
f
GR
GS
[1 0 0 1 94.7 314.83154] CT
0 0 1 RC
N
2.667 0 M
2.667 1.473 1.473 2.667 0 2.667 C
-1.473 2.667 -2.667 1.473 -2.667 0 C
-2.667 -1.473 -1.473 -2.667 0 -2.667 C
1.473 -2.667 2.667 -1.473 2.667 0 C
cp
f
GR
GS
[1 0 0 1 105.55 300.59106] CT
0 0 1 RC
N
2.667 0 M
2.667 1.473 1.473 2.667 0 2.667 C
-1.473 2.667 -2.667 1.473 -2.667 0 C
-2.667 -1.473 -1.473 -2.667 0 -2.667 C
1.473 -2.667 2.667 -1.473 2.667 0 C
cp
f
GR
GS
[1 0 0 1 116.4 294.87149] CT
0 0 1 RC
N
2.667 0 M
2.667 1.473 1.473 2.667 0 2.667 C
-1.473 2.667 -2.667 1.473 -2.667 0 C
-2.667 -1.473 -1.473 -2.667 0 -2.667 C
1.473 -2.667 2.667 -1.473 2.667 0 C
cp
f
GR
GS
[1 0 0 1 127.25 278.18182] CT
0 0 1 RC
N
2.667 0 M
2.667 1.473 1.473 2.667 0 2.667 C
-1.473 2.667 -2.667 1.473 -2.667 0 C
-2.667 -1.473 -1.473 -2.667 0 -2.667 C
1.473 -2.667 2.667 -1.473 2.667 0 C
cp
f
GR
GS
[1 0 0 1 138.10001 281.68256] CT
0 0 1 RC
N
2.667 0 M
2.667 1.473 1.473 2.667 0 2.667 C
-1.473 2.667 -2.667 1.473 -2.667 0 C
-2.667 -1.473 -1.473 -2.667 0 -2.667 C
1.473 -2.667 2.667 -1.473 2.667 0 C
cp
f
GR
GS
[1 0 0 1 148.95 270.44308] CT
0 0 1 RC
N
2.667 0 M
2.667 1.473 1.473 2.667 0 2.667 C
-1.473 2.667 -2.667 1.473 -2.667 0 C
-2.667 -1.473 -1.473 -2.667 0 -2.667 C
1.473 -2.667 2.667 -1.473 2.667 0 C
cp
f
GR
GS
[1 0 0 1 159.8 277.40463] CT
0 0 1 RC
N
2.667 0 M
2.667 1.473 1.473 2.667 0 2.667 C
-1.473 2.667 -2.667 1.473 -2.667 0 C
-2.667 -1.473 -1.473 -2.667 0 -2.667 C
1.473 -2.667 2.667 -1.473 2.667 0 C
cp
f
GR
GS
[1 0 0 1 170.64999 280.01022] CT
0 0 1 RC
N
2.667 0 M
2.667 1.473 1.473 2.667 0 2.667 C
-1.473 2.667 -2.667 1.473 -2.667 0 C
-2.667 -1.473 -1.473 -2.667 0 -2.667 C
1.473 -2.667 2.667 -1.473 2.667 0 C
cp
f
GR
GS
[1 0 0 1 181.5 264.51666] CT
0 0 1 RC
N
2.667 0 M
2.667 1.473 1.473 2.667 0 2.667 C
-1.473 2.667 -2.667 1.473 -2.667 0 C
-2.667 -1.473 -1.473 -2.667 0 -2.667 C
1.473 -2.667 2.667 -1.473 2.667 0 C
cp
f
GR
GS
[1 0 0 1 192.35001 271.4104] CT
0 0 1 RC
N
2.667 0 M
2.667 1.473 1.473 2.667 0 2.667 C
-1.473 2.667 -2.667 1.473 -2.667 0 C
-2.667 -1.473 -1.473 -2.667 0 -2.667 C
1.473 -2.667 2.667 -1.473 2.667 0 C
cp
f
GR
GS
[1 0 0 1 203.2 274.16092] CT
0 0 1 RC
N
2.667 0 M
2.667 1.473 1.473 2.667 0 2.667 C
-1.473 2.667 -2.667 1.473 -2.667 0 C
-2.667 -1.473 -1.473 -2.667 0 -2.667 C
1.473 -2.667 2.667 -1.473 2.667 0 C
cp
f
GR
GS
[1 0 0 1 214.05 277.36594] CT
0 0 1 RC
N
2.667 0 M
2.667 1.473 1.473 2.667 0 2.667 C
-1.473 2.667 -2.667 1.473 -2.667 0 C
-2.667 -1.473 -1.473 -2.667 0 -2.667 C
1.473 -2.667 2.667 -1.473 2.667 0 C
cp
f
GR
GS
[1 0 0 1 224.89999 271.31586] CT
0 0 1 RC
N
2.667 0 M
2.667 1.473 1.473 2.667 0 2.667 C
-1.473 2.667 -2.667 1.473 -2.667 0 C
-2.667 -1.473 -1.473 -2.667 0 -2.667 C
1.473 -2.667 2.667 -1.473 2.667 0 C
cp
f
GR
GS
[1 0 0 1 235.75 268.55502] CT
0 0 1 RC
N
2.667 0 M
2.667 1.473 1.473 2.667 0 2.667 C
-1.473 2.667 -2.667 1.473 -2.667 0 C
-2.667 -1.473 -1.473 -2.667 0 -2.667 C
1.473 -2.667 2.667 -1.473 2.667 0 C
cp
f
GR
GS
[1 0 0 1 246.60001 278.94095] CT
0 0 1 RC
N
2.667 0 M
2.667 1.473 1.473 2.667 0 2.667 C
-1.473 2.667 -2.667 1.473 -2.667 0 C
-2.667 -1.473 -1.473 -2.667 0 -2.667 C
1.473 -2.667 2.667 -1.473 2.667 0 C
cp
f
GR
GS
[1 0 0 1 257.45001 277.862] CT
0 0 1 RC
N
2.667 0 M
2.667 1.473 1.473 2.667 0 2.667 C
-1.473 2.667 -2.667 1.473 -2.667 0 C
-2.667 -1.473 -1.473 -2.667 0 -2.667 C
1.473 -2.667 2.667 -1.473 2.667 0 C
cp
f
GR
GS
[1 0 0 1 268.29999 296.84219] CT
0 0 1 RC
N
2.667 0 M
2.667 1.473 1.473 2.667 0 2.667 C
-1.473 2.667 -2.667 1.473 -2.667 0 C
-2.667 -1.473 -1.473 -2.667 0 -2.667 C
1.473 -2.667 2.667 -1.473 2.667 0 C
cp
f
GR
GS
[1 0 0 1 279.14999 258.67905] CT
0 0 1 RC
N
2.667 0 M
2.667 1.473 1.473 2.667 0 2.667 C
-1.473 2.667 -2.667 1.473 -2.667 0 C
-2.667 -1.473 -1.473 -2.667 0 -2.667 C
1.473 -2.667 2.667 -1.473 2.667 0 C
cp
f
GR
GS
[1 0 0 1 290 307.23184] CT
0 0 1 RC
N
2.667 0 M
2.667 1.473 1.473 2.667 0 2.667 C
-1.473 2.667 -2.667 1.473 -2.667 0 C
-2.667 -1.473 -1.473 -2.667 0 -2.667 C
1.473 -2.667 2.667 -1.473 2.667 0 C
cp
f
GR
GS
[1 0 0 1 300.85001 294.52783] CT
0 0 1 RC
N
2.667 0 M
2.667 1.473 1.473 2.667 0 2.667 C
-1.473 2.667 -2.667 1.473 -2.667 0 C
-2.667 -1.473 -1.473 -2.667 0 -2.667 C
1.473 -2.667 2.667 -1.473 2.667 0 C
cp
f
GR
GS
[1 0 0 1 311.70001 292.47842] CT
0 0 1 RC
N
2.667 0 M
2.667 1.473 1.473 2.667 0 2.667 C
-1.473 2.667 -2.667 1.473 -2.667 0 C
-2.667 -1.473 -1.473 -2.667 0 -2.667 C
1.473 -2.667 2.667 -1.473 2.667 0 C
cp
f
GR
GS
[1 0 0 1 322.54999 297.84134] CT
0 0 1 RC
N
2.667 0 M
2.667 1.473 1.473 2.667 0 2.667 C
-1.473 2.667 -2.667 1.473 -2.667 0 C
-2.667 -1.473 -1.473 -2.667 0 -2.667 C
1.473 -2.667 2.667 -1.473 2.667 0 C
cp
f
GR
GS
[1 0 0 1 333.39999 297.52756] CT
0 0 1 RC
N
2.667 0 M
2.667 1.473 1.473 2.667 0 2.667 C
-1.473 2.667 -2.667 1.473 -2.667 0 C
-2.667 -1.473 -1.473 -2.667 0 -2.667 C
1.473 -2.667 2.667 -1.473 2.667 0 C
cp
f
GR
GS
[1 0 0 1 344.25 307.84085] CT
0 0 1 RC
N
2.667 0 M
2.667 1.473 1.473 2.667 0 2.667 C
-1.473 2.667 -2.667 1.473 -2.667 0 C
-2.667 -1.473 -1.473 -2.667 0 -2.667 C
1.473 -2.667 2.667 -1.473 2.667 0 C
cp
f
GR
GS
[1 0 0 1 355.10001 324.90494] CT
0 0 1 RC
N
2.667 0 M
2.667 1.473 1.473 2.667 0 2.667 C
-1.473 2.667 -2.667 1.473 -2.667 0 C
-2.667 -1.473 -1.473 -2.667 0 -2.667 C
1.473 -2.667 2.667 -1.473 2.667 0 C
cp
f
GR
GS
[1 0 0 1 365.95001 294.31921] CT
0 0 1 RC
N
2.667 0 M
2.667 1.473 1.473 2.667 0 2.667 C
-1.473 2.667 -2.667 1.473 -2.667 0 C
-2.667 -1.473 -1.473 -2.667 0 -2.667 C
1.473 -2.667 2.667 -1.473 2.667 0 C
cp
f
GR
GS
[1 0 0 1 376.79999 320.67407] CT
0 0 1 RC
N
2.667 0 M
2.667 1.473 1.473 2.667 0 2.667 C
-1.473 2.667 -2.667 1.473 -2.667 0 C
-2.667 -1.473 -1.473 -2.667 0 -2.667 C
1.473 -2.667 2.667 -1.473 2.667 0 C
cp
f
GR
GS
[1 0 0 1 387.64999 323.82025] CT
0 0 1 RC
N
2.667 0 M
2.667 1.473 1.473 2.667 0 2.667 C
-1.473 2.667 -2.667 1.473 -2.667 0 C
-2.667 -1.473 -1.473 -2.667 0 -2.667 C
1.473 -2.667 2.667 -1.473 2.667 0 C
cp
f
GR
GS
[1 0 0 1 398.5 294.81412] CT
0 0 1 RC
N
2.667 0 M
2.667 1.473 1.473 2.667 0 2.667 C
-1.473 2.667 -2.667 1.473 -2.667 0 C
-2.667 -1.473 -1.473 -2.667 0 -2.667 C
1.473 -2.667 2.667 -1.473 2.667 0 C
cp
f
GR
GS
[1 0 0 1 409.35001 294.26175] CT
0 0 1 RC
N
2.667 0 M
2.667 1.473 1.473 2.667 0 2.667 C
-1.473 2.667 -2.667 1.473 -2.667 0 C
-2.667 -1.473 -1.473 -2.667 0 -2.667 C
1.473 -2.667 2.667 -1.473 2.667 0 C
cp
f
GR
GS
[1 0 0 1 420.20001 299.15808] CT
0 0 1 RC
N
2.667 0 M
2.667 1.473 1.473 2.667 0 2.667 C
-1.473 2.667 -2.667 1.473 -2.667 0 C
-2.667 -1.473 -1.473 -2.667 0 -2.667 C
1.473 -2.667 2.667 -1.473 2.667 0 C
cp
f
GR
GS
[1 0 0 1 431.04999 281.97388] CT
0 0 1 RC
N
2.667 0 M
2.667 1.473 1.473 2.667 0 2.667 C
-1.473 2.667 -2.667 1.473 -2.667 0 C
-2.667 -1.473 -1.473 -2.667 0 -2.667 C
1.473 -2.667 2.667 -1.473 2.667 0 C
cp
f
GR
GS
[1 0 0 1 441.89999 271.47571] CT
0 0 1 RC
N
2.667 0 M
2.667 1.473 1.473 2.667 0 2.667 C
-1.473 2.667 -2.667 1.473 -2.667 0 C
-2.667 -1.473 -1.473 -2.667 0 -2.667 C
1.473 -2.667 2.667 -1.473 2.667 0 C
cp
f
GR
GS
[1 0 0 1 452.75 281.78146] CT
0 0 1 RC
N
2.667 0 M
2.667 1.473 1.473 2.667 0 2.667 C
-1.473 2.667 -2.667 1.473 -2.667 0 C
-2.667 -1.473 -1.473 -2.667 0 -2.667 C
1.473 -2.667 2.667 -1.473 2.667 0 C
cp
f
GR
GS
[1 0 0 1 463.60001 282.534] CT
0 0 1 RC
N
2.667 0 M
2.667 1.473 1.473 2.667 0 2.667 C
-1.473 2.667 -2.667 1.473 -2.667 0 C
-2.667 -1.473 -1.473 -2.667 0 -2.667 C
1.473 -2.667 2.667 -1.473 2.667 0 C
cp
f
GR
GS
[1 0 0 1 474.45001 297.59521] CT
0 0 1 RC
N
2.667 0 M
2.667 1.473 1.473 2.667 0 2.667 C
-1.473 2.667 -2.667 1.473 -2.667 0 C
-2.667 -1.473 -1.473 -2.667 0 -2.667 C
1.473 -2.667 2.667 -1.473 2.667 0 C
cp
f
GR
GS
[1 0 0 1 485.29999 275.32028] CT
0 0 1 RC
N
2.667 0 M
2.667 1.473 1.473 2.667 0 2.667 C
-1.473 2.667 -2.667 1.473 -2.667 0 C
-2.667 -1.473 -1.473 -2.667 0 -2.667 C
1.473 -2.667 2.667 -1.473 2.667 0 C
cp
f
GR
GS
[1 0 0 1 496.14999 274.25281] CT
0 0 1 RC
N
2.667 0 M
2.667 1.473 1.473 2.667 0 2.667 C
-1.473 2.667 -2.667 1.473 -2.667 0 C
-2.667 -1.473 -1.473 -2.667 0 -2.667 C
1.473 -2.667 2.667 -1.473 2.667 0 C
cp
f
GR
GS
[1 0 0 1 507 271.45813] CT
0 0 1 RC
N
2.667 0 M
2.667 1.473 1.473 2.667 0 2.667 C
-1.473 2.667 -2.667 1.473 -2.667 0 C
-2.667 -1.473 -1.473 -2.667 0 -2.667 C
1.473 -2.667 2.667 -1.473 2.667 0 C
cp
f
GR
GS
1 0 0 RC
1 LJ
N
73 288.2 M
73.434 288.2 L
73.868 288.2 L
74.302 288.2 L
74.736 288.2 L
75.17 288.2 L
75.604 288.2 L
76.038 288.2 L
76.472 288.2 L
76.906 288.2 L
77.34 288.2 L
77.774 288.2 L
78.208 288.2 L
78.642 288.2 L
79.076 288.2 L
79.51 288.2 L
79.944 288.2 L
80.378 288.2 L
80.812 288.2 L
81.246 288.2 L
81.68 288.2 L
82.114 288.2 L
82.548 288.2 L
82.982 288.2 L
83.416 288.2 L
83.85 288.2 L
84.284 288.2 L
84.718 288.2 L
85.152 288.2 L
85.586 288.2 L
86.02 288.2 L
86.454 288.2 L
86.888 288.2 L
87.322 288.2 L
87.756 288.2 L
88.19 288.2 L
88.624 288.2 L
89.058 288.2 L
89.492 288.2 L
89.926 288.2 L
90.36 288.2 L
90.794 288.2 L
91.228 288.2 L
91.662 288.2 L
92.096 288.2 L
92.53 288.2 L
92.964 288.2 L
93.398 288.2 L
93.832 288.2 L
94.266 288.2 L
94.7 288.2 L
95.134 288.2 L
95.568 288.2 L
96.002 288.2 L
96.436 288.2 L
96.87 288.2 L
97.304 288.2 L
97.738 288.2 L
98.172 288.2 L
98.606 288.2 L
99.04 288.2 L
99.474 288.2 L
99.908 288.2 L
100.342 288.2 L
100.776 288.2 L
101.21 288.2 L
101.644 288.2 L
102.078 288.2 L
102.512 288.2 L
102.946 288.2 L
103.38 288.2 L
103.814 288.2 L
104.248 288.2 L
104.682 288.2 L
105.116 288.2 L
105.55 288.2 L
105.984 288.2 L
106.418 288.2 L
106.852 288.2 L
107.286 288.2 L
107.72 288.2 L
108.154 288.2 L
108.588 288.2 L
109.022 288.2 L
109.456 288.2 L
109.89 288.2 L
110.324 288.2 L
110.758 288.2 L
111.192 288.2 L
111.626 288.2 L
112.06 288.2 L
112.494 288.2 L
112.928 288.2 L
113.362 288.2 L
113.796 288.2 L
114.23 288.2 L
114.664 288.2 L
115.098 288.2 L
115.532 288.2 L
115.966 288.2 L
116.4 288.2 L
116.834 288.2 L
117.268 288.2 L
117.702 288.2 L
118.136 288.2 L
118.57 288.2 L
119.004 288.2 L
119.438 288.2 L
119.872 288.2 L
120.306 288.2 L
120.74 288.2 L
121.174 288.2 L
121.608 288.2 L
122.042 288.2 L
122.476 288.2 L
122.91 288.2 L
123.344 288.2 L
123.778 288.2 L
124.212 288.2 L
124.646 288.2 L
125.08 288.2 L
125.514 288.2 L
125.948 288.2 L
126.382 288.2 L
126.816 288.2 L
127.25 288.2 L
127.684 288.2 L
128.118 288.2 L
128.552 288.2 L
128.986 288.2 L
129.42 288.2 L
129.854 288.2 L
130.288 288.2 L
130.722 288.2 L
131.156 288.2 L
131.59 288.2 L
132.024 288.2 L
132.458 288.2 L
132.892 288.2 L
133.326 288.2 L
133.76 288.2 L
134.194 288.2 L
134.628 288.2 L
135.062 288.2 L
135.496 288.2 L
135.93 288.2 L
136.364 288.2 L
136.798 288.2 L
137.232 288.2 L
137.666 288.2 L
138.1 288.2 L
138.534 288.2 L
138.968 288.2 L
139.402 288.2 L
139.836 288.2 L
140.27 288.2 L
140.704 288.2 L
141.138 288.2 L
141.572 288.2 L
142.006 288.2 L
142.44 288.2 L
142.874 288.2 L
143.308 288.2 L
143.742 288.2 L
144.176 288.2 L
144.61 288.2 L
145.044 288.2 L
145.478 288.2 L
145.912 288.2 L
146.346 288.2 L
146.78 288.2 L
147.214 288.2 L
147.648 288.2 L
148.082 288.2 L
148.516 288.2 L
148.95 288.2 L
149.384 288.2 L
149.818 288.2 L
150.252 288.2 L
150.686 288.2 L
151.12 288.2 L
151.554 288.2 L
151.988 288.2 L
152.422 288.2 L
152.856 288.2 L
153.29 288.2 L
153.724 288.2 L
154.158 288.2 L
154.592 288.2 L
155.026 288.2 L
155.46 288.2 L
155.894 288.2 L
156.328 288.2 L
156.762 288.2 L
157.196 288.2 L
157.63 288.2 L
158.064 288.2 L
158.498 288.2 L
158.932 288.2 L
159.366 288.2 L
159.8 288.2 L
160.234 288.2 L
160.668 288.2 L
161.102 288.2 L
161.536 288.2 L
161.97 288.2 L
162.404 288.2 L
162.838 288.2 L
163.272 288.2 L
163.706 288.2 L
164.14 288.2 L
164.574 288.2 L
165.008 288.2 L
165.442 288.2 L
165.876 288.2 L
166.31 288.2 L
166.744 288.2 L
167.178 288.2 L
167.612 288.2 L
168.046 288.2 L
168.48 288.2 L
168.914 288.2 L
169.348 288.2 L
169.782 288.2 L
170.216 288.2 L
170.65 288.2 L
171.084 288.2 L
171.518 288.2 L
171.952 288.2 L
172.386 288.2 L
172.82 288.2 L
173.254 288.2 L
173.688 288.2 L
174.122 288.2 L
174.556 288.2 L
174.99 288.2 L
175.424 288.2 L
175.858 288.2 L
176.292 288.2 L
176.726 288.2 L
177.16 288.2 L
177.594 288.2 L
178.028 288.2 L
178.462 288.2 L
178.896 288.2 L
179.33 288.2 L
179.764 288.2 L
180.198 288.2 L
180.632 288.2 L
181.066 288.2 L
181.5 288.2 L
181.934 288.2 L
182.368 288.2 L
182.802 288.2 L
183.236 288.2 L
183.67 288.2 L
184.104 288.2 L
184.538 288.2 L
184.972 288.2 L
185.406 288.2 L
185.84 288.2 L
186.274 288.2 L
186.708 288.2 L
187.142 288.2 L
187.576 288.2 L
188.01 288.2 L
188.444 288.2 L
188.878 288.2 L
189.312 288.2 L
189.746 288.2 L
190.18 288.2 L
190.614 288.2 L
191.048 288.2 L
191.482 288.2 L
191.916 288.2 L
192.35 288.2 L
192.784 288.2 L
193.218 288.2 L
193.652 288.2 L
194.086 288.2 L
194.52 288.2 L
194.954 288.2 L
195.388 288.2 L
195.822 288.2 L
196.256 288.2 L
196.69 288.2 L
197.124 288.2 L
197.558 288.2 L
197.992 288.2 L
198.426 288.2 L
198.86 288.2 L
199.294 288.2 L
199.728 288.2 L
200.162 288.2 L
200.596 288.2 L
201.03 288.2 L
201.464 288.2 L
201.898 288.2 L
202.332 288.2 L
202.766 288.2 L
203.2 288.2 L
203.634 288.2 L
204.068 288.2 L
204.502 288.2 L
204.936 288.2 L
205.37 288.2 L
205.804 288.2 L
206.238 288.2 L
206.672 288.2 L
207.106 288.2 L
207.54 288.2 L
207.974 288.2 L
208.408 288.2 L
208.842 288.2 L
209.276 288.2 L
209.71 288.2 L
210.144 288.2 L
210.578 288.2 L
211.012 288.2 L
211.446 288.2 L
211.88 288.2 L
212.314 288.2 L
212.748 288.2 L
213.182 288.2 L
213.616 288.2 L
214.05 288.2 L
214.484 288.2 L
214.918 288.2 L
215.352 288.2 L
215.786 288.2 L
216.22 288.2 L
216.654 288.2 L
217.088 288.2 L
217.522 288.2 L
217.956 288.2 L
218.39 288.2 L
218.824 288.2 L
219.258 288.2 L
219.692 288.2 L
220.126 288.2 L
220.56 288.2 L
220.994 288.2 L
221.428 288.2 L
221.862 288.2 L
222.296 288.2 L
222.73 288.2 L
223.164 288.2 L
223.598 288.2 L
224.032 288.2 L
224.466 288.2 L
224.9 288.2 L
225.334 288.2 L
225.768 288.2 L
226.202 288.2 L
226.636 288.2 L
227.07 288.2 L
227.504 288.2 L
227.938 288.2 L
228.372 288.2 L
228.806 288.2 L
229.24 288.2 L
229.674 288.2 L
230.108 288.2 L
230.542 288.2 L
230.976 288.2 L
231.41 288.2 L
231.844 288.2 L
232.278 288.2 L
232.712 288.2 L
233.146 288.2 L
233.58 288.2 L
234.014 288.2 L
234.448 288.2 L
234.882 288.2 L
235.316 288.2 L
235.75 288.2 L
236.184 288.2 L
236.618 288.2 L
237.052 288.2 L
237.486 288.2 L
237.92 288.2 L
238.354 288.2 L
238.788 288.2 L
239.222 288.2 L
239.656 288.2 L
240.09 288.2 L
240.524 288.2 L
240.958 288.2 L
241.392 288.2 L
241.826 288.2 L
242.26 288.2 L
242.694 288.2 L
243.128 288.2 L
243.562 288.2 L
243.996 288.2 L
244.43 288.2 L
244.864 288.2 L
245.298 288.2 L
245.732 288.2 L
246.166 288.2 L
246.6 288.2 L
247.034 288.2 L
247.468 288.2 L
247.902 288.2 L
248.336 288.2 L
248.77 288.2 L
249.204 288.2 L
249.638 288.2 L
250.072 288.2 L
250.506 288.2 L
250.94 288.2 L
251.374 288.2 L
251.808 288.2 L
252.242 288.2 L
252.676 288.2 L
253.11 288.2 L
253.544 288.2 L
253.978 288.2 L
254.412 288.2 L
254.846 288.2 L
255.28 288.2 L
255.714 288.2 L
256.148 288.2 L
256.582 288.2 L
257.016 288.2 L
257.45 288.2 L
257.884 288.2 L
258.318 288.2 L
258.752 288.2 L
259.186 288.2 L
259.62 288.2 L
260.054 288.2 L
260.488 288.2 L
260.922 288.2 L
261.356 288.2 L
261.79 288.2 L
262.224 288.2 L
262.658 288.2 L
263.092 288.2 L
263.526 288.2 L
263.96 288.2 L
264.394 288.2 L
264.828 288.2 L
265.262 288.2 L
265.696 288.2 L
266.13 288.2 L
266.564 288.2 L
266.998 288.2 L
267.432 288.2 L
267.866 288.2 L
268.3 288.2 L
268.734 288.2 L
269.168 288.2 L
269.602 288.2 L
270.036 288.2 L
270.47 288.2 L
270.904 288.2 L
271.338 288.2 L
271.772 288.2 L
272.206 288.2 L
272.64 288.2 L
273.074 288.2 L
273.508 288.2 L
273.942 288.2 L
274.376 288.2 L
274.81 288.2 L
275.244 288.2 L
275.678 288.2 L
276.112 288.2 L
276.546 288.2 L
276.98 288.2 L
277.414 288.2 L
277.848 288.2 L
278.282 288.2 L
278.716 288.2 L
279.15 288.2 L
279.584 288.2 L
280.018 288.2 L
280.452 288.2 L
280.886 288.2 L
281.32 288.2 L
281.754 288.2 L
282.188 288.2 L
282.622 288.2 L
283.056 288.2 L
283.49 288.2 L
283.924 288.2 L
284.358 288.2 L
284.792 288.2 L
285.226 288.2 L
285.66 288.2 L
286.094 288.2 L
286.528 288.2 L
286.962 288.2 L
287.396 288.2 L
287.83 288.2 L
288.264 288.2 L
288.698 288.2 L
289.132 288.2 L
289.566 288.2 L
290 288.2 L
290.434 288.2 L
290.868 288.2 L
291.302 288.2 L
291.736 288.2 L
292.17 288.2 L
292.604 288.2 L
293.038 288.2 L
293.472 288.2 L
293.906 288.2 L
294.34 288.2 L
294.774 288.2 L
295.208 288.2 L
295.642 288.2 L
296.076 288.2 L
296.51 288.2 L
296.944 288.2 L
297.378 288.2 L
297.812 288.2 L
298.246 288.2 L
298.68 288.2 L
299.114 288.2 L
299.548 288.2 L
299.982 288.2 L
300.416 288.2 L
300.85 288.2 L
301.284 288.2 L
301.718 288.2 L
302.152 288.2 L
302.586 288.2 L
303.02 288.2 L
303.454 288.2 L
303.888 288.2 L
304.322 288.2 L
304.756 288.2 L
305.19 288.2 L
305.624 288.2 L
306.058 288.2 L
306.492 288.2 L
306.926 288.2 L
307.36 288.2 L
307.794 288.2 L
308.228 288.2 L
308.662 288.2 L
309.096 288.2 L
309.53 288.2 L
309.964 288.2 L
310.398 288.2 L
310.832 288.2 L
311.266 288.2 L
311.7 288.2 L
312.134 288.2 L
312.568 288.2 L
313.002 288.2 L
313.436 288.2 L
313.87 288.2 L
314.304 288.2 L
314.738 288.2 L
315.172 288.2 L
315.606 288.2 L
316.04 288.2 L
316.474 288.2 L
316.908 288.2 L
317.342 288.2 L
317.776 288.2 L
318.21 288.2 L
318.644 288.2 L
319.078 288.2 L
319.512 288.2 L
319.946 288.2 L
320.38 288.2 L
320.814 288.2 L
321.248 288.2 L
321.682 288.2 L
322.116 288.2 L
322.55 288.2 L
322.984 288.2 L
323.418 288.2 L
323.852 288.2 L
324.286 288.2 L
324.72 288.2 L
325.154 288.2 L
325.588 288.2 L
326.022 288.2 L
326.456 288.2 L
326.89 288.2 L
327.324 288.2 L
327.758 288.2 L
328.192 288.2 L
328.626 288.2 L
329.06 288.2 L
329.494 288.2 L
329.928 288.2 L
330.362 288.2 L
330.796 288.2 L
331.23 288.2 L
331.664 288.2 L
332.098 288.2 L
332.532 288.2 L
332.966 288.2 L
333.4 288.2 L
333.834 288.2 L
334.268 288.2 L
334.702 288.2 L
335.136 288.2 L
335.57 288.2 L
336.004 288.2 L
336.438 288.2 L
336.872 288.2 L
337.306 288.2 L
337.74 288.2 L
338.174 288.2 L
338.608 288.2 L
339.042 288.2 L
339.476 288.2 L
339.91 288.2 L
340.344 288.2 L
340.778 288.2 L
341.212 288.2 L
341.646 288.2 L
342.08 288.2 L
342.514 288.2 L
342.948 288.2 L
343.382 288.2 L
343.816 288.2 L
344.25 288.2 L
344.684 288.2 L
345.118 288.2 L
345.552 288.2 L
345.986 288.2 L
346.42 288.2 L
346.854 288.2 L
347.288 288.2 L
347.722 288.2 L
348.156 288.2 L
348.59 288.2 L
349.024 288.2 L
349.458 288.2 L
349.892 288.2 L
350.326 288.2 L
350.76 288.2 L
351.194 288.2 L
351.628 288.2 L
352.062 288.2 L
352.496 288.2 L
352.93 288.2 L
353.364 288.2 L
353.798 288.2 L
354.232 288.2 L
354.666 288.2 L
355.1 288.2 L
355.534 288.2 L
355.968 288.2 L
356.402 288.2 L
356.836 288.2 L
357.27 288.2 L
357.704 288.2 L
358.138 288.2 L
358.572 288.2 L
359.006 288.2 L
359.44 288.2 L
359.874 288.2 L
360.308 288.2 L
360.742 288.2 L
361.176 288.2 L
361.61 288.2 L
362.044 288.2 L
362.478 288.2 L
362.912 288.2 L
363.346 288.2 L
363.78 288.2 L
364.214 288.2 L
364.648 288.2 L
365.082 288.2 L
365.516 288.2 L
365.95 288.2 L
366.384 288.2 L
366.818 288.2 L
367.252 288.2 L
367.686 288.2 L
368.12 288.2 L
368.554 288.2 L
368.988 288.2 L
369.422 288.2 L
369.856 288.2 L
370.29 288.2 L
370.724 288.2 L
371.158 288.2 L
371.592 288.2 L
372.026 288.2 L
372.46 288.2 L
372.894 288.2 L
373.328 288.2 L
373.762 288.2 L
374.196 288.2 L
374.63 288.2 L
375.064 288.2 L
375.498 288.2 L
375.932 288.2 L
376.366 288.2 L
376.8 288.2 L
377.234 288.2 L
377.668 288.2 L
378.102 288.2 L
378.536 288.2 L
378.97 288.2 L
379.404 288.2 L
379.838 288.2 L
380.272 288.2 L
380.706 288.2 L
381.14 288.2 L
381.574 288.2 L
382.008 288.2 L
382.442 288.2 L
382.876 288.2 L
383.31 288.2 L
383.744 288.2 L
384.178 288.2 L
384.612 288.2 L
385.046 288.2 L
385.48 288.2 L
385.914 288.2 L
386.348 288.2 L
386.782 288.2 L
387.216 288.2 L
387.65 288.2 L
388.084 288.2 L
388.518 288.2 L
388.952 288.2 L
389.386 288.2 L
389.82 288.2 L
390.254 288.2 L
390.688 288.2 L
391.122 288.2 L
391.556 288.2 L
391.99 288.2 L
392.424 288.2 L
392.858 288.2 L
393.292 288.2 L
393.726 288.2 L
394.16 288.2 L
394.594 288.2 L
395.028 288.2 L
395.462 288.2 L
395.896 288.2 L
396.33 288.2 L
396.764 288.2 L
397.198 288.2 L
397.632 288.2 L
398.066 288.2 L
398.5 288.2 L
398.934 288.2 L
399.368 288.2 L
399.802 288.2 L
400.236 288.2 L
400.67 288.2 L
401.104 288.2 L
401.538 288.2 L
401.972 288.2 L
402.406 288.2 L
402.84 288.2 L
403.274 288.2 L
403.708 288.2 L
404.142 288.2 L
404.576 288.2 L
405.01 288.2 L
405.444 288.2 L
405.878 288.2 L
406.312 288.2 L
406.746 288.2 L
407.18 288.2 L
407.614 288.2 L
408.048 288.2 L
408.482 288.2 L
408.916 288.2 L
409.35 288.2 L
409.784 288.2 L
410.218 288.2 L
410.652 288.2 L
411.086 288.2 L
411.52 288.2 L
411.954 288.2 L
412.388 288.2 L
412.822 288.2 L
413.256 288.2 L
413.69 288.2 L
414.124 288.2 L
414.558 288.2 L
414.992 288.2 L
415.426 288.2 L
415.86 288.2 L
416.294 288.2 L
416.728 288.2 L
417.162 288.2 L
417.596 288.2 L
418.03 288.2 L
418.464 288.2 L
418.898 288.2 L
419.332 288.2 L
419.766 288.2 L
420.2 288.2 L
420.634 288.2 L
421.068 288.2 L
421.502 288.2 L
421.936 288.2 L
422.37 288.2 L
422.804 288.2 L
423.238 288.2 L
423.672 288.2 L
424.106 288.2 L
424.54 288.2 L
424.974 288.2 L
425.408 288.2 L
425.842 288.2 L
426.276 288.2 L
426.71 288.2 L
427.144 288.2 L
427.578 288.2 L
428.012 288.2 L
428.446 288.2 L
428.88 288.2 L
429.314 288.2 L
429.748 288.2 L
430.182 288.2 L
430.616 288.2 L
431.05 288.2 L
431.484 288.2 L
431.918 288.2 L
432.352 288.2 L
432.786 288.2 L
433.22 288.2 L
433.654 288.2 L
434.088 288.2 L
434.522 288.2 L
434.956 288.2 L
435.39 288.2 L
435.824 288.2 L
436.258 288.2 L
436.692 288.2 L
437.126 288.2 L
437.56 288.2 L
437.994 288.2 L
438.428 288.2 L
438.862 288.2 L
439.296 288.2 L
439.73 288.2 L
440.164 288.2 L
440.598 288.2 L
441.032 288.2 L
441.466 288.2 L
441.9 288.2 L
442.334 288.2 L
442.768 288.2 L
443.202 288.2 L
443.636 288.2 L
444.07 288.2 L
444.504 288.2 L
444.938 288.2 L
445.372 288.2 L
445.806 288.2 L
446.24 288.2 L
446.674 288.2 L
447.108 288.2 L
447.542 288.2 L
447.976 288.2 L
448.41 288.2 L
448.844 288.2 L
449.278 288.2 L
449.712 288.2 L
450.146 288.2 L
450.58 288.2 L
451.014 288.2 L
451.448 288.2 L
451.882 288.2 L
452.316 288.2 L
452.75 288.2 L
453.184 288.2 L
453.618 288.2 L
454.052 288.2 L
454.486 288.2 L
454.92 288.2 L
455.354 288.2 L
455.788 288.2 L
456.222 288.2 L
456.656 288.2 L
457.09 288.2 L
457.524 288.2 L
457.958 288.2 L
458.392 288.2 L
458.826 288.2 L
459.26 288.2 L
459.694 288.2 L
460.128 288.2 L
460.562 288.2 L
460.996 288.2 L
461.43 288.2 L
461.864 288.2 L
462.298 288.2 L
462.732 288.2 L
463.166 288.2 L
463.6 288.2 L
464.034 288.2 L
464.468 288.2 L
464.902 288.2 L
465.336 288.2 L
465.77 288.2 L
466.204 288.2 L
466.638 288.2 L
467.072 288.2 L
467.506 288.2 L
467.94 288.2 L
468.374 288.2 L
468.808 288.2 L
469.242 288.2 L
469.676 288.2 L
470.11 288.2 L
470.544 288.2 L
470.978 288.2 L
471.412 288.2 L
471.846 288.2 L
472.28 288.2 L
472.714 288.2 L
473.148 288.2 L
473.582 288.2 L
474.016 288.2 L
474.45 288.2 L
474.884 288.2 L
475.318 288.2 L
475.752 288.2 L
476.186 288.2 L
476.62 288.2 L
477.054 288.2 L
477.488 288.2 L
477.922 288.2 L
478.356 288.2 L
478.79 288.2 L
479.224 288.2 L
479.658 288.2 L
480.092 288.2 L
480.526 288.2 L
480.96 288.2 L
481.394 288.2 L
481.828 288.2 L
482.262 288.2 L
482.696 288.2 L
483.13 288.2 L
483.564 288.2 L
483.998 288.2 L
484.432 288.2 L
484.866 288.2 L
485.3 288.2 L
485.734 288.2 L
486.168 288.2 L
486.602 288.2 L
487.036 288.2 L
487.47 288.2 L
487.904 288.2 L
488.338 288.2 L
488.772 288.2 L
489.206 288.2 L
489.64 288.2 L
490.074 288.2 L
490.508 288.2 L
490.942 288.2 L
491.376 288.2 L
491.81 288.2 L
492.244 288.2 L
492.678 288.2 L
493.112 288.2 L
493.546 288.2 L
493.98 288.2 L
494.414 288.2 L
494.848 288.2 L
495.282 288.2 L
495.716 288.2 L
496.15 288.2 L
496.584 288.2 L
497.018 288.2 L
497.452 288.2 L
497.886 288.2 L
498.32 288.2 L
498.754 288.2 L
499.188 288.2 L
499.622 288.2 L
500.056 288.2 L
500.49 288.2 L
500.924 288.2 L
501.358 288.2 L
501.792 288.2 L
502.226 288.2 L
502.66 288.2 L
503.094 288.2 L
503.528 288.2 L
503.962 288.2 L
504.396 288.2 L
504.83 288.2 L
505.264 288.2 L
505.698 288.2 L
506.132 288.2 L
506.566 288.2 L
507 288.2 L
S
GR
GS
1 GC
N
80 262 M
80 236 L
238 236 L
238 262 L
cp
f
GR
GS
[1 0 0 1 117 243.35849] CT
/Helvetica 9 F
GS
[1 0 0 1 0 0] CT
0 3.5 moveto 
1 -1 scale
(Polynomial model - residuals) t 
GR
GR
GS
[1 0 0 1 99 243.35849] CT
0 0 1 RC
N
2.667 0 M
2.667 1.473 1.473 2.667 0 2.667 C
-1.473 2.667 -2.667 1.473 -2.667 0 C
-2.667 -1.473 -1.473 -2.667 0 -2.667 C
1.473 -2.667 2.667 -1.473 2.667 0 C
cp
f
GR
GS
[1 0 0 1 117 254.64151] CT
/Helvetica 9 F
GS
[1 0 0 1 0 0] CT
0 3.5 moveto 
1 -1 scale
(Zero Line) t 
GR
GR
GS
1 0 0 RC
1 LJ
N
84 254.642 M
114 254.642 L
S
GR
GS
0.149 GC
10.0 ML
0.5 LW
N
80 262 M
80 236 L
238 236 L
238 262 L
cp
S
GR
%%Trailer
%%Pages: 1
%%EOF
