%!PS-Adobe-3.0 EPSF-3.0
%%Creator: (MATLAB, The Mathworks, Inc. Version 9.0.0.341360 \(R2016a\). Operating System: Mac OS X)
%%Title: /Users/deepak/Documents/MATLAB/matlabprojects/singleCalib_IH/source/dryn.eps
%%CreationDate: 2016-11-26T22:43:01
%%Pages: (atend)
%%BoundingBox: 0 0 560 420
%%LanguageLevel: 3
%%EndComments
%%BeginProlog
%%BeginResource: procset (Apache XML Graphics Std ProcSet) 1.2 0
%%Version: 1.2 0
%%Copyright: (Copyright 2001-2003,2010 The Apache Software Foundation. License terms: http://www.apache.org/licenses/LICENSE-2.0)
/bd{bind def}bind def
/ld{load def}bd
/GR/grestore ld
/M/moveto ld
/LJ/setlinejoin ld
/C/curveto ld
/f/fill ld
/LW/setlinewidth ld
/GC/setgray ld
/t/show ld
/N/newpath ld
/CT/concat ld
/cp/closepath ld
/S/stroke ld
/L/lineto ld
/CC/setcmykcolor ld
/A/ashow ld
/GS/gsave ld
/RC/setrgbcolor ld
/RM/rmoveto ld
/ML/setmiterlimit ld
/re {4 2 roll M
1 index 0 rlineto
0 exch rlineto
neg 0 rlineto
cp } bd
/_ctm matrix def
/_tm matrix def
/BT { _ctm currentmatrix pop matrix _tm copy pop 0 0 moveto } bd
/ET { _ctm setmatrix } bd
/iTm { _ctm setmatrix _tm concat } bd
/Tm { _tm astore pop iTm 0 0 moveto } bd
/ux 0.0 def
/uy 0.0 def
/F {
  /Tp exch def
  /Tf exch def
  Tf findfont Tp scalefont setfont
  /cf Tf def  /cs Tp def
} bd
/ULS {currentpoint /uy exch def /ux exch def} bd
/ULE {
  /Tcx currentpoint pop def
  gsave
  newpath
  cf findfont cs scalefont dup
  /FontMatrix get 0 get /Ts exch def /FontInfo get dup
  /UnderlinePosition get Ts mul /To exch def
  /UnderlineThickness get Ts mul /Tt exch def
  ux uy To add moveto  Tcx uy To add lineto
  Tt setlinewidth stroke
  grestore
} bd
/OLE {
  /Tcx currentpoint pop def
  gsave
  newpath
  cf findfont cs scalefont dup
  /FontMatrix get 0 get /Ts exch def /FontInfo get dup
  /UnderlinePosition get Ts mul /To exch def
  /UnderlineThickness get Ts mul /Tt exch def
  ux uy To add cs add moveto Tcx uy To add cs add lineto
  Tt setlinewidth stroke
  grestore
} bd
/SOE {
  /Tcx currentpoint pop def
  gsave
  newpath
  cf findfont cs scalefont dup
  /FontMatrix get 0 get /Ts exch def /FontInfo get dup
  /UnderlinePosition get Ts mul /To exch def
  /UnderlineThickness get Ts mul /Tt exch def
  ux uy To add cs 10 mul 26 idiv add moveto Tcx uy To add cs 10 mul 26 idiv add lineto
  Tt setlinewidth stroke
  grestore
} bd
/QT {
/Y22 exch store
/X22 exch store
/Y21 exch store
/X21 exch store
currentpoint
/Y21 load 2 mul add 3 div exch
/X21 load 2 mul add 3 div exch
/X21 load 2 mul /X22 load add 3 div
/Y21 load 2 mul /Y22 load add 3 div
/X22 load /Y22 load curveto
} bd
/SSPD {
dup length /d exch dict def
{
/v exch def
/k exch def
currentpagedevice k known {
/cpdv currentpagedevice k get def
v cpdv ne {
/upd false def
/nullv v type /nulltype eq def
/nullcpdv cpdv type /nulltype eq def
nullv nullcpdv or
{
/upd true def
} {
/sametype v type cpdv type eq def
sametype {
v type /arraytype eq {
/vlen v length def
/cpdvlen cpdv length def
vlen cpdvlen eq {
0 1 vlen 1 sub {
/i exch def
/obj v i get def
/cpdobj cpdv i get def
obj cpdobj ne {
/upd true def
exit
} if
} for
} {
/upd true def
} ifelse
} {
v type /dicttype eq {
v {
/dv exch def
/dk exch def
/cpddv cpdv dk get def
dv cpddv ne {
/upd true def
exit
} if
} forall
} {
/upd true def
} ifelse
} ifelse
} if
} ifelse
upd true eq {
d k v put
} if
} if
} if
} forall
d length 0 gt {
d setpagedevice
} if
} bd
%%EndResource
%%BeginResource: procset (Apache XML Graphics EPS ProcSet) 1.0 0
%%Version: 1.0 0
%%Copyright: (Copyright 2002-2003 The Apache Software Foundation. License terms: http://www.apache.org/licenses/LICENSE-2.0)
/BeginEPSF { %def
/b4_Inc_state save def         % Save state for cleanup
/dict_count countdictstack def % Count objects on dict stack
/op_count count 1 sub def      % Count objects on operand stack
userdict begin                 % Push userdict on dict stack
/showpage { } def              % Redefine showpage, { } = null proc
0 setgray 0 setlinecap         % Prepare graphics state
1 setlinewidth 0 setlinejoin
10 setmiterlimit [ ] 0 setdash newpath
/languagelevel where           % If level not equal to 1 then
{pop languagelevel             % set strokeadjust and
1 ne                           % overprint to their defaults.
{false setstrokeadjust false setoverprint
} if
} if
} bd
/EndEPSF { %def
count op_count sub {pop} repeat            % Clean up stacks
countdictstack dict_count sub {end} repeat
b4_Inc_state restore
} bd
%%EndResource
%FOPBeginFontDict
%%IncludeResource: font Courier-Bold
%%IncludeResource: font Helvetica
%%IncludeResource: font Courier-BoldOblique
%%IncludeResource: font Courier-Oblique
%%IncludeResource: font Times-Roman
%%IncludeResource: font Helvetica-BoldOblique
%%IncludeResource: font Helvetica-Bold
%%IncludeResource: font Helvetica-Oblique
%%IncludeResource: font Times-BoldItalic
%%IncludeResource: font Courier
%%IncludeResource: font Times-Italic
%%IncludeResource: font Times-Bold
%%IncludeResource: font Symbol
%%IncludeResource: font ZapfDingbats
%FOPEndFontDict
%%BeginResource: encoding WinAnsiEncoding
/WinAnsiEncoding [
/.notdef /.notdef /.notdef /.notdef /.notdef
/.notdef /.notdef /.notdef /.notdef /.notdef
/.notdef /.notdef /.notdef /.notdef /.notdef
/.notdef /.notdef /.notdef /.notdef /.notdef
/.notdef /.notdef /.notdef /.notdef /.notdef
/.notdef /.notdef /.notdef /.notdef /.notdef
/.notdef /.notdef /space /exclam /quotedbl
/numbersign /dollar /percent /ampersand /quotesingle
/parenleft /parenright /asterisk /plus /comma
/hyphen /period /slash /zero /one
/two /three /four /five /six
/seven /eight /nine /colon /semicolon
/less /equal /greater /question /at
/A /B /C /D /E
/F /G /H /I /J
/K /L /M /N /O
/P /Q /R /S /T
/U /V /W /X /Y
/Z /bracketleft /backslash /bracketright /asciicircum
/underscore /quoteleft /a /b /c
/d /e /f /g /h
/i /j /k /l /m
/n /o /p /q /r
/s /t /u /v /w
/x /y /z /braceleft /bar
/braceright /asciitilde /bullet /Euro /bullet
/quotesinglbase /florin /quotedblbase /ellipsis /dagger
/daggerdbl /circumflex /perthousand /Scaron /guilsinglleft
/OE /bullet /Zcaron /bullet /bullet
/quoteleft /quoteright /quotedblleft /quotedblright /bullet
/endash /emdash /asciitilde /trademark /scaron
/guilsinglright /oe /bullet /zcaron /Ydieresis
/space /exclamdown /cent /sterling /currency
/yen /brokenbar /section /dieresis /copyright
/ordfeminine /guillemotleft /logicalnot /sfthyphen /registered
/macron /degree /plusminus /twosuperior /threesuperior
/acute /mu /paragraph /middot /cedilla
/onesuperior /ordmasculine /guillemotright /onequarter /onehalf
/threequarters /questiondown /Agrave /Aacute /Acircumflex
/Atilde /Adieresis /Aring /AE /Ccedilla
/Egrave /Eacute /Ecircumflex /Edieresis /Igrave
/Iacute /Icircumflex /Idieresis /Eth /Ntilde
/Ograve /Oacute /Ocircumflex /Otilde /Odieresis
/multiply /Oslash /Ugrave /Uacute /Ucircumflex
/Udieresis /Yacute /Thorn /germandbls /agrave
/aacute /acircumflex /atilde /adieresis /aring
/ae /ccedilla /egrave /eacute /ecircumflex
/edieresis /igrave /iacute /icircumflex /idieresis
/eth /ntilde /ograve /oacute /ocircumflex
/otilde /odieresis /divide /oslash /ugrave
/uacute /ucircumflex /udieresis /yacute /thorn
/ydieresis
] def
%%EndResource
%FOPBeginFontReencode
/Courier-Bold findfont
dup length dict begin
  {1 index /FID ne {def} {pop pop} ifelse} forall
  /Encoding WinAnsiEncoding def
  currentdict
end
/Courier-Bold exch definefont pop
/Helvetica findfont
dup length dict begin
  {1 index /FID ne {def} {pop pop} ifelse} forall
  /Encoding WinAnsiEncoding def
  currentdict
end
/Helvetica exch definefont pop
/Courier-BoldOblique findfont
dup length dict begin
  {1 index /FID ne {def} {pop pop} ifelse} forall
  /Encoding WinAnsiEncoding def
  currentdict
end
/Courier-BoldOblique exch definefont pop
/Courier-Oblique findfont
dup length dict begin
  {1 index /FID ne {def} {pop pop} ifelse} forall
  /Encoding WinAnsiEncoding def
  currentdict
end
/Courier-Oblique exch definefont pop
/Times-Roman findfont
dup length dict begin
  {1 index /FID ne {def} {pop pop} ifelse} forall
  /Encoding WinAnsiEncoding def
  currentdict
end
/Times-Roman exch definefont pop
/Helvetica-BoldOblique findfont
dup length dict begin
  {1 index /FID ne {def} {pop pop} ifelse} forall
  /Encoding WinAnsiEncoding def
  currentdict
end
/Helvetica-BoldOblique exch definefont pop
/Helvetica-Bold findfont
dup length dict begin
  {1 index /FID ne {def} {pop pop} ifelse} forall
  /Encoding WinAnsiEncoding def
  currentdict
end
/Helvetica-Bold exch definefont pop
/Helvetica-Oblique findfont
dup length dict begin
  {1 index /FID ne {def} {pop pop} ifelse} forall
  /Encoding WinAnsiEncoding def
  currentdict
end
/Helvetica-Oblique exch definefont pop
/Times-BoldItalic findfont
dup length dict begin
  {1 index /FID ne {def} {pop pop} ifelse} forall
  /Encoding WinAnsiEncoding def
  currentdict
end
/Times-BoldItalic exch definefont pop
/Courier findfont
dup length dict begin
  {1 index /FID ne {def} {pop pop} ifelse} forall
  /Encoding WinAnsiEncoding def
  currentdict
end
/Courier exch definefont pop
/Times-Italic findfont
dup length dict begin
  {1 index /FID ne {def} {pop pop} ifelse} forall
  /Encoding WinAnsiEncoding def
  currentdict
end
/Times-Italic exch definefont pop
/Times-Bold findfont
dup length dict begin
  {1 index /FID ne {def} {pop pop} ifelse} forall
  /Encoding WinAnsiEncoding def
  currentdict
end
/Times-Bold exch definefont pop
%FOPEndFontReencode
%%EndProlog
%%Page: 1 1
%%PageBoundingBox: 0 0 560 420
%%BeginPageSetup
[1 0 0 -1 0 420] CT
%%EndPageSetup
GS
1 GC
N
0 0 560 420 re
f
GR
GS
1 GC
N
0 0 560 420 re
f
GR
GS
1 GC
N
73 175 M
507 175 L
507 31 L
73 31 L
cp
f
GR
GS
0.873 GC
1 LJ
0.5 LW
N
73 175 M
73 31 L
S
GR
GS
0.873 GC
1 LJ
0.5 LW
N
127.25 175 M
127.25 31 L
S
GR
GS
0.873 GC
1 LJ
0.5 LW
N
181.5 175 M
181.5 31 L
S
GR
GS
0.873 GC
1 LJ
0.5 LW
N
235.75 175 M
235.75 31 L
S
GR
GS
0.873 GC
1 LJ
0.5 LW
N
290 175 M
290 31 L
S
GR
GS
0.873 GC
1 LJ
0.5 LW
N
344.25 175 M
344.25 31 L
S
GR
GS
0.873 GC
1 LJ
0.5 LW
N
398.5 175 M
398.5 31 L
S
GR
GS
0.873 GC
1 LJ
0.5 LW
N
452.75 175 M
452.75 31 L
S
GR
GS
0.873 GC
1 LJ
0.5 LW
N
507 175 M
507 31 L
S
GR
GS
0.873 GC
1 LJ
0.5 LW
N
507 175 M
73 175 L
S
GR
GS
0.873 GC
1 LJ
0.5 LW
N
507 146.2 M
73 146.2 L
S
GR
GS
0.873 GC
1 LJ
0.5 LW
N
507 117.4 M
73 117.4 L
S
GR
GS
0.873 GC
1 LJ
0.5 LW
N
507 88.6 M
73 88.6 L
S
GR
GS
0.873 GC
1 LJ
0.5 LW
N
507 59.8 M
73 59.8 L
S
GR
GS
0.873 GC
1 LJ
0.5 LW
N
507 31 M
73 31 L
S
GR
GS
0.149 GC
2 setlinecap
1 LJ
0.5 LW
N
73 175 M
507 175 L
S
GR
GS
0.149 GC
2 setlinecap
1 LJ
0.5 LW
N
73 31 M
507 31 L
S
GR
GS
0.149 GC
2 setlinecap
1 LJ
0.5 LW
N
73 175 M
73 170.66 L
S
GR
GS
0.149 GC
2 setlinecap
1 LJ
0.5 LW
N
127.25 175 M
127.25 170.66 L
S
GR
GS
0.149 GC
2 setlinecap
1 LJ
0.5 LW
N
181.5 175 M
181.5 170.66 L
S
GR
GS
0.149 GC
2 setlinecap
1 LJ
0.5 LW
N
235.75 175 M
235.75 170.66 L
S
GR
GS
0.149 GC
2 setlinecap
1 LJ
0.5 LW
N
290 175 M
290 170.66 L
S
GR
GS
0.149 GC
2 setlinecap
1 LJ
0.5 LW
N
344.25 175 M
344.25 170.66 L
S
GR
GS
0.149 GC
2 setlinecap
1 LJ
0.5 LW
N
398.5 175 M
398.5 170.66 L
S
GR
GS
0.149 GC
2 setlinecap
1 LJ
0.5 LW
N
452.75 175 M
452.75 170.66 L
S
GR
GS
0.149 GC
2 setlinecap
1 LJ
0.5 LW
N
507 175 M
507 170.66 L
S
GR
GS
0.149 GC
2 setlinecap
1 LJ
0.5 LW
N
73 31 M
73 35.34 L
S
GR
GS
0.149 GC
2 setlinecap
1 LJ
0.5 LW
N
127.25 31 M
127.25 35.34 L
S
GR
GS
0.149 GC
2 setlinecap
1 LJ
0.5 LW
N
181.5 31 M
181.5 35.34 L
S
GR
GS
0.149 GC
2 setlinecap
1 LJ
0.5 LW
N
235.75 31 M
235.75 35.34 L
S
GR
GS
0.149 GC
2 setlinecap
1 LJ
0.5 LW
N
290 31 M
290 35.34 L
S
GR
GS
0.149 GC
2 setlinecap
1 LJ
0.5 LW
N
344.25 31 M
344.25 35.34 L
S
GR
GS
0.149 GC
2 setlinecap
1 LJ
0.5 LW
N
398.5 31 M
398.5 35.34 L
S
GR
GS
0.149 GC
2 setlinecap
1 LJ
0.5 LW
N
452.75 31 M
452.75 35.34 L
S
GR
GS
0.149 GC
2 setlinecap
1 LJ
0.5 LW
N
507 31 M
507 35.34 L
S
GR
GS
[1 0 0 1 73 179] CT
0.149 GC
/Helvetica 10 F
GS
[1 0 0 1 0 0] CT
-8 10 moveto 
1 -1 scale
(-40) t 
GR
GR
GS
[1 0 0 1 127.25 179] CT
0.149 GC
/Helvetica 10 F
GS
[1 0 0 1 0 0] CT
-8 10 moveto 
1 -1 scale
(-35) t 
GR
GR
GS
[1 0 0 1 181.5 179] CT
0.149 GC
/Helvetica 10 F
GS
[1 0 0 1 0 0] CT
-8 10 moveto 
1 -1 scale
(-30) t 
GR
GR
GS
[1 0 0 1 235.75 179] CT
0.149 GC
/Helvetica 10 F
GS
[1 0 0 1 0 0] CT
-8 10 moveto 
1 -1 scale
(-25) t 
GR
GR
GS
[1 0 0 1 290 179] CT
0.149 GC
/Helvetica 10 F
GS
[1 0 0 1 0 0] CT
-8 10 moveto 
1 -1 scale
(-20) t 
GR
GR
GS
[1 0 0 1 344.25 179] CT
0.149 GC
/Helvetica 10 F
GS
[1 0 0 1 0 0] CT
-8 10 moveto 
1 -1 scale
(-15) t 
GR
GR
GS
[1 0 0 1 398.5 179] CT
0.149 GC
/Helvetica 10 F
GS
[1 0 0 1 0 0] CT
-8 10 moveto 
1 -1 scale
(-10) t 
GR
GR
GS
[1 0 0 1 452.75 179] CT
0.149 GC
/Helvetica 10 F
GS
[1 0 0 1 0 0] CT
-5 10 moveto 
1 -1 scale
(-5) t 
GR
GR
GS
[1 0 0 1 507 179] CT
0.149 GC
/Helvetica 10 F
GS
[1 0 0 1 0 0] CT
-3 10 moveto 
1 -1 scale
(0) t 
GR
GR
GS
[1 0 0 1 290.00021 193] CT
0.149 GC
/Helvetica-Bold 12 F
GS
[1 0 0 1 0 0] CT
-82 12 moveto 
1 -1 scale
(Camera rotation \(in degrees\)) t 
GR
GR
GS
0.149 GC
2 setlinecap
1 LJ
0.5 LW
N
73 175 M
73 31 L
S
GR
GS
0.149 GC
2 setlinecap
1 LJ
0.5 LW
N
507 175 M
507 31 L
S
GR
GS
0.149 GC
2 setlinecap
1 LJ
0.5 LW
N
73 175 M
77.34 175 L
S
GR
GS
0.149 GC
2 setlinecap
1 LJ
0.5 LW
N
73 146.2 M
77.34 146.2 L
S
GR
GS
0.149 GC
2 setlinecap
1 LJ
0.5 LW
N
73 117.4 M
77.34 117.4 L
S
GR
GS
0.149 GC
2 setlinecap
1 LJ
0.5 LW
N
73 88.6 M
77.34 88.6 L
S
GR
GS
0.149 GC
2 setlinecap
1 LJ
0.5 LW
N
73 59.8 M
77.34 59.8 L
S
GR
GS
0.149 GC
2 setlinecap
1 LJ
0.5 LW
N
73 31 M
77.34 31 L
S
GR
GS
0.149 GC
2 setlinecap
1 LJ
0.5 LW
N
507 175 M
502.66 175 L
S
GR
GS
0.149 GC
2 setlinecap
1 LJ
0.5 LW
N
507 146.2 M
502.66 146.2 L
S
GR
GS
0.149 GC
2 setlinecap
1 LJ
0.5 LW
N
507 117.4 M
502.66 117.4 L
S
GR
GS
0.149 GC
2 setlinecap
1 LJ
0.5 LW
N
507 88.6 M
502.66 88.6 L
S
GR
GS
0.149 GC
2 setlinecap
1 LJ
0.5 LW
N
507 59.8 M
502.66 59.8 L
S
GR
GS
0.149 GC
2 setlinecap
1 LJ
0.5 LW
N
507 31 M
502.66 31 L
S
GR
GS
[1 0 0 1 69 175] CT
0.149 GC
/Helvetica 10 F
GS
[1 0 0 1 0 0] CT
-6 3.5 moveto 
1 -1 scale
(0) t 
GR
GR
GS
[1 0 0 1 69 146.2] CT
0.149 GC
/Helvetica 10 F
GS
[1 0 0 1 0 0] CT
-6 3.5 moveto 
1 -1 scale
(1) t 
GR
GR
GS
[1 0 0 1 69 117.4] CT
0.149 GC
/Helvetica 10 F
GS
[1 0 0 1 0 0] CT
-6 3.5 moveto 
1 -1 scale
(2) t 
GR
GR
GS
[1 0 0 1 69 88.6] CT
0.149 GC
/Helvetica 10 F
GS
[1 0 0 1 0 0] CT
-6 3.5 moveto 
1 -1 scale
(3) t 
GR
GR
GS
[1 0 0 1 69 59.8] CT
0.149 GC
/Helvetica 10 F
GS
[1 0 0 1 0 0] CT
-6 3.5 moveto 
1 -1 scale
(4) t 
GR
GR
GS
[1 0 0 1 69 31] CT
0.149 GC
/Helvetica 10 F
GS
[1 0 0 1 0 0] CT
-6 3.5 moveto 
1 -1 scale
(5) t 
GR
GR
GS
[0 -1 1 0 59.99998 102.99993] CT
0.149 GC
/Helvetica-Bold 12 F
GS
[1 0 0 1 0 0] CT
-56 -3 moveto 
1 -1 scale
(Depth error \(in mm\)) t 
GR
GR
GS
[1 0 0 1 73 36.22882] CT
0 0 1 RC
N
2.667 0 M
2.667 1.473 1.473 2.667 0 2.667 C
-1.473 2.667 -2.667 1.473 -2.667 0 C
-2.667 -1.473 -1.473 -2.667 0 -2.667 C
1.473 -2.667 2.667 -1.473 2.667 0 C
cp
f
GR
GS
[1 0 0 1 83.85 51.49954] CT
0 0 1 RC
N
2.667 0 M
2.667 1.473 1.473 2.667 0 2.667 C
-1.473 2.667 -2.667 1.473 -2.667 0 C
-2.667 -1.473 -1.473 -2.667 0 -2.667 C
1.473 -2.667 2.667 -1.473 2.667 0 C
cp
f
GR
GS
[1 0 0 1 94.7 57.49212] CT
0 0 1 RC
N
2.667 0 M
2.667 1.473 1.473 2.667 0 2.667 C
-1.473 2.667 -2.667 1.473 -2.667 0 C
-2.667 -1.473 -1.473 -2.667 0 -2.667 C
1.473 -2.667 2.667 -1.473 2.667 0 C
cp
f
GR
GS
[1 0 0 1 105.55 71.41798] CT
0 0 1 RC
N
2.667 0 M
2.667 1.473 1.473 2.667 0 2.667 C
-1.473 2.667 -2.667 1.473 -2.667 0 C
-2.667 -1.473 -1.473 -2.667 0 -2.667 C
1.473 -2.667 2.667 -1.473 2.667 0 C
cp
f
GR
GS
[1 0 0 1 116.4 76.95158] CT
0 0 1 RC
N
2.667 0 M
2.667 1.473 1.473 2.667 0 2.667 C
-1.473 2.667 -2.667 1.473 -2.667 0 C
-2.667 -1.473 -1.473 -2.667 0 -2.667 C
1.473 -2.667 2.667 -1.473 2.667 0 C
cp
f
GR
GS
[1 0 0 1 127.25 82.50717] CT
0 0 1 RC
N
2.667 0 M
2.667 1.473 1.473 2.667 0 2.667 C
-1.473 2.667 -2.667 1.473 -2.667 0 C
-2.667 -1.473 -1.473 -2.667 0 -2.667 C
1.473 -2.667 2.667 -1.473 2.667 0 C
cp
f
GR
GS
[1 0 0 1 138.10001 88.49494] CT
0 0 1 RC
N
2.667 0 M
2.667 1.473 1.473 2.667 0 2.667 C
-1.473 2.667 -2.667 1.473 -2.667 0 C
-2.667 -1.473 -1.473 -2.667 0 -2.667 C
1.473 -2.667 2.667 -1.473 2.667 0 C
cp
f
GR
GS
[1 0 0 1 148.95 96.36859] CT
0 0 1 RC
N
2.667 0 M
2.667 1.473 1.473 2.667 0 2.667 C
-1.473 2.667 -2.667 1.473 -2.667 0 C
-2.667 -1.473 -1.473 -2.667 0 -2.667 C
1.473 -2.667 2.667 -1.473 2.667 0 C
cp
f
GR
GS
[1 0 0 1 159.8 99.43064] CT
0 0 1 RC
N
2.667 0 M
2.667 1.473 1.473 2.667 0 2.667 C
-1.473 2.667 -2.667 1.473 -2.667 0 C
-2.667 -1.473 -1.473 -2.667 0 -2.667 C
1.473 -2.667 2.667 -1.473 2.667 0 C
cp
f
GR
GS
[1 0 0 1 170.64999 105.74316] CT
0 0 1 RC
N
2.667 0 M
2.667 1.473 1.473 2.667 0 2.667 C
-1.473 2.667 -2.667 1.473 -2.667 0 C
-2.667 -1.473 -1.473 -2.667 0 -2.667 C
1.473 -2.667 2.667 -1.473 2.667 0 C
cp
f
GR
GS
[1 0 0 1 181.5 111.83769] CT
0 0 1 RC
N
2.667 0 M
2.667 1.473 1.473 2.667 0 2.667 C
-1.473 2.667 -2.667 1.473 -2.667 0 C
-2.667 -1.473 -1.473 -2.667 0 -2.667 C
1.473 -2.667 2.667 -1.473 2.667 0 C
cp
f
GR
GS
[1 0 0 1 192.35001 113.32478] CT
0 0 1 RC
N
2.667 0 M
2.667 1.473 1.473 2.667 0 2.667 C
-1.473 2.667 -2.667 1.473 -2.667 0 C
-2.667 -1.473 -1.473 -2.667 0 -2.667 C
1.473 -2.667 2.667 -1.473 2.667 0 C
cp
f
GR
GS
[1 0 0 1 203.2 117.06851] CT
0 0 1 RC
N
2.667 0 M
2.667 1.473 1.473 2.667 0 2.667 C
-1.473 2.667 -2.667 1.473 -2.667 0 C
-2.667 -1.473 -1.473 -2.667 0 -2.667 C
1.473 -2.667 2.667 -1.473 2.667 0 C
cp
f
GR
GS
[1 0 0 1 214.05 122.8262] CT
0 0 1 RC
N
2.667 0 M
2.667 1.473 1.473 2.667 0 2.667 C
-1.473 2.667 -2.667 1.473 -2.667 0 C
-2.667 -1.473 -1.473 -2.667 0 -2.667 C
1.473 -2.667 2.667 -1.473 2.667 0 C
cp
f
GR
GS
[1 0 0 1 224.89999 126.46418] CT
0 0 1 RC
N
2.667 0 M
2.667 1.473 1.473 2.667 0 2.667 C
-1.473 2.667 -2.667 1.473 -2.667 0 C
-2.667 -1.473 -1.473 -2.667 0 -2.667 C
1.473 -2.667 2.667 -1.473 2.667 0 C
cp
f
GR
GS
[1 0 0 1 235.75 131.4187] CT
0 0 1 RC
N
2.667 0 M
2.667 1.473 1.473 2.667 0 2.667 C
-1.473 2.667 -2.667 1.473 -2.667 0 C
-2.667 -1.473 -1.473 -2.667 0 -2.667 C
1.473 -2.667 2.667 -1.473 2.667 0 C
cp
f
GR
GS
[1 0 0 1 246.60001 132.87267] CT
0 0 1 RC
N
2.667 0 M
2.667 1.473 1.473 2.667 0 2.667 C
-1.473 2.667 -2.667 1.473 -2.667 0 C
-2.667 -1.473 -1.473 -2.667 0 -2.667 C
1.473 -2.667 2.667 -1.473 2.667 0 C
cp
f
GR
GS
[1 0 0 1 257.45001 137.30699] CT
0 0 1 RC
N
2.667 0 M
2.667 1.473 1.473 2.667 0 2.667 C
-1.473 2.667 -2.667 1.473 -2.667 0 C
-2.667 -1.473 -1.473 -2.667 0 -2.667 C
1.473 -2.667 2.667 -1.473 2.667 0 C
cp
f
GR
GS
[1 0 0 1 268.29999 140.71443] CT
0 0 1 RC
N
2.667 0 M
2.667 1.473 1.473 2.667 0 2.667 C
-1.473 2.667 -2.667 1.473 -2.667 0 C
-2.667 -1.473 -1.473 -2.667 0 -2.667 C
1.473 -2.667 2.667 -1.473 2.667 0 C
cp
f
GR
GS
[1 0 0 1 279.14999 142.1485] CT
0 0 1 RC
N
2.667 0 M
2.667 1.473 1.473 2.667 0 2.667 C
-1.473 2.667 -2.667 1.473 -2.667 0 C
-2.667 -1.473 -1.473 -2.667 0 -2.667 C
1.473 -2.667 2.667 -1.473 2.667 0 C
cp
f
GR
GS
[1 0 0 1 290 143.5468] CT
0 0 1 RC
N
2.667 0 M
2.667 1.473 1.473 2.667 0 2.667 C
-1.473 2.667 -2.667 1.473 -2.667 0 C
-2.667 -1.473 -1.473 -2.667 0 -2.667 C
1.473 -2.667 2.667 -1.473 2.667 0 C
cp
f
GR
GS
[1 0 0 1 300.85001 146.82932] CT
0 0 1 RC
N
2.667 0 M
2.667 1.473 1.473 2.667 0 2.667 C
-1.473 2.667 -2.667 1.473 -2.667 0 C
-2.667 -1.473 -1.473 -2.667 0 -2.667 C
1.473 -2.667 2.667 -1.473 2.667 0 C
cp
f
GR
GS
[1 0 0 1 311.70001 149.3719] CT
0 0 1 RC
N
2.667 0 M
2.667 1.473 1.473 2.667 0 2.667 C
-1.473 2.667 -2.667 1.473 -2.667 0 C
-2.667 -1.473 -1.473 -2.667 0 -2.667 C
1.473 -2.667 2.667 -1.473 2.667 0 C
cp
f
GR
GS
[1 0 0 1 322.54999 149.74277] CT
0 0 1 RC
N
2.667 0 M
2.667 1.473 1.473 2.667 0 2.667 C
-1.473 2.667 -2.667 1.473 -2.667 0 C
-2.667 -1.473 -1.473 -2.667 0 -2.667 C
1.473 -2.667 2.667 -1.473 2.667 0 C
cp
f
GR
GS
[1 0 0 1 333.39999 153.32184] CT
0 0 1 RC
N
2.667 0 M
2.667 1.473 1.473 2.667 0 2.667 C
-1.473 2.667 -2.667 1.473 -2.667 0 C
-2.667 -1.473 -1.473 -2.667 0 -2.667 C
1.473 -2.667 2.667 -1.473 2.667 0 C
cp
f
GR
GS
[1 0 0 1 344.25 153.58849] CT
0 0 1 RC
N
2.667 0 M
2.667 1.473 1.473 2.667 0 2.667 C
-1.473 2.667 -2.667 1.473 -2.667 0 C
-2.667 -1.473 -1.473 -2.667 0 -2.667 C
1.473 -2.667 2.667 -1.473 2.667 0 C
cp
f
GR
GS
[1 0 0 1 355.10001 156.35782] CT
0 0 1 RC
N
2.667 0 M
2.667 1.473 1.473 2.667 0 2.667 C
-1.473 2.667 -2.667 1.473 -2.667 0 C
-2.667 -1.473 -1.473 -2.667 0 -2.667 C
1.473 -2.667 2.667 -1.473 2.667 0 C
cp
f
GR
GS
[1 0 0 1 365.95001 157.87534] CT
0 0 1 RC
N
2.667 0 M
2.667 1.473 1.473 2.667 0 2.667 C
-1.473 2.667 -2.667 1.473 -2.667 0 C
-2.667 -1.473 -1.473 -2.667 0 -2.667 C
1.473 -2.667 2.667 -1.473 2.667 0 C
cp
f
GR
GS
[1 0 0 1 376.79999 160.06837] CT
0 0 1 RC
N
2.667 0 M
2.667 1.473 1.473 2.667 0 2.667 C
-1.473 2.667 -2.667 1.473 -2.667 0 C
-2.667 -1.473 -1.473 -2.667 0 -2.667 C
1.473 -2.667 2.667 -1.473 2.667 0 C
cp
f
GR
GS
[1 0 0 1 387.64999 160.96593] CT
0 0 1 RC
N
2.667 0 M
2.667 1.473 1.473 2.667 0 2.667 C
-1.473 2.667 -2.667 1.473 -2.667 0 C
-2.667 -1.473 -1.473 -2.667 0 -2.667 C
1.473 -2.667 2.667 -1.473 2.667 0 C
cp
f
GR
GS
[1 0 0 1 398.5 161.93681] CT
0 0 1 RC
N
2.667 0 M
2.667 1.473 1.473 2.667 0 2.667 C
-1.473 2.667 -2.667 1.473 -2.667 0 C
-2.667 -1.473 -1.473 -2.667 0 -2.667 C
1.473 -2.667 2.667 -1.473 2.667 0 C
cp
f
GR
GS
[1 0 0 1 409.35001 163.63033] CT
0 0 1 RC
N
2.667 0 M
2.667 1.473 1.473 2.667 0 2.667 C
-1.473 2.667 -2.667 1.473 -2.667 0 C
-2.667 -1.473 -1.473 -2.667 0 -2.667 C
1.473 -2.667 2.667 -1.473 2.667 0 C
cp
f
GR
GS
[1 0 0 1 420.20001 165.12305] CT
0 0 1 RC
N
2.667 0 M
2.667 1.473 1.473 2.667 0 2.667 C
-1.473 2.667 -2.667 1.473 -2.667 0 C
-2.667 -1.473 -1.473 -2.667 0 -2.667 C
1.473 -2.667 2.667 -1.473 2.667 0 C
cp
f
GR
GS
[1 0 0 1 431.04999 166.25818] CT
0 0 1 RC
N
2.667 0 M
2.667 1.473 1.473 2.667 0 2.667 C
-1.473 2.667 -2.667 1.473 -2.667 0 C
-2.667 -1.473 -1.473 -2.667 0 -2.667 C
1.473 -2.667 2.667 -1.473 2.667 0 C
cp
f
GR
GS
[1 0 0 1 441.89999 167.24077] CT
0 0 1 RC
N
2.667 0 M
2.667 1.473 1.473 2.667 0 2.667 C
-1.473 2.667 -2.667 1.473 -2.667 0 C
-2.667 -1.473 -1.473 -2.667 0 -2.667 C
1.473 -2.667 2.667 -1.473 2.667 0 C
cp
f
GR
GS
[1 0 0 1 452.75 168.7365] CT
0 0 1 RC
N
2.667 0 M
2.667 1.473 1.473 2.667 0 2.667 C
-1.473 2.667 -2.667 1.473 -2.667 0 C
-2.667 -1.473 -1.473 -2.667 0 -2.667 C
1.473 -2.667 2.667 -1.473 2.667 0 C
cp
f
GR
GS
[1 0 0 1 463.60001 169.76321] CT
0 0 1 RC
N
2.667 0 M
2.667 1.473 1.473 2.667 0 2.667 C
-1.473 2.667 -2.667 1.473 -2.667 0 C
-2.667 -1.473 -1.473 -2.667 0 -2.667 C
1.473 -2.667 2.667 -1.473 2.667 0 C
cp
f
GR
GS
[1 0 0 1 474.45001 171.19962] CT
0 0 1 RC
N
2.667 0 M
2.667 1.473 1.473 2.667 0 2.667 C
-1.473 2.667 -2.667 1.473 -2.667 0 C
-2.667 -1.473 -1.473 -2.667 0 -2.667 C
1.473 -2.667 2.667 -1.473 2.667 0 C
cp
f
GR
GS
[1 0 0 1 485.29999 172.2475] CT
0 0 1 RC
N
2.667 0 M
2.667 1.473 1.473 2.667 0 2.667 C
-1.473 2.667 -2.667 1.473 -2.667 0 C
-2.667 -1.473 -1.473 -2.667 0 -2.667 C
1.473 -2.667 2.667 -1.473 2.667 0 C
cp
f
GR
GS
[1 0 0 1 496.14999 173.68504] CT
0 0 1 RC
N
2.667 0 M
2.667 1.473 1.473 2.667 0 2.667 C
-1.473 2.667 -2.667 1.473 -2.667 0 C
-2.667 -1.473 -1.473 -2.667 0 -2.667 C
1.473 -2.667 2.667 -1.473 2.667 0 C
cp
f
GR
GS
[1 0 0 1 507 175] CT
0 0 1 RC
N
2.667 0 M
2.667 1.473 1.473 2.667 0 2.667 C
-1.473 2.667 -2.667 1.473 -2.667 0 C
-2.667 -1.473 -1.473 -2.667 0 -2.667 C
1.473 -2.667 2.667 -1.473 2.667 0 C
cp
f
GR
GS
1 0 0 RC
1 LJ
N
73 58.183 M
73.434 58.414 L
73.868 58.644 L
74.302 58.873 L
74.736 59.103 L
75.17 59.332 L
75.604 59.561 L
76.038 59.79 L
76.472 60.018 L
76.906 60.247 L
77.34 60.475 L
77.774 60.703 L
78.208 60.93 L
78.642 61.158 L
79.076 61.385 L
79.51 61.612 L
79.944 61.838 L
80.378 62.065 L
80.812 62.291 L
81.246 62.517 L
81.68 62.743 L
82.114 62.968 L
82.548 63.193 L
82.982 63.418 L
83.416 63.643 L
83.85 63.868 L
84.284 64.092 L
84.718 64.316 L
85.152 64.54 L
85.586 64.764 L
86.02 64.987 L
86.454 65.21 L
86.888 65.433 L
87.322 65.656 L
87.756 65.878 L
88.19 66.1 L
88.624 66.322 L
89.058 66.544 L
89.492 66.765 L
89.926 66.987 L
90.36 67.208 L
90.794 67.428 L
91.228 67.649 L
91.662 67.869 L
92.096 68.089 L
92.53 68.309 L
92.964 68.529 L
93.398 68.748 L
93.832 68.967 L
94.266 69.186 L
94.7 69.405 L
95.134 69.623 L
95.568 69.841 L
96.002 70.059 L
96.436 70.277 L
96.87 70.494 L
97.304 70.711 L
97.738 70.928 L
98.172 71.145 L
98.606 71.362 L
99.04 71.578 L
99.474 71.794 L
99.908 72.01 L
100.342 72.225 L
100.776 72.441 L
101.21 72.656 L
101.644 72.871 L
102.078 73.085 L
102.512 73.3 L
102.946 73.514 L
103.38 73.728 L
103.814 73.941 L
104.248 74.155 L
104.682 74.368 L
105.116 74.581 L
105.55 74.794 L
105.984 75.006 L
106.418 75.219 L
106.852 75.431 L
107.286 75.642 L
107.72 75.854 L
108.154 76.065 L
108.588 76.276 L
109.022 76.487 L
109.456 76.698 L
109.89 76.908 L
110.324 77.118 L
110.758 77.328 L
111.192 77.538 L
111.626 77.747 L
112.06 77.956 L
112.494 78.165 L
112.928 78.374 L
113.362 78.583 L
113.796 78.791 L
114.23 78.999 L
114.664 79.207 L
115.098 79.414 L
115.532 79.621 L
115.966 79.829 L
116.4 80.035 L
116.834 80.242 L
117.268 80.448 L
117.702 80.654 L
118.136 80.86 L
118.57 81.066 L
119.004 81.271 L
119.438 81.477 L
119.872 81.681 L
120.306 81.886 L
120.74 82.091 L
121.174 82.295 L
121.608 82.499 L
122.042 82.703 L
122.476 82.906 L
122.91 83.109 L
123.344 83.313 L
123.778 83.515 L
124.212 83.718 L
124.646 83.92 L
125.08 84.122 L
125.514 84.324 L
125.948 84.526 L
126.382 84.727 L
126.816 84.928 L
127.25 85.129 L
127.684 85.33 L
128.118 85.53 L
128.552 85.731 L
128.986 85.931 L
129.42 86.13 L
129.854 86.33 L
130.288 86.529 L
130.722 86.728 L
131.156 86.927 L
131.59 87.126 L
132.024 87.324 L
132.458 87.522 L
132.892 87.72 L
133.326 87.918 L
133.76 88.115 L
134.194 88.312 L
134.628 88.509 L
135.062 88.706 L
135.496 88.902 L
135.93 89.098 L
136.364 89.294 L
136.798 89.49 L
137.232 89.685 L
137.666 89.881 L
138.1 90.076 L
138.534 90.271 L
138.968 90.465 L
139.402 90.659 L
139.836 90.853 L
140.27 91.047 L
140.704 91.241 L
141.138 91.434 L
141.572 91.627 L
142.006 91.82 L
142.44 92.013 L
142.874 92.205 L
143.308 92.398 L
143.742 92.59 L
144.176 92.781 L
144.61 92.973 L
145.044 93.164 L
145.478 93.355 L
145.912 93.546 L
146.346 93.736 L
146.78 93.927 L
147.214 94.117 L
147.648 94.306 L
148.082 94.496 L
148.516 94.685 L
148.95 94.875 L
149.384 95.063 L
149.818 95.252 L
150.252 95.44 L
150.686 95.629 L
151.12 95.817 L
151.554 96.004 L
151.988 96.192 L
152.422 96.379 L
152.856 96.566 L
153.29 96.753 L
153.724 96.939 L
154.158 97.125 L
154.592 97.312 L
155.026 97.497 L
155.46 97.683 L
155.894 97.868 L
156.328 98.053 L
156.762 98.238 L
157.196 98.423 L
157.63 98.607 L
158.064 98.791 L
158.498 98.975 L
158.932 99.159 L
159.366 99.342 L
159.8 99.526 L
160.234 99.709 L
160.668 99.891 L
161.102 100.074 L
161.536 100.256 L
161.97 100.438 L
162.404 100.62 L
162.838 100.802 L
163.272 100.983 L
163.706 101.164 L
164.14 101.345 L
164.574 101.525 L
165.008 101.706 L
165.442 101.886 L
165.876 102.066 L
166.31 102.246 L
166.744 102.425 L
167.178 102.604 L
167.612 102.783 L
168.046 102.962 L
168.48 103.14 L
168.914 103.319 L
169.348 103.497 L
169.782 103.674 L
170.216 103.852 L
170.65 104.029 L
171.084 104.206 L
171.518 104.383 L
171.952 104.56 L
172.386 104.736 L
172.82 104.912 L
173.254 105.088 L
173.688 105.264 L
174.122 105.439 L
174.556 105.614 L
174.99 105.789 L
175.424 105.964 L
175.858 106.139 L
176.292 106.313 L
176.726 106.487 L
177.16 106.661 L
177.594 106.834 L
178.028 107.007 L
178.462 107.18 L
178.896 107.353 L
179.33 107.526 L
179.764 107.698 L
180.198 107.87 L
180.632 108.042 L
181.066 108.214 L
181.5 108.385 L
181.934 108.556 L
182.368 108.727 L
182.802 108.898 L
183.236 109.068 L
183.67 109.239 L
184.104 109.409 L
184.538 109.578 L
184.972 109.748 L
185.406 109.917 L
185.84 110.086 L
186.274 110.255 L
186.708 110.424 L
187.142 110.592 L
187.576 110.76 L
188.01 110.928 L
188.444 111.096 L
188.878 111.263 L
189.312 111.43 L
189.746 111.597 L
190.18 111.764 L
190.614 111.93 L
191.048 112.096 L
191.482 112.262 L
191.916 112.428 L
192.35 112.594 L
192.784 112.759 L
193.218 112.924 L
193.652 113.089 L
194.086 113.253 L
194.52 113.417 L
194.954 113.582 L
195.388 113.745 L
195.822 113.909 L
196.256 114.072 L
196.69 114.236 L
197.124 114.398 L
197.558 114.561 L
197.992 114.724 L
198.426 114.886 L
198.86 115.048 L
199.294 115.209 L
199.728 115.371 L
200.162 115.532 L
200.596 115.693 L
201.03 115.854 L
201.464 116.014 L
201.898 116.175 L
202.332 116.335 L
202.766 116.495 L
203.2 116.654 L
203.634 116.814 L
204.068 116.973 L
204.502 117.132 L
204.936 117.29 L
205.37 117.449 L
205.804 117.607 L
206.238 117.765 L
206.672 117.923 L
207.106 118.08 L
207.54 118.237 L
207.974 118.394 L
208.408 118.551 L
208.842 118.708 L
209.276 118.864 L
209.71 119.02 L
210.144 119.176 L
210.578 119.331 L
211.012 119.487 L
211.446 119.642 L
211.88 119.797 L
212.314 119.951 L
212.748 120.106 L
213.182 120.26 L
213.616 120.414 L
214.05 120.567 L
214.484 120.721 L
214.918 120.874 L
215.352 121.027 L
215.786 121.18 L
216.22 121.332 L
216.654 121.485 L
217.088 121.637 L
217.522 121.788 L
217.956 121.94 L
218.39 122.091 L
218.824 122.242 L
219.258 122.393 L
219.692 122.544 L
220.126 122.694 L
220.56 122.844 L
220.994 122.994 L
221.428 123.144 L
221.862 123.293 L
222.296 123.443 L
222.73 123.592 L
223.164 123.74 L
223.598 123.889 L
224.032 124.037 L
224.466 124.185 L
224.9 124.333 L
225.334 124.48 L
225.768 124.628 L
226.202 124.775 L
226.636 124.922 L
227.07 125.068 L
227.504 125.215 L
227.938 125.361 L
228.372 125.507 L
228.806 125.652 L
229.24 125.798 L
229.674 125.943 L
230.108 126.088 L
230.542 126.233 L
230.976 126.377 L
231.41 126.521 L
231.844 126.665 L
232.278 126.809 L
232.712 126.953 L
233.146 127.096 L
233.58 127.239 L
234.014 127.382 L
234.448 127.524 L
234.882 127.667 L
235.316 127.809 L
235.75 127.951 L
236.184 128.092 L
236.618 128.234 L
237.052 128.375 L
237.486 128.516 L
237.92 128.657 L
238.354 128.797 L
238.788 128.937 L
239.222 129.077 L
239.656 129.217 L
240.09 129.357 L
240.524 129.496 L
240.958 129.635 L
241.392 129.774 L
241.826 129.912 L
242.26 130.051 L
242.694 130.189 L
243.128 130.327 L
243.562 130.464 L
243.996 130.602 L
244.43 130.739 L
244.864 130.876 L
245.298 131.013 L
245.732 131.149 L
246.166 131.285 L
246.6 131.421 L
247.034 131.557 L
247.468 131.692 L
247.902 131.828 L
248.336 131.963 L
248.77 132.098 L
249.204 132.232 L
249.638 132.366 L
250.072 132.5 L
250.506 132.634 L
250.94 132.768 L
251.374 132.901 L
251.808 133.034 L
252.242 133.167 L
252.676 133.3 L
253.11 133.433 L
253.544 133.565 L
253.978 133.697 L
254.412 133.828 L
254.846 133.96 L
255.28 134.091 L
255.714 134.222 L
256.148 134.353 L
256.582 134.483 L
257.016 134.614 L
257.45 134.744 L
257.884 134.874 L
258.318 135.003 L
258.752 135.133 L
259.186 135.262 L
259.62 135.391 L
260.054 135.519 L
260.488 135.648 L
260.922 135.776 L
261.356 135.904 L
261.79 136.032 L
262.224 136.159 L
262.658 136.286 L
263.092 136.413 L
263.526 136.54 L
263.96 136.667 L
264.394 136.793 L
264.828 136.919 L
265.262 137.045 L
265.696 137.17 L
266.13 137.296 L
266.564 137.421 L
266.998 137.546 L
267.432 137.67 L
267.866 137.795 L
268.3 137.919 L
268.734 138.043 L
269.168 138.167 L
269.602 138.29 L
270.036 138.413 L
270.47 138.536 L
270.904 138.659 L
271.338 138.782 L
271.772 138.904 L
272.206 139.026 L
272.64 139.148 L
273.074 139.269 L
273.508 139.391 L
273.942 139.512 L
274.376 139.633 L
274.81 139.753 L
275.244 139.874 L
275.678 139.994 L
276.112 140.114 L
276.546 140.233 L
276.98 140.353 L
277.414 140.472 L
277.848 140.591 L
278.282 140.71 L
278.716 140.828 L
279.15 140.946 L
279.584 141.064 L
280.018 141.182 L
280.452 141.3 L
280.886 141.417 L
281.32 141.534 L
281.754 141.651 L
282.188 141.768 L
282.622 141.884 L
283.056 142 L
283.49 142.116 L
283.924 142.232 L
284.358 142.347 L
284.792 142.462 L
285.226 142.577 L
285.66 142.692 L
286.094 142.807 L
286.528 142.921 L
286.962 143.035 L
287.396 143.149 L
287.83 143.262 L
288.264 143.375 L
288.698 143.489 L
289.132 143.601 L
289.566 143.714 L
290 143.826 L
290.434 143.938 L
290.868 144.05 L
291.302 144.162 L
291.736 144.273 L
292.17 144.385 L
292.604 144.496 L
293.038 144.606 L
293.472 144.717 L
293.906 144.827 L
294.34 144.937 L
294.774 145.047 L
295.208 145.156 L
295.642 145.266 L
296.076 145.375 L
296.51 145.483 L
296.944 145.592 L
297.378 145.7 L
297.812 145.808 L
298.246 145.916 L
298.68 146.024 L
299.114 146.131 L
299.548 146.239 L
299.982 146.345 L
300.416 146.452 L
300.85 146.559 L
301.284 146.665 L
301.718 146.771 L
302.152 146.877 L
302.586 146.982 L
303.02 147.087 L
303.454 147.192 L
303.888 147.297 L
304.322 147.402 L
304.756 147.506 L
305.19 147.61 L
305.624 147.714 L
306.058 147.818 L
306.492 147.921 L
306.926 148.024 L
307.36 148.127 L
307.794 148.23 L
308.228 148.332 L
308.662 148.434 L
309.096 148.536 L
309.53 148.638 L
309.964 148.74 L
310.398 148.841 L
310.832 148.942 L
311.266 149.043 L
311.7 149.143 L
312.134 149.244 L
312.568 149.344 L
313.002 149.444 L
313.436 149.543 L
313.87 149.643 L
314.304 149.742 L
314.738 149.841 L
315.172 149.939 L
315.606 150.038 L
316.04 150.136 L
316.474 150.234 L
316.908 150.332 L
317.342 150.429 L
317.776 150.526 L
318.21 150.623 L
318.644 150.72 L
319.078 150.817 L
319.512 150.913 L
319.946 151.009 L
320.38 151.105 L
320.814 151.2 L
321.248 151.296 L
321.682 151.391 L
322.116 151.486 L
322.55 151.58 L
322.984 151.675 L
323.418 151.769 L
323.852 151.863 L
324.286 151.957 L
324.72 152.05 L
325.154 152.143 L
325.588 152.236 L
326.022 152.329 L
326.456 152.422 L
326.89 152.514 L
327.324 152.606 L
327.758 152.698 L
328.192 152.789 L
328.626 152.881 L
329.06 152.972 L
329.494 153.063 L
329.928 153.153 L
330.362 153.244 L
330.796 153.334 L
331.23 153.424 L
331.664 153.513 L
332.098 153.603 L
332.532 153.692 L
332.966 153.781 L
333.4 153.87 L
333.834 153.958 L
334.268 154.047 L
334.702 154.135 L
335.136 154.222 L
335.57 154.31 L
336.004 154.397 L
336.438 154.484 L
336.872 154.571 L
337.306 154.658 L
337.74 154.744 L
338.174 154.83 L
338.608 154.916 L
339.042 155.002 L
339.476 155.087 L
339.91 155.173 L
340.344 155.258 L
340.778 155.342 L
341.212 155.427 L
341.646 155.511 L
342.08 155.595 L
342.514 155.679 L
342.948 155.762 L
343.382 155.846 L
343.816 155.929 L
344.25 156.012 L
344.684 156.094 L
345.118 156.177 L
345.552 156.259 L
345.986 156.341 L
346.42 156.422 L
346.854 156.504 L
347.288 156.585 L
347.722 156.666 L
348.156 156.747 L
348.59 156.827 L
349.024 156.907 L
349.458 156.987 L
349.892 157.067 L
350.326 157.147 L
350.76 157.226 L
351.194 157.305 L
351.628 157.384 L
352.062 157.462 L
352.496 157.541 L
352.93 157.619 L
353.364 157.697 L
353.798 157.774 L
354.232 157.852 L
354.666 157.929 L
355.1 158.006 L
355.534 158.083 L
355.968 158.159 L
356.402 158.235 L
356.836 158.311 L
357.27 158.387 L
357.704 158.463 L
358.138 158.538 L
358.572 158.613 L
359.006 158.688 L
359.44 158.762 L
359.874 158.837 L
360.308 158.911 L
360.742 158.985 L
361.176 159.058 L
361.61 159.132 L
362.044 159.205 L
362.478 159.278 L
362.912 159.35 L
363.346 159.423 L
363.78 159.495 L
364.214 159.567 L
364.648 159.639 L
365.082 159.71 L
365.516 159.782 L
365.95 159.853 L
366.384 159.923 L
366.818 159.994 L
367.252 160.064 L
367.686 160.134 L
368.12 160.204 L
368.554 160.274 L
368.988 160.343 L
369.422 160.412 L
369.856 160.481 L
370.29 160.55 L
370.724 160.618 L
371.158 160.687 L
371.592 160.754 L
372.026 160.822 L
372.46 160.89 L
372.894 160.957 L
373.328 161.024 L
373.762 161.091 L
374.196 161.157 L
374.63 161.224 L
375.064 161.29 L
375.498 161.355 L
375.932 161.421 L
376.366 161.486 L
376.8 161.552 L
377.234 161.616 L
377.668 161.681 L
378.102 161.746 L
378.536 161.81 L
378.97 161.874 L
379.404 161.937 L
379.838 162.001 L
380.272 162.064 L
380.706 162.127 L
381.14 162.19 L
381.574 162.252 L
382.008 162.315 L
382.442 162.377 L
382.876 162.439 L
383.31 162.5 L
383.744 162.561 L
384.178 162.623 L
384.612 162.683 L
385.046 162.744 L
385.48 162.805 L
385.914 162.865 L
386.348 162.925 L
386.782 162.984 L
387.216 163.044 L
387.65 163.103 L
388.084 163.162 L
388.518 163.221 L
388.952 163.279 L
389.386 163.338 L
389.82 163.396 L
390.254 163.453 L
390.688 163.511 L
391.122 163.568 L
391.556 163.625 L
391.99 163.682 L
392.424 163.739 L
392.858 163.795 L
393.292 163.851 L
393.726 163.907 L
394.16 163.963 L
394.594 164.018 L
395.028 164.074 L
395.462 164.129 L
395.896 164.183 L
396.33 164.238 L
396.764 164.292 L
397.198 164.346 L
397.632 164.4 L
398.066 164.454 L
398.5 164.507 L
398.934 164.56 L
399.368 164.613 L
399.802 164.665 L
400.236 164.718 L
400.67 164.77 L
401.104 164.822 L
401.538 164.873 L
401.972 164.925 L
402.406 164.976 L
402.84 165.027 L
403.274 165.078 L
403.708 165.128 L
404.142 165.178 L
404.576 165.228 L
405.01 165.278 L
405.444 165.328 L
405.878 165.377 L
406.312 165.426 L
406.746 165.475 L
407.18 165.524 L
407.614 165.572 L
408.048 165.62 L
408.482 165.668 L
408.916 165.716 L
409.35 165.763 L
409.784 165.81 L
410.218 165.857 L
410.652 165.904 L
411.086 165.95 L
411.52 165.997 L
411.954 166.043 L
412.388 166.088 L
412.822 166.134 L
413.256 166.179 L
413.69 166.224 L
414.124 166.269 L
414.558 166.314 L
414.992 166.358 L
415.426 166.402 L
415.86 166.446 L
416.294 166.49 L
416.728 166.533 L
417.162 166.576 L
417.596 166.619 L
418.03 166.662 L
418.464 166.704 L
418.898 166.746 L
419.332 166.788 L
419.766 166.83 L
420.2 166.872 L
420.634 166.913 L
421.068 166.954 L
421.502 166.995 L
421.936 167.035 L
422.37 167.076 L
422.804 167.116 L
423.238 167.156 L
423.672 167.195 L
424.106 167.235 L
424.54 167.274 L
424.974 167.313 L
425.408 167.351 L
425.842 167.39 L
426.276 167.428 L
426.71 167.466 L
427.144 167.504 L
427.578 167.541 L
428.012 167.578 L
428.446 167.615 L
428.88 167.652 L
429.314 167.689 L
429.748 167.725 L
430.182 167.761 L
430.616 167.797 L
431.05 167.833 L
431.484 167.868 L
431.918 167.903 L
432.352 167.938 L
432.786 167.973 L
433.22 168.007 L
433.654 168.041 L
434.088 168.075 L
434.522 168.109 L
434.956 168.142 L
435.39 168.176 L
435.824 168.209 L
436.258 168.241 L
436.692 168.274 L
437.126 168.306 L
437.56 168.338 L
437.994 168.37 L
438.428 168.402 L
438.862 168.433 L
439.296 168.464 L
439.73 168.495 L
440.164 168.526 L
440.598 168.556 L
441.032 168.586 L
441.466 168.616 L
441.9 168.646 L
442.334 168.675 L
442.768 168.705 L
443.202 168.734 L
443.636 168.762 L
444.07 168.791 L
444.504 168.819 L
444.938 168.847 L
445.372 168.875 L
445.806 168.903 L
446.24 168.93 L
446.674 168.957 L
447.108 168.984 L
447.542 169.011 L
447.976 169.037 L
448.41 169.063 L
448.844 169.089 L
449.278 169.115 L
449.712 169.14 L
450.146 169.165 L
450.58 169.19 L
451.014 169.215 L
451.448 169.24 L
451.882 169.264 L
452.316 169.288 L
452.75 169.312 L
453.184 169.335 L
453.618 169.359 L
454.052 169.382 L
454.486 169.405 L
454.92 169.427 L
455.354 169.45 L
455.788 169.472 L
456.222 169.494 L
456.656 169.515 L
457.09 169.537 L
457.524 169.558 L
457.958 169.579 L
458.392 169.6 L
458.826 169.62 L
459.26 169.64 L
459.694 169.66 L
460.128 169.68 L
460.562 169.7 L
460.996 169.719 L
461.43 169.738 L
461.864 169.757 L
462.298 169.776 L
462.732 169.794 L
463.166 169.812 L
463.6 169.83 L
464.034 169.848 L
464.468 169.865 L
464.902 169.882 L
465.336 169.899 L
465.77 169.916 L
466.204 169.932 L
466.638 169.949 L
467.072 169.965 L
467.506 169.98 L
467.94 169.996 L
468.374 170.011 L
468.808 170.026 L
469.242 170.041 L
469.676 170.056 L
470.11 170.07 L
470.544 170.084 L
470.978 170.098 L
471.412 170.112 L
471.846 170.125 L
472.28 170.138 L
472.714 170.151 L
473.148 170.164 L
473.582 170.176 L
474.016 170.189 L
474.45 170.201 L
474.884 170.212 L
475.318 170.224 L
475.752 170.235 L
476.186 170.246 L
476.62 170.257 L
477.054 170.268 L
477.488 170.278 L
477.922 170.288 L
478.356 170.298 L
478.79 170.307 L
479.224 170.317 L
479.658 170.326 L
480.092 170.335 L
480.526 170.344 L
480.96 170.352 L
481.394 170.36 L
481.828 170.368 L
482.262 170.376 L
482.696 170.383 L
483.13 170.391 L
483.564 170.398 L
483.998 170.405 L
484.432 170.411 L
484.866 170.417 L
485.3 170.423 L
485.734 170.429 L
486.168 170.435 L
486.602 170.44 L
487.036 170.445 L
487.47 170.45 L
487.904 170.455 L
488.338 170.459 L
488.772 170.464 L
489.206 170.468 L
489.64 170.471 L
490.074 170.475 L
490.508 170.478 L
490.942 170.481 L
491.376 170.484 L
491.81 170.486 L
492.244 170.489 L
492.678 170.491 L
493.112 170.493 L
493.546 170.494 L
493.98 170.496 L
494.414 170.497 L
494.848 170.498 L
495.282 170.498 L
495.716 170.499 L
496.15 170.499 L
496.584 170.499 L
497.018 170.499 L
497.452 170.498 L
497.886 170.497 L
498.32 170.496 L
498.754 170.495 L
499.188 170.493 L
499.622 170.492 L
500.056 170.49 L
500.49 170.488 L
500.924 170.485 L
501.358 170.483 L
501.792 170.48 L
502.226 170.477 L
502.66 170.473 L
503.094 170.47 L
503.528 170.466 L
503.962 170.462 L
504.396 170.457 L
504.83 170.453 L
505.264 170.448 L
505.698 170.443 L
506.132 170.438 L
506.566 170.432 L
507 170.427 L
S
GR
GS
1 GC
N
384 67 M
384 41 L
497 41 L
497 67 L
cp
f
GR
GS
[1 0 0 1 421 48.35849] CT
/Helvetica 9 F
GS
[1 0 0 1 0 0] CT
0 3.5 moveto 
1 -1 scale
(Error data) t 
GR
GR
GS
[1 0 0 1 403 48.35849] CT
0 0 1 RC
N
2.667 0 M
2.667 1.473 1.473 2.667 0 2.667 C
-1.473 2.667 -2.667 1.473 -2.667 0 C
-2.667 -1.473 -1.473 -2.667 0 -2.667 C
1.473 -2.667 2.667 -1.473 2.667 0 C
cp
f
GR
GS
[1 0 0 1 421 59.64151] CT
/Helvetica 9 F
GS
[1 0 0 1 0 0] CT
0 3.5 moveto 
1 -1 scale
(Polynomial model) t 
GR
GR
GS
1 0 0 RC
1 LJ
N
388 59.642 M
418 59.642 L
S
GR
GS
0.149 GC
10.0 ML
0.5 LW
N
384 67 M
384 41 L
497 41 L
497 67 L
cp
S
GR
GS
1 GC
N
73 374 M
507 374 L
507 231 L
73 231 L
cp
f
GR
GS
0.873 GC
1 LJ
0.5 LW
N
73 374 M
73 231 L
S
GR
GS
0.873 GC
1 LJ
0.5 LW
N
127.25 374 M
127.25 231 L
S
GR
GS
0.873 GC
1 LJ
0.5 LW
N
181.5 374 M
181.5 231 L
S
GR
GS
0.873 GC
1 LJ
0.5 LW
N
235.75 374 M
235.75 231 L
S
GR
GS
0.873 GC
1 LJ
0.5 LW
N
290 374 M
290 231 L
S
GR
GS
0.873 GC
1 LJ
0.5 LW
N
344.25 374 M
344.25 231 L
S
GR
GS
0.873 GC
1 LJ
0.5 LW
N
398.5 374 M
398.5 231 L
S
GR
GS
0.873 GC
1 LJ
0.5 LW
N
452.75 374 M
452.75 231 L
S
GR
GS
0.873 GC
1 LJ
0.5 LW
N
507 374 M
507 231 L
S
GR
GS
0.873 GC
1 LJ
0.5 LW
N
507 374 M
73 374 L
S
GR
GS
0.873 GC
1 LJ
0.5 LW
N
507 345.4 M
73 345.4 L
S
GR
GS
0.873 GC
1 LJ
0.5 LW
N
507 316.8 M
73 316.8 L
S
GR
GS
0.873 GC
1 LJ
0.5 LW
N
507 288.2 M
73 288.2 L
S
GR
GS
0.873 GC
1 LJ
0.5 LW
N
507 259.6 M
73 259.6 L
S
GR
GS
0.873 GC
1 LJ
0.5 LW
N
507 231 M
73 231 L
S
GR
GS
0.149 GC
2 setlinecap
1 LJ
0.5 LW
N
73 374 M
507 374 L
S
GR
GS
0.149 GC
2 setlinecap
1 LJ
0.5 LW
N
73 231 M
507 231 L
S
GR
GS
0.149 GC
2 setlinecap
1 LJ
0.5 LW
N
73 374 M
73 369.66 L
S
GR
GS
0.149 GC
2 setlinecap
1 LJ
0.5 LW
N
127.25 374 M
127.25 369.66 L
S
GR
GS
0.149 GC
2 setlinecap
1 LJ
0.5 LW
N
181.5 374 M
181.5 369.66 L
S
GR
GS
0.149 GC
2 setlinecap
1 LJ
0.5 LW
N
235.75 374 M
235.75 369.66 L
S
GR
GS
0.149 GC
2 setlinecap
1 LJ
0.5 LW
N
290 374 M
290 369.66 L
S
GR
GS
0.149 GC
2 setlinecap
1 LJ
0.5 LW
N
344.25 374 M
344.25 369.66 L
S
GR
GS
0.149 GC
2 setlinecap
1 LJ
0.5 LW
N
398.5 374 M
398.5 369.66 L
S
GR
GS
0.149 GC
2 setlinecap
1 LJ
0.5 LW
N
452.75 374 M
452.75 369.66 L
S
GR
GS
0.149 GC
2 setlinecap
1 LJ
0.5 LW
N
507 374 M
507 369.66 L
S
GR
GS
0.149 GC
2 setlinecap
1 LJ
0.5 LW
N
73 231 M
73 235.34 L
S
GR
GS
0.149 GC
2 setlinecap
1 LJ
0.5 LW
N
127.25 231 M
127.25 235.34 L
S
GR
GS
0.149 GC
2 setlinecap
1 LJ
0.5 LW
N
181.5 231 M
181.5 235.34 L
S
GR
GS
0.149 GC
2 setlinecap
1 LJ
0.5 LW
N
235.75 231 M
235.75 235.34 L
S
GR
GS
0.149 GC
2 setlinecap
1 LJ
0.5 LW
N
290 231 M
290 235.34 L
S
GR
GS
0.149 GC
2 setlinecap
1 LJ
0.5 LW
N
344.25 231 M
344.25 235.34 L
S
GR
GS
0.149 GC
2 setlinecap
1 LJ
0.5 LW
N
398.5 231 M
398.5 235.34 L
S
GR
GS
0.149 GC
2 setlinecap
1 LJ
0.5 LW
N
452.75 231 M
452.75 235.34 L
S
GR
GS
0.149 GC
2 setlinecap
1 LJ
0.5 LW
N
507 231 M
507 235.34 L
S
GR
GS
[1 0 0 1 73 378] CT
0.149 GC
/Helvetica 10 F
GS
[1 0 0 1 0 0] CT
-8 10 moveto 
1 -1 scale
(-40) t 
GR
GR
GS
[1 0 0 1 127.25 378] CT
0.149 GC
/Helvetica 10 F
GS
[1 0 0 1 0 0] CT
-8 10 moveto 
1 -1 scale
(-35) t 
GR
GR
GS
[1 0 0 1 181.5 378] CT
0.149 GC
/Helvetica 10 F
GS
[1 0 0 1 0 0] CT
-8 10 moveto 
1 -1 scale
(-30) t 
GR
GR
GS
[1 0 0 1 235.75 378] CT
0.149 GC
/Helvetica 10 F
GS
[1 0 0 1 0 0] CT
-8 10 moveto 
1 -1 scale
(-25) t 
GR
GR
GS
[1 0 0 1 290 378] CT
0.149 GC
/Helvetica 10 F
GS
[1 0 0 1 0 0] CT
-8 10 moveto 
1 -1 scale
(-20) t 
GR
GR
GS
[1 0 0 1 344.25 378] CT
0.149 GC
/Helvetica 10 F
GS
[1 0 0 1 0 0] CT
-8 10 moveto 
1 -1 scale
(-15) t 
GR
GR
GS
[1 0 0 1 398.5 378] CT
0.149 GC
/Helvetica 10 F
GS
[1 0 0 1 0 0] CT
-8 10 moveto 
1 -1 scale
(-10) t 
GR
GR
GS
[1 0 0 1 452.75 378] CT
0.149 GC
/Helvetica 10 F
GS
[1 0 0 1 0 0] CT
-5 10 moveto 
1 -1 scale
(-5) t 
GR
GR
GS
[1 0 0 1 507 378] CT
0.149 GC
/Helvetica 10 F
GS
[1 0 0 1 0 0] CT
-3 10 moveto 
1 -1 scale
(0) t 
GR
GR
GS
[1 0 0 1 290.00021 392] CT
0.149 GC
/Helvetica-Bold 12 F
GS
[1 0 0 1 0 0] CT
-82 12 moveto 
1 -1 scale
(Camera rotation \(in degrees\)) t 
GR
GR
GS
0.149 GC
2 setlinecap
1 LJ
0.5 LW
N
73 374 M
73 231 L
S
GR
GS
0.149 GC
2 setlinecap
1 LJ
0.5 LW
N
507 374 M
507 231 L
S
GR
GS
0.149 GC
2 setlinecap
1 LJ
0.5 LW
N
73 374 M
77.34 374 L
S
GR
GS
0.149 GC
2 setlinecap
1 LJ
0.5 LW
N
73 345.4 M
77.34 345.4 L
S
GR
GS
0.149 GC
2 setlinecap
1 LJ
0.5 LW
N
73 316.8 M
77.34 316.8 L
S
GR
GS
0.149 GC
2 setlinecap
1 LJ
0.5 LW
N
73 288.2 M
77.34 288.2 L
S
GR
GS
0.149 GC
2 setlinecap
1 LJ
0.5 LW
N
73 259.6 M
77.34 259.6 L
S
GR
GS
0.149 GC
2 setlinecap
1 LJ
0.5 LW
N
73 231 M
77.34 231 L
S
GR
GS
0.149 GC
2 setlinecap
1 LJ
0.5 LW
N
507 374 M
502.66 374 L
S
GR
GS
0.149 GC
2 setlinecap
1 LJ
0.5 LW
N
507 345.4 M
502.66 345.4 L
S
GR
GS
0.149 GC
2 setlinecap
1 LJ
0.5 LW
N
507 316.8 M
502.66 316.8 L
S
GR
GS
0.149 GC
2 setlinecap
1 LJ
0.5 LW
N
507 288.2 M
502.66 288.2 L
S
GR
GS
0.149 GC
2 setlinecap
1 LJ
0.5 LW
N
507 259.6 M
502.66 259.6 L
S
GR
GS
0.149 GC
2 setlinecap
1 LJ
0.5 LW
N
507 231 M
502.66 231 L
S
GR
GS
[1 0 0 1 69 374] CT
0.149 GC
/Helvetica 10 F
GS
[1 0 0 1 0 0] CT
-18 3.5 moveto 
1 -1 scale
(-0.2) t 
GR
GR
GS
[1 0 0 1 69 345.39999] CT
0.149 GC
/Helvetica 10 F
GS
[1 0 0 1 0 0] CT
-6 3.5 moveto 
1 -1 scale
(0) t 
GR
GR
GS
[1 0 0 1 69 316.79999] CT
0.149 GC
/Helvetica 10 F
GS
[1 0 0 1 0 0] CT
-14 3.5 moveto 
1 -1 scale
(0.2) t 
GR
GR
GS
[1 0 0 1 69 288.20001] CT
0.149 GC
/Helvetica 10 F
GS
[1 0 0 1 0 0] CT
-14 3.5 moveto 
1 -1 scale
(0.4) t 
GR
GR
GS
[1 0 0 1 69 259.60001] CT
0.149 GC
/Helvetica 10 F
GS
[1 0 0 1 0 0] CT
-14 3.5 moveto 
1 -1 scale
(0.6) t 
GR
GR
GS
[1 0 0 1 69 231] CT
0.149 GC
/Helvetica 10 F
GS
[1 0 0 1 0 0] CT
-14 3.5 moveto 
1 -1 scale
(0.8) t 
GR
GR
GS
[0 -1 1 0 48.00002 302.49994] CT
0.149 GC
/Helvetica-Bold 12 F
GS
[1 0 0 1 0 0] CT
-56 -3 moveto 
1 -1 scale
(Depth error \(in mm\)) t 
GR
GR
GS
[1 0 0 1 73 236.38976] CT
0 0 1 RC
N
2.667 0 M
2.667 1.473 1.473 2.667 0 2.667 C
-1.473 2.667 -2.667 1.473 -2.667 0 C
-2.667 -1.473 -1.473 -2.667 0 -2.667 C
1.473 -2.667 2.667 -1.473 2.667 0 C
cp
f
GR
GS
[1 0 0 1 83.85 283.98837] CT
0 0 1 RC
N
2.667 0 M
2.667 1.473 1.473 2.667 0 2.667 C
-1.473 2.667 -2.667 1.473 -2.667 0 C
-2.667 -1.473 -1.473 -2.667 0 -2.667 C
1.473 -2.667 2.667 -1.473 2.667 0 C
cp
f
GR
GS
[1 0 0 1 94.7 286.2514] CT
0 0 1 RC
N
2.667 0 M
2.667 1.473 1.473 2.667 0 2.667 C
-1.473 2.667 -2.667 1.473 -2.667 0 C
-2.667 -1.473 -1.473 -2.667 0 -2.667 C
1.473 -2.667 2.667 -1.473 2.667 0 C
cp
f
GR
GS
[1 0 0 1 105.55 328.63828] CT
0 0 1 RC
N
2.667 0 M
2.667 1.473 1.473 2.667 0 2.667 C
-1.473 2.667 -2.667 1.473 -2.667 0 C
-2.667 -1.473 -1.473 -2.667 0 -2.667 C
1.473 -2.667 2.667 -1.473 2.667 0 C
cp
f
GR
GS
[1 0 0 1 116.4 330.08823] CT
0 0 1 RC
N
2.667 0 M
2.667 1.473 1.473 2.667 0 2.667 C
-1.473 2.667 -2.667 1.473 -2.667 0 C
-2.667 -1.473 -1.473 -2.667 0 -2.667 C
1.473 -2.667 2.667 -1.473 2.667 0 C
cp
f
GR
GS
[1 0 0 1 127.25 332.38019] CT
0 0 1 RC
N
2.667 0 M
2.667 1.473 1.473 2.667 0 2.667 C
-1.473 2.667 -2.667 1.473 -2.667 0 C
-2.667 -1.473 -1.473 -2.667 0 -2.667 C
1.473 -2.667 2.667 -1.473 2.667 0 C
cp
f
GR
GS
[1 0 0 1 138.10001 337.55096] CT
0 0 1 RC
N
2.667 0 M
2.667 1.473 1.473 2.667 0 2.667 C
-1.473 2.667 -2.667 1.473 -2.667 0 C
-2.667 -1.473 -1.473 -2.667 0 -2.667 C
1.473 -2.667 2.667 -1.473 2.667 0 C
cp
f
GR
GS
[1 0 0 1 148.95 352.81857] CT
0 0 1 RC
N
2.667 0 M
2.667 1.473 1.473 2.667 0 2.667 C
-1.473 2.667 -2.667 1.473 -2.667 0 C
-2.667 -1.473 -1.473 -2.667 0 -2.667 C
1.473 -2.667 2.667 -1.473 2.667 0 C
cp
f
GR
GS
[1 0 0 1 159.8 344.92813] CT
0 0 1 RC
N
2.667 0 M
2.667 1.473 1.473 2.667 0 2.667 C
-1.473 2.667 -2.667 1.473 -2.667 0 C
-2.667 -1.473 -1.473 -2.667 0 -2.667 C
1.473 -2.667 2.667 -1.473 2.667 0 C
cp
f
GR
GS
[1 0 0 1 170.64999 353.91016] CT
0 0 1 RC
N
2.667 0 M
2.667 1.473 1.473 2.667 0 2.667 C
-1.473 2.667 -2.667 1.473 -2.667 0 C
-2.667 -1.473 -1.473 -2.667 0 -2.667 C
1.473 -2.667 2.667 -1.473 2.667 0 C
cp
f
GR
GS
[1 0 0 1 181.5 362.54263] CT
0 0 1 RC
N
2.667 0 M
2.667 1.473 1.473 2.667 0 2.667 C
-1.473 2.667 -2.667 1.473 -2.667 0 C
-2.667 -1.473 -1.473 -2.667 0 -2.667 C
1.473 -2.667 2.667 -1.473 2.667 0 C
cp
f
GR
GS
[1 0 0 1 192.35001 349.03085] CT
0 0 1 RC
N
2.667 0 M
2.667 1.473 1.473 2.667 0 2.667 C
-1.473 2.667 -2.667 1.473 -2.667 0 C
-2.667 -1.473 -1.473 -2.667 0 -2.667 C
1.473 -2.667 2.667 -1.473 2.667 0 C
cp
f
GR
GS
[1 0 0 1 203.2 347.45679] CT
0 0 1 RC
N
2.667 0 M
2.667 1.473 1.473 2.667 0 2.667 C
-1.473 2.667 -2.667 1.473 -2.667 0 C
-2.667 -1.473 -1.473 -2.667 0 -2.667 C
1.473 -2.667 2.667 -1.473 2.667 0 C
cp
f
GR
GS
[1 0 0 1 214.05 356.61554] CT
0 0 1 RC
N
2.667 0 M
2.667 1.473 1.473 2.667 0 2.667 C
-1.473 2.667 -2.667 1.473 -2.667 0 C
-2.667 -1.473 -1.473 -2.667 0 -2.667 C
1.473 -2.667 2.667 -1.473 2.667 0 C
cp
f
GR
GS
[1 0 0 1 224.89999 355.98224] CT
0 0 1 RC
N
2.667 0 M
2.667 1.473 1.473 2.667 0 2.667 C
-1.473 2.667 -2.667 1.473 -2.667 0 C
-2.667 -1.473 -1.473 -2.667 0 -2.667 C
1.473 -2.667 2.667 -1.473 2.667 0 C
cp
f
GR
GS
[1 0 0 1 235.75 362.61877] CT
0 0 1 RC
N
2.667 0 M
2.667 1.473 1.473 2.667 0 2.667 C
-1.473 2.667 -2.667 1.473 -2.667 0 C
-2.667 -1.473 -1.473 -2.667 0 -2.667 C
1.473 -2.667 2.667 -1.473 2.667 0 C
cp
f
GR
GS
[1 0 0 1 246.60001 352.60709] CT
0 0 1 RC
N
2.667 0 M
2.667 1.473 1.473 2.667 0 2.667 C
-1.473 2.667 -2.667 1.473 -2.667 0 C
-2.667 -1.473 -1.473 -2.667 0 -2.667 C
1.473 -2.667 2.667 -1.473 2.667 0 C
cp
f
GR
GS
[1 0 0 1 257.45001 358.12659] CT
0 0 1 RC
N
2.667 0 M
2.667 1.473 1.473 2.667 0 2.667 C
-1.473 2.667 -2.667 1.473 -2.667 0 C
-2.667 -1.473 -1.473 -2.667 0 -2.667 C
1.473 -2.667 2.667 -1.473 2.667 0 C
cp
f
GR
GS
[1 0 0 1 268.29999 359.28021] CT
0 0 1 RC
N
2.667 0 M
2.667 1.473 1.473 2.667 0 2.667 C
-1.473 2.667 -2.667 1.473 -2.667 0 C
-2.667 -1.473 -1.473 -2.667 0 -2.667 C
1.473 -2.667 2.667 -1.473 2.667 0 C
cp
f
GR
GS
[1 0 0 1 279.14999 351.36847] CT
0 0 1 RC
N
2.667 0 M
2.667 1.473 1.473 2.667 0 2.667 C
-1.473 2.667 -2.667 1.473 -2.667 0 C
-2.667 -1.473 -1.473 -2.667 0 -2.667 C
1.473 -2.667 2.667 -1.473 2.667 0 C
cp
f
GR
GS
[1 0 0 1 290 344.01196] CT
0 0 1 RC
N
2.667 0 M
2.667 1.473 1.473 2.667 0 2.667 C
-1.473 2.667 -2.667 1.473 -2.667 0 C
-2.667 -1.473 -1.473 -2.667 0 -2.667 C
1.473 -2.667 2.667 -1.473 2.667 0 C
cp
f
GR
GS
[1 0 0 1 300.85001 346.74405] CT
0 0 1 RC
N
2.667 0 M
2.667 1.473 1.473 2.667 0 2.667 C
-1.473 2.667 -2.667 1.473 -2.667 0 C
-2.667 -1.473 -1.473 -2.667 0 -2.667 C
1.473 -2.667 2.667 -1.473 2.667 0 C
cp
f
GR
GS
[1 0 0 1 311.70001 346.53513] CT
0 0 1 RC
N
2.667 0 M
2.667 1.473 1.473 2.667 0 2.667 C
-1.473 2.667 -2.667 1.473 -2.667 0 C
-2.667 -1.473 -1.473 -2.667 0 -2.667 C
1.473 -2.667 2.667 -1.473 2.667 0 C
cp
f
GR
GS
[1 0 0 1 322.54999 336.27579] CT
0 0 1 RC
N
2.667 0 M
2.667 1.473 1.473 2.667 0 2.667 C
-1.473 2.667 -2.667 1.473 -2.667 0 C
-2.667 -1.473 -1.473 -2.667 0 -2.667 C
1.473 -2.667 2.667 -1.473 2.667 0 C
cp
f
GR
GS
[1 0 0 1 333.39999 342.67911] CT
0 0 1 RC
N
2.667 0 M
2.667 1.473 1.473 2.667 0 2.667 C
-1.473 2.667 -2.667 1.473 -2.667 0 C
-2.667 -1.473 -1.473 -2.667 0 -2.667 C
1.473 -2.667 2.667 -1.473 2.667 0 C
cp
f
GR
GS
[1 0 0 1 344.25 333.36823] CT
0 0 1 RC
N
2.667 0 M
2.667 1.473 1.473 2.667 0 2.667 C
-1.473 2.667 -2.667 1.473 -2.667 0 C
-2.667 -1.473 -1.473 -2.667 0 -2.667 C
1.473 -2.667 2.667 -1.473 2.667 0 C
cp
f
GR
GS
[1 0 0 1 355.10001 337.21671] CT
0 0 1 RC
N
2.667 0 M
2.667 1.473 1.473 2.667 0 2.667 C
-1.473 2.667 -2.667 1.473 -2.667 0 C
-2.667 -1.473 -1.473 -2.667 0 -2.667 C
1.473 -2.667 2.667 -1.473 2.667 0 C
cp
f
GR
GS
[1 0 0 1 365.95001 335.58258] CT
0 0 1 RC
N
2.667 0 M
2.667 1.473 1.473 2.667 0 2.667 C
-1.473 2.667 -2.667 1.473 -2.667 0 C
-2.667 -1.473 -1.473 -2.667 0 -2.667 C
1.473 -2.667 2.667 -1.473 2.667 0 C
cp
f
GR
GS
[1 0 0 1 376.79999 338.03546] CT
0 0 1 RC
N
2.667 0 M
2.667 1.473 1.473 2.667 0 2.667 C
-1.473 2.667 -2.667 1.473 -2.667 0 C
-2.667 -1.473 -1.473 -2.667 0 -2.667 C
1.473 -2.667 2.667 -1.473 2.667 0 C
cp
f
GR
GS
[1 0 0 1 387.64999 334.78882] CT
0 0 1 RC
N
2.667 0 M
2.667 1.473 1.473 2.667 0 2.667 C
-1.473 2.667 -2.667 1.473 -2.667 0 C
-2.667 -1.473 -1.473 -2.667 0 -2.667 C
1.473 -2.667 2.667 -1.473 2.667 0 C
cp
f
GR
GS
[1 0 0 1 398.5 332.63922] CT
0 0 1 RC
N
2.667 0 M
2.667 1.473 1.473 2.667 0 2.667 C
-1.473 2.667 -2.667 1.473 -2.667 0 C
-2.667 -1.473 -1.473 -2.667 0 -2.667 C
1.473 -2.667 2.667 -1.473 2.667 0 C
cp
f
GR
GS
[1 0 0 1 409.35001 334.81055] CT
0 0 1 RC
N
2.667 0 M
2.667 1.473 1.473 2.667 0 2.667 C
-1.473 2.667 -2.667 1.473 -2.667 0 C
-2.667 -1.473 -1.473 -2.667 0 -2.667 C
1.473 -2.667 2.667 -1.473 2.667 0 C
cp
f
GR
GS
[1 0 0 1 420.20001 336.71783] CT
0 0 1 RC
N
2.667 0 M
2.667 1.473 1.473 2.667 0 2.667 C
-1.473 2.667 -2.667 1.473 -2.667 0 C
-2.667 -1.473 -1.473 -2.667 0 -2.667 C
1.473 -2.667 2.667 -1.473 2.667 0 C
cp
f
GR
GS
[1 0 0 1 431.04999 337.58243] CT
0 0 1 RC
N
2.667 0 M
2.667 1.473 1.473 2.667 0 2.667 C
-1.473 2.667 -2.667 1.473 -2.667 0 C
-2.667 -1.473 -1.473 -2.667 0 -2.667 C
1.473 -2.667 2.667 -1.473 2.667 0 C
cp
f
GR
GS
[1 0 0 1 441.89999 338.42255] CT
0 0 1 RC
N
2.667 0 M
2.667 1.473 1.473 2.667 0 2.667 C
-1.473 2.667 -2.667 1.473 -2.667 0 C
-2.667 -1.473 -1.473 -2.667 0 -2.667 C
1.473 -2.667 2.667 -1.473 2.667 0 C
cp
f
GR
GS
[1 0 0 1 452.75 342.54349] CT
0 0 1 RC
N
2.667 0 M
2.667 1.473 1.473 2.667 0 2.667 C
-1.473 2.667 -2.667 1.473 -2.667 0 C
-2.667 -1.473 -1.473 -2.667 0 -2.667 C
1.473 -2.667 2.667 -1.473 2.667 0 C
cp
f
GR
GS
[1 0 0 1 463.60001 345.06857] CT
0 0 1 RC
N
2.667 0 M
2.667 1.473 1.473 2.667 0 2.667 C
-1.473 2.667 -2.667 1.473 -2.667 0 C
-2.667 -1.473 -1.473 -2.667 0 -2.667 C
1.473 -2.667 2.667 -1.473 2.667 0 C
cp
f
GR
GS
[1 0 0 1 474.45001 350.36066] CT
0 0 1 RC
N
2.667 0 M
2.667 1.473 1.473 2.667 0 2.667 C
-1.473 2.667 -2.667 1.473 -2.667 0 C
-2.667 -1.473 -1.473 -2.667 0 -2.667 C
1.473 -2.667 2.667 -1.473 2.667 0 C
cp
f
GR
GS
[1 0 0 1 485.29999 354.45663] CT
0 0 1 RC
N
2.667 0 M
2.667 1.473 1.473 2.667 0 2.667 C
-1.473 2.667 -2.667 1.473 -2.667 0 C
-2.667 -1.473 -1.473 -2.667 0 -2.667 C
1.473 -2.667 2.667 -1.473 2.667 0 C
cp
f
GR
GS
[1 0 0 1 496.14999 361.22034] CT
0 0 1 RC
N
2.667 0 M
2.667 1.473 1.473 2.667 0 2.667 C
-1.473 2.667 -2.667 1.473 -2.667 0 C
-2.667 -1.473 -1.473 -2.667 0 -2.667 C
1.473 -2.667 2.667 -1.473 2.667 0 C
cp
f
GR
GS
[1 0 0 1 507 368.10822] CT
0 0 1 RC
N
2.667 0 M
2.667 1.473 1.473 2.667 0 2.667 C
-1.473 2.667 -2.667 1.473 -2.667 0 C
-2.667 -1.473 -1.473 -2.667 0 -2.667 C
1.473 -2.667 2.667 -1.473 2.667 0 C
cp
f
GR
GS
1 0 0 RC
1 LJ
N
73 345.4 M
73.434 345.4 L
73.868 345.4 L
74.302 345.4 L
74.736 345.4 L
75.17 345.4 L
75.604 345.4 L
76.038 345.4 L
76.472 345.4 L
76.906 345.4 L
77.34 345.4 L
77.774 345.4 L
78.208 345.4 L
78.642 345.4 L
79.076 345.4 L
79.51 345.4 L
79.944 345.4 L
80.378 345.4 L
80.812 345.4 L
81.246 345.4 L
81.68 345.4 L
82.114 345.4 L
82.548 345.4 L
82.982 345.4 L
83.416 345.4 L
83.85 345.4 L
84.284 345.4 L
84.718 345.4 L
85.152 345.4 L
85.586 345.4 L
86.02 345.4 L
86.454 345.4 L
86.888 345.4 L
87.322 345.4 L
87.756 345.4 L
88.19 345.4 L
88.624 345.4 L
89.058 345.4 L
89.492 345.4 L
89.926 345.4 L
90.36 345.4 L
90.794 345.4 L
91.228 345.4 L
91.662 345.4 L
92.096 345.4 L
92.53 345.4 L
92.964 345.4 L
93.398 345.4 L
93.832 345.4 L
94.266 345.4 L
94.7 345.4 L
95.134 345.4 L
95.568 345.4 L
96.002 345.4 L
96.436 345.4 L
96.87 345.4 L
97.304 345.4 L
97.738 345.4 L
98.172 345.4 L
98.606 345.4 L
99.04 345.4 L
99.474 345.4 L
99.908 345.4 L
100.342 345.4 L
100.776 345.4 L
101.21 345.4 L
101.644 345.4 L
102.078 345.4 L
102.512 345.4 L
102.946 345.4 L
103.38 345.4 L
103.814 345.4 L
104.248 345.4 L
104.682 345.4 L
105.116 345.4 L
105.55 345.4 L
105.984 345.4 L
106.418 345.4 L
106.852 345.4 L
107.286 345.4 L
107.72 345.4 L
108.154 345.4 L
108.588 345.4 L
109.022 345.4 L
109.456 345.4 L
109.89 345.4 L
110.324 345.4 L
110.758 345.4 L
111.192 345.4 L
111.626 345.4 L
112.06 345.4 L
112.494 345.4 L
112.928 345.4 L
113.362 345.4 L
113.796 345.4 L
114.23 345.4 L
114.664 345.4 L
115.098 345.4 L
115.532 345.4 L
115.966 345.4 L
116.4 345.4 L
116.834 345.4 L
117.268 345.4 L
117.702 345.4 L
118.136 345.4 L
118.57 345.4 L
119.004 345.4 L
119.438 345.4 L
119.872 345.4 L
120.306 345.4 L
120.74 345.4 L
121.174 345.4 L
121.608 345.4 L
122.042 345.4 L
122.476 345.4 L
122.91 345.4 L
123.344 345.4 L
123.778 345.4 L
124.212 345.4 L
124.646 345.4 L
125.08 345.4 L
125.514 345.4 L
125.948 345.4 L
126.382 345.4 L
126.816 345.4 L
127.25 345.4 L
127.684 345.4 L
128.118 345.4 L
128.552 345.4 L
128.986 345.4 L
129.42 345.4 L
129.854 345.4 L
130.288 345.4 L
130.722 345.4 L
131.156 345.4 L
131.59 345.4 L
132.024 345.4 L
132.458 345.4 L
132.892 345.4 L
133.326 345.4 L
133.76 345.4 L
134.194 345.4 L
134.628 345.4 L
135.062 345.4 L
135.496 345.4 L
135.93 345.4 L
136.364 345.4 L
136.798 345.4 L
137.232 345.4 L
137.666 345.4 L
138.1 345.4 L
138.534 345.4 L
138.968 345.4 L
139.402 345.4 L
139.836 345.4 L
140.27 345.4 L
140.704 345.4 L
141.138 345.4 L
141.572 345.4 L
142.006 345.4 L
142.44 345.4 L
142.874 345.4 L
143.308 345.4 L
143.742 345.4 L
144.176 345.4 L
144.61 345.4 L
145.044 345.4 L
145.478 345.4 L
145.912 345.4 L
146.346 345.4 L
146.78 345.4 L
147.214 345.4 L
147.648 345.4 L
148.082 345.4 L
148.516 345.4 L
148.95 345.4 L
149.384 345.4 L
149.818 345.4 L
150.252 345.4 L
150.686 345.4 L
151.12 345.4 L
151.554 345.4 L
151.988 345.4 L
152.422 345.4 L
152.856 345.4 L
153.29 345.4 L
153.724 345.4 L
154.158 345.4 L
154.592 345.4 L
155.026 345.4 L
155.46 345.4 L
155.894 345.4 L
156.328 345.4 L
156.762 345.4 L
157.196 345.4 L
157.63 345.4 L
158.064 345.4 L
158.498 345.4 L
158.932 345.4 L
159.366 345.4 L
159.8 345.4 L
160.234 345.4 L
160.668 345.4 L
161.102 345.4 L
161.536 345.4 L
161.97 345.4 L
162.404 345.4 L
162.838 345.4 L
163.272 345.4 L
163.706 345.4 L
164.14 345.4 L
164.574 345.4 L
165.008 345.4 L
165.442 345.4 L
165.876 345.4 L
166.31 345.4 L
166.744 345.4 L
167.178 345.4 L
167.612 345.4 L
168.046 345.4 L
168.48 345.4 L
168.914 345.4 L
169.348 345.4 L
169.782 345.4 L
170.216 345.4 L
170.65 345.4 L
171.084 345.4 L
171.518 345.4 L
171.952 345.4 L
172.386 345.4 L
172.82 345.4 L
173.254 345.4 L
173.688 345.4 L
174.122 345.4 L
174.556 345.4 L
174.99 345.4 L
175.424 345.4 L
175.858 345.4 L
176.292 345.4 L
176.726 345.4 L
177.16 345.4 L
177.594 345.4 L
178.028 345.4 L
178.462 345.4 L
178.896 345.4 L
179.33 345.4 L
179.764 345.4 L
180.198 345.4 L
180.632 345.4 L
181.066 345.4 L
181.5 345.4 L
181.934 345.4 L
182.368 345.4 L
182.802 345.4 L
183.236 345.4 L
183.67 345.4 L
184.104 345.4 L
184.538 345.4 L
184.972 345.4 L
185.406 345.4 L
185.84 345.4 L
186.274 345.4 L
186.708 345.4 L
187.142 345.4 L
187.576 345.4 L
188.01 345.4 L
188.444 345.4 L
188.878 345.4 L
189.312 345.4 L
189.746 345.4 L
190.18 345.4 L
190.614 345.4 L
191.048 345.4 L
191.482 345.4 L
191.916 345.4 L
192.35 345.4 L
192.784 345.4 L
193.218 345.4 L
193.652 345.4 L
194.086 345.4 L
194.52 345.4 L
194.954 345.4 L
195.388 345.4 L
195.822 345.4 L
196.256 345.4 L
196.69 345.4 L
197.124 345.4 L
197.558 345.4 L
197.992 345.4 L
198.426 345.4 L
198.86 345.4 L
199.294 345.4 L
199.728 345.4 L
200.162 345.4 L
200.596 345.4 L
201.03 345.4 L
201.464 345.4 L
201.898 345.4 L
202.332 345.4 L
202.766 345.4 L
203.2 345.4 L
203.634 345.4 L
204.068 345.4 L
204.502 345.4 L
204.936 345.4 L
205.37 345.4 L
205.804 345.4 L
206.238 345.4 L
206.672 345.4 L
207.106 345.4 L
207.54 345.4 L
207.974 345.4 L
208.408 345.4 L
208.842 345.4 L
209.276 345.4 L
209.71 345.4 L
210.144 345.4 L
210.578 345.4 L
211.012 345.4 L
211.446 345.4 L
211.88 345.4 L
212.314 345.4 L
212.748 345.4 L
213.182 345.4 L
213.616 345.4 L
214.05 345.4 L
214.484 345.4 L
214.918 345.4 L
215.352 345.4 L
215.786 345.4 L
216.22 345.4 L
216.654 345.4 L
217.088 345.4 L
217.522 345.4 L
217.956 345.4 L
218.39 345.4 L
218.824 345.4 L
219.258 345.4 L
219.692 345.4 L
220.126 345.4 L
220.56 345.4 L
220.994 345.4 L
221.428 345.4 L
221.862 345.4 L
222.296 345.4 L
222.73 345.4 L
223.164 345.4 L
223.598 345.4 L
224.032 345.4 L
224.466 345.4 L
224.9 345.4 L
225.334 345.4 L
225.768 345.4 L
226.202 345.4 L
226.636 345.4 L
227.07 345.4 L
227.504 345.4 L
227.938 345.4 L
228.372 345.4 L
228.806 345.4 L
229.24 345.4 L
229.674 345.4 L
230.108 345.4 L
230.542 345.4 L
230.976 345.4 L
231.41 345.4 L
231.844 345.4 L
232.278 345.4 L
232.712 345.4 L
233.146 345.4 L
233.58 345.4 L
234.014 345.4 L
234.448 345.4 L
234.882 345.4 L
235.316 345.4 L
235.75 345.4 L
236.184 345.4 L
236.618 345.4 L
237.052 345.4 L
237.486 345.4 L
237.92 345.4 L
238.354 345.4 L
238.788 345.4 L
239.222 345.4 L
239.656 345.4 L
240.09 345.4 L
240.524 345.4 L
240.958 345.4 L
241.392 345.4 L
241.826 345.4 L
242.26 345.4 L
242.694 345.4 L
243.128 345.4 L
243.562 345.4 L
243.996 345.4 L
244.43 345.4 L
244.864 345.4 L
245.298 345.4 L
245.732 345.4 L
246.166 345.4 L
246.6 345.4 L
247.034 345.4 L
247.468 345.4 L
247.902 345.4 L
248.336 345.4 L
248.77 345.4 L
249.204 345.4 L
249.638 345.4 L
250.072 345.4 L
250.506 345.4 L
250.94 345.4 L
251.374 345.4 L
251.808 345.4 L
252.242 345.4 L
252.676 345.4 L
253.11 345.4 L
253.544 345.4 L
253.978 345.4 L
254.412 345.4 L
254.846 345.4 L
255.28 345.4 L
255.714 345.4 L
256.148 345.4 L
256.582 345.4 L
257.016 345.4 L
257.45 345.4 L
257.884 345.4 L
258.318 345.4 L
258.752 345.4 L
259.186 345.4 L
259.62 345.4 L
260.054 345.4 L
260.488 345.4 L
260.922 345.4 L
261.356 345.4 L
261.79 345.4 L
262.224 345.4 L
262.658 345.4 L
263.092 345.4 L
263.526 345.4 L
263.96 345.4 L
264.394 345.4 L
264.828 345.4 L
265.262 345.4 L
265.696 345.4 L
266.13 345.4 L
266.564 345.4 L
266.998 345.4 L
267.432 345.4 L
267.866 345.4 L
268.3 345.4 L
268.734 345.4 L
269.168 345.4 L
269.602 345.4 L
270.036 345.4 L
270.47 345.4 L
270.904 345.4 L
271.338 345.4 L
271.772 345.4 L
272.206 345.4 L
272.64 345.4 L
273.074 345.4 L
273.508 345.4 L
273.942 345.4 L
274.376 345.4 L
274.81 345.4 L
275.244 345.4 L
275.678 345.4 L
276.112 345.4 L
276.546 345.4 L
276.98 345.4 L
277.414 345.4 L
277.848 345.4 L
278.282 345.4 L
278.716 345.4 L
279.15 345.4 L
279.584 345.4 L
280.018 345.4 L
280.452 345.4 L
280.886 345.4 L
281.32 345.4 L
281.754 345.4 L
282.188 345.4 L
282.622 345.4 L
283.056 345.4 L
283.49 345.4 L
283.924 345.4 L
284.358 345.4 L
284.792 345.4 L
285.226 345.4 L
285.66 345.4 L
286.094 345.4 L
286.528 345.4 L
286.962 345.4 L
287.396 345.4 L
287.83 345.4 L
288.264 345.4 L
288.698 345.4 L
289.132 345.4 L
289.566 345.4 L
290 345.4 L
290.434 345.4 L
290.868 345.4 L
291.302 345.4 L
291.736 345.4 L
292.17 345.4 L
292.604 345.4 L
293.038 345.4 L
293.472 345.4 L
293.906 345.4 L
294.34 345.4 L
294.774 345.4 L
295.208 345.4 L
295.642 345.4 L
296.076 345.4 L
296.51 345.4 L
296.944 345.4 L
297.378 345.4 L
297.812 345.4 L
298.246 345.4 L
298.68 345.4 L
299.114 345.4 L
299.548 345.4 L
299.982 345.4 L
300.416 345.4 L
300.85 345.4 L
301.284 345.4 L
301.718 345.4 L
302.152 345.4 L
302.586 345.4 L
303.02 345.4 L
303.454 345.4 L
303.888 345.4 L
304.322 345.4 L
304.756 345.4 L
305.19 345.4 L
305.624 345.4 L
306.058 345.4 L
306.492 345.4 L
306.926 345.4 L
307.36 345.4 L
307.794 345.4 L
308.228 345.4 L
308.662 345.4 L
309.096 345.4 L
309.53 345.4 L
309.964 345.4 L
310.398 345.4 L
310.832 345.4 L
311.266 345.4 L
311.7 345.4 L
312.134 345.4 L
312.568 345.4 L
313.002 345.4 L
313.436 345.4 L
313.87 345.4 L
314.304 345.4 L
314.738 345.4 L
315.172 345.4 L
315.606 345.4 L
316.04 345.4 L
316.474 345.4 L
316.908 345.4 L
317.342 345.4 L
317.776 345.4 L
318.21 345.4 L
318.644 345.4 L
319.078 345.4 L
319.512 345.4 L
319.946 345.4 L
320.38 345.4 L
320.814 345.4 L
321.248 345.4 L
321.682 345.4 L
322.116 345.4 L
322.55 345.4 L
322.984 345.4 L
323.418 345.4 L
323.852 345.4 L
324.286 345.4 L
324.72 345.4 L
325.154 345.4 L
325.588 345.4 L
326.022 345.4 L
326.456 345.4 L
326.89 345.4 L
327.324 345.4 L
327.758 345.4 L
328.192 345.4 L
328.626 345.4 L
329.06 345.4 L
329.494 345.4 L
329.928 345.4 L
330.362 345.4 L
330.796 345.4 L
331.23 345.4 L
331.664 345.4 L
332.098 345.4 L
332.532 345.4 L
332.966 345.4 L
333.4 345.4 L
333.834 345.4 L
334.268 345.4 L
334.702 345.4 L
335.136 345.4 L
335.57 345.4 L
336.004 345.4 L
336.438 345.4 L
336.872 345.4 L
337.306 345.4 L
337.74 345.4 L
338.174 345.4 L
338.608 345.4 L
339.042 345.4 L
339.476 345.4 L
339.91 345.4 L
340.344 345.4 L
340.778 345.4 L
341.212 345.4 L
341.646 345.4 L
342.08 345.4 L
342.514 345.4 L
342.948 345.4 L
343.382 345.4 L
343.816 345.4 L
344.25 345.4 L
344.684 345.4 L
345.118 345.4 L
345.552 345.4 L
345.986 345.4 L
346.42 345.4 L
346.854 345.4 L
347.288 345.4 L
347.722 345.4 L
348.156 345.4 L
348.59 345.4 L
349.024 345.4 L
349.458 345.4 L
349.892 345.4 L
350.326 345.4 L
350.76 345.4 L
351.194 345.4 L
351.628 345.4 L
352.062 345.4 L
352.496 345.4 L
352.93 345.4 L
353.364 345.4 L
353.798 345.4 L
354.232 345.4 L
354.666 345.4 L
355.1 345.4 L
355.534 345.4 L
355.968 345.4 L
356.402 345.4 L
356.836 345.4 L
357.27 345.4 L
357.704 345.4 L
358.138 345.4 L
358.572 345.4 L
359.006 345.4 L
359.44 345.4 L
359.874 345.4 L
360.308 345.4 L
360.742 345.4 L
361.176 345.4 L
361.61 345.4 L
362.044 345.4 L
362.478 345.4 L
362.912 345.4 L
363.346 345.4 L
363.78 345.4 L
364.214 345.4 L
364.648 345.4 L
365.082 345.4 L
365.516 345.4 L
365.95 345.4 L
366.384 345.4 L
366.818 345.4 L
367.252 345.4 L
367.686 345.4 L
368.12 345.4 L
368.554 345.4 L
368.988 345.4 L
369.422 345.4 L
369.856 345.4 L
370.29 345.4 L
370.724 345.4 L
371.158 345.4 L
371.592 345.4 L
372.026 345.4 L
372.46 345.4 L
372.894 345.4 L
373.328 345.4 L
373.762 345.4 L
374.196 345.4 L
374.63 345.4 L
375.064 345.4 L
375.498 345.4 L
375.932 345.4 L
376.366 345.4 L
376.8 345.4 L
377.234 345.4 L
377.668 345.4 L
378.102 345.4 L
378.536 345.4 L
378.97 345.4 L
379.404 345.4 L
379.838 345.4 L
380.272 345.4 L
380.706 345.4 L
381.14 345.4 L
381.574 345.4 L
382.008 345.4 L
382.442 345.4 L
382.876 345.4 L
383.31 345.4 L
383.744 345.4 L
384.178 345.4 L
384.612 345.4 L
385.046 345.4 L
385.48 345.4 L
385.914 345.4 L
386.348 345.4 L
386.782 345.4 L
387.216 345.4 L
387.65 345.4 L
388.084 345.4 L
388.518 345.4 L
388.952 345.4 L
389.386 345.4 L
389.82 345.4 L
390.254 345.4 L
390.688 345.4 L
391.122 345.4 L
391.556 345.4 L
391.99 345.4 L
392.424 345.4 L
392.858 345.4 L
393.292 345.4 L
393.726 345.4 L
394.16 345.4 L
394.594 345.4 L
395.028 345.4 L
395.462 345.4 L
395.896 345.4 L
396.33 345.4 L
396.764 345.4 L
397.198 345.4 L
397.632 345.4 L
398.066 345.4 L
398.5 345.4 L
398.934 345.4 L
399.368 345.4 L
399.802 345.4 L
400.236 345.4 L
400.67 345.4 L
401.104 345.4 L
401.538 345.4 L
401.972 345.4 L
402.406 345.4 L
402.84 345.4 L
403.274 345.4 L
403.708 345.4 L
404.142 345.4 L
404.576 345.4 L
405.01 345.4 L
405.444 345.4 L
405.878 345.4 L
406.312 345.4 L
406.746 345.4 L
407.18 345.4 L
407.614 345.4 L
408.048 345.4 L
408.482 345.4 L
408.916 345.4 L
409.35 345.4 L
409.784 345.4 L
410.218 345.4 L
410.652 345.4 L
411.086 345.4 L
411.52 345.4 L
411.954 345.4 L
412.388 345.4 L
412.822 345.4 L
413.256 345.4 L
413.69 345.4 L
414.124 345.4 L
414.558 345.4 L
414.992 345.4 L
415.426 345.4 L
415.86 345.4 L
416.294 345.4 L
416.728 345.4 L
417.162 345.4 L
417.596 345.4 L
418.03 345.4 L
418.464 345.4 L
418.898 345.4 L
419.332 345.4 L
419.766 345.4 L
420.2 345.4 L
420.634 345.4 L
421.068 345.4 L
421.502 345.4 L
421.936 345.4 L
422.37 345.4 L
422.804 345.4 L
423.238 345.4 L
423.672 345.4 L
424.106 345.4 L
424.54 345.4 L
424.974 345.4 L
425.408 345.4 L
425.842 345.4 L
426.276 345.4 L
426.71 345.4 L
427.144 345.4 L
427.578 345.4 L
428.012 345.4 L
428.446 345.4 L
428.88 345.4 L
429.314 345.4 L
429.748 345.4 L
430.182 345.4 L
430.616 345.4 L
431.05 345.4 L
431.484 345.4 L
431.918 345.4 L
432.352 345.4 L
432.786 345.4 L
433.22 345.4 L
433.654 345.4 L
434.088 345.4 L
434.522 345.4 L
434.956 345.4 L
435.39 345.4 L
435.824 345.4 L
436.258 345.4 L
436.692 345.4 L
437.126 345.4 L
437.56 345.4 L
437.994 345.4 L
438.428 345.4 L
438.862 345.4 L
439.296 345.4 L
439.73 345.4 L
440.164 345.4 L
440.598 345.4 L
441.032 345.4 L
441.466 345.4 L
441.9 345.4 L
442.334 345.4 L
442.768 345.4 L
443.202 345.4 L
443.636 345.4 L
444.07 345.4 L
444.504 345.4 L
444.938 345.4 L
445.372 345.4 L
445.806 345.4 L
446.24 345.4 L
446.674 345.4 L
447.108 345.4 L
447.542 345.4 L
447.976 345.4 L
448.41 345.4 L
448.844 345.4 L
449.278 345.4 L
449.712 345.4 L
450.146 345.4 L
450.58 345.4 L
451.014 345.4 L
451.448 345.4 L
451.882 345.4 L
452.316 345.4 L
452.75 345.4 L
453.184 345.4 L
453.618 345.4 L
454.052 345.4 L
454.486 345.4 L
454.92 345.4 L
455.354 345.4 L
455.788 345.4 L
456.222 345.4 L
456.656 345.4 L
457.09 345.4 L
457.524 345.4 L
457.958 345.4 L
458.392 345.4 L
458.826 345.4 L
459.26 345.4 L
459.694 345.4 L
460.128 345.4 L
460.562 345.4 L
460.996 345.4 L
461.43 345.4 L
461.864 345.4 L
462.298 345.4 L
462.732 345.4 L
463.166 345.4 L
463.6 345.4 L
464.034 345.4 L
464.468 345.4 L
464.902 345.4 L
465.336 345.4 L
465.77 345.4 L
466.204 345.4 L
466.638 345.4 L
467.072 345.4 L
467.506 345.4 L
467.94 345.4 L
468.374 345.4 L
468.808 345.4 L
469.242 345.4 L
469.676 345.4 L
470.11 345.4 L
470.544 345.4 L
470.978 345.4 L
471.412 345.4 L
471.846 345.4 L
472.28 345.4 L
472.714 345.4 L
473.148 345.4 L
473.582 345.4 L
474.016 345.4 L
474.45 345.4 L
474.884 345.4 L
475.318 345.4 L
475.752 345.4 L
476.186 345.4 L
476.62 345.4 L
477.054 345.4 L
477.488 345.4 L
477.922 345.4 L
478.356 345.4 L
478.79 345.4 L
479.224 345.4 L
479.658 345.4 L
480.092 345.4 L
480.526 345.4 L
480.96 345.4 L
481.394 345.4 L
481.828 345.4 L
482.262 345.4 L
482.696 345.4 L
483.13 345.4 L
483.564 345.4 L
483.998 345.4 L
484.432 345.4 L
484.866 345.4 L
485.3 345.4 L
485.734 345.4 L
486.168 345.4 L
486.602 345.4 L
487.036 345.4 L
487.47 345.4 L
487.904 345.4 L
488.338 345.4 L
488.772 345.4 L
489.206 345.4 L
489.64 345.4 L
490.074 345.4 L
490.508 345.4 L
490.942 345.4 L
491.376 345.4 L
491.81 345.4 L
492.244 345.4 L
492.678 345.4 L
493.112 345.4 L
493.546 345.4 L
493.98 345.4 L
494.414 345.4 L
494.848 345.4 L
495.282 345.4 L
495.716 345.4 L
496.15 345.4 L
496.584 345.4 L
497.018 345.4 L
497.452 345.4 L
497.886 345.4 L
498.32 345.4 L
498.754 345.4 L
499.188 345.4 L
499.622 345.4 L
500.056 345.4 L
500.49 345.4 L
500.924 345.4 L
501.358 345.4 L
501.792 345.4 L
502.226 345.4 L
502.66 345.4 L
503.094 345.4 L
503.528 345.4 L
503.962 345.4 L
504.396 345.4 L
504.83 345.4 L
505.264 345.4 L
505.698 345.4 L
506.132 345.4 L
506.566 345.4 L
507 345.4 L
S
GR
GS
1 GC
N
339 267 M
339 241 L
497 241 L
497 267 L
cp
f
GR
GS
[1 0 0 1 376 248.35849] CT
/Helvetica 9 F
GS
[1 0 0 1 0 0] CT
0 3.5 moveto 
1 -1 scale
(Polynomial model - residuals) t 
GR
GR
GS
[1 0 0 1 358 248.35849] CT
0 0 1 RC
N
2.667 0 M
2.667 1.473 1.473 2.667 0 2.667 C
-1.473 2.667 -2.667 1.473 -2.667 0 C
-2.667 -1.473 -1.473 -2.667 0 -2.667 C
1.473 -2.667 2.667 -1.473 2.667 0 C
cp
f
GR
GS
[1 0 0 1 376 259.64151] CT
/Helvetica 9 F
GS
[1 0 0 1 0 0] CT
0 3.5 moveto 
1 -1 scale
(Zero Line) t 
GR
GR
GS
1 0 0 RC
1 LJ
N
343 259.642 M
373 259.642 L
S
GR
GS
0.149 GC
10.0 ML
0.5 LW
N
339 267 M
339 241 L
497 241 L
497 267 L
cp
S
GR
%%Trailer
%%Pages: 1
%%EOF
