%!PS-Adobe-3.0 EPSF-3.0
%%Creator: (MATLAB, The Mathworks, Inc. Version 9.0.0.341360 \(R2016a\). Operating System: Mac OS X)
%%Title: /Users/deepak/Documents/MATLAB/matlabprojects/singleCalib_IH/source/dryp.eps
%%CreationDate: 2016-11-26T22:21:15
%%Pages: (atend)
%%BoundingBox: 0 0 560 420
%%LanguageLevel: 3
%%EndComments
%%BeginProlog
%%BeginResource: procset (Apache XML Graphics Std ProcSet) 1.2 0
%%Version: 1.2 0
%%Copyright: (Copyright 2001-2003,2010 The Apache Software Foundation. License terms: http://www.apache.org/licenses/LICENSE-2.0)
/bd{bind def}bind def
/ld{load def}bd
/GR/grestore ld
/M/moveto ld
/LJ/setlinejoin ld
/C/curveto ld
/f/fill ld
/LW/setlinewidth ld
/GC/setgray ld
/t/show ld
/N/newpath ld
/CT/concat ld
/cp/closepath ld
/S/stroke ld
/L/lineto ld
/CC/setcmykcolor ld
/A/ashow ld
/GS/gsave ld
/RC/setrgbcolor ld
/RM/rmoveto ld
/ML/setmiterlimit ld
/re {4 2 roll M
1 index 0 rlineto
0 exch rlineto
neg 0 rlineto
cp } bd
/_ctm matrix def
/_tm matrix def
/BT { _ctm currentmatrix pop matrix _tm copy pop 0 0 moveto } bd
/ET { _ctm setmatrix } bd
/iTm { _ctm setmatrix _tm concat } bd
/Tm { _tm astore pop iTm 0 0 moveto } bd
/ux 0.0 def
/uy 0.0 def
/F {
  /Tp exch def
  /Tf exch def
  Tf findfont Tp scalefont setfont
  /cf Tf def  /cs Tp def
} bd
/ULS {currentpoint /uy exch def /ux exch def} bd
/ULE {
  /Tcx currentpoint pop def
  gsave
  newpath
  cf findfont cs scalefont dup
  /FontMatrix get 0 get /Ts exch def /FontInfo get dup
  /UnderlinePosition get Ts mul /To exch def
  /UnderlineThickness get Ts mul /Tt exch def
  ux uy To add moveto  Tcx uy To add lineto
  Tt setlinewidth stroke
  grestore
} bd
/OLE {
  /Tcx currentpoint pop def
  gsave
  newpath
  cf findfont cs scalefont dup
  /FontMatrix get 0 get /Ts exch def /FontInfo get dup
  /UnderlinePosition get Ts mul /To exch def
  /UnderlineThickness get Ts mul /Tt exch def
  ux uy To add cs add moveto Tcx uy To add cs add lineto
  Tt setlinewidth stroke
  grestore
} bd
/SOE {
  /Tcx currentpoint pop def
  gsave
  newpath
  cf findfont cs scalefont dup
  /FontMatrix get 0 get /Ts exch def /FontInfo get dup
  /UnderlinePosition get Ts mul /To exch def
  /UnderlineThickness get Ts mul /Tt exch def
  ux uy To add cs 10 mul 26 idiv add moveto Tcx uy To add cs 10 mul 26 idiv add lineto
  Tt setlinewidth stroke
  grestore
} bd
/QT {
/Y22 exch store
/X22 exch store
/Y21 exch store
/X21 exch store
currentpoint
/Y21 load 2 mul add 3 div exch
/X21 load 2 mul add 3 div exch
/X21 load 2 mul /X22 load add 3 div
/Y21 load 2 mul /Y22 load add 3 div
/X22 load /Y22 load curveto
} bd
/SSPD {
dup length /d exch dict def
{
/v exch def
/k exch def
currentpagedevice k known {
/cpdv currentpagedevice k get def
v cpdv ne {
/upd false def
/nullv v type /nulltype eq def
/nullcpdv cpdv type /nulltype eq def
nullv nullcpdv or
{
/upd true def
} {
/sametype v type cpdv type eq def
sametype {
v type /arraytype eq {
/vlen v length def
/cpdvlen cpdv length def
vlen cpdvlen eq {
0 1 vlen 1 sub {
/i exch def
/obj v i get def
/cpdobj cpdv i get def
obj cpdobj ne {
/upd true def
exit
} if
} for
} {
/upd true def
} ifelse
} {
v type /dicttype eq {
v {
/dv exch def
/dk exch def
/cpddv cpdv dk get def
dv cpddv ne {
/upd true def
exit
} if
} forall
} {
/upd true def
} ifelse
} ifelse
} if
} ifelse
upd true eq {
d k v put
} if
} if
} if
} forall
d length 0 gt {
d setpagedevice
} if
} bd
%%EndResource
%%BeginResource: procset (Apache XML Graphics EPS ProcSet) 1.0 0
%%Version: 1.0 0
%%Copyright: (Copyright 2002-2003 The Apache Software Foundation. License terms: http://www.apache.org/licenses/LICENSE-2.0)
/BeginEPSF { %def
/b4_Inc_state save def         % Save state for cleanup
/dict_count countdictstack def % Count objects on dict stack
/op_count count 1 sub def      % Count objects on operand stack
userdict begin                 % Push userdict on dict stack
/showpage { } def              % Redefine showpage, { } = null proc
0 setgray 0 setlinecap         % Prepare graphics state
1 setlinewidth 0 setlinejoin
10 setmiterlimit [ ] 0 setdash newpath
/languagelevel where           % If level not equal to 1 then
{pop languagelevel             % set strokeadjust and
1 ne                           % overprint to their defaults.
{false setstrokeadjust false setoverprint
} if
} if
} bd
/EndEPSF { %def
count op_count sub {pop} repeat            % Clean up stacks
countdictstack dict_count sub {end} repeat
b4_Inc_state restore
} bd
%%EndResource
%FOPBeginFontDict
%%IncludeResource: font Courier-Bold
%%IncludeResource: font Helvetica
%%IncludeResource: font Courier-BoldOblique
%%IncludeResource: font Courier-Oblique
%%IncludeResource: font Times-Roman
%%IncludeResource: font Helvetica-BoldOblique
%%IncludeResource: font Helvetica-Bold
%%IncludeResource: font Helvetica-Oblique
%%IncludeResource: font Times-BoldItalic
%%IncludeResource: font Courier
%%IncludeResource: font Times-Italic
%%IncludeResource: font Times-Bold
%%IncludeResource: font Symbol
%%IncludeResource: font ZapfDingbats
%FOPEndFontDict
%%BeginResource: encoding WinAnsiEncoding
/WinAnsiEncoding [
/.notdef /.notdef /.notdef /.notdef /.notdef
/.notdef /.notdef /.notdef /.notdef /.notdef
/.notdef /.notdef /.notdef /.notdef /.notdef
/.notdef /.notdef /.notdef /.notdef /.notdef
/.notdef /.notdef /.notdef /.notdef /.notdef
/.notdef /.notdef /.notdef /.notdef /.notdef
/.notdef /.notdef /space /exclam /quotedbl
/numbersign /dollar /percent /ampersand /quotesingle
/parenleft /parenright /asterisk /plus /comma
/hyphen /period /slash /zero /one
/two /three /four /five /six
/seven /eight /nine /colon /semicolon
/less /equal /greater /question /at
/A /B /C /D /E
/F /G /H /I /J
/K /L /M /N /O
/P /Q /R /S /T
/U /V /W /X /Y
/Z /bracketleft /backslash /bracketright /asciicircum
/underscore /quoteleft /a /b /c
/d /e /f /g /h
/i /j /k /l /m
/n /o /p /q /r
/s /t /u /v /w
/x /y /z /braceleft /bar
/braceright /asciitilde /bullet /Euro /bullet
/quotesinglbase /florin /quotedblbase /ellipsis /dagger
/daggerdbl /circumflex /perthousand /Scaron /guilsinglleft
/OE /bullet /Zcaron /bullet /bullet
/quoteleft /quoteright /quotedblleft /quotedblright /bullet
/endash /emdash /asciitilde /trademark /scaron
/guilsinglright /oe /bullet /zcaron /Ydieresis
/space /exclamdown /cent /sterling /currency
/yen /brokenbar /section /dieresis /copyright
/ordfeminine /guillemotleft /logicalnot /sfthyphen /registered
/macron /degree /plusminus /twosuperior /threesuperior
/acute /mu /paragraph /middot /cedilla
/onesuperior /ordmasculine /guillemotright /onequarter /onehalf
/threequarters /questiondown /Agrave /Aacute /Acircumflex
/Atilde /Adieresis /Aring /AE /Ccedilla
/Egrave /Eacute /Ecircumflex /Edieresis /Igrave
/Iacute /Icircumflex /Idieresis /Eth /Ntilde
/Ograve /Oacute /Ocircumflex /Otilde /Odieresis
/multiply /Oslash /Ugrave /Uacute /Ucircumflex
/Udieresis /Yacute /Thorn /germandbls /agrave
/aacute /acircumflex /atilde /adieresis /aring
/ae /ccedilla /egrave /eacute /ecircumflex
/edieresis /igrave /iacute /icircumflex /idieresis
/eth /ntilde /ograve /oacute /ocircumflex
/otilde /odieresis /divide /oslash /ugrave
/uacute /ucircumflex /udieresis /yacute /thorn
/ydieresis
] def
%%EndResource
%FOPBeginFontReencode
/Courier-Bold findfont
dup length dict begin
  {1 index /FID ne {def} {pop pop} ifelse} forall
  /Encoding WinAnsiEncoding def
  currentdict
end
/Courier-Bold exch definefont pop
/Helvetica findfont
dup length dict begin
  {1 index /FID ne {def} {pop pop} ifelse} forall
  /Encoding WinAnsiEncoding def
  currentdict
end
/Helvetica exch definefont pop
/Courier-BoldOblique findfont
dup length dict begin
  {1 index /FID ne {def} {pop pop} ifelse} forall
  /Encoding WinAnsiEncoding def
  currentdict
end
/Courier-BoldOblique exch definefont pop
/Courier-Oblique findfont
dup length dict begin
  {1 index /FID ne {def} {pop pop} ifelse} forall
  /Encoding WinAnsiEncoding def
  currentdict
end
/Courier-Oblique exch definefont pop
/Times-Roman findfont
dup length dict begin
  {1 index /FID ne {def} {pop pop} ifelse} forall
  /Encoding WinAnsiEncoding def
  currentdict
end
/Times-Roman exch definefont pop
/Helvetica-BoldOblique findfont
dup length dict begin
  {1 index /FID ne {def} {pop pop} ifelse} forall
  /Encoding WinAnsiEncoding def
  currentdict
end
/Helvetica-BoldOblique exch definefont pop
/Helvetica-Bold findfont
dup length dict begin
  {1 index /FID ne {def} {pop pop} ifelse} forall
  /Encoding WinAnsiEncoding def
  currentdict
end
/Helvetica-Bold exch definefont pop
/Helvetica-Oblique findfont
dup length dict begin
  {1 index /FID ne {def} {pop pop} ifelse} forall
  /Encoding WinAnsiEncoding def
  currentdict
end
/Helvetica-Oblique exch definefont pop
/Times-BoldItalic findfont
dup length dict begin
  {1 index /FID ne {def} {pop pop} ifelse} forall
  /Encoding WinAnsiEncoding def
  currentdict
end
/Times-BoldItalic exch definefont pop
/Courier findfont
dup length dict begin
  {1 index /FID ne {def} {pop pop} ifelse} forall
  /Encoding WinAnsiEncoding def
  currentdict
end
/Courier exch definefont pop
/Times-Italic findfont
dup length dict begin
  {1 index /FID ne {def} {pop pop} ifelse} forall
  /Encoding WinAnsiEncoding def
  currentdict
end
/Times-Italic exch definefont pop
/Times-Bold findfont
dup length dict begin
  {1 index /FID ne {def} {pop pop} ifelse} forall
  /Encoding WinAnsiEncoding def
  currentdict
end
/Times-Bold exch definefont pop
%FOPEndFontReencode
%%EndProlog
%%Page: 1 1
%%PageBoundingBox: 0 0 560 420
%%BeginPageSetup
[1 0 0 -1 0 420] CT
%%EndPageSetup
GS
1 GC
N
0 0 560 420 re
f
GR
GS
1 GC
N
0 0 560 420 re
f
GR
GS
1 GC
N
73 175 M
507 175 L
507 31 L
73 31 L
cp
f
GR
GS
0.873 GC
1 LJ
0.5 LW
N
73 175 M
73 31 L
S
GR
GS
0.873 GC
1 LJ
0.5 LW
N
127.25 175 M
127.25 31 L
S
GR
GS
0.873 GC
1 LJ
0.5 LW
N
181.5 175 M
181.5 31 L
S
GR
GS
0.873 GC
1 LJ
0.5 LW
N
235.75 175 M
235.75 31 L
S
GR
GS
0.873 GC
1 LJ
0.5 LW
N
290 175 M
290 31 L
S
GR
GS
0.873 GC
1 LJ
0.5 LW
N
344.25 175 M
344.25 31 L
S
GR
GS
0.873 GC
1 LJ
0.5 LW
N
398.5 175 M
398.5 31 L
S
GR
GS
0.873 GC
1 LJ
0.5 LW
N
452.75 175 M
452.75 31 L
S
GR
GS
0.873 GC
1 LJ
0.5 LW
N
507 175 M
507 31 L
S
GR
GS
0.873 GC
1 LJ
0.5 LW
N
507 175 M
73 175 L
S
GR
GS
0.873 GC
1 LJ
0.5 LW
N
507 139 M
73 139 L
S
GR
GS
0.873 GC
1 LJ
0.5 LW
N
507 103 M
73 103 L
S
GR
GS
0.873 GC
1 LJ
0.5 LW
N
507 67 M
73 67 L
S
GR
GS
0.873 GC
1 LJ
0.5 LW
N
507 31 M
73 31 L
S
GR
GS
0.149 GC
2 setlinecap
1 LJ
0.5 LW
N
73 175 M
507 175 L
S
GR
GS
0.149 GC
2 setlinecap
1 LJ
0.5 LW
N
73 31 M
507 31 L
S
GR
GS
0.149 GC
2 setlinecap
1 LJ
0.5 LW
N
73 175 M
73 170.66 L
S
GR
GS
0.149 GC
2 setlinecap
1 LJ
0.5 LW
N
127.25 175 M
127.25 170.66 L
S
GR
GS
0.149 GC
2 setlinecap
1 LJ
0.5 LW
N
181.5 175 M
181.5 170.66 L
S
GR
GS
0.149 GC
2 setlinecap
1 LJ
0.5 LW
N
235.75 175 M
235.75 170.66 L
S
GR
GS
0.149 GC
2 setlinecap
1 LJ
0.5 LW
N
290 175 M
290 170.66 L
S
GR
GS
0.149 GC
2 setlinecap
1 LJ
0.5 LW
N
344.25 175 M
344.25 170.66 L
S
GR
GS
0.149 GC
2 setlinecap
1 LJ
0.5 LW
N
398.5 175 M
398.5 170.66 L
S
GR
GS
0.149 GC
2 setlinecap
1 LJ
0.5 LW
N
452.75 175 M
452.75 170.66 L
S
GR
GS
0.149 GC
2 setlinecap
1 LJ
0.5 LW
N
507 175 M
507 170.66 L
S
GR
GS
0.149 GC
2 setlinecap
1 LJ
0.5 LW
N
73 31 M
73 35.34 L
S
GR
GS
0.149 GC
2 setlinecap
1 LJ
0.5 LW
N
127.25 31 M
127.25 35.34 L
S
GR
GS
0.149 GC
2 setlinecap
1 LJ
0.5 LW
N
181.5 31 M
181.5 35.34 L
S
GR
GS
0.149 GC
2 setlinecap
1 LJ
0.5 LW
N
235.75 31 M
235.75 35.34 L
S
GR
GS
0.149 GC
2 setlinecap
1 LJ
0.5 LW
N
290 31 M
290 35.34 L
S
GR
GS
0.149 GC
2 setlinecap
1 LJ
0.5 LW
N
344.25 31 M
344.25 35.34 L
S
GR
GS
0.149 GC
2 setlinecap
1 LJ
0.5 LW
N
398.5 31 M
398.5 35.34 L
S
GR
GS
0.149 GC
2 setlinecap
1 LJ
0.5 LW
N
452.75 31 M
452.75 35.34 L
S
GR
GS
0.149 GC
2 setlinecap
1 LJ
0.5 LW
N
507 31 M
507 35.34 L
S
GR
GS
[1 0 0 1 73 179] CT
0.149 GC
/Helvetica 10 F
GS
[1 0 0 1 0 0] CT
-3 10 moveto 
1 -1 scale
(0) t 
GR
GR
GS
[1 0 0 1 127.25 179] CT
0.149 GC
/Helvetica 10 F
GS
[1 0 0 1 0 0] CT
-3 10 moveto 
1 -1 scale
(5) t 
GR
GR
GS
[1 0 0 1 181.5 179] CT
0.149 GC
/Helvetica 10 F
GS
[1 0 0 1 0 0] CT
-6 10 moveto 
1 -1 scale
(10) t 
GR
GR
GS
[1 0 0 1 235.75 179] CT
0.149 GC
/Helvetica 10 F
GS
[1 0 0 1 0 0] CT
-6 10 moveto 
1 -1 scale
(15) t 
GR
GR
GS
[1 0 0 1 290 179] CT
0.149 GC
/Helvetica 10 F
GS
[1 0 0 1 0 0] CT
-6 10 moveto 
1 -1 scale
(20) t 
GR
GR
GS
[1 0 0 1 344.25 179] CT
0.149 GC
/Helvetica 10 F
GS
[1 0 0 1 0 0] CT
-6 10 moveto 
1 -1 scale
(25) t 
GR
GR
GS
[1 0 0 1 398.5 179] CT
0.149 GC
/Helvetica 10 F
GS
[1 0 0 1 0 0] CT
-6 10 moveto 
1 -1 scale
(30) t 
GR
GR
GS
[1 0 0 1 452.75 179] CT
0.149 GC
/Helvetica 10 F
GS
[1 0 0 1 0 0] CT
-6 10 moveto 
1 -1 scale
(35) t 
GR
GR
GS
[1 0 0 1 507 179] CT
0.149 GC
/Helvetica 10 F
GS
[1 0 0 1 0 0] CT
-6 10 moveto 
1 -1 scale
(40) t 
GR
GR
GS
[1 0 0 1 290.00021 193] CT
0.149 GC
/Helvetica-Bold 12 F
GS
[1 0 0 1 0 0] CT
-82 12 moveto 
1 -1 scale
(Camera rotation \(in degrees\)) t 
GR
GR
GS
0.149 GC
2 setlinecap
1 LJ
0.5 LW
N
73 175 M
73 31 L
S
GR
GS
0.149 GC
2 setlinecap
1 LJ
0.5 LW
N
507 175 M
507 31 L
S
GR
GS
0.149 GC
2 setlinecap
1 LJ
0.5 LW
N
73 175 M
77.34 175 L
S
GR
GS
0.149 GC
2 setlinecap
1 LJ
0.5 LW
N
73 139 M
77.34 139 L
S
GR
GS
0.149 GC
2 setlinecap
1 LJ
0.5 LW
N
73 103 M
77.34 103 L
S
GR
GS
0.149 GC
2 setlinecap
1 LJ
0.5 LW
N
73 67 M
77.34 67 L
S
GR
GS
0.149 GC
2 setlinecap
1 LJ
0.5 LW
N
73 31 M
77.34 31 L
S
GR
GS
0.149 GC
2 setlinecap
1 LJ
0.5 LW
N
507 175 M
502.66 175 L
S
GR
GS
0.149 GC
2 setlinecap
1 LJ
0.5 LW
N
507 139 M
502.66 139 L
S
GR
GS
0.149 GC
2 setlinecap
1 LJ
0.5 LW
N
507 103 M
502.66 103 L
S
GR
GS
0.149 GC
2 setlinecap
1 LJ
0.5 LW
N
507 67 M
502.66 67 L
S
GR
GS
0.149 GC
2 setlinecap
1 LJ
0.5 LW
N
507 31 M
502.66 31 L
S
GR
GS
[1 0 0 1 69 175] CT
0.149 GC
/Helvetica 10 F
GS
[1 0 0 1 0 0] CT
-6 3.5 moveto 
1 -1 scale
(0) t 
GR
GR
GS
[1 0 0 1 69 139] CT
0.149 GC
/Helvetica 10 F
GS
[1 0 0 1 0 0] CT
-6 3.5 moveto 
1 -1 scale
(2) t 
GR
GR
GS
[1 0 0 1 69 103] CT
0.149 GC
/Helvetica 10 F
GS
[1 0 0 1 0 0] CT
-6 3.5 moveto 
1 -1 scale
(4) t 
GR
GR
GS
[1 0 0 1 69 67] CT
0.149 GC
/Helvetica 10 F
GS
[1 0 0 1 0 0] CT
-6 3.5 moveto 
1 -1 scale
(6) t 
GR
GR
GS
[1 0 0 1 69 31] CT
0.149 GC
/Helvetica 10 F
GS
[1 0 0 1 0 0] CT
-6 3.5 moveto 
1 -1 scale
(8) t 
GR
GR
GS
[0 -1 1 0 60 102.99993] CT
0.149 GC
/Helvetica-Bold 12 F
GS
[1 0 0 1 0 0] CT
-56 -3 moveto 
1 -1 scale
(Depth error \(in mm\)) t 
GR
GR
GS
[1 0 0 1 73 175] CT
0 0 1 RC
N
2.667 0 M
2.667 1.473 1.473 2.667 0 2.667 C
-1.473 2.667 -2.667 1.473 -2.667 0 C
-2.667 -1.473 -1.473 -2.667 0 -2.667 C
1.473 -2.667 2.667 -1.473 2.667 0 C
cp
f
GR
GS
[1 0 0 1 83.85 174.13242] CT
0 0 1 RC
N
2.667 0 M
2.667 1.473 1.473 2.667 0 2.667 C
-1.473 2.667 -2.667 1.473 -2.667 0 C
-2.667 -1.473 -1.473 -2.667 0 -2.667 C
1.473 -2.667 2.667 -1.473 2.667 0 C
cp
f
GR
GS
[1 0 0 1 94.7 173.11476] CT
0 0 1 RC
N
2.667 0 M
2.667 1.473 1.473 2.667 0 2.667 C
-1.473 2.667 -2.667 1.473 -2.667 0 C
-2.667 -1.473 -1.473 -2.667 0 -2.667 C
1.473 -2.667 2.667 -1.473 2.667 0 C
cp
f
GR
GS
[1 0 0 1 105.55 172.17108] CT
0 0 1 RC
N
2.667 0 M
2.667 1.473 1.473 2.667 0 2.667 C
-1.473 2.667 -2.667 1.473 -2.667 0 C
-2.667 -1.473 -1.473 -2.667 0 -2.667 C
1.473 -2.667 2.667 -1.473 2.667 0 C
cp
f
GR
GS
[1 0 0 1 116.4 171.31517] CT
0 0 1 RC
N
2.667 0 M
2.667 1.473 1.473 2.667 0 2.667 C
-1.473 2.667 -2.667 1.473 -2.667 0 C
-2.667 -1.473 -1.473 -2.667 0 -2.667 C
1.473 -2.667 2.667 -1.473 2.667 0 C
cp
f
GR
GS
[1 0 0 1 127.25 170.17453] CT
0 0 1 RC
N
2.667 0 M
2.667 1.473 1.473 2.667 0 2.667 C
-1.473 2.667 -2.667 1.473 -2.667 0 C
-2.667 -1.473 -1.473 -2.667 0 -2.667 C
1.473 -2.667 2.667 -1.473 2.667 0 C
cp
f
GR
GS
[1 0 0 1 138.10001 169.0807] CT
0 0 1 RC
N
2.667 0 M
2.667 1.473 1.473 2.667 0 2.667 C
-1.473 2.667 -2.667 1.473 -2.667 0 C
-2.667 -1.473 -1.473 -2.667 0 -2.667 C
1.473 -2.667 2.667 -1.473 2.667 0 C
cp
f
GR
GS
[1 0 0 1 148.95 167.62852] CT
0 0 1 RC
N
2.667 0 M
2.667 1.473 1.473 2.667 0 2.667 C
-1.473 2.667 -2.667 1.473 -2.667 0 C
-2.667 -1.473 -1.473 -2.667 0 -2.667 C
1.473 -2.667 2.667 -1.473 2.667 0 C
cp
f
GR
GS
[1 0 0 1 159.8 166.67882] CT
0 0 1 RC
N
2.667 0 M
2.667 1.473 1.473 2.667 0 2.667 C
-1.473 2.667 -2.667 1.473 -2.667 0 C
-2.667 -1.473 -1.473 -2.667 0 -2.667 C
1.473 -2.667 2.667 -1.473 2.667 0 C
cp
f
GR
GS
[1 0 0 1 170.64999 164.95389] CT
0 0 1 RC
N
2.667 0 M
2.667 1.473 1.473 2.667 0 2.667 C
-1.473 2.667 -2.667 1.473 -2.667 0 C
-2.667 -1.473 -1.473 -2.667 0 -2.667 C
1.473 -2.667 2.667 -1.473 2.667 0 C
cp
f
GR
GS
[1 0 0 1 181.5 163.40752] CT
0 0 1 RC
N
2.667 0 M
2.667 1.473 1.473 2.667 0 2.667 C
-1.473 2.667 -2.667 1.473 -2.667 0 C
-2.667 -1.473 -1.473 -2.667 0 -2.667 C
1.473 -2.667 2.667 -1.473 2.667 0 C
cp
f
GR
GS
[1 0 0 1 192.35001 162.02115] CT
0 0 1 RC
N
2.667 0 M
2.667 1.473 1.473 2.667 0 2.667 C
-1.473 2.667 -2.667 1.473 -2.667 0 C
-2.667 -1.473 -1.473 -2.667 0 -2.667 C
1.473 -2.667 2.667 -1.473 2.667 0 C
cp
f
GR
GS
[1 0 0 1 203.2 160.38132] CT
0 0 1 RC
N
2.667 0 M
2.667 1.473 1.473 2.667 0 2.667 C
-1.473 2.667 -2.667 1.473 -2.667 0 C
-2.667 -1.473 -1.473 -2.667 0 -2.667 C
1.473 -2.667 2.667 -1.473 2.667 0 C
cp
f
GR
GS
[1 0 0 1 214.05 158.22537] CT
0 0 1 RC
N
2.667 0 M
2.667 1.473 1.473 2.667 0 2.667 C
-1.473 2.667 -2.667 1.473 -2.667 0 C
-2.667 -1.473 -1.473 -2.667 0 -2.667 C
1.473 -2.667 2.667 -1.473 2.667 0 C
cp
f
GR
GS
[1 0 0 1 224.89999 156.92352] CT
0 0 1 RC
N
2.667 0 M
2.667 1.473 1.473 2.667 0 2.667 C
-1.473 2.667 -2.667 1.473 -2.667 0 C
-2.667 -1.473 -1.473 -2.667 0 -2.667 C
1.473 -2.667 2.667 -1.473 2.667 0 C
cp
f
GR
GS
[1 0 0 1 235.75 154.58287] CT
0 0 1 RC
N
2.667 0 M
2.667 1.473 1.473 2.667 0 2.667 C
-1.473 2.667 -2.667 1.473 -2.667 0 C
-2.667 -1.473 -1.473 -2.667 0 -2.667 C
1.473 -2.667 2.667 -1.473 2.667 0 C
cp
f
GR
GS
[1 0 0 1 246.60001 153.09625] CT
0 0 1 RC
N
2.667 0 M
2.667 1.473 1.473 2.667 0 2.667 C
-1.473 2.667 -2.667 1.473 -2.667 0 C
-2.667 -1.473 -1.473 -2.667 0 -2.667 C
1.473 -2.667 2.667 -1.473 2.667 0 C
cp
f
GR
GS
[1 0 0 1 257.45001 148.89223] CT
0 0 1 RC
N
2.667 0 M
2.667 1.473 1.473 2.667 0 2.667 C
-1.473 2.667 -2.667 1.473 -2.667 0 C
-2.667 -1.473 -1.473 -2.667 0 -2.667 C
1.473 -2.667 2.667 -1.473 2.667 0 C
cp
f
GR
GS
[1 0 0 1 268.29999 147.38274] CT
0 0 1 RC
N
2.667 0 M
2.667 1.473 1.473 2.667 0 2.667 C
-1.473 2.667 -2.667 1.473 -2.667 0 C
-2.667 -1.473 -1.473 -2.667 0 -2.667 C
1.473 -2.667 2.667 -1.473 2.667 0 C
cp
f
GR
GS
[1 0 0 1 279.14999 145.74486] CT
0 0 1 RC
N
2.667 0 M
2.667 1.473 1.473 2.667 0 2.667 C
-1.473 2.667 -2.667 1.473 -2.667 0 C
-2.667 -1.473 -1.473 -2.667 0 -2.667 C
1.473 -2.667 2.667 -1.473 2.667 0 C
cp
f
GR
GS
[1 0 0 1 290 142.04349] CT
0 0 1 RC
N
2.667 0 M
2.667 1.473 1.473 2.667 0 2.667 C
-1.473 2.667 -2.667 1.473 -2.667 0 C
-2.667 -1.473 -1.473 -2.667 0 -2.667 C
1.473 -2.667 2.667 -1.473 2.667 0 C
cp
f
GR
GS
[1 0 0 1 300.85001 139.11493] CT
0 0 1 RC
N
2.667 0 M
2.667 1.473 1.473 2.667 0 2.667 C
-1.473 2.667 -2.667 1.473 -2.667 0 C
-2.667 -1.473 -1.473 -2.667 0 -2.667 C
1.473 -2.667 2.667 -1.473 2.667 0 C
cp
f
GR
GS
[1 0 0 1 311.70001 137.47253] CT
0 0 1 RC
N
2.667 0 M
2.667 1.473 1.473 2.667 0 2.667 C
-1.473 2.667 -2.667 1.473 -2.667 0 C
-2.667 -1.473 -1.473 -2.667 0 -2.667 C
1.473 -2.667 2.667 -1.473 2.667 0 C
cp
f
GR
GS
[1 0 0 1 322.54999 131.32756] CT
0 0 1 RC
N
2.667 0 M
2.667 1.473 1.473 2.667 0 2.667 C
-1.473 2.667 -2.667 1.473 -2.667 0 C
-2.667 -1.473 -1.473 -2.667 0 -2.667 C
1.473 -2.667 2.667 -1.473 2.667 0 C
cp
f
GR
GS
[1 0 0 1 333.39999 127.68975] CT
0 0 1 RC
N
2.667 0 M
2.667 1.473 1.473 2.667 0 2.667 C
-1.473 2.667 -2.667 1.473 -2.667 0 C
-2.667 -1.473 -1.473 -2.667 0 -2.667 C
1.473 -2.667 2.667 -1.473 2.667 0 C
cp
f
GR
GS
[1 0 0 1 344.25 127.52305] CT
0 0 1 RC
N
2.667 0 M
2.667 1.473 1.473 2.667 0 2.667 C
-1.473 2.667 -2.667 1.473 -2.667 0 C
-2.667 -1.473 -1.473 -2.667 0 -2.667 C
1.473 -2.667 2.667 -1.473 2.667 0 C
cp
f
GR
GS
[1 0 0 1 355.10001 122.42361] CT
0 0 1 RC
N
2.667 0 M
2.667 1.473 1.473 2.667 0 2.667 C
-1.473 2.667 -2.667 1.473 -2.667 0 C
-2.667 -1.473 -1.473 -2.667 0 -2.667 C
1.473 -2.667 2.667 -1.473 2.667 0 C
cp
f
GR
GS
[1 0 0 1 365.95001 117.59929] CT
0 0 1 RC
N
2.667 0 M
2.667 1.473 1.473 2.667 0 2.667 C
-1.473 2.667 -2.667 1.473 -2.667 0 C
-2.667 -1.473 -1.473 -2.667 0 -2.667 C
1.473 -2.667 2.667 -1.473 2.667 0 C
cp
f
GR
GS
[1 0 0 1 376.79999 112.63226] CT
0 0 1 RC
N
2.667 0 M
2.667 1.473 1.473 2.667 0 2.667 C
-1.473 2.667 -2.667 1.473 -2.667 0 C
-2.667 -1.473 -1.473 -2.667 0 -2.667 C
1.473 -2.667 2.667 -1.473 2.667 0 C
cp
f
GR
GS
[1 0 0 1 387.64999 110.15903] CT
0 0 1 RC
N
2.667 0 M
2.667 1.473 1.473 2.667 0 2.667 C
-1.473 2.667 -2.667 1.473 -2.667 0 C
-2.667 -1.473 -1.473 -2.667 0 -2.667 C
1.473 -2.667 2.667 -1.473 2.667 0 C
cp
f
GR
GS
[1 0 0 1 398.5 103.76502] CT
0 0 1 RC
N
2.667 0 M
2.667 1.473 1.473 2.667 0 2.667 C
-1.473 2.667 -2.667 1.473 -2.667 0 C
-2.667 -1.473 -1.473 -2.667 0 -2.667 C
1.473 -2.667 2.667 -1.473 2.667 0 C
cp
f
GR
GS
[1 0 0 1 409.35001 97.85233] CT
0 0 1 RC
N
2.667 0 M
2.667 1.473 1.473 2.667 0 2.667 C
-1.473 2.667 -2.667 1.473 -2.667 0 C
-2.667 -1.473 -1.473 -2.667 0 -2.667 C
1.473 -2.667 2.667 -1.473 2.667 0 C
cp
f
GR
GS
[1 0 0 1 420.20001 93.75556] CT
0 0 1 RC
N
2.667 0 M
2.667 1.473 1.473 2.667 0 2.667 C
-1.473 2.667 -2.667 1.473 -2.667 0 C
-2.667 -1.473 -1.473 -2.667 0 -2.667 C
1.473 -2.667 2.667 -1.473 2.667 0 C
cp
f
GR
GS
[1 0 0 1 431.04999 84.02439] CT
0 0 1 RC
N
2.667 0 M
2.667 1.473 1.473 2.667 0 2.667 C
-1.473 2.667 -2.667 1.473 -2.667 0 C
-2.667 -1.473 -1.473 -2.667 0 -2.667 C
1.473 -2.667 2.667 -1.473 2.667 0 C
cp
f
GR
GS
[1 0 0 1 441.89999 83.05331] CT
0 0 1 RC
N
2.667 0 M
2.667 1.473 1.473 2.667 0 2.667 C
-1.473 2.667 -2.667 1.473 -2.667 0 C
-2.667 -1.473 -1.473 -2.667 0 -2.667 C
1.473 -2.667 2.667 -1.473 2.667 0 C
cp
f
GR
GS
[1 0 0 1 452.75 75.98508] CT
0 0 1 RC
N
2.667 0 M
2.667 1.473 1.473 2.667 0 2.667 C
-1.473 2.667 -2.667 1.473 -2.667 0 C
-2.667 -1.473 -1.473 -2.667 0 -2.667 C
1.473 -2.667 2.667 -1.473 2.667 0 C
cp
f
GR
GS
[1 0 0 1 463.60001 65.01672] CT
0 0 1 RC
N
2.667 0 M
2.667 1.473 1.473 2.667 0 2.667 C
-1.473 2.667 -2.667 1.473 -2.667 0 C
-2.667 -1.473 -1.473 -2.667 0 -2.667 C
1.473 -2.667 2.667 -1.473 2.667 0 C
cp
f
GR
GS
[1 0 0 1 474.45001 65.47758] CT
0 0 1 RC
N
2.667 0 M
2.667 1.473 1.473 2.667 0 2.667 C
-1.473 2.667 -2.667 1.473 -2.667 0 C
-2.667 -1.473 -1.473 -2.667 0 -2.667 C
1.473 -2.667 2.667 -1.473 2.667 0 C
cp
f
GR
GS
[1 0 0 1 485.29999 48.36899] CT
0 0 1 RC
N
2.667 0 M
2.667 1.473 1.473 2.667 0 2.667 C
-1.473 2.667 -2.667 1.473 -2.667 0 C
-2.667 -1.473 -1.473 -2.667 0 -2.667 C
1.473 -2.667 2.667 -1.473 2.667 0 C
cp
f
GR
GS
[1 0 0 1 496.14999 43.34517] CT
0 0 1 RC
N
2.667 0 M
2.667 1.473 1.473 2.667 0 2.667 C
-1.473 2.667 -2.667 1.473 -2.667 0 C
-2.667 -1.473 -1.473 -2.667 0 -2.667 C
1.473 -2.667 2.667 -1.473 2.667 0 C
cp
f
GR
GS
[1 0 0 1 507 32.82359] CT
0 0 1 RC
N
2.667 0 M
2.667 1.473 1.473 2.667 0 2.667 C
-1.473 2.667 -2.667 1.473 -2.667 0 C
-2.667 -1.473 -1.473 -2.667 0 -2.667 C
1.473 -2.667 2.667 -1.473 2.667 0 C
cp
f
GR
GS
1 0 0 RC
1 LJ
N
73 172.475 M
73.434 172.476 L
73.868 172.476 L
74.302 172.476 L
74.736 172.475 L
75.17 172.475 L
75.604 172.474 L
76.038 172.473 L
76.472 172.471 L
76.906 172.47 L
77.34 172.468 L
77.774 172.466 L
78.208 172.463 L
78.642 172.461 L
79.076 172.458 L
79.51 172.455 L
79.944 172.451 L
80.378 172.448 L
80.812 172.444 L
81.246 172.44 L
81.68 172.435 L
82.114 172.431 L
82.548 172.426 L
82.982 172.421 L
83.416 172.416 L
83.85 172.41 L
84.284 172.404 L
84.718 172.398 L
85.152 172.392 L
85.586 172.385 L
86.02 172.378 L
86.454 172.371 L
86.888 172.364 L
87.322 172.356 L
87.756 172.348 L
88.19 172.34 L
88.624 172.332 L
89.058 172.323 L
89.492 172.315 L
89.926 172.306 L
90.36 172.296 L
90.794 172.287 L
91.228 172.277 L
91.662 172.267 L
92.096 172.256 L
92.53 172.246 L
92.964 172.235 L
93.398 172.224 L
93.832 172.213 L
94.266 172.201 L
94.7 172.189 L
95.134 172.177 L
95.568 172.165 L
96.002 172.152 L
96.436 172.14 L
96.87 172.127 L
97.304 172.113 L
97.738 172.1 L
98.172 172.086 L
98.606 172.072 L
99.04 172.058 L
99.474 172.043 L
99.908 172.028 L
100.342 172.013 L
100.776 171.998 L
101.21 171.982 L
101.644 171.967 L
102.078 171.951 L
102.512 171.934 L
102.946 171.918 L
103.38 171.901 L
103.814 171.884 L
104.248 171.867 L
104.682 171.849 L
105.116 171.832 L
105.55 171.814 L
105.984 171.795 L
106.418 171.777 L
106.852 171.758 L
107.286 171.739 L
107.72 171.72 L
108.154 171.7 L
108.588 171.681 L
109.022 171.661 L
109.456 171.64 L
109.89 171.62 L
110.324 171.599 L
110.758 171.578 L
111.192 171.557 L
111.626 171.535 L
112.06 171.514 L
112.494 171.492 L
112.928 171.469 L
113.362 171.447 L
113.796 171.424 L
114.23 171.401 L
114.664 171.378 L
115.098 171.355 L
115.532 171.331 L
115.966 171.307 L
116.4 171.283 L
116.834 171.258 L
117.268 171.233 L
117.702 171.208 L
118.136 171.183 L
118.57 171.158 L
119.004 171.132 L
119.438 171.106 L
119.872 171.08 L
120.306 171.053 L
120.74 171.027 L
121.174 171 L
121.608 170.973 L
122.042 170.945 L
122.476 170.918 L
122.91 170.89 L
123.344 170.861 L
123.778 170.833 L
124.212 170.804 L
124.646 170.775 L
125.08 170.746 L
125.514 170.717 L
125.948 170.687 L
126.382 170.657 L
126.816 170.627 L
127.25 170.597 L
127.684 170.566 L
128.118 170.535 L
128.552 170.504 L
128.986 170.472 L
129.42 170.441 L
129.854 170.409 L
130.288 170.377 L
130.722 170.344 L
131.156 170.312 L
131.59 170.279 L
132.024 170.245 L
132.458 170.212 L
132.892 170.178 L
133.326 170.145 L
133.76 170.11 L
134.194 170.076 L
134.628 170.041 L
135.062 170.006 L
135.496 169.971 L
135.93 169.936 L
136.364 169.9 L
136.798 169.864 L
137.232 169.828 L
137.666 169.792 L
138.1 169.755 L
138.534 169.718 L
138.968 169.681 L
139.402 169.644 L
139.836 169.606 L
140.27 169.568 L
140.704 169.53 L
141.138 169.492 L
141.572 169.453 L
142.006 169.414 L
142.44 169.375 L
142.874 169.336 L
143.308 169.296 L
143.742 169.256 L
144.176 169.216 L
144.61 169.176 L
145.044 169.135 L
145.478 169.095 L
145.912 169.053 L
146.346 169.012 L
146.78 168.971 L
147.214 168.929 L
147.648 168.887 L
148.082 168.844 L
148.516 168.802 L
148.95 168.759 L
149.384 168.716 L
149.818 168.672 L
150.252 168.629 L
150.686 168.585 L
151.12 168.541 L
151.554 168.497 L
151.988 168.452 L
152.422 168.407 L
152.856 168.362 L
153.29 168.317 L
153.724 168.271 L
154.158 168.225 L
154.592 168.179 L
155.026 168.133 L
155.46 168.086 L
155.894 168.04 L
156.328 167.993 L
156.762 167.945 L
157.196 167.898 L
157.63 167.85 L
158.064 167.802 L
158.498 167.754 L
158.932 167.705 L
159.366 167.656 L
159.8 167.607 L
160.234 167.558 L
160.668 167.508 L
161.102 167.459 L
161.536 167.409 L
161.97 167.358 L
162.404 167.308 L
162.838 167.257 L
163.272 167.206 L
163.706 167.155 L
164.14 167.103 L
164.574 167.051 L
165.008 166.999 L
165.442 166.947 L
165.876 166.895 L
166.31 166.842 L
166.744 166.789 L
167.178 166.736 L
167.612 166.682 L
168.046 166.628 L
168.48 166.574 L
168.914 166.52 L
169.348 166.465 L
169.782 166.411 L
170.216 166.356 L
170.65 166.3 L
171.084 166.245 L
171.518 166.189 L
171.952 166.133 L
172.386 166.077 L
172.82 166.02 L
173.254 165.964 L
173.688 165.907 L
174.122 165.85 L
174.556 165.792 L
174.99 165.734 L
175.424 165.676 L
175.858 165.618 L
176.292 165.56 L
176.726 165.501 L
177.16 165.442 L
177.594 165.383 L
178.028 165.323 L
178.462 165.264 L
178.896 165.204 L
179.33 165.143 L
179.764 165.083 L
180.198 165.022 L
180.632 164.961 L
181.066 164.9 L
181.5 164.839 L
181.934 164.777 L
182.368 164.715 L
182.802 164.653 L
183.236 164.59 L
183.67 164.528 L
184.104 164.465 L
184.538 164.401 L
184.972 164.338 L
185.406 164.274 L
185.84 164.21 L
186.274 164.146 L
186.708 164.082 L
187.142 164.017 L
187.576 163.952 L
188.01 163.887 L
188.444 163.821 L
188.878 163.756 L
189.312 163.69 L
189.746 163.624 L
190.18 163.557 L
190.614 163.491 L
191.048 163.424 L
191.482 163.356 L
191.916 163.289 L
192.35 163.221 L
192.784 163.154 L
193.218 163.085 L
193.652 163.017 L
194.086 162.948 L
194.52 162.879 L
194.954 162.81 L
195.388 162.741 L
195.822 162.671 L
196.256 162.601 L
196.69 162.531 L
197.124 162.461 L
197.558 162.39 L
197.992 162.319 L
198.426 162.248 L
198.86 162.177 L
199.294 162.105 L
199.728 162.033 L
200.162 161.961 L
200.596 161.889 L
201.03 161.816 L
201.464 161.743 L
201.898 161.67 L
202.332 161.597 L
202.766 161.523 L
203.2 161.449 L
203.634 161.375 L
204.068 161.301 L
204.502 161.226 L
204.936 161.151 L
205.37 161.076 L
205.804 161.001 L
206.238 160.925 L
206.672 160.849 L
207.106 160.773 L
207.54 160.697 L
207.974 160.62 L
208.408 160.543 L
208.842 160.466 L
209.276 160.389 L
209.71 160.311 L
210.144 160.233 L
210.578 160.155 L
211.012 160.077 L
211.446 159.998 L
211.88 159.92 L
212.314 159.841 L
212.748 159.761 L
213.182 159.682 L
213.616 159.602 L
214.05 159.522 L
214.484 159.441 L
214.918 159.361 L
215.352 159.28 L
215.786 159.199 L
216.22 159.118 L
216.654 159.036 L
217.088 158.954 L
217.522 158.872 L
217.956 158.79 L
218.39 158.707 L
218.824 158.624 L
219.258 158.541 L
219.692 158.458 L
220.126 158.375 L
220.56 158.291 L
220.994 158.207 L
221.428 158.122 L
221.862 158.038 L
222.296 157.953 L
222.73 157.868 L
223.164 157.783 L
223.598 157.697 L
224.032 157.611 L
224.466 157.525 L
224.9 157.439 L
225.334 157.353 L
225.768 157.266 L
226.202 157.179 L
226.636 157.092 L
227.07 157.004 L
227.504 156.916 L
227.938 156.828 L
228.372 156.74 L
228.806 156.651 L
229.24 156.563 L
229.674 156.474 L
230.108 156.384 L
230.542 156.295 L
230.976 156.205 L
231.41 156.115 L
231.844 156.025 L
232.278 155.934 L
232.712 155.844 L
233.146 155.753 L
233.58 155.661 L
234.014 155.57 L
234.448 155.478 L
234.882 155.386 L
235.316 155.294 L
235.75 155.201 L
236.184 155.109 L
236.618 155.016 L
237.052 154.922 L
237.486 154.829 L
237.92 154.735 L
238.354 154.641 L
238.788 154.547 L
239.222 154.453 L
239.656 154.358 L
240.09 154.263 L
240.524 154.168 L
240.958 154.072 L
241.392 153.976 L
241.826 153.88 L
242.26 153.784 L
242.694 153.688 L
243.128 153.591 L
243.562 153.494 L
243.996 153.397 L
244.43 153.299 L
244.864 153.202 L
245.298 153.104 L
245.732 153.006 L
246.166 152.907 L
246.6 152.808 L
247.034 152.71 L
247.468 152.61 L
247.902 152.511 L
248.336 152.411 L
248.77 152.311 L
249.204 152.211 L
249.638 152.111 L
250.072 152.01 L
250.506 151.909 L
250.94 151.808 L
251.374 151.706 L
251.808 151.605 L
252.242 151.503 L
252.676 151.401 L
253.11 151.298 L
253.544 151.196 L
253.978 151.093 L
254.412 150.989 L
254.846 150.886 L
255.28 150.782 L
255.714 150.678 L
256.148 150.574 L
256.582 150.47 L
257.016 150.365 L
257.45 150.26 L
257.884 150.155 L
258.318 150.05 L
258.752 149.944 L
259.186 149.838 L
259.62 149.732 L
260.054 149.626 L
260.488 149.519 L
260.922 149.412 L
261.356 149.305 L
261.79 149.198 L
262.224 149.09 L
262.658 148.982 L
263.092 148.874 L
263.526 148.766 L
263.96 148.657 L
264.394 148.548 L
264.828 148.439 L
265.262 148.33 L
265.696 148.22 L
266.13 148.11 L
266.564 148 L
266.998 147.89 L
267.432 147.779 L
267.866 147.668 L
268.3 147.557 L
268.734 147.446 L
269.168 147.334 L
269.602 147.222 L
270.036 147.11 L
270.47 146.998 L
270.904 146.885 L
271.338 146.772 L
271.772 146.659 L
272.206 146.546 L
272.64 146.432 L
273.074 146.318 L
273.508 146.204 L
273.942 146.09 L
274.376 145.975 L
274.81 145.861 L
275.244 145.746 L
275.678 145.63 L
276.112 145.515 L
276.546 145.399 L
276.98 145.283 L
277.414 145.166 L
277.848 145.05 L
278.282 144.933 L
278.716 144.816 L
279.15 144.699 L
279.584 144.581 L
280.018 144.463 L
280.452 144.345 L
280.886 144.227 L
281.32 144.108 L
281.754 143.99 L
282.188 143.871 L
282.622 143.751 L
283.056 143.632 L
283.49 143.512 L
283.924 143.392 L
284.358 143.272 L
284.792 143.151 L
285.226 143.03 L
285.66 142.909 L
286.094 142.788 L
286.528 142.666 L
286.962 142.545 L
287.396 142.423 L
287.83 142.3 L
288.264 142.178 L
288.698 142.055 L
289.132 141.932 L
289.566 141.809 L
290 141.685 L
290.434 141.561 L
290.868 141.437 L
291.302 141.313 L
291.736 141.189 L
292.17 141.064 L
292.604 140.939 L
293.038 140.813 L
293.472 140.688 L
293.906 140.562 L
294.34 140.436 L
294.774 140.31 L
295.208 140.183 L
295.642 140.057 L
296.076 139.93 L
296.51 139.802 L
296.944 139.675 L
297.378 139.547 L
297.812 139.419 L
298.246 139.291 L
298.68 139.162 L
299.114 139.034 L
299.548 138.905 L
299.982 138.776 L
300.416 138.646 L
300.85 138.516 L
301.284 138.386 L
301.718 138.256 L
302.152 138.126 L
302.586 137.995 L
303.02 137.864 L
303.454 137.733 L
303.888 137.601 L
304.322 137.47 L
304.756 137.338 L
305.19 137.205 L
305.624 137.073 L
306.058 136.94 L
306.492 136.807 L
306.926 136.674 L
307.36 136.541 L
307.794 136.407 L
308.228 136.273 L
308.662 136.139 L
309.096 136.004 L
309.53 135.87 L
309.964 135.735 L
310.398 135.599 L
310.832 135.464 L
311.266 135.328 L
311.7 135.192 L
312.134 135.056 L
312.568 134.92 L
313.002 134.783 L
313.436 134.646 L
313.87 134.509 L
314.304 134.372 L
314.738 134.234 L
315.172 134.096 L
315.606 133.958 L
316.04 133.819 L
316.474 133.681 L
316.908 133.542 L
317.342 133.403 L
317.776 133.263 L
318.21 133.124 L
318.644 132.984 L
319.078 132.844 L
319.512 132.703 L
319.946 132.562 L
320.38 132.422 L
320.814 132.28 L
321.248 132.139 L
321.682 131.997 L
322.116 131.855 L
322.55 131.713 L
322.984 131.571 L
323.418 131.428 L
323.852 131.285 L
324.286 131.142 L
324.72 130.999 L
325.154 130.855 L
325.588 130.711 L
326.022 130.567 L
326.456 130.423 L
326.89 130.278 L
327.324 130.133 L
327.758 129.988 L
328.192 129.843 L
328.626 129.697 L
329.06 129.551 L
329.494 129.405 L
329.928 129.259 L
330.362 129.112 L
330.796 128.965 L
331.23 128.818 L
331.664 128.671 L
332.098 128.523 L
332.532 128.376 L
332.966 128.227 L
333.4 128.079 L
333.834 127.93 L
334.268 127.782 L
334.702 127.633 L
335.136 127.483 L
335.57 127.334 L
336.004 127.184 L
336.438 127.034 L
336.872 126.883 L
337.306 126.733 L
337.74 126.582 L
338.174 126.431 L
338.608 126.28 L
339.042 126.128 L
339.476 125.976 L
339.91 125.824 L
340.344 125.672 L
340.778 125.519 L
341.212 125.366 L
341.646 125.213 L
342.08 125.06 L
342.514 124.906 L
342.948 124.753 L
343.382 124.599 L
343.816 124.444 L
344.25 124.29 L
344.684 124.135 L
345.118 123.98 L
345.552 123.824 L
345.986 123.669 L
346.42 123.513 L
346.854 123.357 L
347.288 123.201 L
347.722 123.044 L
348.156 122.887 L
348.59 122.73 L
349.024 122.573 L
349.458 122.416 L
349.892 122.258 L
350.326 122.1 L
350.76 121.942 L
351.194 121.783 L
351.628 121.624 L
352.062 121.465 L
352.496 121.306 L
352.93 121.146 L
353.364 120.987 L
353.798 120.827 L
354.232 120.666 L
354.666 120.506 L
355.1 120.345 L
355.534 120.184 L
355.968 120.023 L
356.402 119.861 L
356.836 119.7 L
357.27 119.538 L
357.704 119.375 L
358.138 119.213 L
358.572 119.05 L
359.006 118.887 L
359.44 118.724 L
359.874 118.56 L
360.308 118.397 L
360.742 118.233 L
361.176 118.068 L
361.61 117.904 L
362.044 117.739 L
362.478 117.574 L
362.912 117.409 L
363.346 117.243 L
363.78 117.078 L
364.214 116.912 L
364.648 116.745 L
365.082 116.579 L
365.516 116.412 L
365.95 116.245 L
366.384 116.078 L
366.818 115.911 L
367.252 115.743 L
367.686 115.575 L
368.12 115.407 L
368.554 115.238 L
368.988 115.07 L
369.422 114.901 L
369.856 114.731 L
370.29 114.562 L
370.724 114.392 L
371.158 114.222 L
371.592 114.052 L
372.026 113.882 L
372.46 113.711 L
372.894 113.54 L
373.328 113.369 L
373.762 113.197 L
374.196 113.026 L
374.63 112.854 L
375.064 112.682 L
375.498 112.509 L
375.932 112.337 L
376.366 112.164 L
376.8 111.99 L
377.234 111.817 L
377.668 111.643 L
378.102 111.469 L
378.536 111.295 L
378.97 111.121 L
379.404 110.946 L
379.838 110.771 L
380.272 110.596 L
380.706 110.421 L
381.14 110.245 L
381.574 110.069 L
382.008 109.893 L
382.442 109.717 L
382.876 109.54 L
383.31 109.363 L
383.744 109.186 L
384.178 109.008 L
384.612 108.831 L
385.046 108.653 L
385.48 108.475 L
385.914 108.296 L
386.348 108.118 L
386.782 107.939 L
387.216 107.76 L
387.65 107.58 L
388.084 107.401 L
388.518 107.221 L
388.952 107.041 L
389.386 106.86 L
389.82 106.68 L
390.254 106.499 L
390.688 106.318 L
391.122 106.136 L
391.556 105.955 L
391.99 105.773 L
392.424 105.591 L
392.858 105.408 L
393.292 105.226 L
393.726 105.043 L
394.16 104.86 L
394.594 104.676 L
395.028 104.493 L
395.462 104.309 L
395.896 104.125 L
396.33 103.941 L
396.764 103.756 L
397.198 103.571 L
397.632 103.386 L
398.066 103.201 L
398.5 103.015 L
398.934 102.829 L
399.368 102.643 L
399.802 102.457 L
400.236 102.27 L
400.67 102.083 L
401.104 101.896 L
401.538 101.709 L
401.972 101.521 L
402.406 101.334 L
402.84 101.146 L
403.274 100.957 L
403.708 100.769 L
404.142 100.58 L
404.576 100.391 L
405.01 100.201 L
405.444 100.012 L
405.878 99.822 L
406.312 99.632 L
406.746 99.442 L
407.18 99.251 L
407.614 99.06 L
408.048 98.869 L
408.482 98.678 L
408.916 98.486 L
409.35 98.295 L
409.784 98.103 L
410.218 97.91 L
410.652 97.718 L
411.086 97.525 L
411.52 97.332 L
411.954 97.139 L
412.388 96.945 L
412.822 96.751 L
413.256 96.557 L
413.69 96.363 L
414.124 96.169 L
414.558 95.974 L
414.992 95.779 L
415.426 95.583 L
415.86 95.388 L
416.294 95.192 L
416.728 94.996 L
417.162 94.8 L
417.596 94.603 L
418.03 94.407 L
418.464 94.21 L
418.898 94.012 L
419.332 93.815 L
419.766 93.617 L
420.2 93.419 L
420.634 93.221 L
421.068 93.022 L
421.502 92.824 L
421.936 92.625 L
422.37 92.425 L
422.804 92.226 L
423.238 92.026 L
423.672 91.826 L
424.106 91.626 L
424.54 91.425 L
424.974 91.225 L
425.408 91.024 L
425.842 90.822 L
426.276 90.621 L
426.71 90.419 L
427.144 90.217 L
427.578 90.015 L
428.012 89.813 L
428.446 89.61 L
428.88 89.407 L
429.314 89.204 L
429.748 89 L
430.182 88.797 L
430.616 88.593 L
431.05 88.388 L
431.484 88.184 L
431.918 87.979 L
432.352 87.774 L
432.786 87.569 L
433.22 87.364 L
433.654 87.158 L
434.088 86.952 L
434.522 86.746 L
434.956 86.539 L
435.39 86.333 L
435.824 86.126 L
436.258 85.918 L
436.692 85.711 L
437.126 85.503 L
437.56 85.295 L
437.994 85.087 L
438.428 84.879 L
438.862 84.67 L
439.296 84.461 L
439.73 84.252 L
440.164 84.043 L
440.598 83.833 L
441.032 83.623 L
441.466 83.413 L
441.9 83.202 L
442.334 82.992 L
442.768 82.781 L
443.202 82.57 L
443.636 82.358 L
444.07 82.147 L
444.504 81.935 L
444.938 81.723 L
445.372 81.51 L
445.806 81.298 L
446.24 81.085 L
446.674 80.871 L
447.108 80.658 L
447.542 80.444 L
447.976 80.231 L
448.41 80.016 L
448.844 79.802 L
449.278 79.587 L
449.712 79.373 L
450.146 79.157 L
450.58 78.942 L
451.014 78.726 L
451.448 78.51 L
451.882 78.294 L
452.316 78.078 L
452.75 77.861 L
453.184 77.645 L
453.618 77.427 L
454.052 77.21 L
454.486 76.992 L
454.92 76.775 L
455.354 76.556 L
455.788 76.338 L
456.222 76.119 L
456.656 75.901 L
457.09 75.681 L
457.524 75.462 L
457.958 75.243 L
458.392 75.023 L
458.826 74.803 L
459.26 74.582 L
459.694 74.362 L
460.128 74.141 L
460.562 73.92 L
460.996 73.698 L
461.43 73.477 L
461.864 73.255 L
462.298 73.033 L
462.732 72.811 L
463.166 72.588 L
463.6 72.365 L
464.034 72.142 L
464.468 71.919 L
464.902 71.695 L
465.336 71.471 L
465.77 71.247 L
466.204 71.023 L
466.638 70.798 L
467.072 70.574 L
467.506 70.348 L
467.94 70.123 L
468.374 69.898 L
468.808 69.672 L
469.242 69.446 L
469.676 69.219 L
470.11 68.993 L
470.544 68.766 L
470.978 68.539 L
471.412 68.312 L
471.846 68.084 L
472.28 67.856 L
472.714 67.628 L
473.148 67.4 L
473.582 67.172 L
474.016 66.943 L
474.45 66.714 L
474.884 66.484 L
475.318 66.255 L
475.752 66.025 L
476.186 65.795 L
476.62 65.565 L
477.054 65.334 L
477.488 65.104 L
477.922 64.873 L
478.356 64.641 L
478.79 64.41 L
479.224 64.178 L
479.658 63.946 L
480.092 63.714 L
480.526 63.481 L
480.96 63.248 L
481.394 63.015 L
481.828 62.782 L
482.262 62.549 L
482.696 62.315 L
483.13 62.081 L
483.564 61.847 L
483.998 61.612 L
484.432 61.377 L
484.866 61.142 L
485.3 60.907 L
485.734 60.672 L
486.168 60.436 L
486.602 60.2 L
487.036 59.964 L
487.47 59.727 L
487.904 59.49 L
488.338 59.254 L
488.772 59.016 L
489.206 58.779 L
489.64 58.541 L
490.074 58.303 L
490.508 58.065 L
490.942 57.826 L
491.376 57.588 L
491.81 57.349 L
492.244 57.11 L
492.678 56.87 L
493.112 56.63 L
493.546 56.39 L
493.98 56.15 L
494.414 55.91 L
494.848 55.669 L
495.282 55.428 L
495.716 55.187 L
496.15 54.945 L
496.584 54.704 L
497.018 54.462 L
497.452 54.22 L
497.886 53.977 L
498.32 53.734 L
498.754 53.492 L
499.188 53.248 L
499.622 53.005 L
500.056 52.761 L
500.49 52.517 L
500.924 52.273 L
501.358 52.029 L
501.792 51.784 L
502.226 51.539 L
502.66 51.294 L
503.094 51.048 L
503.528 50.803 L
503.962 50.557 L
504.396 50.311 L
504.83 50.064 L
505.264 49.818 L
505.698 49.571 L
506.132 49.324 L
506.566 49.076 L
507 48.829 L
S
GR
GS
1 GC
N
80 65 M
80 39 L
193 39 L
193 65 L
cp
f
GR
GS
[1 0 0 1 117 46.35849] CT
/Helvetica 9 F
GS
[1 0 0 1 0 0] CT
0 3.5 moveto 
1 -1 scale
(Error data) t 
GR
GR
GS
[1 0 0 1 99 46.35849] CT
0 0 1 RC
N
2.667 0 M
2.667 1.473 1.473 2.667 0 2.667 C
-1.473 2.667 -2.667 1.473 -2.667 0 C
-2.667 -1.473 -1.473 -2.667 0 -2.667 C
1.473 -2.667 2.667 -1.473 2.667 0 C
cp
f
GR
GS
[1 0 0 1 117 57.64151] CT
/Helvetica 9 F
GS
[1 0 0 1 0 0] CT
0 3.5 moveto 
1 -1 scale
(Polynomial model) t 
GR
GR
GS
1 0 0 RC
1 LJ
N
84 57.642 M
114 57.642 L
S
GR
GS
0.149 GC
10.0 ML
0.5 LW
N
80 65 M
80 39 L
193 39 L
193 65 L
cp
S
GR
GS
1 GC
N
73 374 M
507 374 L
507 231 L
73 231 L
cp
f
GR
GS
0.873 GC
1 LJ
0.5 LW
N
73 374 M
73 231 L
S
GR
GS
0.873 GC
1 LJ
0.5 LW
N
127.25 374 M
127.25 231 L
S
GR
GS
0.873 GC
1 LJ
0.5 LW
N
181.5 374 M
181.5 231 L
S
GR
GS
0.873 GC
1 LJ
0.5 LW
N
235.75 374 M
235.75 231 L
S
GR
GS
0.873 GC
1 LJ
0.5 LW
N
290 374 M
290 231 L
S
GR
GS
0.873 GC
1 LJ
0.5 LW
N
344.25 374 M
344.25 231 L
S
GR
GS
0.873 GC
1 LJ
0.5 LW
N
398.5 374 M
398.5 231 L
S
GR
GS
0.873 GC
1 LJ
0.5 LW
N
452.75 374 M
452.75 231 L
S
GR
GS
0.873 GC
1 LJ
0.5 LW
N
507 374 M
507 231 L
S
GR
GS
0.873 GC
1 LJ
0.5 LW
N
507 374 M
73 374 L
S
GR
GS
0.873 GC
1 LJ
0.5 LW
N
507 350.167 M
73 350.167 L
S
GR
GS
0.873 GC
1 LJ
0.5 LW
N
507 326.333 M
73 326.333 L
S
GR
GS
0.873 GC
1 LJ
0.5 LW
N
507 302.5 M
73 302.5 L
S
GR
GS
0.873 GC
1 LJ
0.5 LW
N
507 278.667 M
73 278.667 L
S
GR
GS
0.873 GC
1 LJ
0.5 LW
N
507 254.833 M
73 254.833 L
S
GR
GS
0.873 GC
1 LJ
0.5 LW
N
507 231 M
73 231 L
S
GR
GS
0.149 GC
2 setlinecap
1 LJ
0.5 LW
N
73 374 M
507 374 L
S
GR
GS
0.149 GC
2 setlinecap
1 LJ
0.5 LW
N
73 231 M
507 231 L
S
GR
GS
0.149 GC
2 setlinecap
1 LJ
0.5 LW
N
73 374 M
73 369.66 L
S
GR
GS
0.149 GC
2 setlinecap
1 LJ
0.5 LW
N
127.25 374 M
127.25 369.66 L
S
GR
GS
0.149 GC
2 setlinecap
1 LJ
0.5 LW
N
181.5 374 M
181.5 369.66 L
S
GR
GS
0.149 GC
2 setlinecap
1 LJ
0.5 LW
N
235.75 374 M
235.75 369.66 L
S
GR
GS
0.149 GC
2 setlinecap
1 LJ
0.5 LW
N
290 374 M
290 369.66 L
S
GR
GS
0.149 GC
2 setlinecap
1 LJ
0.5 LW
N
344.25 374 M
344.25 369.66 L
S
GR
GS
0.149 GC
2 setlinecap
1 LJ
0.5 LW
N
398.5 374 M
398.5 369.66 L
S
GR
GS
0.149 GC
2 setlinecap
1 LJ
0.5 LW
N
452.75 374 M
452.75 369.66 L
S
GR
GS
0.149 GC
2 setlinecap
1 LJ
0.5 LW
N
507 374 M
507 369.66 L
S
GR
GS
0.149 GC
2 setlinecap
1 LJ
0.5 LW
N
73 231 M
73 235.34 L
S
GR
GS
0.149 GC
2 setlinecap
1 LJ
0.5 LW
N
127.25 231 M
127.25 235.34 L
S
GR
GS
0.149 GC
2 setlinecap
1 LJ
0.5 LW
N
181.5 231 M
181.5 235.34 L
S
GR
GS
0.149 GC
2 setlinecap
1 LJ
0.5 LW
N
235.75 231 M
235.75 235.34 L
S
GR
GS
0.149 GC
2 setlinecap
1 LJ
0.5 LW
N
290 231 M
290 235.34 L
S
GR
GS
0.149 GC
2 setlinecap
1 LJ
0.5 LW
N
344.25 231 M
344.25 235.34 L
S
GR
GS
0.149 GC
2 setlinecap
1 LJ
0.5 LW
N
398.5 231 M
398.5 235.34 L
S
GR
GS
0.149 GC
2 setlinecap
1 LJ
0.5 LW
N
452.75 231 M
452.75 235.34 L
S
GR
GS
0.149 GC
2 setlinecap
1 LJ
0.5 LW
N
507 231 M
507 235.34 L
S
GR
GS
[1 0 0 1 73 378] CT
0.149 GC
/Helvetica 10 F
GS
[1 0 0 1 0 0] CT
-3 10 moveto 
1 -1 scale
(0) t 
GR
GR
GS
[1 0 0 1 127.25 378] CT
0.149 GC
/Helvetica 10 F
GS
[1 0 0 1 0 0] CT
-3 10 moveto 
1 -1 scale
(5) t 
GR
GR
GS
[1 0 0 1 181.5 378] CT
0.149 GC
/Helvetica 10 F
GS
[1 0 0 1 0 0] CT
-6 10 moveto 
1 -1 scale
(10) t 
GR
GR
GS
[1 0 0 1 235.75 378] CT
0.149 GC
/Helvetica 10 F
GS
[1 0 0 1 0 0] CT
-6 10 moveto 
1 -1 scale
(15) t 
GR
GR
GS
[1 0 0 1 290 378] CT
0.149 GC
/Helvetica 10 F
GS
[1 0 0 1 0 0] CT
-6 10 moveto 
1 -1 scale
(20) t 
GR
GR
GS
[1 0 0 1 344.25 378] CT
0.149 GC
/Helvetica 10 F
GS
[1 0 0 1 0 0] CT
-6 10 moveto 
1 -1 scale
(25) t 
GR
GR
GS
[1 0 0 1 398.5 378] CT
0.149 GC
/Helvetica 10 F
GS
[1 0 0 1 0 0] CT
-6 10 moveto 
1 -1 scale
(30) t 
GR
GR
GS
[1 0 0 1 452.75 378] CT
0.149 GC
/Helvetica 10 F
GS
[1 0 0 1 0 0] CT
-6 10 moveto 
1 -1 scale
(35) t 
GR
GR
GS
[1 0 0 1 507 378] CT
0.149 GC
/Helvetica 10 F
GS
[1 0 0 1 0 0] CT
-6 10 moveto 
1 -1 scale
(40) t 
GR
GR
GS
[1 0 0 1 290.00021 392] CT
0.149 GC
/Helvetica-Bold 12 F
GS
[1 0 0 1 0 0] CT
-82 12 moveto 
1 -1 scale
(Camera rotation \(in degrees\)) t 
GR
GR
GS
0.149 GC
2 setlinecap
1 LJ
0.5 LW
N
73 374 M
73 231 L
S
GR
GS
0.149 GC
2 setlinecap
1 LJ
0.5 LW
N
507 374 M
507 231 L
S
GR
GS
0.149 GC
2 setlinecap
1 LJ
0.5 LW
N
73 374 M
77.34 374 L
S
GR
GS
0.149 GC
2 setlinecap
1 LJ
0.5 LW
N
73 350.167 M
77.34 350.167 L
S
GR
GS
0.149 GC
2 setlinecap
1 LJ
0.5 LW
N
73 326.333 M
77.34 326.333 L
S
GR
GS
0.149 GC
2 setlinecap
1 LJ
0.5 LW
N
73 302.5 M
77.34 302.5 L
S
GR
GS
0.149 GC
2 setlinecap
1 LJ
0.5 LW
N
73 278.667 M
77.34 278.667 L
S
GR
GS
0.149 GC
2 setlinecap
1 LJ
0.5 LW
N
73 254.833 M
77.34 254.833 L
S
GR
GS
0.149 GC
2 setlinecap
1 LJ
0.5 LW
N
73 231 M
77.34 231 L
S
GR
GS
0.149 GC
2 setlinecap
1 LJ
0.5 LW
N
507 374 M
502.66 374 L
S
GR
GS
0.149 GC
2 setlinecap
1 LJ
0.5 LW
N
507 350.167 M
502.66 350.167 L
S
GR
GS
0.149 GC
2 setlinecap
1 LJ
0.5 LW
N
507 326.333 M
502.66 326.333 L
S
GR
GS
0.149 GC
2 setlinecap
1 LJ
0.5 LW
N
507 302.5 M
502.66 302.5 L
S
GR
GS
0.149 GC
2 setlinecap
1 LJ
0.5 LW
N
507 278.667 M
502.66 278.667 L
S
GR
GS
0.149 GC
2 setlinecap
1 LJ
0.5 LW
N
507 254.833 M
502.66 254.833 L
S
GR
GS
0.149 GC
2 setlinecap
1 LJ
0.5 LW
N
507 231 M
502.66 231 L
S
GR
GS
[1 0 0 1 69 374] CT
0.149 GC
/Helvetica 10 F
GS
[1 0 0 1 0 0] CT
-18 3.5 moveto 
1 -1 scale
(-0.2) t 
GR
GR
GS
[1 0 0 1 69 350.16666] CT
0.149 GC
/Helvetica 10 F
GS
[1 0 0 1 0 0] CT
-6 3.5 moveto 
1 -1 scale
(0) t 
GR
GR
GS
[1 0 0 1 69 326.33334] CT
0.149 GC
/Helvetica 10 F
GS
[1 0 0 1 0 0] CT
-14 3.5 moveto 
1 -1 scale
(0.2) t 
GR
GR
GS
[1 0 0 1 69 302.5] CT
0.149 GC
/Helvetica 10 F
GS
[1 0 0 1 0 0] CT
-14 3.5 moveto 
1 -1 scale
(0.4) t 
GR
GR
GS
[1 0 0 1 69 278.66666] CT
0.149 GC
/Helvetica 10 F
GS
[1 0 0 1 0 0] CT
-14 3.5 moveto 
1 -1 scale
(0.6) t 
GR
GR
GS
[1 0 0 1 69 254.83333] CT
0.149 GC
/Helvetica 10 F
GS
[1 0 0 1 0 0] CT
-14 3.5 moveto 
1 -1 scale
(0.8) t 
GR
GR
GS
[1 0 0 1 69 231] CT
0.149 GC
/Helvetica 10 F
GS
[1 0 0 1 0 0] CT
-6 3.5 moveto 
1 -1 scale
(1) t 
GR
GR
GS
[0 -1 1 0 48 302.49994] CT
0.149 GC
/Helvetica-Bold 12 F
GS
[1 0 0 1 0 0] CT
-56 -3 moveto 
1 -1 scale
(Depth error \(in mm\)) t 
GR
GR
GS
[1 0 0 1 73 366.88055] CT
0 0 1 RC
N
2.667 0 M
2.667 1.473 1.473 2.667 0 2.667 C
-1.473 2.667 -2.667 1.473 -2.667 0 C
-2.667 -1.473 -1.473 -2.667 0 -2.667 C
1.473 -2.667 2.667 -1.473 2.667 0 C
cp
f
GR
GS
[1 0 0 1 83.85 361.57004] CT
0 0 1 RC
N
2.667 0 M
2.667 1.473 1.473 2.667 0 2.667 C
-1.473 2.667 -2.667 1.473 -2.667 0 C
-2.667 -1.473 -1.473 -2.667 0 -2.667 C
1.473 -2.667 2.667 -1.473 2.667 0 C
cp
f
GR
GS
[1 0 0 1 94.7 356.29333] CT
0 0 1 RC
N
2.667 0 M
2.667 1.473 1.473 2.667 0 2.667 C
-1.473 2.667 -2.667 1.473 -2.667 0 C
-2.667 -1.473 -1.473 -2.667 0 -2.667 C
1.473 -2.667 2.667 -1.473 2.667 0 C
cp
f
GR
GS
[1 0 0 1 105.55 352.53357] CT
0 0 1 RC
N
2.667 0 M
2.667 1.473 1.473 2.667 0 2.667 C
-1.473 2.667 -2.667 1.473 -2.667 0 C
-2.667 -1.473 -1.473 -2.667 0 -2.667 C
1.473 -2.667 2.667 -1.473 2.667 0 C
cp
f
GR
GS
[1 0 0 1 116.4 350.38211] CT
0 0 1 RC
N
2.667 0 M
2.667 1.473 1.473 2.667 0 2.667 C
-1.473 2.667 -2.667 1.473 -2.667 0 C
-2.667 -1.473 -1.473 -2.667 0 -2.667 C
1.473 -2.667 2.667 -1.473 2.667 0 C
cp
f
GR
GS
[1 0 0 1 127.25 347.37292] CT
0 0 1 RC
N
2.667 0 M
2.667 1.473 1.473 2.667 0 2.667 C
-1.473 2.667 -2.667 1.473 -2.667 0 C
-2.667 -1.473 -1.473 -2.667 0 -2.667 C
1.473 -2.667 2.667 -1.473 2.667 0 C
cp
f
GR
GS
[1 0 0 1 138.10001 345.70087] CT
0 0 1 RC
N
2.667 0 M
2.667 1.473 1.473 2.667 0 2.667 C
-1.473 2.667 -2.667 1.473 -2.667 0 C
-2.667 -1.473 -1.473 -2.667 0 -2.667 C
1.473 -2.667 2.667 -1.473 2.667 0 C
cp
f
GR
GS
[1 0 0 1 148.95 342.68375] CT
0 0 1 RC
N
2.667 0 M
2.667 1.473 1.473 2.667 0 2.667 C
-1.473 2.667 -2.667 1.473 -2.667 0 C
-2.667 -1.473 -1.473 -2.667 0 -2.667 C
1.473 -2.667 2.667 -1.473 2.667 0 C
cp
f
GR
GS
[1 0 0 1 159.8 344.02036] CT
0 0 1 RC
N
2.667 0 M
2.667 1.473 1.473 2.667 0 2.667 C
-1.473 2.667 -2.667 1.473 -2.667 0 C
-2.667 -1.473 -1.473 -2.667 0 -2.667 C
1.473 -2.667 2.667 -1.473 2.667 0 C
cp
f
GR
GS
[1 0 0 1 170.64999 341.25195] CT
0 0 1 RC
N
2.667 0 M
2.667 1.473 1.473 2.667 0 2.667 C
-1.473 2.667 -2.667 1.473 -2.667 0 C
-2.667 -1.473 -1.473 -2.667 0 -2.667 C
1.473 -2.667 2.667 -1.473 2.667 0 C
cp
f
GR
GS
[1 0 0 1 181.5 340.69287] CT
0 0 1 RC
N
2.667 0 M
2.667 1.473 1.473 2.667 0 2.667 C
-1.473 2.667 -2.667 1.473 -2.667 0 C
-2.667 -1.473 -1.473 -2.667 0 -2.667 C
1.473 -2.667 2.667 -1.473 2.667 0 C
cp
f
GR
GS
[1 0 0 1 192.35001 342.2204] CT
0 0 1 RC
N
2.667 0 M
2.667 1.473 1.473 2.667 0 2.667 C
-1.473 2.667 -2.667 1.473 -2.667 0 C
-2.667 -1.473 -1.473 -2.667 0 -2.667 C
1.473 -2.667 2.667 -1.473 2.667 0 C
cp
f
GR
GS
[1 0 0 1 203.2 343.09717] CT
0 0 1 RC
N
2.667 0 M
2.667 1.473 1.473 2.667 0 2.667 C
-1.473 2.667 -2.667 1.473 -2.667 0 C
-2.667 -1.473 -1.473 -2.667 0 -2.667 C
1.473 -2.667 2.667 -1.473 2.667 0 C
cp
f
GR
GS
[1 0 0 1 214.05 341.58429] CT
0 0 1 RC
N
2.667 0 M
2.667 1.473 1.473 2.667 0 2.667 C
-1.473 2.667 -2.667 1.473 -2.667 0 C
-2.667 -1.473 -1.473 -2.667 0 -2.667 C
1.473 -2.667 2.667 -1.473 2.667 0 C
cp
f
GR
GS
[1 0 0 1 224.89999 346.75311] CT
0 0 1 RC
N
2.667 0 M
2.667 1.473 1.473 2.667 0 2.667 C
-1.473 2.667 -2.667 1.473 -2.667 0 C
-2.667 -1.473 -1.473 -2.667 0 -2.667 C
1.473 -2.667 2.667 -1.473 2.667 0 C
cp
f
GR
GS
[1 0 0 1 235.75 346.07196] CT
0 0 1 RC
N
2.667 0 M
2.667 1.473 1.473 2.667 0 2.667 C
-1.473 2.667 -2.667 1.473 -2.667 0 C
-2.667 -1.473 -1.473 -2.667 0 -2.667 C
1.473 -2.667 2.667 -1.473 2.667 0 C
cp
f
GR
GS
[1 0 0 1 246.60001 352.07205] CT
0 0 1 RC
N
2.667 0 M
2.667 1.473 1.473 2.667 0 2.667 C
-1.473 2.667 -2.667 1.473 -2.667 0 C
-2.667 -1.473 -1.473 -2.667 0 -2.667 C
1.473 -2.667 2.667 -1.473 2.667 0 C
cp
f
GR
GS
[1 0 0 1 257.45001 341.10916] CT
0 0 1 RC
N
2.667 0 M
2.667 1.473 1.473 2.667 0 2.667 C
-1.473 2.667 -2.667 1.473 -2.667 0 C
-2.667 -1.473 -1.473 -2.667 0 -2.667 C
1.473 -2.667 2.667 -1.473 2.667 0 C
cp
f
GR
GS
[1 0 0 1 268.29999 349.0123] CT
0 0 1 RC
N
2.667 0 M
2.667 1.473 1.473 2.667 0 2.667 C
-1.473 2.667 -2.667 1.473 -2.667 0 C
-2.667 -1.473 -1.473 -2.667 0 -2.667 C
1.473 -2.667 2.667 -1.473 2.667 0 C
cp
f
GR
GS
[1 0 0 1 279.14999 357.0928] CT
0 0 1 RC
N
2.667 0 M
2.667 1.473 1.473 2.667 0 2.667 C
-1.473 2.667 -2.667 1.473 -2.667 0 C
-2.667 -1.473 -1.473 -2.667 0 -2.667 C
1.473 -2.667 2.667 -1.473 2.667 0 C
cp
f
GR
GS
[1 0 0 1 290 352.53943] CT
0 0 1 RC
N
2.667 0 M
2.667 1.473 1.473 2.667 0 2.667 C
-1.473 2.667 -2.667 1.473 -2.667 0 C
-2.667 -1.473 -1.473 -2.667 0 -2.667 C
1.473 -2.667 2.667 -1.473 2.667 0 C
cp
f
GR
GS
[1 0 0 1 300.85001 354.12958] CT
0 0 1 RC
N
2.667 0 M
2.667 1.473 1.473 2.667 0 2.667 C
-1.473 2.667 -2.667 1.473 -2.667 0 C
-2.667 -1.473 -1.473 -2.667 0 -2.667 C
1.473 -2.667 2.667 -1.473 2.667 0 C
cp
f
GR
GS
[1 0 0 1 311.70001 365.26193] CT
0 0 1 RC
N
2.667 0 M
2.667 1.473 1.473 2.667 0 2.667 C
-1.473 2.667 -2.667 1.473 -2.667 0 C
-2.667 -1.473 -1.473 -2.667 0 -2.667 C
1.473 -2.667 2.667 -1.473 2.667 0 C
cp
f
GR
GS
[1 0 0 1 322.54999 347.61276] CT
0 0 1 RC
N
2.667 0 M
2.667 1.473 1.473 2.667 0 2.667 C
-1.473 2.667 -2.667 1.473 -2.667 0 C
-2.667 -1.473 -1.473 -2.667 0 -2.667 C
1.473 -2.667 2.667 -1.473 2.667 0 C
cp
f
GR
GS
[1 0 0 1 333.39999 347.5892] CT
0 0 1 RC
N
2.667 0 M
2.667 1.473 1.473 2.667 0 2.667 C
-1.473 2.667 -2.667 1.473 -2.667 0 C
-2.667 -1.473 -1.473 -2.667 0 -2.667 C
1.473 -2.667 2.667 -1.473 2.667 0 C
cp
f
GR
GS
[1 0 0 1 344.25 371.57294] CT
0 0 1 RC
N
2.667 0 M
2.667 1.473 1.473 2.667 0 2.667 C
-1.473 2.667 -2.667 1.473 -2.667 0 C
-2.667 -1.473 -1.473 -2.667 0 -2.667 C
1.473 -2.667 2.667 -1.473 2.667 0 C
cp
f
GR
GS
[1 0 0 1 355.10001 363.9274] CT
0 0 1 RC
N
2.667 0 M
2.667 1.473 1.473 2.667 0 2.667 C
-1.473 2.667 -2.667 1.473 -2.667 0 C
-2.667 -1.473 -1.473 -2.667 0 -2.667 C
1.473 -2.667 2.667 -1.473 2.667 0 C
cp
f
GR
GS
[1 0 0 1 365.95001 359.13043] CT
0 0 1 RC
N
2.667 0 M
2.667 1.473 1.473 2.667 0 2.667 C
-1.473 2.667 -2.667 1.473 -2.667 0 C
-2.667 -1.473 -1.473 -2.667 0 -2.667 C
1.473 -2.667 2.667 -1.473 2.667 0 C
cp
f
GR
GS
[1 0 0 1 376.79999 354.41595] CT
0 0 1 RC
N
2.667 0 M
2.667 1.473 1.473 2.667 0 2.667 C
-1.473 2.667 -2.667 1.473 -2.667 0 C
-2.667 -1.473 -1.473 -2.667 0 -2.667 C
1.473 -2.667 2.667 -1.473 2.667 0 C
cp
f
GR
GS
[1 0 0 1 387.64999 367.23865] CT
0 0 1 RC
N
2.667 0 M
2.667 1.473 1.473 2.667 0 2.667 C
-1.473 2.667 -2.667 1.473 -2.667 0 C
-2.667 -1.473 -1.473 -2.667 0 -2.667 C
1.473 -2.667 2.667 -1.473 2.667 0 C
cp
f
GR
GS
[1 0 0 1 398.5 355.13153] CT
0 0 1 RC
N
2.667 0 M
2.667 1.473 1.473 2.667 0 2.667 C
-1.473 2.667 -2.667 1.473 -2.667 0 C
-2.667 -1.473 -1.473 -2.667 0 -2.667 C
1.473 -2.667 2.667 -1.473 2.667 0 C
cp
f
GR
GS
[1 0 0 1 409.35001 347.23825] CT
0 0 1 RC
N
2.667 0 M
2.667 1.473 1.473 2.667 0 2.667 C
-1.473 2.667 -2.667 1.473 -2.667 0 C
-2.667 -1.473 -1.473 -2.667 0 -2.667 C
1.473 -2.667 2.667 -1.473 2.667 0 C
cp
f
GR
GS
[1 0 0 1 420.20001 352.39426] CT
0 0 1 RC
N
2.667 0 M
2.667 1.473 1.473 2.667 0 2.667 C
-1.473 2.667 -2.667 1.473 -2.667 0 C
-2.667 -1.473 -1.473 -2.667 0 -2.667 C
1.473 -2.667 2.667 -1.473 2.667 0 C
cp
f
GR
GS
[1 0 0 1 431.04999 321.2756] CT
0 0 1 RC
N
2.667 0 M
2.667 1.473 1.473 2.667 0 2.667 C
-1.473 2.667 -2.667 1.473 -2.667 0 C
-2.667 -1.473 -1.473 -2.667 0 -2.667 C
1.473 -2.667 2.667 -1.473 2.667 0 C
cp
f
GR
GS
[1 0 0 1 441.89999 349.17941] CT
0 0 1 RC
N
2.667 0 M
2.667 1.473 1.473 2.667 0 2.667 C
-1.473 2.667 -2.667 1.473 -2.667 0 C
-2.667 -1.473 -1.473 -2.667 0 -2.667 C
1.473 -2.667 2.667 -1.473 2.667 0 C
cp
f
GR
GS
[1 0 0 1 452.75 337.7449] CT
0 0 1 RC
N
2.667 0 M
2.667 1.473 1.473 2.667 0 2.667 C
-1.473 2.667 -2.667 1.473 -2.667 0 C
-2.667 -1.473 -1.473 -2.667 0 -2.667 C
1.473 -2.667 2.667 -1.473 2.667 0 C
cp
f
GR
GS
[1 0 0 1 463.60001 301.51749] CT
0 0 1 RC
N
2.667 0 M
2.667 1.473 1.473 2.667 0 2.667 C
-1.473 2.667 -2.667 1.473 -2.667 0 C
-2.667 -1.473 -1.473 -2.667 0 -2.667 C
1.473 -2.667 2.667 -1.473 2.667 0 C
cp
f
GR
GS
[1 0 0 1 474.45001 341.983] CT
0 0 1 RC
N
2.667 0 M
2.667 1.473 1.473 2.667 0 2.667 C
-1.473 2.667 -2.667 1.473 -2.667 0 C
-2.667 -1.473 -1.473 -2.667 0 -2.667 C
1.473 -2.667 2.667 -1.473 2.667 0 C
cp
f
GR
GS
[1 0 0 1 485.29999 267.15936] CT
0 0 1 RC
N
2.667 0 M
2.667 1.473 1.473 2.667 0 2.667 C
-1.473 2.667 -2.667 1.473 -2.667 0 C
-2.667 -1.473 -1.473 -2.667 0 -2.667 C
1.473 -2.667 2.667 -1.473 2.667 0 C
cp
f
GR
GS
[1 0 0 1 496.14999 273.3688] CT
0 0 1 RC
N
2.667 0 M
2.667 1.473 1.473 2.667 0 2.667 C
-1.473 2.667 -2.667 1.473 -2.667 0 C
-2.667 -1.473 -1.473 -2.667 0 -2.667 C
1.473 -2.667 2.667 -1.473 2.667 0 C
cp
f
GR
GS
[1 0 0 1 507 244.20811] CT
0 0 1 RC
N
2.667 0 M
2.667 1.473 1.473 2.667 0 2.667 C
-1.473 2.667 -2.667 1.473 -2.667 0 C
-2.667 -1.473 -1.473 -2.667 0 -2.667 C
1.473 -2.667 2.667 -1.473 2.667 0 C
cp
f
GR
GS
1 0 0 RC
1 LJ
N
73 350.167 M
73.434 350.167 L
73.868 350.167 L
74.302 350.167 L
74.736 350.167 L
75.17 350.167 L
75.604 350.167 L
76.038 350.167 L
76.472 350.167 L
76.906 350.167 L
77.34 350.167 L
77.774 350.167 L
78.208 350.167 L
78.642 350.167 L
79.076 350.167 L
79.51 350.167 L
79.944 350.167 L
80.378 350.167 L
80.812 350.167 L
81.246 350.167 L
81.68 350.167 L
82.114 350.167 L
82.548 350.167 L
82.982 350.167 L
83.416 350.167 L
83.85 350.167 L
84.284 350.167 L
84.718 350.167 L
85.152 350.167 L
85.586 350.167 L
86.02 350.167 L
86.454 350.167 L
86.888 350.167 L
87.322 350.167 L
87.756 350.167 L
88.19 350.167 L
88.624 350.167 L
89.058 350.167 L
89.492 350.167 L
89.926 350.167 L
90.36 350.167 L
90.794 350.167 L
91.228 350.167 L
91.662 350.167 L
92.096 350.167 L
92.53 350.167 L
92.964 350.167 L
93.398 350.167 L
93.832 350.167 L
94.266 350.167 L
94.7 350.167 L
95.134 350.167 L
95.568 350.167 L
96.002 350.167 L
96.436 350.167 L
96.87 350.167 L
97.304 350.167 L
97.738 350.167 L
98.172 350.167 L
98.606 350.167 L
99.04 350.167 L
99.474 350.167 L
99.908 350.167 L
100.342 350.167 L
100.776 350.167 L
101.21 350.167 L
101.644 350.167 L
102.078 350.167 L
102.512 350.167 L
102.946 350.167 L
103.38 350.167 L
103.814 350.167 L
104.248 350.167 L
104.682 350.167 L
105.116 350.167 L
105.55 350.167 L
105.984 350.167 L
106.418 350.167 L
106.852 350.167 L
107.286 350.167 L
107.72 350.167 L
108.154 350.167 L
108.588 350.167 L
109.022 350.167 L
109.456 350.167 L
109.89 350.167 L
110.324 350.167 L
110.758 350.167 L
111.192 350.167 L
111.626 350.167 L
112.06 350.167 L
112.494 350.167 L
112.928 350.167 L
113.362 350.167 L
113.796 350.167 L
114.23 350.167 L
114.664 350.167 L
115.098 350.167 L
115.532 350.167 L
115.966 350.167 L
116.4 350.167 L
116.834 350.167 L
117.268 350.167 L
117.702 350.167 L
118.136 350.167 L
118.57 350.167 L
119.004 350.167 L
119.438 350.167 L
119.872 350.167 L
120.306 350.167 L
120.74 350.167 L
121.174 350.167 L
121.608 350.167 L
122.042 350.167 L
122.476 350.167 L
122.91 350.167 L
123.344 350.167 L
123.778 350.167 L
124.212 350.167 L
124.646 350.167 L
125.08 350.167 L
125.514 350.167 L
125.948 350.167 L
126.382 350.167 L
126.816 350.167 L
127.25 350.167 L
127.684 350.167 L
128.118 350.167 L
128.552 350.167 L
128.986 350.167 L
129.42 350.167 L
129.854 350.167 L
130.288 350.167 L
130.722 350.167 L
131.156 350.167 L
131.59 350.167 L
132.024 350.167 L
132.458 350.167 L
132.892 350.167 L
133.326 350.167 L
133.76 350.167 L
134.194 350.167 L
134.628 350.167 L
135.062 350.167 L
135.496 350.167 L
135.93 350.167 L
136.364 350.167 L
136.798 350.167 L
137.232 350.167 L
137.666 350.167 L
138.1 350.167 L
138.534 350.167 L
138.968 350.167 L
139.402 350.167 L
139.836 350.167 L
140.27 350.167 L
140.704 350.167 L
141.138 350.167 L
141.572 350.167 L
142.006 350.167 L
142.44 350.167 L
142.874 350.167 L
143.308 350.167 L
143.742 350.167 L
144.176 350.167 L
144.61 350.167 L
145.044 350.167 L
145.478 350.167 L
145.912 350.167 L
146.346 350.167 L
146.78 350.167 L
147.214 350.167 L
147.648 350.167 L
148.082 350.167 L
148.516 350.167 L
148.95 350.167 L
149.384 350.167 L
149.818 350.167 L
150.252 350.167 L
150.686 350.167 L
151.12 350.167 L
151.554 350.167 L
151.988 350.167 L
152.422 350.167 L
152.856 350.167 L
153.29 350.167 L
153.724 350.167 L
154.158 350.167 L
154.592 350.167 L
155.026 350.167 L
155.46 350.167 L
155.894 350.167 L
156.328 350.167 L
156.762 350.167 L
157.196 350.167 L
157.63 350.167 L
158.064 350.167 L
158.498 350.167 L
158.932 350.167 L
159.366 350.167 L
159.8 350.167 L
160.234 350.167 L
160.668 350.167 L
161.102 350.167 L
161.536 350.167 L
161.97 350.167 L
162.404 350.167 L
162.838 350.167 L
163.272 350.167 L
163.706 350.167 L
164.14 350.167 L
164.574 350.167 L
165.008 350.167 L
165.442 350.167 L
165.876 350.167 L
166.31 350.167 L
166.744 350.167 L
167.178 350.167 L
167.612 350.167 L
168.046 350.167 L
168.48 350.167 L
168.914 350.167 L
169.348 350.167 L
169.782 350.167 L
170.216 350.167 L
170.65 350.167 L
171.084 350.167 L
171.518 350.167 L
171.952 350.167 L
172.386 350.167 L
172.82 350.167 L
173.254 350.167 L
173.688 350.167 L
174.122 350.167 L
174.556 350.167 L
174.99 350.167 L
175.424 350.167 L
175.858 350.167 L
176.292 350.167 L
176.726 350.167 L
177.16 350.167 L
177.594 350.167 L
178.028 350.167 L
178.462 350.167 L
178.896 350.167 L
179.33 350.167 L
179.764 350.167 L
180.198 350.167 L
180.632 350.167 L
181.066 350.167 L
181.5 350.167 L
181.934 350.167 L
182.368 350.167 L
182.802 350.167 L
183.236 350.167 L
183.67 350.167 L
184.104 350.167 L
184.538 350.167 L
184.972 350.167 L
185.406 350.167 L
185.84 350.167 L
186.274 350.167 L
186.708 350.167 L
187.142 350.167 L
187.576 350.167 L
188.01 350.167 L
188.444 350.167 L
188.878 350.167 L
189.312 350.167 L
189.746 350.167 L
190.18 350.167 L
190.614 350.167 L
191.048 350.167 L
191.482 350.167 L
191.916 350.167 L
192.35 350.167 L
192.784 350.167 L
193.218 350.167 L
193.652 350.167 L
194.086 350.167 L
194.52 350.167 L
194.954 350.167 L
195.388 350.167 L
195.822 350.167 L
196.256 350.167 L
196.69 350.167 L
197.124 350.167 L
197.558 350.167 L
197.992 350.167 L
198.426 350.167 L
198.86 350.167 L
199.294 350.167 L
199.728 350.167 L
200.162 350.167 L
200.596 350.167 L
201.03 350.167 L
201.464 350.167 L
201.898 350.167 L
202.332 350.167 L
202.766 350.167 L
203.2 350.167 L
203.634 350.167 L
204.068 350.167 L
204.502 350.167 L
204.936 350.167 L
205.37 350.167 L
205.804 350.167 L
206.238 350.167 L
206.672 350.167 L
207.106 350.167 L
207.54 350.167 L
207.974 350.167 L
208.408 350.167 L
208.842 350.167 L
209.276 350.167 L
209.71 350.167 L
210.144 350.167 L
210.578 350.167 L
211.012 350.167 L
211.446 350.167 L
211.88 350.167 L
212.314 350.167 L
212.748 350.167 L
213.182 350.167 L
213.616 350.167 L
214.05 350.167 L
214.484 350.167 L
214.918 350.167 L
215.352 350.167 L
215.786 350.167 L
216.22 350.167 L
216.654 350.167 L
217.088 350.167 L
217.522 350.167 L
217.956 350.167 L
218.39 350.167 L
218.824 350.167 L
219.258 350.167 L
219.692 350.167 L
220.126 350.167 L
220.56 350.167 L
220.994 350.167 L
221.428 350.167 L
221.862 350.167 L
222.296 350.167 L
222.73 350.167 L
223.164 350.167 L
223.598 350.167 L
224.032 350.167 L
224.466 350.167 L
224.9 350.167 L
225.334 350.167 L
225.768 350.167 L
226.202 350.167 L
226.636 350.167 L
227.07 350.167 L
227.504 350.167 L
227.938 350.167 L
228.372 350.167 L
228.806 350.167 L
229.24 350.167 L
229.674 350.167 L
230.108 350.167 L
230.542 350.167 L
230.976 350.167 L
231.41 350.167 L
231.844 350.167 L
232.278 350.167 L
232.712 350.167 L
233.146 350.167 L
233.58 350.167 L
234.014 350.167 L
234.448 350.167 L
234.882 350.167 L
235.316 350.167 L
235.75 350.167 L
236.184 350.167 L
236.618 350.167 L
237.052 350.167 L
237.486 350.167 L
237.92 350.167 L
238.354 350.167 L
238.788 350.167 L
239.222 350.167 L
239.656 350.167 L
240.09 350.167 L
240.524 350.167 L
240.958 350.167 L
241.392 350.167 L
241.826 350.167 L
242.26 350.167 L
242.694 350.167 L
243.128 350.167 L
243.562 350.167 L
243.996 350.167 L
244.43 350.167 L
244.864 350.167 L
245.298 350.167 L
245.732 350.167 L
246.166 350.167 L
246.6 350.167 L
247.034 350.167 L
247.468 350.167 L
247.902 350.167 L
248.336 350.167 L
248.77 350.167 L
249.204 350.167 L
249.638 350.167 L
250.072 350.167 L
250.506 350.167 L
250.94 350.167 L
251.374 350.167 L
251.808 350.167 L
252.242 350.167 L
252.676 350.167 L
253.11 350.167 L
253.544 350.167 L
253.978 350.167 L
254.412 350.167 L
254.846 350.167 L
255.28 350.167 L
255.714 350.167 L
256.148 350.167 L
256.582 350.167 L
257.016 350.167 L
257.45 350.167 L
257.884 350.167 L
258.318 350.167 L
258.752 350.167 L
259.186 350.167 L
259.62 350.167 L
260.054 350.167 L
260.488 350.167 L
260.922 350.167 L
261.356 350.167 L
261.79 350.167 L
262.224 350.167 L
262.658 350.167 L
263.092 350.167 L
263.526 350.167 L
263.96 350.167 L
264.394 350.167 L
264.828 350.167 L
265.262 350.167 L
265.696 350.167 L
266.13 350.167 L
266.564 350.167 L
266.998 350.167 L
267.432 350.167 L
267.866 350.167 L
268.3 350.167 L
268.734 350.167 L
269.168 350.167 L
269.602 350.167 L
270.036 350.167 L
270.47 350.167 L
270.904 350.167 L
271.338 350.167 L
271.772 350.167 L
272.206 350.167 L
272.64 350.167 L
273.074 350.167 L
273.508 350.167 L
273.942 350.167 L
274.376 350.167 L
274.81 350.167 L
275.244 350.167 L
275.678 350.167 L
276.112 350.167 L
276.546 350.167 L
276.98 350.167 L
277.414 350.167 L
277.848 350.167 L
278.282 350.167 L
278.716 350.167 L
279.15 350.167 L
279.584 350.167 L
280.018 350.167 L
280.452 350.167 L
280.886 350.167 L
281.32 350.167 L
281.754 350.167 L
282.188 350.167 L
282.622 350.167 L
283.056 350.167 L
283.49 350.167 L
283.924 350.167 L
284.358 350.167 L
284.792 350.167 L
285.226 350.167 L
285.66 350.167 L
286.094 350.167 L
286.528 350.167 L
286.962 350.167 L
287.396 350.167 L
287.83 350.167 L
288.264 350.167 L
288.698 350.167 L
289.132 350.167 L
289.566 350.167 L
290 350.167 L
290.434 350.167 L
290.868 350.167 L
291.302 350.167 L
291.736 350.167 L
292.17 350.167 L
292.604 350.167 L
293.038 350.167 L
293.472 350.167 L
293.906 350.167 L
294.34 350.167 L
294.774 350.167 L
295.208 350.167 L
295.642 350.167 L
296.076 350.167 L
296.51 350.167 L
296.944 350.167 L
297.378 350.167 L
297.812 350.167 L
298.246 350.167 L
298.68 350.167 L
299.114 350.167 L
299.548 350.167 L
299.982 350.167 L
300.416 350.167 L
300.85 350.167 L
301.284 350.167 L
301.718 350.167 L
302.152 350.167 L
302.586 350.167 L
303.02 350.167 L
303.454 350.167 L
303.888 350.167 L
304.322 350.167 L
304.756 350.167 L
305.19 350.167 L
305.624 350.167 L
306.058 350.167 L
306.492 350.167 L
306.926 350.167 L
307.36 350.167 L
307.794 350.167 L
308.228 350.167 L
308.662 350.167 L
309.096 350.167 L
309.53 350.167 L
309.964 350.167 L
310.398 350.167 L
310.832 350.167 L
311.266 350.167 L
311.7 350.167 L
312.134 350.167 L
312.568 350.167 L
313.002 350.167 L
313.436 350.167 L
313.87 350.167 L
314.304 350.167 L
314.738 350.167 L
315.172 350.167 L
315.606 350.167 L
316.04 350.167 L
316.474 350.167 L
316.908 350.167 L
317.342 350.167 L
317.776 350.167 L
318.21 350.167 L
318.644 350.167 L
319.078 350.167 L
319.512 350.167 L
319.946 350.167 L
320.38 350.167 L
320.814 350.167 L
321.248 350.167 L
321.682 350.167 L
322.116 350.167 L
322.55 350.167 L
322.984 350.167 L
323.418 350.167 L
323.852 350.167 L
324.286 350.167 L
324.72 350.167 L
325.154 350.167 L
325.588 350.167 L
326.022 350.167 L
326.456 350.167 L
326.89 350.167 L
327.324 350.167 L
327.758 350.167 L
328.192 350.167 L
328.626 350.167 L
329.06 350.167 L
329.494 350.167 L
329.928 350.167 L
330.362 350.167 L
330.796 350.167 L
331.23 350.167 L
331.664 350.167 L
332.098 350.167 L
332.532 350.167 L
332.966 350.167 L
333.4 350.167 L
333.834 350.167 L
334.268 350.167 L
334.702 350.167 L
335.136 350.167 L
335.57 350.167 L
336.004 350.167 L
336.438 350.167 L
336.872 350.167 L
337.306 350.167 L
337.74 350.167 L
338.174 350.167 L
338.608 350.167 L
339.042 350.167 L
339.476 350.167 L
339.91 350.167 L
340.344 350.167 L
340.778 350.167 L
341.212 350.167 L
341.646 350.167 L
342.08 350.167 L
342.514 350.167 L
342.948 350.167 L
343.382 350.167 L
343.816 350.167 L
344.25 350.167 L
344.684 350.167 L
345.118 350.167 L
345.552 350.167 L
345.986 350.167 L
346.42 350.167 L
346.854 350.167 L
347.288 350.167 L
347.722 350.167 L
348.156 350.167 L
348.59 350.167 L
349.024 350.167 L
349.458 350.167 L
349.892 350.167 L
350.326 350.167 L
350.76 350.167 L
351.194 350.167 L
351.628 350.167 L
352.062 350.167 L
352.496 350.167 L
352.93 350.167 L
353.364 350.167 L
353.798 350.167 L
354.232 350.167 L
354.666 350.167 L
355.1 350.167 L
355.534 350.167 L
355.968 350.167 L
356.402 350.167 L
356.836 350.167 L
357.27 350.167 L
357.704 350.167 L
358.138 350.167 L
358.572 350.167 L
359.006 350.167 L
359.44 350.167 L
359.874 350.167 L
360.308 350.167 L
360.742 350.167 L
361.176 350.167 L
361.61 350.167 L
362.044 350.167 L
362.478 350.167 L
362.912 350.167 L
363.346 350.167 L
363.78 350.167 L
364.214 350.167 L
364.648 350.167 L
365.082 350.167 L
365.516 350.167 L
365.95 350.167 L
366.384 350.167 L
366.818 350.167 L
367.252 350.167 L
367.686 350.167 L
368.12 350.167 L
368.554 350.167 L
368.988 350.167 L
369.422 350.167 L
369.856 350.167 L
370.29 350.167 L
370.724 350.167 L
371.158 350.167 L
371.592 350.167 L
372.026 350.167 L
372.46 350.167 L
372.894 350.167 L
373.328 350.167 L
373.762 350.167 L
374.196 350.167 L
374.63 350.167 L
375.064 350.167 L
375.498 350.167 L
375.932 350.167 L
376.366 350.167 L
376.8 350.167 L
377.234 350.167 L
377.668 350.167 L
378.102 350.167 L
378.536 350.167 L
378.97 350.167 L
379.404 350.167 L
379.838 350.167 L
380.272 350.167 L
380.706 350.167 L
381.14 350.167 L
381.574 350.167 L
382.008 350.167 L
382.442 350.167 L
382.876 350.167 L
383.31 350.167 L
383.744 350.167 L
384.178 350.167 L
384.612 350.167 L
385.046 350.167 L
385.48 350.167 L
385.914 350.167 L
386.348 350.167 L
386.782 350.167 L
387.216 350.167 L
387.65 350.167 L
388.084 350.167 L
388.518 350.167 L
388.952 350.167 L
389.386 350.167 L
389.82 350.167 L
390.254 350.167 L
390.688 350.167 L
391.122 350.167 L
391.556 350.167 L
391.99 350.167 L
392.424 350.167 L
392.858 350.167 L
393.292 350.167 L
393.726 350.167 L
394.16 350.167 L
394.594 350.167 L
395.028 350.167 L
395.462 350.167 L
395.896 350.167 L
396.33 350.167 L
396.764 350.167 L
397.198 350.167 L
397.632 350.167 L
398.066 350.167 L
398.5 350.167 L
398.934 350.167 L
399.368 350.167 L
399.802 350.167 L
400.236 350.167 L
400.67 350.167 L
401.104 350.167 L
401.538 350.167 L
401.972 350.167 L
402.406 350.167 L
402.84 350.167 L
403.274 350.167 L
403.708 350.167 L
404.142 350.167 L
404.576 350.167 L
405.01 350.167 L
405.444 350.167 L
405.878 350.167 L
406.312 350.167 L
406.746 350.167 L
407.18 350.167 L
407.614 350.167 L
408.048 350.167 L
408.482 350.167 L
408.916 350.167 L
409.35 350.167 L
409.784 350.167 L
410.218 350.167 L
410.652 350.167 L
411.086 350.167 L
411.52 350.167 L
411.954 350.167 L
412.388 350.167 L
412.822 350.167 L
413.256 350.167 L
413.69 350.167 L
414.124 350.167 L
414.558 350.167 L
414.992 350.167 L
415.426 350.167 L
415.86 350.167 L
416.294 350.167 L
416.728 350.167 L
417.162 350.167 L
417.596 350.167 L
418.03 350.167 L
418.464 350.167 L
418.898 350.167 L
419.332 350.167 L
419.766 350.167 L
420.2 350.167 L
420.634 350.167 L
421.068 350.167 L
421.502 350.167 L
421.936 350.167 L
422.37 350.167 L
422.804 350.167 L
423.238 350.167 L
423.672 350.167 L
424.106 350.167 L
424.54 350.167 L
424.974 350.167 L
425.408 350.167 L
425.842 350.167 L
426.276 350.167 L
426.71 350.167 L
427.144 350.167 L
427.578 350.167 L
428.012 350.167 L
428.446 350.167 L
428.88 350.167 L
429.314 350.167 L
429.748 350.167 L
430.182 350.167 L
430.616 350.167 L
431.05 350.167 L
431.484 350.167 L
431.918 350.167 L
432.352 350.167 L
432.786 350.167 L
433.22 350.167 L
433.654 350.167 L
434.088 350.167 L
434.522 350.167 L
434.956 350.167 L
435.39 350.167 L
435.824 350.167 L
436.258 350.167 L
436.692 350.167 L
437.126 350.167 L
437.56 350.167 L
437.994 350.167 L
438.428 350.167 L
438.862 350.167 L
439.296 350.167 L
439.73 350.167 L
440.164 350.167 L
440.598 350.167 L
441.032 350.167 L
441.466 350.167 L
441.9 350.167 L
442.334 350.167 L
442.768 350.167 L
443.202 350.167 L
443.636 350.167 L
444.07 350.167 L
444.504 350.167 L
444.938 350.167 L
445.372 350.167 L
445.806 350.167 L
446.24 350.167 L
446.674 350.167 L
447.108 350.167 L
447.542 350.167 L
447.976 350.167 L
448.41 350.167 L
448.844 350.167 L
449.278 350.167 L
449.712 350.167 L
450.146 350.167 L
450.58 350.167 L
451.014 350.167 L
451.448 350.167 L
451.882 350.167 L
452.316 350.167 L
452.75 350.167 L
453.184 350.167 L
453.618 350.167 L
454.052 350.167 L
454.486 350.167 L
454.92 350.167 L
455.354 350.167 L
455.788 350.167 L
456.222 350.167 L
456.656 350.167 L
457.09 350.167 L
457.524 350.167 L
457.958 350.167 L
458.392 350.167 L
458.826 350.167 L
459.26 350.167 L
459.694 350.167 L
460.128 350.167 L
460.562 350.167 L
460.996 350.167 L
461.43 350.167 L
461.864 350.167 L
462.298 350.167 L
462.732 350.167 L
463.166 350.167 L
463.6 350.167 L
464.034 350.167 L
464.468 350.167 L
464.902 350.167 L
465.336 350.167 L
465.77 350.167 L
466.204 350.167 L
466.638 350.167 L
467.072 350.167 L
467.506 350.167 L
467.94 350.167 L
468.374 350.167 L
468.808 350.167 L
469.242 350.167 L
469.676 350.167 L
470.11 350.167 L
470.544 350.167 L
470.978 350.167 L
471.412 350.167 L
471.846 350.167 L
472.28 350.167 L
472.714 350.167 L
473.148 350.167 L
473.582 350.167 L
474.016 350.167 L
474.45 350.167 L
474.884 350.167 L
475.318 350.167 L
475.752 350.167 L
476.186 350.167 L
476.62 350.167 L
477.054 350.167 L
477.488 350.167 L
477.922 350.167 L
478.356 350.167 L
478.79 350.167 L
479.224 350.167 L
479.658 350.167 L
480.092 350.167 L
480.526 350.167 L
480.96 350.167 L
481.394 350.167 L
481.828 350.167 L
482.262 350.167 L
482.696 350.167 L
483.13 350.167 L
483.564 350.167 L
483.998 350.167 L
484.432 350.167 L
484.866 350.167 L
485.3 350.167 L
485.734 350.167 L
486.168 350.167 L
486.602 350.167 L
487.036 350.167 L
487.47 350.167 L
487.904 350.167 L
488.338 350.167 L
488.772 350.167 L
489.206 350.167 L
489.64 350.167 L
490.074 350.167 L
490.508 350.167 L
490.942 350.167 L
491.376 350.167 L
491.81 350.167 L
492.244 350.167 L
492.678 350.167 L
493.112 350.167 L
493.546 350.167 L
493.98 350.167 L
494.414 350.167 L
494.848 350.167 L
495.282 350.167 L
495.716 350.167 L
496.15 350.167 L
496.584 350.167 L
497.018 350.167 L
497.452 350.167 L
497.886 350.167 L
498.32 350.167 L
498.754 350.167 L
499.188 350.167 L
499.622 350.167 L
500.056 350.167 L
500.49 350.167 L
500.924 350.167 L
501.358 350.167 L
501.792 350.167 L
502.226 350.167 L
502.66 350.167 L
503.094 350.167 L
503.528 350.167 L
503.962 350.167 L
504.396 350.167 L
504.83 350.167 L
505.264 350.167 L
505.698 350.167 L
506.132 350.167 L
506.566 350.167 L
507 350.167 L
S
GR
GS
1 GC
N
81 265 M
81 239 L
239 239 L
239 265 L
cp
f
GR
GS
[1 0 0 1 118 246.35849] CT
/Helvetica 9 F
GS
[1 0 0 1 0 0] CT
0 3.5 moveto 
1 -1 scale
(Polynomial model - residuals) t 
GR
GR
GS
[1 0 0 1 100 246.35849] CT
0 0 1 RC
N
2.667 0 M
2.667 1.473 1.473 2.667 0 2.667 C
-1.473 2.667 -2.667 1.473 -2.667 0 C
-2.667 -1.473 -1.473 -2.667 0 -2.667 C
1.473 -2.667 2.667 -1.473 2.667 0 C
cp
f
GR
GS
[1 0 0 1 118 257.64151] CT
/Helvetica 9 F
GS
[1 0 0 1 0 0] CT
0 3.5 moveto 
1 -1 scale
(Zero Line) t 
GR
GR
GS
1 0 0 RC
1 LJ
N
85 257.642 M
115 257.642 L
S
GR
GS
0.149 GC
10.0 ML
0.5 LW
N
81 265 M
81 239 L
239 239 L
239 265 L
cp
S
GR
%%Trailer
%%Pages: 1
%%EOF
