%!PS-Adobe-3.0 EPSF-3.0
%%Creator: (MATLAB, The Mathworks, Inc. Version 9.0.0.341360 \(R2016a\). Operating System: Mac OS X)
%%Title: /Users/deepak/Documents/MATLAB/matlabprojects/singleCalib_IH/source/dtyn.eps
%%CreationDate: 2016-11-26T23:14:08
%%Pages: (atend)
%%BoundingBox: 0 0 560 420
%%LanguageLevel: 3
%%EndComments
%%BeginProlog
%%BeginResource: procset (Apache XML Graphics Std ProcSet) 1.2 0
%%Version: 1.2 0
%%Copyright: (Copyright 2001-2003,2010 The Apache Software Foundation. License terms: http://www.apache.org/licenses/LICENSE-2.0)
/bd{bind def}bind def
/ld{load def}bd
/GR/grestore ld
/M/moveto ld
/LJ/setlinejoin ld
/C/curveto ld
/f/fill ld
/LW/setlinewidth ld
/GC/setgray ld
/t/show ld
/N/newpath ld
/CT/concat ld
/cp/closepath ld
/S/stroke ld
/L/lineto ld
/CC/setcmykcolor ld
/A/ashow ld
/GS/gsave ld
/RC/setrgbcolor ld
/RM/rmoveto ld
/ML/setmiterlimit ld
/re {4 2 roll M
1 index 0 rlineto
0 exch rlineto
neg 0 rlineto
cp } bd
/_ctm matrix def
/_tm matrix def
/BT { _ctm currentmatrix pop matrix _tm copy pop 0 0 moveto } bd
/ET { _ctm setmatrix } bd
/iTm { _ctm setmatrix _tm concat } bd
/Tm { _tm astore pop iTm 0 0 moveto } bd
/ux 0.0 def
/uy 0.0 def
/F {
  /Tp exch def
  /Tf exch def
  Tf findfont Tp scalefont setfont
  /cf Tf def  /cs Tp def
} bd
/ULS {currentpoint /uy exch def /ux exch def} bd
/ULE {
  /Tcx currentpoint pop def
  gsave
  newpath
  cf findfont cs scalefont dup
  /FontMatrix get 0 get /Ts exch def /FontInfo get dup
  /UnderlinePosition get Ts mul /To exch def
  /UnderlineThickness get Ts mul /Tt exch def
  ux uy To add moveto  Tcx uy To add lineto
  Tt setlinewidth stroke
  grestore
} bd
/OLE {
  /Tcx currentpoint pop def
  gsave
  newpath
  cf findfont cs scalefont dup
  /FontMatrix get 0 get /Ts exch def /FontInfo get dup
  /UnderlinePosition get Ts mul /To exch def
  /UnderlineThickness get Ts mul /Tt exch def
  ux uy To add cs add moveto Tcx uy To add cs add lineto
  Tt setlinewidth stroke
  grestore
} bd
/SOE {
  /Tcx currentpoint pop def
  gsave
  newpath
  cf findfont cs scalefont dup
  /FontMatrix get 0 get /Ts exch def /FontInfo get dup
  /UnderlinePosition get Ts mul /To exch def
  /UnderlineThickness get Ts mul /Tt exch def
  ux uy To add cs 10 mul 26 idiv add moveto Tcx uy To add cs 10 mul 26 idiv add lineto
  Tt setlinewidth stroke
  grestore
} bd
/QT {
/Y22 exch store
/X22 exch store
/Y21 exch store
/X21 exch store
currentpoint
/Y21 load 2 mul add 3 div exch
/X21 load 2 mul add 3 div exch
/X21 load 2 mul /X22 load add 3 div
/Y21 load 2 mul /Y22 load add 3 div
/X22 load /Y22 load curveto
} bd
/SSPD {
dup length /d exch dict def
{
/v exch def
/k exch def
currentpagedevice k known {
/cpdv currentpagedevice k get def
v cpdv ne {
/upd false def
/nullv v type /nulltype eq def
/nullcpdv cpdv type /nulltype eq def
nullv nullcpdv or
{
/upd true def
} {
/sametype v type cpdv type eq def
sametype {
v type /arraytype eq {
/vlen v length def
/cpdvlen cpdv length def
vlen cpdvlen eq {
0 1 vlen 1 sub {
/i exch def
/obj v i get def
/cpdobj cpdv i get def
obj cpdobj ne {
/upd true def
exit
} if
} for
} {
/upd true def
} ifelse
} {
v type /dicttype eq {
v {
/dv exch def
/dk exch def
/cpddv cpdv dk get def
dv cpddv ne {
/upd true def
exit
} if
} forall
} {
/upd true def
} ifelse
} ifelse
} if
} ifelse
upd true eq {
d k v put
} if
} if
} if
} forall
d length 0 gt {
d setpagedevice
} if
} bd
%%EndResource
%%BeginResource: procset (Apache XML Graphics EPS ProcSet) 1.0 0
%%Version: 1.0 0
%%Copyright: (Copyright 2002-2003 The Apache Software Foundation. License terms: http://www.apache.org/licenses/LICENSE-2.0)
/BeginEPSF { %def
/b4_Inc_state save def         % Save state for cleanup
/dict_count countdictstack def % Count objects on dict stack
/op_count count 1 sub def      % Count objects on operand stack
userdict begin                 % Push userdict on dict stack
/showpage { } def              % Redefine showpage, { } = null proc
0 setgray 0 setlinecap         % Prepare graphics state
1 setlinewidth 0 setlinejoin
10 setmiterlimit [ ] 0 setdash newpath
/languagelevel where           % If level not equal to 1 then
{pop languagelevel             % set strokeadjust and
1 ne                           % overprint to their defaults.
{false setstrokeadjust false setoverprint
} if
} if
} bd
/EndEPSF { %def
count op_count sub {pop} repeat            % Clean up stacks
countdictstack dict_count sub {end} repeat
b4_Inc_state restore
} bd
%%EndResource
%FOPBeginFontDict
%%IncludeResource: font Courier-Bold
%%IncludeResource: font Helvetica
%%IncludeResource: font Courier-BoldOblique
%%IncludeResource: font Courier-Oblique
%%IncludeResource: font Times-Roman
%%IncludeResource: font Helvetica-BoldOblique
%%IncludeResource: font Helvetica-Bold
%%IncludeResource: font Helvetica-Oblique
%%IncludeResource: font Times-BoldItalic
%%IncludeResource: font Courier
%%IncludeResource: font Times-Italic
%%IncludeResource: font Times-Bold
%%IncludeResource: font Symbol
%%IncludeResource: font ZapfDingbats
%FOPEndFontDict
%%BeginResource: encoding WinAnsiEncoding
/WinAnsiEncoding [
/.notdef /.notdef /.notdef /.notdef /.notdef
/.notdef /.notdef /.notdef /.notdef /.notdef
/.notdef /.notdef /.notdef /.notdef /.notdef
/.notdef /.notdef /.notdef /.notdef /.notdef
/.notdef /.notdef /.notdef /.notdef /.notdef
/.notdef /.notdef /.notdef /.notdef /.notdef
/.notdef /.notdef /space /exclam /quotedbl
/numbersign /dollar /percent /ampersand /quotesingle
/parenleft /parenright /asterisk /plus /comma
/hyphen /period /slash /zero /one
/two /three /four /five /six
/seven /eight /nine /colon /semicolon
/less /equal /greater /question /at
/A /B /C /D /E
/F /G /H /I /J
/K /L /M /N /O
/P /Q /R /S /T
/U /V /W /X /Y
/Z /bracketleft /backslash /bracketright /asciicircum
/underscore /quoteleft /a /b /c
/d /e /f /g /h
/i /j /k /l /m
/n /o /p /q /r
/s /t /u /v /w
/x /y /z /braceleft /bar
/braceright /asciitilde /bullet /Euro /bullet
/quotesinglbase /florin /quotedblbase /ellipsis /dagger
/daggerdbl /circumflex /perthousand /Scaron /guilsinglleft
/OE /bullet /Zcaron /bullet /bullet
/quoteleft /quoteright /quotedblleft /quotedblright /bullet
/endash /emdash /asciitilde /trademark /scaron
/guilsinglright /oe /bullet /zcaron /Ydieresis
/space /exclamdown /cent /sterling /currency
/yen /brokenbar /section /dieresis /copyright
/ordfeminine /guillemotleft /logicalnot /sfthyphen /registered
/macron /degree /plusminus /twosuperior /threesuperior
/acute /mu /paragraph /middot /cedilla
/onesuperior /ordmasculine /guillemotright /onequarter /onehalf
/threequarters /questiondown /Agrave /Aacute /Acircumflex
/Atilde /Adieresis /Aring /AE /Ccedilla
/Egrave /Eacute /Ecircumflex /Edieresis /Igrave
/Iacute /Icircumflex /Idieresis /Eth /Ntilde
/Ograve /Oacute /Ocircumflex /Otilde /Odieresis
/multiply /Oslash /Ugrave /Uacute /Ucircumflex
/Udieresis /Yacute /Thorn /germandbls /agrave
/aacute /acircumflex /atilde /adieresis /aring
/ae /ccedilla /egrave /eacute /ecircumflex
/edieresis /igrave /iacute /icircumflex /idieresis
/eth /ntilde /ograve /oacute /ocircumflex
/otilde /odieresis /divide /oslash /ugrave
/uacute /ucircumflex /udieresis /yacute /thorn
/ydieresis
] def
%%EndResource
%FOPBeginFontReencode
/Courier-Bold findfont
dup length dict begin
  {1 index /FID ne {def} {pop pop} ifelse} forall
  /Encoding WinAnsiEncoding def
  currentdict
end
/Courier-Bold exch definefont pop
/Helvetica findfont
dup length dict begin
  {1 index /FID ne {def} {pop pop} ifelse} forall
  /Encoding WinAnsiEncoding def
  currentdict
end
/Helvetica exch definefont pop
/Courier-BoldOblique findfont
dup length dict begin
  {1 index /FID ne {def} {pop pop} ifelse} forall
  /Encoding WinAnsiEncoding def
  currentdict
end
/Courier-BoldOblique exch definefont pop
/Courier-Oblique findfont
dup length dict begin
  {1 index /FID ne {def} {pop pop} ifelse} forall
  /Encoding WinAnsiEncoding def
  currentdict
end
/Courier-Oblique exch definefont pop
/Times-Roman findfont
dup length dict begin
  {1 index /FID ne {def} {pop pop} ifelse} forall
  /Encoding WinAnsiEncoding def
  currentdict
end
/Times-Roman exch definefont pop
/Helvetica-BoldOblique findfont
dup length dict begin
  {1 index /FID ne {def} {pop pop} ifelse} forall
  /Encoding WinAnsiEncoding def
  currentdict
end
/Helvetica-BoldOblique exch definefont pop
/Helvetica-Bold findfont
dup length dict begin
  {1 index /FID ne {def} {pop pop} ifelse} forall
  /Encoding WinAnsiEncoding def
  currentdict
end
/Helvetica-Bold exch definefont pop
/Helvetica-Oblique findfont
dup length dict begin
  {1 index /FID ne {def} {pop pop} ifelse} forall
  /Encoding WinAnsiEncoding def
  currentdict
end
/Helvetica-Oblique exch definefont pop
/Times-BoldItalic findfont
dup length dict begin
  {1 index /FID ne {def} {pop pop} ifelse} forall
  /Encoding WinAnsiEncoding def
  currentdict
end
/Times-BoldItalic exch definefont pop
/Courier findfont
dup length dict begin
  {1 index /FID ne {def} {pop pop} ifelse} forall
  /Encoding WinAnsiEncoding def
  currentdict
end
/Courier exch definefont pop
/Times-Italic findfont
dup length dict begin
  {1 index /FID ne {def} {pop pop} ifelse} forall
  /Encoding WinAnsiEncoding def
  currentdict
end
/Times-Italic exch definefont pop
/Times-Bold findfont
dup length dict begin
  {1 index /FID ne {def} {pop pop} ifelse} forall
  /Encoding WinAnsiEncoding def
  currentdict
end
/Times-Bold exch definefont pop
%FOPEndFontReencode
%%EndProlog
%%Page: 1 1
%%PageBoundingBox: 0 0 560 420
%%BeginPageSetup
[1 0 0 -1 0 420] CT
%%EndPageSetup
GS
1 GC
N
0 0 560 420 re
f
GR
GS
1 GC
N
0 0 560 420 re
f
GR
GS
1 GC
N
73 175 M
507 175 L
507 31 L
73 31 L
cp
f
GR
GS
0.873 GC
1 LJ
0.5 LW
N
73 175 M
73 31 L
S
GR
GS
0.873 GC
1 LJ
0.5 LW
N
116.4 175 M
116.4 31 L
S
GR
GS
0.873 GC
1 LJ
0.5 LW
N
159.8 175 M
159.8 31 L
S
GR
GS
0.873 GC
1 LJ
0.5 LW
N
203.2 175 M
203.2 31 L
S
GR
GS
0.873 GC
1 LJ
0.5 LW
N
246.6 175 M
246.6 31 L
S
GR
GS
0.873 GC
1 LJ
0.5 LW
N
290 175 M
290 31 L
S
GR
GS
0.873 GC
1 LJ
0.5 LW
N
333.4 175 M
333.4 31 L
S
GR
GS
0.873 GC
1 LJ
0.5 LW
N
376.8 175 M
376.8 31 L
S
GR
GS
0.873 GC
1 LJ
0.5 LW
N
420.2 175 M
420.2 31 L
S
GR
GS
0.873 GC
1 LJ
0.5 LW
N
463.6 175 M
463.6 31 L
S
GR
GS
0.873 GC
1 LJ
0.5 LW
N
507 175 M
507 31 L
S
GR
GS
0.873 GC
1 LJ
0.5 LW
N
507 175 M
73 175 L
S
GR
GS
0.873 GC
1 LJ
0.5 LW
N
507 146.2 M
73 146.2 L
S
GR
GS
0.873 GC
1 LJ
0.5 LW
N
507 117.4 M
73 117.4 L
S
GR
GS
0.873 GC
1 LJ
0.5 LW
N
507 88.6 M
73 88.6 L
S
GR
GS
0.873 GC
1 LJ
0.5 LW
N
507 59.8 M
73 59.8 L
S
GR
GS
0.873 GC
1 LJ
0.5 LW
N
507 31 M
73 31 L
S
GR
GS
0.149 GC
2 setlinecap
1 LJ
0.5 LW
N
73 175 M
507 175 L
S
GR
GS
0.149 GC
2 setlinecap
1 LJ
0.5 LW
N
73 31 M
507 31 L
S
GR
GS
0.149 GC
2 setlinecap
1 LJ
0.5 LW
N
73 175 M
73 170.66 L
S
GR
GS
0.149 GC
2 setlinecap
1 LJ
0.5 LW
N
116.4 175 M
116.4 170.66 L
S
GR
GS
0.149 GC
2 setlinecap
1 LJ
0.5 LW
N
159.8 175 M
159.8 170.66 L
S
GR
GS
0.149 GC
2 setlinecap
1 LJ
0.5 LW
N
203.2 175 M
203.2 170.66 L
S
GR
GS
0.149 GC
2 setlinecap
1 LJ
0.5 LW
N
246.6 175 M
246.6 170.66 L
S
GR
GS
0.149 GC
2 setlinecap
1 LJ
0.5 LW
N
290 175 M
290 170.66 L
S
GR
GS
0.149 GC
2 setlinecap
1 LJ
0.5 LW
N
333.4 175 M
333.4 170.66 L
S
GR
GS
0.149 GC
2 setlinecap
1 LJ
0.5 LW
N
376.8 175 M
376.8 170.66 L
S
GR
GS
0.149 GC
2 setlinecap
1 LJ
0.5 LW
N
420.2 175 M
420.2 170.66 L
S
GR
GS
0.149 GC
2 setlinecap
1 LJ
0.5 LW
N
463.6 175 M
463.6 170.66 L
S
GR
GS
0.149 GC
2 setlinecap
1 LJ
0.5 LW
N
507 175 M
507 170.66 L
S
GR
GS
0.149 GC
2 setlinecap
1 LJ
0.5 LW
N
73 31 M
73 35.34 L
S
GR
GS
0.149 GC
2 setlinecap
1 LJ
0.5 LW
N
116.4 31 M
116.4 35.34 L
S
GR
GS
0.149 GC
2 setlinecap
1 LJ
0.5 LW
N
159.8 31 M
159.8 35.34 L
S
GR
GS
0.149 GC
2 setlinecap
1 LJ
0.5 LW
N
203.2 31 M
203.2 35.34 L
S
GR
GS
0.149 GC
2 setlinecap
1 LJ
0.5 LW
N
246.6 31 M
246.6 35.34 L
S
GR
GS
0.149 GC
2 setlinecap
1 LJ
0.5 LW
N
290 31 M
290 35.34 L
S
GR
GS
0.149 GC
2 setlinecap
1 LJ
0.5 LW
N
333.4 31 M
333.4 35.34 L
S
GR
GS
0.149 GC
2 setlinecap
1 LJ
0.5 LW
N
376.8 31 M
376.8 35.34 L
S
GR
GS
0.149 GC
2 setlinecap
1 LJ
0.5 LW
N
420.2 31 M
420.2 35.34 L
S
GR
GS
0.149 GC
2 setlinecap
1 LJ
0.5 LW
N
463.6 31 M
463.6 35.34 L
S
GR
GS
0.149 GC
2 setlinecap
1 LJ
0.5 LW
N
507 31 M
507 35.34 L
S
GR
GS
[1 0 0 1 73 179] CT
0.149 GC
/Helvetica 10 F
GS
[1 0 0 1 0 0] CT
-10.5 10 moveto 
1 -1 scale
(-100) t 
GR
GR
GS
[1 0 0 1 116.4 179] CT
0.149 GC
/Helvetica 10 F
GS
[1 0 0 1 0 0] CT
-8 10 moveto 
1 -1 scale
(-90) t 
GR
GR
GS
[1 0 0 1 159.8 179] CT
0.149 GC
/Helvetica 10 F
GS
[1 0 0 1 0 0] CT
-8 10 moveto 
1 -1 scale
(-80) t 
GR
GR
GS
[1 0 0 1 203.2 179] CT
0.149 GC
/Helvetica 10 F
GS
[1 0 0 1 0 0] CT
-8 10 moveto 
1 -1 scale
(-70) t 
GR
GR
GS
[1 0 0 1 246.60001 179] CT
0.149 GC
/Helvetica 10 F
GS
[1 0 0 1 0 0] CT
-8 10 moveto 
1 -1 scale
(-60) t 
GR
GR
GS
[1 0 0 1 290 179] CT
0.149 GC
/Helvetica 10 F
GS
[1 0 0 1 0 0] CT
-8 10 moveto 
1 -1 scale
(-50) t 
GR
GR
GS
[1 0 0 1 333.39999 179] CT
0.149 GC
/Helvetica 10 F
GS
[1 0 0 1 0 0] CT
-8 10 moveto 
1 -1 scale
(-40) t 
GR
GR
GS
[1 0 0 1 376.79999 179] CT
0.149 GC
/Helvetica 10 F
GS
[1 0 0 1 0 0] CT
-8 10 moveto 
1 -1 scale
(-30) t 
GR
GR
GS
[1 0 0 1 420.20001 179] CT
0.149 GC
/Helvetica 10 F
GS
[1 0 0 1 0 0] CT
-8 10 moveto 
1 -1 scale
(-20) t 
GR
GR
GS
[1 0 0 1 463.60001 179] CT
0.149 GC
/Helvetica 10 F
GS
[1 0 0 1 0 0] CT
-8 10 moveto 
1 -1 scale
(-10) t 
GR
GR
GS
[1 0 0 1 507 179] CT
0.149 GC
/Helvetica 10 F
GS
[1 0 0 1 0 0] CT
-3 10 moveto 
1 -1 scale
(0) t 
GR
GR
GS
[1 0 0 1 290.00021 193] CT
0.149 GC
/Helvetica-Bold 12 F
GS
[1 0 0 1 0 0] CT
-78 12 moveto 
1 -1 scale
(Camera translation \(in mm\)) t 
GR
GR
GS
0.149 GC
2 setlinecap
1 LJ
0.5 LW
N
73 175 M
73 31 L
S
GR
GS
0.149 GC
2 setlinecap
1 LJ
0.5 LW
N
507 175 M
507 31 L
S
GR
GS
0.149 GC
2 setlinecap
1 LJ
0.5 LW
N
73 175 M
77.34 175 L
S
GR
GS
0.149 GC
2 setlinecap
1 LJ
0.5 LW
N
73 146.2 M
77.34 146.2 L
S
GR
GS
0.149 GC
2 setlinecap
1 LJ
0.5 LW
N
73 117.4 M
77.34 117.4 L
S
GR
GS
0.149 GC
2 setlinecap
1 LJ
0.5 LW
N
73 88.6 M
77.34 88.6 L
S
GR
GS
0.149 GC
2 setlinecap
1 LJ
0.5 LW
N
73 59.8 M
77.34 59.8 L
S
GR
GS
0.149 GC
2 setlinecap
1 LJ
0.5 LW
N
73 31 M
77.34 31 L
S
GR
GS
0.149 GC
2 setlinecap
1 LJ
0.5 LW
N
507 175 M
502.66 175 L
S
GR
GS
0.149 GC
2 setlinecap
1 LJ
0.5 LW
N
507 146.2 M
502.66 146.2 L
S
GR
GS
0.149 GC
2 setlinecap
1 LJ
0.5 LW
N
507 117.4 M
502.66 117.4 L
S
GR
GS
0.149 GC
2 setlinecap
1 LJ
0.5 LW
N
507 88.6 M
502.66 88.6 L
S
GR
GS
0.149 GC
2 setlinecap
1 LJ
0.5 LW
N
507 59.8 M
502.66 59.8 L
S
GR
GS
0.149 GC
2 setlinecap
1 LJ
0.5 LW
N
507 31 M
502.66 31 L
S
GR
GS
[1 0 0 1 68.99999 175] CT
0.149 GC
/Helvetica 10 F
GS
[1 0 0 1 0 0] CT
-6 3.5 moveto 
1 -1 scale
(0) t 
GR
GR
GS
[1 0 0 1 68.99999 146.2] CT
0.149 GC
/Helvetica 10 F
GS
[1 0 0 1 0 0] CT
-14 3.5 moveto 
1 -1 scale
(0.1) t 
GR
GR
GS
[1 0 0 1 68.99999 117.4] CT
0.149 GC
/Helvetica 10 F
GS
[1 0 0 1 0 0] CT
-14 3.5 moveto 
1 -1 scale
(0.2) t 
GR
GR
GS
[1 0 0 1 68.99999 88.6] CT
0.149 GC
/Helvetica 10 F
GS
[1 0 0 1 0 0] CT
-14 3.5 moveto 
1 -1 scale
(0.3) t 
GR
GR
GS
[1 0 0 1 68.99999 59.8] CT
0.149 GC
/Helvetica 10 F
GS
[1 0 0 1 0 0] CT
-14 3.5 moveto 
1 -1 scale
(0.4) t 
GR
GR
GS
[1 0 0 1 68.99999 31] CT
0.149 GC
/Helvetica 10 F
GS
[1 0 0 1 0 0] CT
-14 3.5 moveto 
1 -1 scale
(0.5) t 
GR
GR
GS
[0 -1 1 0 52.00001 102.99993] CT
0.149 GC
/Helvetica-Bold 12 F
GS
[1 0 0 1 0 0] CT
-56 -3 moveto 
1 -1 scale
(Depth error \(in mm\)) t 
GR
GR
GS
[1 0 0 1 73 53.76841] CT
0 0 1 RC
N
2.667 0 M
2.667 1.473 1.473 2.667 0 2.667 C
-1.473 2.667 -2.667 1.473 -2.667 0 C
-2.667 -1.473 -1.473 -2.667 0 -2.667 C
1.473 -2.667 2.667 -1.473 2.667 0 C
cp
f
GR
GS
[1 0 0 1 77.34 57.58286] CT
0 0 1 RC
N
2.667 0 M
2.667 1.473 1.473 2.667 0 2.667 C
-1.473 2.667 -2.667 1.473 -2.667 0 C
-2.667 -1.473 -1.473 -2.667 0 -2.667 C
1.473 -2.667 2.667 -1.473 2.667 0 C
cp
f
GR
GS
[1 0 0 1 81.68 55.72532] CT
0 0 1 RC
N
2.667 0 M
2.667 1.473 1.473 2.667 0 2.667 C
-1.473 2.667 -2.667 1.473 -2.667 0 C
-2.667 -1.473 -1.473 -2.667 0 -2.667 C
1.473 -2.667 2.667 -1.473 2.667 0 C
cp
f
GR
GS
[1 0 0 1 86.02 61.94395] CT
0 0 1 RC
N
2.667 0 M
2.667 1.473 1.473 2.667 0 2.667 C
-1.473 2.667 -2.667 1.473 -2.667 0 C
-2.667 -1.473 -1.473 -2.667 0 -2.667 C
1.473 -2.667 2.667 -1.473 2.667 0 C
cp
f
GR
GS
[1 0 0 1 90.36 57.24567] CT
0 0 1 RC
N
2.667 0 M
2.667 1.473 1.473 2.667 0 2.667 C
-1.473 2.667 -2.667 1.473 -2.667 0 C
-2.667 -1.473 -1.473 -2.667 0 -2.667 C
1.473 -2.667 2.667 -1.473 2.667 0 C
cp
f
GR
GS
[1 0 0 1 94.7 57.76485] CT
0 0 1 RC
N
2.667 0 M
2.667 1.473 1.473 2.667 0 2.667 C
-1.473 2.667 -2.667 1.473 -2.667 0 C
-2.667 -1.473 -1.473 -2.667 0 -2.667 C
1.473 -2.667 2.667 -1.473 2.667 0 C
cp
f
GR
GS
[1 0 0 1 99.04 61.20799] CT
0 0 1 RC
N
2.667 0 M
2.667 1.473 1.473 2.667 0 2.667 C
-1.473 2.667 -2.667 1.473 -2.667 0 C
-2.667 -1.473 -1.473 -2.667 0 -2.667 C
1.473 -2.667 2.667 -1.473 2.667 0 C
cp
f
GR
GS
[1 0 0 1 103.38 61.84999] CT
0 0 1 RC
N
2.667 0 M
2.667 1.473 1.473 2.667 0 2.667 C
-1.473 2.667 -2.667 1.473 -2.667 0 C
-2.667 -1.473 -1.473 -2.667 0 -2.667 C
1.473 -2.667 2.667 -1.473 2.667 0 C
cp
f
GR
GS
[1 0 0 1 107.72 60.1093] CT
0 0 1 RC
N
2.667 0 M
2.667 1.473 1.473 2.667 0 2.667 C
-1.473 2.667 -2.667 1.473 -2.667 0 C
-2.667 -1.473 -1.473 -2.667 0 -2.667 C
1.473 -2.667 2.667 -1.473 2.667 0 C
cp
f
GR
GS
[1 0 0 1 112.06 64.38779] CT
0 0 1 RC
N
2.667 0 M
2.667 1.473 1.473 2.667 0 2.667 C
-1.473 2.667 -2.667 1.473 -2.667 0 C
-2.667 -1.473 -1.473 -2.667 0 -2.667 C
1.473 -2.667 2.667 -1.473 2.667 0 C
cp
f
GR
GS
[1 0 0 1 116.4 64.20365] CT
0 0 1 RC
N
2.667 0 M
2.667 1.473 1.473 2.667 0 2.667 C
-1.473 2.667 -2.667 1.473 -2.667 0 C
-2.667 -1.473 -1.473 -2.667 0 -2.667 C
1.473 -2.667 2.667 -1.473 2.667 0 C
cp
f
GR
GS
[1 0 0 1 120.74 71.04352] CT
0 0 1 RC
N
2.667 0 M
2.667 1.473 1.473 2.667 0 2.667 C
-1.473 2.667 -2.667 1.473 -2.667 0 C
-2.667 -1.473 -1.473 -2.667 0 -2.667 C
1.473 -2.667 2.667 -1.473 2.667 0 C
cp
f
GR
GS
[1 0 0 1 125.08 68.59009] CT
0 0 1 RC
N
2.667 0 M
2.667 1.473 1.473 2.667 0 2.667 C
-1.473 2.667 -2.667 1.473 -2.667 0 C
-2.667 -1.473 -1.473 -2.667 0 -2.667 C
1.473 -2.667 2.667 -1.473 2.667 0 C
cp
f
GR
GS
[1 0 0 1 129.42 70.97536] CT
0 0 1 RC
N
2.667 0 M
2.667 1.473 1.473 2.667 0 2.667 C
-1.473 2.667 -2.667 1.473 -2.667 0 C
-2.667 -1.473 -1.473 -2.667 0 -2.667 C
1.473 -2.667 2.667 -1.473 2.667 0 C
cp
f
GR
GS
[1 0 0 1 133.75999 72.00206] CT
0 0 1 RC
N
2.667 0 M
2.667 1.473 1.473 2.667 0 2.667 C
-1.473 2.667 -2.667 1.473 -2.667 0 C
-2.667 -1.473 -1.473 -2.667 0 -2.667 C
1.473 -2.667 2.667 -1.473 2.667 0 C
cp
f
GR
GS
[1 0 0 1 138.10001 73.29172] CT
0 0 1 RC
N
2.667 0 M
2.667 1.473 1.473 2.667 0 2.667 C
-1.473 2.667 -2.667 1.473 -2.667 0 C
-2.667 -1.473 -1.473 -2.667 0 -2.667 C
1.473 -2.667 2.667 -1.473 2.667 0 C
cp
f
GR
GS
[1 0 0 1 142.44 73.57124] CT
0 0 1 RC
N
2.667 0 M
2.667 1.473 1.473 2.667 0 2.667 C
-1.473 2.667 -2.667 1.473 -2.667 0 C
-2.667 -1.473 -1.473 -2.667 0 -2.667 C
1.473 -2.667 2.667 -1.473 2.667 0 C
cp
f
GR
GS
[1 0 0 1 146.78 71.60764] CT
0 0 1 RC
N
2.667 0 M
2.667 1.473 1.473 2.667 0 2.667 C
-1.473 2.667 -2.667 1.473 -2.667 0 C
-2.667 -1.473 -1.473 -2.667 0 -2.667 C
1.473 -2.667 2.667 -1.473 2.667 0 C
cp
f
GR
GS
[1 0 0 1 151.12 76.52439] CT
0 0 1 RC
N
2.667 0 M
2.667 1.473 1.473 2.667 0 2.667 C
-1.473 2.667 -2.667 1.473 -2.667 0 C
-2.667 -1.473 -1.473 -2.667 0 -2.667 C
1.473 -2.667 2.667 -1.473 2.667 0 C
cp
f
GR
GS
[1 0 0 1 155.46001 74.93652] CT
0 0 1 RC
N
2.667 0 M
2.667 1.473 1.473 2.667 0 2.667 C
-1.473 2.667 -2.667 1.473 -2.667 0 C
-2.667 -1.473 -1.473 -2.667 0 -2.667 C
1.473 -2.667 2.667 -1.473 2.667 0 C
cp
f
GR
GS
[1 0 0 1 159.8 75.34283] CT
0 0 1 RC
N
2.667 0 M
2.667 1.473 1.473 2.667 0 2.667 C
-1.473 2.667 -2.667 1.473 -2.667 0 C
-2.667 -1.473 -1.473 -2.667 0 -2.667 C
1.473 -2.667 2.667 -1.473 2.667 0 C
cp
f
GR
GS
[1 0 0 1 164.14 76.79093] CT
0 0 1 RC
N
2.667 0 M
2.667 1.473 1.473 2.667 0 2.667 C
-1.473 2.667 -2.667 1.473 -2.667 0 C
-2.667 -1.473 -1.473 -2.667 0 -2.667 C
1.473 -2.667 2.667 -1.473 2.667 0 C
cp
f
GR
GS
[1 0 0 1 168.48 83.1353] CT
0 0 1 RC
N
2.667 0 M
2.667 1.473 1.473 2.667 0 2.667 C
-1.473 2.667 -2.667 1.473 -2.667 0 C
-2.667 -1.473 -1.473 -2.667 0 -2.667 C
1.473 -2.667 2.667 -1.473 2.667 0 C
cp
f
GR
GS
[1 0 0 1 172.82001 82.25561] CT
0 0 1 RC
N
2.667 0 M
2.667 1.473 1.473 2.667 0 2.667 C
-1.473 2.667 -2.667 1.473 -2.667 0 C
-2.667 -1.473 -1.473 -2.667 0 -2.667 C
1.473 -2.667 2.667 -1.473 2.667 0 C
cp
f
GR
GS
[1 0 0 1 177.16 83.7601] CT
0 0 1 RC
N
2.667 0 M
2.667 1.473 1.473 2.667 0 2.667 C
-1.473 2.667 -2.667 1.473 -2.667 0 C
-2.667 -1.473 -1.473 -2.667 0 -2.667 C
1.473 -2.667 2.667 -1.473 2.667 0 C
cp
f
GR
GS
[1 0 0 1 181.5 83.39313] CT
0 0 1 RC
N
2.667 0 M
2.667 1.473 1.473 2.667 0 2.667 C
-1.473 2.667 -2.667 1.473 -2.667 0 C
-2.667 -1.473 -1.473 -2.667 0 -2.667 C
1.473 -2.667 2.667 -1.473 2.667 0 C
cp
f
GR
GS
[1 0 0 1 185.84 87.90652] CT
0 0 1 RC
N
2.667 0 M
2.667 1.473 1.473 2.667 0 2.667 C
-1.473 2.667 -2.667 1.473 -2.667 0 C
-2.667 -1.473 -1.473 -2.667 0 -2.667 C
1.473 -2.667 2.667 -1.473 2.667 0 C
cp
f
GR
GS
[1 0 0 1 190.17999 87.41004] CT
0 0 1 RC
N
2.667 0 M
2.667 1.473 1.473 2.667 0 2.667 C
-1.473 2.667 -2.667 1.473 -2.667 0 C
-2.667 -1.473 -1.473 -2.667 0 -2.667 C
1.473 -2.667 2.667 -1.473 2.667 0 C
cp
f
GR
GS
[1 0 0 1 194.52 88.59506] CT
0 0 1 RC
N
2.667 0 M
2.667 1.473 1.473 2.667 0 2.667 C
-1.473 2.667 -2.667 1.473 -2.667 0 C
-2.667 -1.473 -1.473 -2.667 0 -2.667 C
1.473 -2.667 2.667 -1.473 2.667 0 C
cp
f
GR
GS
[1 0 0 1 198.86 88.83816] CT
0 0 1 RC
N
2.667 0 M
2.667 1.473 1.473 2.667 0 2.667 C
-1.473 2.667 -2.667 1.473 -2.667 0 C
-2.667 -1.473 -1.473 -2.667 0 -2.667 C
1.473 -2.667 2.667 -1.473 2.667 0 C
cp
f
GR
GS
[1 0 0 1 203.2 87.91961] CT
0 0 1 RC
N
2.667 0 M
2.667 1.473 1.473 2.667 0 2.667 C
-1.473 2.667 -2.667 1.473 -2.667 0 C
-2.667 -1.473 -1.473 -2.667 0 -2.667 C
1.473 -2.667 2.667 -1.473 2.667 0 C
cp
f
GR
GS
[1 0 0 1 207.53999 89.42776] CT
0 0 1 RC
N
2.667 0 M
2.667 1.473 1.473 2.667 0 2.667 C
-1.473 2.667 -2.667 1.473 -2.667 0 C
-2.667 -1.473 -1.473 -2.667 0 -2.667 C
1.473 -2.667 2.667 -1.473 2.667 0 C
cp
f
GR
GS
[1 0 0 1 211.88 90.15133] CT
0 0 1 RC
N
2.667 0 M
2.667 1.473 1.473 2.667 0 2.667 C
-1.473 2.667 -2.667 1.473 -2.667 0 C
-2.667 -1.473 -1.473 -2.667 0 -2.667 C
1.473 -2.667 2.667 -1.473 2.667 0 C
cp
f
GR
GS
[1 0 0 1 216.22 93.19509] CT
0 0 1 RC
N
2.667 0 M
2.667 1.473 1.473 2.667 0 2.667 C
-1.473 2.667 -2.667 1.473 -2.667 0 C
-2.667 -1.473 -1.473 -2.667 0 -2.667 C
1.473 -2.667 2.667 -1.473 2.667 0 C
cp
f
GR
GS
[1 0 0 1 220.56 93.18208] CT
0 0 1 RC
N
2.667 0 M
2.667 1.473 1.473 2.667 0 2.667 C
-1.473 2.667 -2.667 1.473 -2.667 0 C
-2.667 -1.473 -1.473 -2.667 0 -2.667 C
1.473 -2.667 2.667 -1.473 2.667 0 C
cp
f
GR
GS
[1 0 0 1 224.89999 94.8709] CT
0 0 1 RC
N
2.667 0 M
2.667 1.473 1.473 2.667 0 2.667 C
-1.473 2.667 -2.667 1.473 -2.667 0 C
-2.667 -1.473 -1.473 -2.667 0 -2.667 C
1.473 -2.667 2.667 -1.473 2.667 0 C
cp
f
GR
GS
[1 0 0 1 229.24001 95.09206] CT
0 0 1 RC
N
2.667 0 M
2.667 1.473 1.473 2.667 0 2.667 C
-1.473 2.667 -2.667 1.473 -2.667 0 C
-2.667 -1.473 -1.473 -2.667 0 -2.667 C
1.473 -2.667 2.667 -1.473 2.667 0 C
cp
f
GR
GS
[1 0 0 1 233.58 96.97503] CT
0 0 1 RC
N
2.667 0 M
2.667 1.473 1.473 2.667 0 2.667 C
-1.473 2.667 -2.667 1.473 -2.667 0 C
-2.667 -1.473 -1.473 -2.667 0 -2.667 C
1.473 -2.667 2.667 -1.473 2.667 0 C
cp
f
GR
GS
[1 0 0 1 237.92 99.52235] CT
0 0 1 RC
N
2.667 0 M
2.667 1.473 1.473 2.667 0 2.667 C
-1.473 2.667 -2.667 1.473 -2.667 0 C
-2.667 -1.473 -1.473 -2.667 0 -2.667 C
1.473 -2.667 2.667 -1.473 2.667 0 C
cp
f
GR
GS
[1 0 0 1 242.25999 99.76701] CT
0 0 1 RC
N
2.667 0 M
2.667 1.473 1.473 2.667 0 2.667 C
-1.473 2.667 -2.667 1.473 -2.667 0 C
-2.667 -1.473 -1.473 -2.667 0 -2.667 C
1.473 -2.667 2.667 -1.473 2.667 0 C
cp
f
GR
GS
[1 0 0 1 246.60001 104.01742] CT
0 0 1 RC
N
2.667 0 M
2.667 1.473 1.473 2.667 0 2.667 C
-1.473 2.667 -2.667 1.473 -2.667 0 C
-2.667 -1.473 -1.473 -2.667 0 -2.667 C
1.473 -2.667 2.667 -1.473 2.667 0 C
cp
f
GR
GS
[1 0 0 1 250.94 101.66101] CT
0 0 1 RC
N
2.667 0 M
2.667 1.473 1.473 2.667 0 2.667 C
-1.473 2.667 -2.667 1.473 -2.667 0 C
-2.667 -1.473 -1.473 -2.667 0 -2.667 C
1.473 -2.667 2.667 -1.473 2.667 0 C
cp
f
GR
GS
[1 0 0 1 255.28 101.14771] CT
0 0 1 RC
N
2.667 0 M
2.667 1.473 1.473 2.667 0 2.667 C
-1.473 2.667 -2.667 1.473 -2.667 0 C
-2.667 -1.473 -1.473 -2.667 0 -2.667 C
1.473 -2.667 2.667 -1.473 2.667 0 C
cp
f
GR
GS
[1 0 0 1 259.62 104.00844] CT
0 0 1 RC
N
2.667 0 M
2.667 1.473 1.473 2.667 0 2.667 C
-1.473 2.667 -2.667 1.473 -2.667 0 C
-2.667 -1.473 -1.473 -2.667 0 -2.667 C
1.473 -2.667 2.667 -1.473 2.667 0 C
cp
f
GR
GS
[1 0 0 1 263.95999 106.50166] CT
0 0 1 RC
N
2.667 0 M
2.667 1.473 1.473 2.667 0 2.667 C
-1.473 2.667 -2.667 1.473 -2.667 0 C
-2.667 -1.473 -1.473 -2.667 0 -2.667 C
1.473 -2.667 2.667 -1.473 2.667 0 C
cp
f
GR
GS
[1 0 0 1 268.29999 107.31158] CT
0 0 1 RC
N
2.667 0 M
2.667 1.473 1.473 2.667 0 2.667 C
-1.473 2.667 -2.667 1.473 -2.667 0 C
-2.667 -1.473 -1.473 -2.667 0 -2.667 C
1.473 -2.667 2.667 -1.473 2.667 0 C
cp
f
GR
GS
[1 0 0 1 272.64001 107.17262] CT
0 0 1 RC
N
2.667 0 M
2.667 1.473 1.473 2.667 0 2.667 C
-1.473 2.667 -2.667 1.473 -2.667 0 C
-2.667 -1.473 -1.473 -2.667 0 -2.667 C
1.473 -2.667 2.667 -1.473 2.667 0 C
cp
f
GR
GS
[1 0 0 1 276.98001 111.508] CT
0 0 1 RC
N
2.667 0 M
2.667 1.473 1.473 2.667 0 2.667 C
-1.473 2.667 -2.667 1.473 -2.667 0 C
-2.667 -1.473 -1.473 -2.667 0 -2.667 C
1.473 -2.667 2.667 -1.473 2.667 0 C
cp
f
GR
GS
[1 0 0 1 281.32001 109.82761] CT
0 0 1 RC
N
2.667 0 M
2.667 1.473 1.473 2.667 0 2.667 C
-1.473 2.667 -2.667 1.473 -2.667 0 C
-2.667 -1.473 -1.473 -2.667 0 -2.667 C
1.473 -2.667 2.667 -1.473 2.667 0 C
cp
f
GR
GS
[1 0 0 1 285.66 112.64982] CT
0 0 1 RC
N
2.667 0 M
2.667 1.473 1.473 2.667 0 2.667 C
-1.473 2.667 -2.667 1.473 -2.667 0 C
-2.667 -1.473 -1.473 -2.667 0 -2.667 C
1.473 -2.667 2.667 -1.473 2.667 0 C
cp
f
GR
GS
[1 0 0 1 290 113.31343] CT
0 0 1 RC
N
2.667 0 M
2.667 1.473 1.473 2.667 0 2.667 C
-1.473 2.667 -2.667 1.473 -2.667 0 C
-2.667 -1.473 -1.473 -2.667 0 -2.667 C
1.473 -2.667 2.667 -1.473 2.667 0 C
cp
f
GR
GS
[1 0 0 1 294.34 116.02298] CT
0 0 1 RC
N
2.667 0 M
2.667 1.473 1.473 2.667 0 2.667 C
-1.473 2.667 -2.667 1.473 -2.667 0 C
-2.667 -1.473 -1.473 -2.667 0 -2.667 C
1.473 -2.667 2.667 -1.473 2.667 0 C
cp
f
GR
GS
[1 0 0 1 298.67999 115.92384] CT
0 0 1 RC
N
2.667 0 M
2.667 1.473 1.473 2.667 0 2.667 C
-1.473 2.667 -2.667 1.473 -2.667 0 C
-2.667 -1.473 -1.473 -2.667 0 -2.667 C
1.473 -2.667 2.667 -1.473 2.667 0 C
cp
f
GR
GS
[1 0 0 1 303.01999 116.99867] CT
0 0 1 RC
N
2.667 0 M
2.667 1.473 1.473 2.667 0 2.667 C
-1.473 2.667 -2.667 1.473 -2.667 0 C
-2.667 -1.473 -1.473 -2.667 0 -2.667 C
1.473 -2.667 2.667 -1.473 2.667 0 C
cp
f
GR
GS
[1 0 0 1 307.35999 116.42789] CT
0 0 1 RC
N
2.667 0 M
2.667 1.473 1.473 2.667 0 2.667 C
-1.473 2.667 -2.667 1.473 -2.667 0 C
-2.667 -1.473 -1.473 -2.667 0 -2.667 C
1.473 -2.667 2.667 -1.473 2.667 0 C
cp
f
GR
GS
[1 0 0 1 311.70001 119.56726] CT
0 0 1 RC
N
2.667 0 M
2.667 1.473 1.473 2.667 0 2.667 C
-1.473 2.667 -2.667 1.473 -2.667 0 C
-2.667 -1.473 -1.473 -2.667 0 -2.667 C
1.473 -2.667 2.667 -1.473 2.667 0 C
cp
f
GR
GS
[1 0 0 1 316.04001 119.94862] CT
0 0 1 RC
N
2.667 0 M
2.667 1.473 1.473 2.667 0 2.667 C
-1.473 2.667 -2.667 1.473 -2.667 0 C
-2.667 -1.473 -1.473 -2.667 0 -2.667 C
1.473 -2.667 2.667 -1.473 2.667 0 C
cp
f
GR
GS
[1 0 0 1 320.38 122.58308] CT
0 0 1 RC
N
2.667 0 M
2.667 1.473 1.473 2.667 0 2.667 C
-1.473 2.667 -2.667 1.473 -2.667 0 C
-2.667 -1.473 -1.473 -2.667 0 -2.667 C
1.473 -2.667 2.667 -1.473 2.667 0 C
cp
f
GR
GS
[1 0 0 1 324.72 123.98229] CT
0 0 1 RC
N
2.667 0 M
2.667 1.473 1.473 2.667 0 2.667 C
-1.473 2.667 -2.667 1.473 -2.667 0 C
-2.667 -1.473 -1.473 -2.667 0 -2.667 C
1.473 -2.667 2.667 -1.473 2.667 0 C
cp
f
GR
GS
[1 0 0 1 329.06 124.87479] CT
0 0 1 RC
N
2.667 0 M
2.667 1.473 1.473 2.667 0 2.667 C
-1.473 2.667 -2.667 1.473 -2.667 0 C
-2.667 -1.473 -1.473 -2.667 0 -2.667 C
1.473 -2.667 2.667 -1.473 2.667 0 C
cp
f
GR
GS
[1 0 0 1 333.39999 124.69923] CT
0 0 1 RC
N
2.667 0 M
2.667 1.473 1.473 2.667 0 2.667 C
-1.473 2.667 -2.667 1.473 -2.667 0 C
-2.667 -1.473 -1.473 -2.667 0 -2.667 C
1.473 -2.667 2.667 -1.473 2.667 0 C
cp
f
GR
GS
[1 0 0 1 337.73999 127.43424] CT
0 0 1 RC
N
2.667 0 M
2.667 1.473 1.473 2.667 0 2.667 C
-1.473 2.667 -2.667 1.473 -2.667 0 C
-2.667 -1.473 -1.473 -2.667 0 -2.667 C
1.473 -2.667 2.667 -1.473 2.667 0 C
cp
f
GR
GS
[1 0 0 1 342.07999 127.39395] CT
0 0 1 RC
N
2.667 0 M
2.667 1.473 1.473 2.667 0 2.667 C
-1.473 2.667 -2.667 1.473 -2.667 0 C
-2.667 -1.473 -1.473 -2.667 0 -2.667 C
1.473 -2.667 2.667 -1.473 2.667 0 C
cp
f
GR
GS
[1 0 0 1 346.42001 130.14418] CT
0 0 1 RC
N
2.667 0 M
2.667 1.473 1.473 2.667 0 2.667 C
-1.473 2.667 -2.667 1.473 -2.667 0 C
-2.667 -1.473 -1.473 -2.667 0 -2.667 C
1.473 -2.667 2.667 -1.473 2.667 0 C
cp
f
GR
GS
[1 0 0 1 350.76001 131.13799] CT
0 0 1 RC
N
2.667 0 M
2.667 1.473 1.473 2.667 0 2.667 C
-1.473 2.667 -2.667 1.473 -2.667 0 C
-2.667 -1.473 -1.473 -2.667 0 -2.667 C
1.473 -2.667 2.667 -1.473 2.667 0 C
cp
f
GR
GS
[1 0 0 1 355.10001 130.9482] CT
0 0 1 RC
N
2.667 0 M
2.667 1.473 1.473 2.667 0 2.667 C
-1.473 2.667 -2.667 1.473 -2.667 0 C
-2.667 -1.473 -1.473 -2.667 0 -2.667 C
1.473 -2.667 2.667 -1.473 2.667 0 C
cp
f
GR
GS
[1 0 0 1 359.44 133.58069] CT
0 0 1 RC
N
2.667 0 M
2.667 1.473 1.473 2.667 0 2.667 C
-1.473 2.667 -2.667 1.473 -2.667 0 C
-2.667 -1.473 -1.473 -2.667 0 -2.667 C
1.473 -2.667 2.667 -1.473 2.667 0 C
cp
f
GR
GS
[1 0 0 1 363.78 133.75766] CT
0 0 1 RC
N
2.667 0 M
2.667 1.473 1.473 2.667 0 2.667 C
-1.473 2.667 -2.667 1.473 -2.667 0 C
-2.667 -1.473 -1.473 -2.667 0 -2.667 C
1.473 -2.667 2.667 -1.473 2.667 0 C
cp
f
GR
GS
[1 0 0 1 368.12 135.34796] CT
0 0 1 RC
N
2.667 0 M
2.667 1.473 1.473 2.667 0 2.667 C
-1.473 2.667 -2.667 1.473 -2.667 0 C
-2.667 -1.473 -1.473 -2.667 0 -2.667 C
1.473 -2.667 2.667 -1.473 2.667 0 C
cp
f
GR
GS
[1 0 0 1 372.45999 137.40091] CT
0 0 1 RC
N
2.667 0 M
2.667 1.473 1.473 2.667 0 2.667 C
-1.473 2.667 -2.667 1.473 -2.667 0 C
-2.667 -1.473 -1.473 -2.667 0 -2.667 C
1.473 -2.667 2.667 -1.473 2.667 0 C
cp
f
GR
GS
[1 0 0 1 376.79999 137.1438] CT
0 0 1 RC
N
2.667 0 M
2.667 1.473 1.473 2.667 0 2.667 C
-1.473 2.667 -2.667 1.473 -2.667 0 C
-2.667 -1.473 -1.473 -2.667 0 -2.667 C
1.473 -2.667 2.667 -1.473 2.667 0 C
cp
f
GR
GS
[1 0 0 1 381.14001 139.50247] CT
0 0 1 RC
N
2.667 0 M
2.667 1.473 1.473 2.667 0 2.667 C
-1.473 2.667 -2.667 1.473 -2.667 0 C
-2.667 -1.473 -1.473 -2.667 0 -2.667 C
1.473 -2.667 2.667 -1.473 2.667 0 C
cp
f
GR
GS
[1 0 0 1 385.48001 140.00511] CT
0 0 1 RC
N
2.667 0 M
2.667 1.473 1.473 2.667 0 2.667 C
-1.473 2.667 -2.667 1.473 -2.667 0 C
-2.667 -1.473 -1.473 -2.667 0 -2.667 C
1.473 -2.667 2.667 -1.473 2.667 0 C
cp
f
GR
GS
[1 0 0 1 389.82001 141.35512] CT
0 0 1 RC
N
2.667 0 M
2.667 1.473 1.473 2.667 0 2.667 C
-1.473 2.667 -2.667 1.473 -2.667 0 C
-2.667 -1.473 -1.473 -2.667 0 -2.667 C
1.473 -2.667 2.667 -1.473 2.667 0 C
cp
f
GR
GS
[1 0 0 1 394.16 143.47906] CT
0 0 1 RC
N
2.667 0 M
2.667 1.473 1.473 2.667 0 2.667 C
-1.473 2.667 -2.667 1.473 -2.667 0 C
-2.667 -1.473 -1.473 -2.667 0 -2.667 C
1.473 -2.667 2.667 -1.473 2.667 0 C
cp
f
GR
GS
[1 0 0 1 398.5 145.28502] CT
0 0 1 RC
N
2.667 0 M
2.667 1.473 1.473 2.667 0 2.667 C
-1.473 2.667 -2.667 1.473 -2.667 0 C
-2.667 -1.473 -1.473 -2.667 0 -2.667 C
1.473 -2.667 2.667 -1.473 2.667 0 C
cp
f
GR
GS
[1 0 0 1 402.84 144.93623] CT
0 0 1 RC
N
2.667 0 M
2.667 1.473 1.473 2.667 0 2.667 C
-1.473 2.667 -2.667 1.473 -2.667 0 C
-2.667 -1.473 -1.473 -2.667 0 -2.667 C
1.473 -2.667 2.667 -1.473 2.667 0 C
cp
f
GR
GS
[1 0 0 1 407.17999 145.95729] CT
0 0 1 RC
N
2.667 0 M
2.667 1.473 1.473 2.667 0 2.667 C
-1.473 2.667 -2.667 1.473 -2.667 0 C
-2.667 -1.473 -1.473 -2.667 0 -2.667 C
1.473 -2.667 2.667 -1.473 2.667 0 C
cp
f
GR
GS
[1 0 0 1 411.51999 147.57109] CT
0 0 1 RC
N
2.667 0 M
2.667 1.473 1.473 2.667 0 2.667 C
-1.473 2.667 -2.667 1.473 -2.667 0 C
-2.667 -1.473 -1.473 -2.667 0 -2.667 C
1.473 -2.667 2.667 -1.473 2.667 0 C
cp
f
GR
GS
[1 0 0 1 415.85999 149.31879] CT
0 0 1 RC
N
2.667 0 M
2.667 1.473 1.473 2.667 0 2.667 C
-1.473 2.667 -2.667 1.473 -2.667 0 C
-2.667 -1.473 -1.473 -2.667 0 -2.667 C
1.473 -2.667 2.667 -1.473 2.667 0 C
cp
f
GR
GS
[1 0 0 1 420.20001 149.48103] CT
0 0 1 RC
N
2.667 0 M
2.667 1.473 1.473 2.667 0 2.667 C
-1.473 2.667 -2.667 1.473 -2.667 0 C
-2.667 -1.473 -1.473 -2.667 0 -2.667 C
1.473 -2.667 2.667 -1.473 2.667 0 C
cp
f
GR
GS
[1 0 0 1 424.54001 151.92842] CT
0 0 1 RC
N
2.667 0 M
2.667 1.473 1.473 2.667 0 2.667 C
-1.473 2.667 -2.667 1.473 -2.667 0 C
-2.667 -1.473 -1.473 -2.667 0 -2.667 C
1.473 -2.667 2.667 -1.473 2.667 0 C
cp
f
GR
GS
[1 0 0 1 428.88 152.54729] CT
0 0 1 RC
N
2.667 0 M
2.667 1.473 1.473 2.667 0 2.667 C
-1.473 2.667 -2.667 1.473 -2.667 0 C
-2.667 -1.473 -1.473 -2.667 0 -2.667 C
1.473 -2.667 2.667 -1.473 2.667 0 C
cp
f
GR
GS
[1 0 0 1 433.22 154.29509] CT
0 0 1 RC
N
2.667 0 M
2.667 1.473 1.473 2.667 0 2.667 C
-1.473 2.667 -2.667 1.473 -2.667 0 C
-2.667 -1.473 -1.473 -2.667 0 -2.667 C
1.473 -2.667 2.667 -1.473 2.667 0 C
cp
f
GR
GS
[1 0 0 1 437.56 155.14607] CT
0 0 1 RC
N
2.667 0 M
2.667 1.473 1.473 2.667 0 2.667 C
-1.473 2.667 -2.667 1.473 -2.667 0 C
-2.667 -1.473 -1.473 -2.667 0 -2.667 C
1.473 -2.667 2.667 -1.473 2.667 0 C
cp
f
GR
GS
[1 0 0 1 441.89999 156.12354] CT
0 0 1 RC
N
2.667 0 M
2.667 1.473 1.473 2.667 0 2.667 C
-1.473 2.667 -2.667 1.473 -2.667 0 C
-2.667 -1.473 -1.473 -2.667 0 -2.667 C
1.473 -2.667 2.667 -1.473 2.667 0 C
cp
f
GR
GS
[1 0 0 1 446.23999 157.91605] CT
0 0 1 RC
N
2.667 0 M
2.667 1.473 1.473 2.667 0 2.667 C
-1.473 2.667 -2.667 1.473 -2.667 0 C
-2.667 -1.473 -1.473 -2.667 0 -2.667 C
1.473 -2.667 2.667 -1.473 2.667 0 C
cp
f
GR
GS
[1 0 0 1 450.57999 158.85948] CT
0 0 1 RC
N
2.667 0 M
2.667 1.473 1.473 2.667 0 2.667 C
-1.473 2.667 -2.667 1.473 -2.667 0 C
-2.667 -1.473 -1.473 -2.667 0 -2.667 C
1.473 -2.667 2.667 -1.473 2.667 0 C
cp
f
GR
GS
[1 0 0 1 454.92001 160.09741] CT
0 0 1 RC
N
2.667 0 M
2.667 1.473 1.473 2.667 0 2.667 C
-1.473 2.667 -2.667 1.473 -2.667 0 C
-2.667 -1.473 -1.473 -2.667 0 -2.667 C
1.473 -2.667 2.667 -1.473 2.667 0 C
cp
f
GR
GS
[1 0 0 1 459.26001 161.15965] CT
0 0 1 RC
N
2.667 0 M
2.667 1.473 1.473 2.667 0 2.667 C
-1.473 2.667 -2.667 1.473 -2.667 0 C
-2.667 -1.473 -1.473 -2.667 0 -2.667 C
1.473 -2.667 2.667 -1.473 2.667 0 C
cp
f
GR
GS
[1 0 0 1 463.60001 162.46881] CT
0 0 1 RC
N
2.667 0 M
2.667 1.473 1.473 2.667 0 2.667 C
-1.473 2.667 -2.667 1.473 -2.667 0 C
-2.667 -1.473 -1.473 -2.667 0 -2.667 C
1.473 -2.667 2.667 -1.473 2.667 0 C
cp
f
GR
GS
[1 0 0 1 467.94 163.95314] CT
0 0 1 RC
N
2.667 0 M
2.667 1.473 1.473 2.667 0 2.667 C
-1.473 2.667 -2.667 1.473 -2.667 0 C
-2.667 -1.473 -1.473 -2.667 0 -2.667 C
1.473 -2.667 2.667 -1.473 2.667 0 C
cp
f
GR
GS
[1 0 0 1 472.28 164.8876] CT
0 0 1 RC
N
2.667 0 M
2.667 1.473 1.473 2.667 0 2.667 C
-1.473 2.667 -2.667 1.473 -2.667 0 C
-2.667 -1.473 -1.473 -2.667 0 -2.667 C
1.473 -2.667 2.667 -1.473 2.667 0 C
cp
f
GR
GS
[1 0 0 1 476.62 166.41075] CT
0 0 1 RC
N
2.667 0 M
2.667 1.473 1.473 2.667 0 2.667 C
-1.473 2.667 -2.667 1.473 -2.667 0 C
-2.667 -1.473 -1.473 -2.667 0 -2.667 C
1.473 -2.667 2.667 -1.473 2.667 0 C
cp
f
GR
GS
[1 0 0 1 480.95999 167.55653] CT
0 0 1 RC
N
2.667 0 M
2.667 1.473 1.473 2.667 0 2.667 C
-1.473 2.667 -2.667 1.473 -2.667 0 C
-2.667 -1.473 -1.473 -2.667 0 -2.667 C
1.473 -2.667 2.667 -1.473 2.667 0 C
cp
f
GR
GS
[1 0 0 1 485.29999 168.62238] CT
0 0 1 RC
N
2.667 0 M
2.667 1.473 1.473 2.667 0 2.667 C
-1.473 2.667 -2.667 1.473 -2.667 0 C
-2.667 -1.473 -1.473 -2.667 0 -2.667 C
1.473 -2.667 2.667 -1.473 2.667 0 C
cp
f
GR
GS
[1 0 0 1 489.64001 169.90843] CT
0 0 1 RC
N
2.667 0 M
2.667 1.473 1.473 2.667 0 2.667 C
-1.473 2.667 -2.667 1.473 -2.667 0 C
-2.667 -1.473 -1.473 -2.667 0 -2.667 C
1.473 -2.667 2.667 -1.473 2.667 0 C
cp
f
GR
GS
[1 0 0 1 493.98001 171.36125] CT
0 0 1 RC
N
2.667 0 M
2.667 1.473 1.473 2.667 0 2.667 C
-1.473 2.667 -2.667 1.473 -2.667 0 C
-2.667 -1.473 -1.473 -2.667 0 -2.667 C
1.473 -2.667 2.667 -1.473 2.667 0 C
cp
f
GR
GS
[1 0 0 1 498.32001 172.53497] CT
0 0 1 RC
N
2.667 0 M
2.667 1.473 1.473 2.667 0 2.667 C
-1.473 2.667 -2.667 1.473 -2.667 0 C
-2.667 -1.473 -1.473 -2.667 0 -2.667 C
1.473 -2.667 2.667 -1.473 2.667 0 C
cp
f
GR
GS
[1 0 0 1 502.66 173.75934] CT
0 0 1 RC
N
2.667 0 M
2.667 1.473 1.473 2.667 0 2.667 C
-1.473 2.667 -2.667 1.473 -2.667 0 C
-2.667 -1.473 -1.473 -2.667 0 -2.667 C
1.473 -2.667 2.667 -1.473 2.667 0 C
cp
f
GR
GS
[1 0 0 1 507 175] CT
0 0 1 RC
N
2.667 0 M
2.667 1.473 1.473 2.667 0 2.667 C
-1.473 2.667 -2.667 1.473 -2.667 0 C
-2.667 -1.473 -1.473 -2.667 0 -2.667 C
1.473 -2.667 2.667 -1.473 2.667 0 C
cp
f
GR
GS
1 0 0 RC
1 LJ
N
73 52.831 M
73.434 52.953 L
73.868 53.075 L
74.302 53.196 L
74.736 53.318 L
75.17 53.44 L
75.604 53.562 L
76.038 53.683 L
76.472 53.805 L
76.906 53.927 L
77.34 54.049 L
77.774 54.17 L
78.208 54.292 L
78.642 54.414 L
79.076 54.535 L
79.51 54.657 L
79.944 54.779 L
80.378 54.901 L
80.812 55.022 L
81.246 55.144 L
81.68 55.266 L
82.114 55.387 L
82.548 55.509 L
82.982 55.631 L
83.416 55.753 L
83.85 55.874 L
84.284 55.996 L
84.718 56.118 L
85.152 56.24 L
85.586 56.361 L
86.02 56.483 L
86.454 56.605 L
86.888 56.726 L
87.322 56.848 L
87.756 56.97 L
88.19 57.092 L
88.624 57.213 L
89.058 57.335 L
89.492 57.457 L
89.926 57.579 L
90.36 57.7 L
90.794 57.822 L
91.228 57.944 L
91.662 58.065 L
92.096 58.187 L
92.53 58.309 L
92.964 58.431 L
93.398 58.552 L
93.832 58.674 L
94.266 58.796 L
94.7 58.917 L
95.134 59.039 L
95.568 59.161 L
96.002 59.283 L
96.436 59.404 L
96.87 59.526 L
97.304 59.648 L
97.738 59.77 L
98.172 59.891 L
98.606 60.013 L
99.04 60.135 L
99.474 60.256 L
99.908 60.378 L
100.342 60.5 L
100.776 60.622 L
101.21 60.743 L
101.644 60.865 L
102.078 60.987 L
102.512 61.109 L
102.946 61.23 L
103.38 61.352 L
103.814 61.474 L
104.248 61.595 L
104.682 61.717 L
105.116 61.839 L
105.55 61.961 L
105.984 62.082 L
106.418 62.204 L
106.852 62.326 L
107.286 62.447 L
107.72 62.569 L
108.154 62.691 L
108.588 62.813 L
109.022 62.934 L
109.456 63.056 L
109.89 63.178 L
110.324 63.3 L
110.758 63.421 L
111.192 63.543 L
111.626 63.665 L
112.06 63.786 L
112.494 63.908 L
112.928 64.03 L
113.362 64.152 L
113.796 64.273 L
114.23 64.395 L
114.664 64.517 L
115.098 64.639 L
115.532 64.76 L
115.966 64.882 L
116.4 65.004 L
116.834 65.125 L
117.268 65.247 L
117.702 65.369 L
118.136 65.491 L
118.57 65.612 L
119.004 65.734 L
119.438 65.856 L
119.872 65.977 L
120.306 66.099 L
120.74 66.221 L
121.174 66.343 L
121.608 66.464 L
122.042 66.586 L
122.476 66.708 L
122.91 66.83 L
123.344 66.951 L
123.778 67.073 L
124.212 67.195 L
124.646 67.316 L
125.08 67.438 L
125.514 67.56 L
125.948 67.682 L
126.382 67.803 L
126.816 67.925 L
127.25 68.047 L
127.684 68.169 L
128.118 68.29 L
128.552 68.412 L
128.986 68.534 L
129.42 68.655 L
129.854 68.777 L
130.288 68.899 L
130.722 69.021 L
131.156 69.142 L
131.59 69.264 L
132.024 69.386 L
132.458 69.507 L
132.892 69.629 L
133.326 69.751 L
133.76 69.873 L
134.194 69.994 L
134.628 70.116 L
135.062 70.238 L
135.496 70.36 L
135.93 70.481 L
136.364 70.603 L
136.798 70.725 L
137.232 70.846 L
137.666 70.968 L
138.1 71.09 L
138.534 71.212 L
138.968 71.333 L
139.402 71.455 L
139.836 71.577 L
140.27 71.699 L
140.704 71.82 L
141.138 71.942 L
141.572 72.064 L
142.006 72.185 L
142.44 72.307 L
142.874 72.429 L
143.308 72.551 L
143.742 72.672 L
144.176 72.794 L
144.61 72.916 L
145.044 73.037 L
145.478 73.159 L
145.912 73.281 L
146.346 73.403 L
146.78 73.524 L
147.214 73.646 L
147.648 73.768 L
148.082 73.89 L
148.516 74.011 L
148.95 74.133 L
149.384 74.255 L
149.818 74.376 L
150.252 74.498 L
150.686 74.62 L
151.12 74.742 L
151.554 74.863 L
151.988 74.985 L
152.422 75.107 L
152.856 75.229 L
153.29 75.35 L
153.724 75.472 L
154.158 75.594 L
154.592 75.715 L
155.026 75.837 L
155.46 75.959 L
155.894 76.081 L
156.328 76.202 L
156.762 76.324 L
157.196 76.446 L
157.63 76.567 L
158.064 76.689 L
158.498 76.811 L
158.932 76.933 L
159.366 77.054 L
159.8 77.176 L
160.234 77.298 L
160.668 77.42 L
161.102 77.541 L
161.536 77.663 L
161.97 77.785 L
162.404 77.906 L
162.838 78.028 L
163.272 78.15 L
163.706 78.272 L
164.14 78.393 L
164.574 78.515 L
165.008 78.637 L
165.442 78.759 L
165.876 78.88 L
166.31 79.002 L
166.744 79.124 L
167.178 79.245 L
167.612 79.367 L
168.046 79.489 L
168.48 79.611 L
168.914 79.732 L
169.348 79.854 L
169.782 79.976 L
170.216 80.097 L
170.65 80.219 L
171.084 80.341 L
171.518 80.463 L
171.952 80.584 L
172.386 80.706 L
172.82 80.828 L
173.254 80.95 L
173.688 81.071 L
174.122 81.193 L
174.556 81.315 L
174.99 81.436 L
175.424 81.558 L
175.858 81.68 L
176.292 81.802 L
176.726 81.923 L
177.16 82.045 L
177.594 82.167 L
178.028 82.289 L
178.462 82.41 L
178.896 82.532 L
179.33 82.654 L
179.764 82.775 L
180.198 82.897 L
180.632 83.019 L
181.066 83.141 L
181.5 83.262 L
181.934 83.384 L
182.368 83.506 L
182.802 83.627 L
183.236 83.749 L
183.67 83.871 L
184.104 83.993 L
184.538 84.114 L
184.972 84.236 L
185.406 84.358 L
185.84 84.48 L
186.274 84.601 L
186.708 84.723 L
187.142 84.845 L
187.576 84.966 L
188.01 85.088 L
188.444 85.21 L
188.878 85.332 L
189.312 85.453 L
189.746 85.575 L
190.18 85.697 L
190.614 85.819 L
191.048 85.94 L
191.482 86.062 L
191.916 86.184 L
192.35 86.305 L
192.784 86.427 L
193.218 86.549 L
193.652 86.671 L
194.086 86.792 L
194.52 86.914 L
194.954 87.036 L
195.388 87.157 L
195.822 87.279 L
196.256 87.401 L
196.69 87.523 L
197.124 87.644 L
197.558 87.766 L
197.992 87.888 L
198.426 88.01 L
198.86 88.131 L
199.294 88.253 L
199.728 88.375 L
200.162 88.496 L
200.596 88.618 L
201.03 88.74 L
201.464 88.862 L
201.898 88.983 L
202.332 89.105 L
202.766 89.227 L
203.2 89.349 L
203.634 89.47 L
204.068 89.592 L
204.502 89.714 L
204.936 89.835 L
205.37 89.957 L
205.804 90.079 L
206.238 90.201 L
206.672 90.322 L
207.106 90.444 L
207.54 90.566 L
207.974 90.687 L
208.408 90.809 L
208.842 90.931 L
209.276 91.053 L
209.71 91.174 L
210.144 91.296 L
210.578 91.418 L
211.012 91.54 L
211.446 91.661 L
211.88 91.783 L
212.314 91.905 L
212.748 92.026 L
213.182 92.148 L
213.616 92.27 L
214.05 92.392 L
214.484 92.513 L
214.918 92.635 L
215.352 92.757 L
215.786 92.879 L
216.22 93 L
216.654 93.122 L
217.088 93.244 L
217.522 93.365 L
217.956 93.487 L
218.39 93.609 L
218.824 93.731 L
219.258 93.852 L
219.692 93.974 L
220.126 94.096 L
220.56 94.217 L
220.994 94.339 L
221.428 94.461 L
221.862 94.583 L
222.296 94.704 L
222.73 94.826 L
223.164 94.948 L
223.598 95.07 L
224.032 95.191 L
224.466 95.313 L
224.9 95.435 L
225.334 95.556 L
225.768 95.678 L
226.202 95.8 L
226.636 95.922 L
227.07 96.043 L
227.504 96.165 L
227.938 96.287 L
228.372 96.409 L
228.806 96.53 L
229.24 96.652 L
229.674 96.774 L
230.108 96.895 L
230.542 97.017 L
230.976 97.139 L
231.41 97.261 L
231.844 97.382 L
232.278 97.504 L
232.712 97.626 L
233.146 97.747 L
233.58 97.869 L
234.014 97.991 L
234.448 98.113 L
234.882 98.234 L
235.316 98.356 L
235.75 98.478 L
236.184 98.6 L
236.618 98.721 L
237.052 98.843 L
237.486 98.965 L
237.92 99.086 L
238.354 99.208 L
238.788 99.33 L
239.222 99.452 L
239.656 99.573 L
240.09 99.695 L
240.524 99.817 L
240.958 99.939 L
241.392 100.06 L
241.826 100.182 L
242.26 100.304 L
242.694 100.425 L
243.128 100.547 L
243.562 100.669 L
243.996 100.791 L
244.43 100.912 L
244.864 101.034 L
245.298 101.156 L
245.732 101.277 L
246.166 101.399 L
246.6 101.521 L
247.034 101.643 L
247.468 101.764 L
247.902 101.886 L
248.336 102.008 L
248.77 102.13 L
249.204 102.251 L
249.638 102.373 L
250.072 102.495 L
250.506 102.616 L
250.94 102.738 L
251.374 102.86 L
251.808 102.982 L
252.242 103.103 L
252.676 103.225 L
253.11 103.347 L
253.544 103.469 L
253.978 103.59 L
254.412 103.712 L
254.846 103.834 L
255.28 103.955 L
255.714 104.077 L
256.148 104.199 L
256.582 104.321 L
257.016 104.442 L
257.45 104.564 L
257.884 104.686 L
258.318 104.807 L
258.752 104.929 L
259.186 105.051 L
259.62 105.173 L
260.054 105.294 L
260.488 105.416 L
260.922 105.538 L
261.356 105.66 L
261.79 105.781 L
262.224 105.903 L
262.658 106.025 L
263.092 106.146 L
263.526 106.268 L
263.96 106.39 L
264.394 106.512 L
264.828 106.633 L
265.262 106.755 L
265.696 106.877 L
266.13 106.998 L
266.564 107.12 L
266.998 107.242 L
267.432 107.364 L
267.866 107.485 L
268.3 107.607 L
268.734 107.729 L
269.168 107.851 L
269.602 107.972 L
270.036 108.094 L
270.47 108.216 L
270.904 108.337 L
271.338 108.459 L
271.772 108.581 L
272.206 108.703 L
272.64 108.824 L
273.074 108.946 L
273.508 109.068 L
273.942 109.19 L
274.376 109.311 L
274.81 109.433 L
275.244 109.555 L
275.678 109.676 L
276.112 109.798 L
276.546 109.92 L
276.98 110.042 L
277.414 110.163 L
277.848 110.285 L
278.282 110.407 L
278.716 110.528 L
279.15 110.65 L
279.584 110.772 L
280.018 110.894 L
280.452 111.015 L
280.886 111.137 L
281.32 111.259 L
281.754 111.381 L
282.188 111.502 L
282.622 111.624 L
283.056 111.746 L
283.49 111.867 L
283.924 111.989 L
284.358 112.111 L
284.792 112.233 L
285.226 112.354 L
285.66 112.476 L
286.094 112.598 L
286.528 112.72 L
286.962 112.841 L
287.396 112.963 L
287.83 113.085 L
288.264 113.206 L
288.698 113.328 L
289.132 113.45 L
289.566 113.572 L
290 113.693 L
290.434 113.815 L
290.868 113.937 L
291.302 114.059 L
291.736 114.18 L
292.17 114.302 L
292.604 114.424 L
293.038 114.545 L
293.472 114.667 L
293.906 114.789 L
294.34 114.911 L
294.774 115.032 L
295.208 115.154 L
295.642 115.276 L
296.076 115.397 L
296.51 115.519 L
296.944 115.641 L
297.378 115.763 L
297.812 115.884 L
298.246 116.006 L
298.68 116.128 L
299.114 116.25 L
299.548 116.371 L
299.982 116.493 L
300.416 116.615 L
300.85 116.736 L
301.284 116.858 L
301.718 116.98 L
302.152 117.102 L
302.586 117.223 L
303.02 117.345 L
303.454 117.467 L
303.888 117.588 L
304.322 117.71 L
304.756 117.832 L
305.19 117.954 L
305.624 118.075 L
306.058 118.197 L
306.492 118.319 L
306.926 118.441 L
307.36 118.562 L
307.794 118.684 L
308.228 118.806 L
308.662 118.927 L
309.096 119.049 L
309.53 119.171 L
309.964 119.293 L
310.398 119.414 L
310.832 119.536 L
311.266 119.658 L
311.7 119.78 L
312.134 119.901 L
312.568 120.023 L
313.002 120.145 L
313.436 120.266 L
313.87 120.388 L
314.304 120.51 L
314.738 120.632 L
315.172 120.753 L
315.606 120.875 L
316.04 120.997 L
316.474 121.118 L
316.908 121.24 L
317.342 121.362 L
317.776 121.484 L
318.21 121.605 L
318.644 121.727 L
319.078 121.849 L
319.512 121.971 L
319.946 122.092 L
320.38 122.214 L
320.814 122.336 L
321.248 122.457 L
321.682 122.579 L
322.116 122.701 L
322.55 122.823 L
322.984 122.944 L
323.418 123.066 L
323.852 123.188 L
324.286 123.31 L
324.72 123.431 L
325.154 123.553 L
325.588 123.675 L
326.022 123.796 L
326.456 123.918 L
326.89 124.04 L
327.324 124.162 L
327.758 124.283 L
328.192 124.405 L
328.626 124.527 L
329.06 124.648 L
329.494 124.77 L
329.928 124.892 L
330.362 125.014 L
330.796 125.135 L
331.23 125.257 L
331.664 125.379 L
332.098 125.501 L
332.532 125.622 L
332.966 125.744 L
333.4 125.866 L
333.834 125.987 L
334.268 126.109 L
334.702 126.231 L
335.136 126.353 L
335.57 126.474 L
336.004 126.596 L
336.438 126.718 L
336.872 126.84 L
337.306 126.961 L
337.74 127.083 L
338.174 127.205 L
338.608 127.326 L
339.042 127.448 L
339.476 127.57 L
339.91 127.692 L
340.344 127.813 L
340.778 127.935 L
341.212 128.057 L
341.646 128.178 L
342.08 128.3 L
342.514 128.422 L
342.948 128.544 L
343.382 128.665 L
343.816 128.787 L
344.25 128.909 L
344.684 129.031 L
345.118 129.152 L
345.552 129.274 L
345.986 129.396 L
346.42 129.517 L
346.854 129.639 L
347.288 129.761 L
347.722 129.883 L
348.156 130.004 L
348.59 130.126 L
349.024 130.248 L
349.458 130.37 L
349.892 130.491 L
350.326 130.613 L
350.76 130.735 L
351.194 130.856 L
351.628 130.978 L
352.062 131.1 L
352.496 131.222 L
352.93 131.343 L
353.364 131.465 L
353.798 131.587 L
354.232 131.708 L
354.666 131.83 L
355.1 131.952 L
355.534 132.074 L
355.968 132.195 L
356.402 132.317 L
356.836 132.439 L
357.27 132.561 L
357.704 132.682 L
358.138 132.804 L
358.572 132.926 L
359.006 133.047 L
359.44 133.169 L
359.874 133.291 L
360.308 133.413 L
360.742 133.534 L
361.176 133.656 L
361.61 133.778 L
362.044 133.9 L
362.478 134.021 L
362.912 134.143 L
363.346 134.265 L
363.78 134.386 L
364.214 134.508 L
364.648 134.63 L
365.082 134.752 L
365.516 134.873 L
365.95 134.995 L
366.384 135.117 L
366.818 135.238 L
367.252 135.36 L
367.686 135.482 L
368.12 135.604 L
368.554 135.725 L
368.988 135.847 L
369.422 135.969 L
369.856 136.091 L
370.29 136.212 L
370.724 136.334 L
371.158 136.456 L
371.592 136.577 L
372.026 136.699 L
372.46 136.821 L
372.894 136.943 L
373.328 137.064 L
373.762 137.186 L
374.196 137.308 L
374.63 137.43 L
375.064 137.551 L
375.498 137.673 L
375.932 137.795 L
376.366 137.916 L
376.8 138.038 L
377.234 138.16 L
377.668 138.282 L
378.102 138.403 L
378.536 138.525 L
378.97 138.647 L
379.404 138.768 L
379.838 138.89 L
380.272 139.012 L
380.706 139.134 L
381.14 139.255 L
381.574 139.377 L
382.008 139.499 L
382.442 139.621 L
382.876 139.742 L
383.31 139.864 L
383.744 139.986 L
384.178 140.107 L
384.612 140.229 L
385.046 140.351 L
385.48 140.473 L
385.914 140.594 L
386.348 140.716 L
386.782 140.838 L
387.216 140.96 L
387.65 141.081 L
388.084 141.203 L
388.518 141.325 L
388.952 141.446 L
389.386 141.568 L
389.82 141.69 L
390.254 141.812 L
390.688 141.933 L
391.122 142.055 L
391.556 142.177 L
391.99 142.298 L
392.424 142.42 L
392.858 142.542 L
393.292 142.664 L
393.726 142.785 L
394.16 142.907 L
394.594 143.029 L
395.028 143.151 L
395.462 143.272 L
395.896 143.394 L
396.33 143.516 L
396.764 143.637 L
397.198 143.759 L
397.632 143.881 L
398.066 144.003 L
398.5 144.124 L
398.934 144.246 L
399.368 144.368 L
399.802 144.49 L
400.236 144.611 L
400.67 144.733 L
401.104 144.855 L
401.538 144.976 L
401.972 145.098 L
402.406 145.22 L
402.84 145.342 L
403.274 145.463 L
403.708 145.585 L
404.142 145.707 L
404.576 145.828 L
405.01 145.95 L
405.444 146.072 L
405.878 146.194 L
406.312 146.315 L
406.746 146.437 L
407.18 146.559 L
407.614 146.681 L
408.048 146.802 L
408.482 146.924 L
408.916 147.046 L
409.35 147.167 L
409.784 147.289 L
410.218 147.411 L
410.652 147.533 L
411.086 147.654 L
411.52 147.776 L
411.954 147.898 L
412.388 148.02 L
412.822 148.141 L
413.256 148.263 L
413.69 148.385 L
414.124 148.506 L
414.558 148.628 L
414.992 148.75 L
415.426 148.872 L
415.86 148.993 L
416.294 149.115 L
416.728 149.237 L
417.162 149.358 L
417.596 149.48 L
418.03 149.602 L
418.464 149.724 L
418.898 149.845 L
419.332 149.967 L
419.766 150.089 L
420.2 150.211 L
420.634 150.332 L
421.068 150.454 L
421.502 150.576 L
421.936 150.697 L
422.37 150.819 L
422.804 150.941 L
423.238 151.063 L
423.672 151.184 L
424.106 151.306 L
424.54 151.428 L
424.974 151.55 L
425.408 151.671 L
425.842 151.793 L
426.276 151.915 L
426.71 152.036 L
427.144 152.158 L
427.578 152.28 L
428.012 152.402 L
428.446 152.523 L
428.88 152.645 L
429.314 152.767 L
429.748 152.888 L
430.182 153.01 L
430.616 153.132 L
431.05 153.254 L
431.484 153.375 L
431.918 153.497 L
432.352 153.619 L
432.786 153.741 L
433.22 153.862 L
433.654 153.984 L
434.088 154.106 L
434.522 154.227 L
434.956 154.349 L
435.39 154.471 L
435.824 154.593 L
436.258 154.714 L
436.692 154.836 L
437.126 154.958 L
437.56 155.08 L
437.994 155.201 L
438.428 155.323 L
438.862 155.445 L
439.296 155.566 L
439.73 155.688 L
440.164 155.81 L
440.598 155.932 L
441.032 156.053 L
441.466 156.175 L
441.9 156.297 L
442.334 156.418 L
442.768 156.54 L
443.202 156.662 L
443.636 156.784 L
444.07 156.905 L
444.504 157.027 L
444.938 157.149 L
445.372 157.271 L
445.806 157.392 L
446.24 157.514 L
446.674 157.636 L
447.108 157.757 L
447.542 157.879 L
447.976 158.001 L
448.41 158.123 L
448.844 158.244 L
449.278 158.366 L
449.712 158.488 L
450.146 158.61 L
450.58 158.731 L
451.014 158.853 L
451.448 158.975 L
451.882 159.096 L
452.316 159.218 L
452.75 159.34 L
453.184 159.462 L
453.618 159.583 L
454.052 159.705 L
454.486 159.827 L
454.92 159.948 L
455.354 160.07 L
455.788 160.192 L
456.222 160.314 L
456.656 160.435 L
457.09 160.557 L
457.524 160.679 L
457.958 160.801 L
458.392 160.922 L
458.826 161.044 L
459.26 161.166 L
459.694 161.287 L
460.128 161.409 L
460.562 161.531 L
460.996 161.653 L
461.43 161.774 L
461.864 161.896 L
462.298 162.018 L
462.732 162.14 L
463.166 162.261 L
463.6 162.383 L
464.034 162.505 L
464.468 162.626 L
464.902 162.748 L
465.336 162.87 L
465.77 162.992 L
466.204 163.113 L
466.638 163.235 L
467.072 163.357 L
467.506 163.478 L
467.94 163.6 L
468.374 163.722 L
468.808 163.844 L
469.242 163.965 L
469.676 164.087 L
470.11 164.209 L
470.544 164.331 L
470.978 164.452 L
471.412 164.574 L
471.846 164.696 L
472.28 164.817 L
472.714 164.939 L
473.148 165.061 L
473.582 165.183 L
474.016 165.304 L
474.45 165.426 L
474.884 165.548 L
475.318 165.67 L
475.752 165.791 L
476.186 165.913 L
476.62 166.035 L
477.054 166.156 L
477.488 166.278 L
477.922 166.4 L
478.356 166.522 L
478.79 166.643 L
479.224 166.765 L
479.658 166.887 L
480.092 167.008 L
480.526 167.13 L
480.96 167.252 L
481.394 167.374 L
481.828 167.495 L
482.262 167.617 L
482.696 167.739 L
483.13 167.861 L
483.564 167.982 L
483.998 168.104 L
484.432 168.226 L
484.866 168.347 L
485.3 168.469 L
485.734 168.591 L
486.168 168.713 L
486.602 168.834 L
487.036 168.956 L
487.47 169.078 L
487.904 169.2 L
488.338 169.321 L
488.772 169.443 L
489.206 169.565 L
489.64 169.686 L
490.074 169.808 L
490.508 169.93 L
490.942 170.052 L
491.376 170.173 L
491.81 170.295 L
492.244 170.417 L
492.678 170.538 L
493.112 170.66 L
493.546 170.782 L
493.98 170.904 L
494.414 171.025 L
494.848 171.147 L
495.282 171.269 L
495.716 171.391 L
496.15 171.512 L
496.584 171.634 L
497.018 171.756 L
497.452 171.877 L
497.886 171.999 L
498.32 172.121 L
498.754 172.243 L
499.188 172.364 L
499.622 172.486 L
500.056 172.608 L
500.49 172.73 L
500.924 172.851 L
501.358 172.973 L
501.792 173.095 L
502.226 173.216 L
502.66 173.338 L
503.094 173.46 L
503.528 173.582 L
503.962 173.703 L
504.396 173.825 L
504.83 173.947 L
505.264 174.068 L
505.698 174.19 L
506.132 174.312 L
506.566 174.434 L
507 174.555 L
S
GR
GS
1 GC
N
407 62 M
407 36 L
501 36 L
501 62 L
cp
f
GR
GS
[1 0 0 1 444 43.35849] CT
/Helvetica 9 F
GS
[1 0 0 1 0 0] CT
0 3.5 moveto 
1 -1 scale
(Error data) t 
GR
GR
GS
[1 0 0 1 426 43.35849] CT
0 0 1 RC
N
2.667 0 M
2.667 1.473 1.473 2.667 0 2.667 C
-1.473 2.667 -2.667 1.473 -2.667 0 C
-2.667 -1.473 -1.473 -2.667 0 -2.667 C
1.473 -2.667 2.667 -1.473 2.667 0 C
cp
f
GR
GS
[1 0 0 1 444 54.64151] CT
/Helvetica 9 F
GS
[1 0 0 1 0 0] CT
0 3.5 moveto 
1 -1 scale
(Linear model) t 
GR
GR
GS
1 0 0 RC
1 LJ
N
411 54.642 M
441 54.642 L
S
GR
GS
0.149 GC
10.0 ML
0.5 LW
N
407 62 M
407 36 L
501 36 L
501 62 L
cp
S
GR
GS
1 GC
N
73 374 M
507 374 L
507 231 L
73 231 L
cp
f
GR
GS
0.873 GC
1 LJ
0.5 LW
N
73 374 M
73 231 L
S
GR
GS
0.873 GC
1 LJ
0.5 LW
N
116.4 374 M
116.4 231 L
S
GR
GS
0.873 GC
1 LJ
0.5 LW
N
159.8 374 M
159.8 231 L
S
GR
GS
0.873 GC
1 LJ
0.5 LW
N
203.2 374 M
203.2 231 L
S
GR
GS
0.873 GC
1 LJ
0.5 LW
N
246.6 374 M
246.6 231 L
S
GR
GS
0.873 GC
1 LJ
0.5 LW
N
290 374 M
290 231 L
S
GR
GS
0.873 GC
1 LJ
0.5 LW
N
333.4 374 M
333.4 231 L
S
GR
GS
0.873 GC
1 LJ
0.5 LW
N
376.8 374 M
376.8 231 L
S
GR
GS
0.873 GC
1 LJ
0.5 LW
N
420.2 374 M
420.2 231 L
S
GR
GS
0.873 GC
1 LJ
0.5 LW
N
463.6 374 M
463.6 231 L
S
GR
GS
0.873 GC
1 LJ
0.5 LW
N
507 374 M
507 231 L
S
GR
GS
0.873 GC
1 LJ
0.5 LW
N
507 374 M
73 374 L
S
GR
GS
0.873 GC
1 LJ
0.5 LW
N
507 350.167 M
73 350.167 L
S
GR
GS
0.873 GC
1 LJ
0.5 LW
N
507 326.333 M
73 326.333 L
S
GR
GS
0.873 GC
1 LJ
0.5 LW
N
507 302.5 M
73 302.5 L
S
GR
GS
0.873 GC
1 LJ
0.5 LW
N
507 278.667 M
73 278.667 L
S
GR
GS
0.873 GC
1 LJ
0.5 LW
N
507 254.833 M
73 254.833 L
S
GR
GS
0.873 GC
1 LJ
0.5 LW
N
507 231 M
73 231 L
S
GR
GS
0.149 GC
2 setlinecap
1 LJ
0.5 LW
N
73 374 M
507 374 L
S
GR
GS
0.149 GC
2 setlinecap
1 LJ
0.5 LW
N
73 231 M
507 231 L
S
GR
GS
0.149 GC
2 setlinecap
1 LJ
0.5 LW
N
73 374 M
73 369.66 L
S
GR
GS
0.149 GC
2 setlinecap
1 LJ
0.5 LW
N
116.4 374 M
116.4 369.66 L
S
GR
GS
0.149 GC
2 setlinecap
1 LJ
0.5 LW
N
159.8 374 M
159.8 369.66 L
S
GR
GS
0.149 GC
2 setlinecap
1 LJ
0.5 LW
N
203.2 374 M
203.2 369.66 L
S
GR
GS
0.149 GC
2 setlinecap
1 LJ
0.5 LW
N
246.6 374 M
246.6 369.66 L
S
GR
GS
0.149 GC
2 setlinecap
1 LJ
0.5 LW
N
290 374 M
290 369.66 L
S
GR
GS
0.149 GC
2 setlinecap
1 LJ
0.5 LW
N
333.4 374 M
333.4 369.66 L
S
GR
GS
0.149 GC
2 setlinecap
1 LJ
0.5 LW
N
376.8 374 M
376.8 369.66 L
S
GR
GS
0.149 GC
2 setlinecap
1 LJ
0.5 LW
N
420.2 374 M
420.2 369.66 L
S
GR
GS
0.149 GC
2 setlinecap
1 LJ
0.5 LW
N
463.6 374 M
463.6 369.66 L
S
GR
GS
0.149 GC
2 setlinecap
1 LJ
0.5 LW
N
507 374 M
507 369.66 L
S
GR
GS
0.149 GC
2 setlinecap
1 LJ
0.5 LW
N
73 231 M
73 235.34 L
S
GR
GS
0.149 GC
2 setlinecap
1 LJ
0.5 LW
N
116.4 231 M
116.4 235.34 L
S
GR
GS
0.149 GC
2 setlinecap
1 LJ
0.5 LW
N
159.8 231 M
159.8 235.34 L
S
GR
GS
0.149 GC
2 setlinecap
1 LJ
0.5 LW
N
203.2 231 M
203.2 235.34 L
S
GR
GS
0.149 GC
2 setlinecap
1 LJ
0.5 LW
N
246.6 231 M
246.6 235.34 L
S
GR
GS
0.149 GC
2 setlinecap
1 LJ
0.5 LW
N
290 231 M
290 235.34 L
S
GR
GS
0.149 GC
2 setlinecap
1 LJ
0.5 LW
N
333.4 231 M
333.4 235.34 L
S
GR
GS
0.149 GC
2 setlinecap
1 LJ
0.5 LW
N
376.8 231 M
376.8 235.34 L
S
GR
GS
0.149 GC
2 setlinecap
1 LJ
0.5 LW
N
420.2 231 M
420.2 235.34 L
S
GR
GS
0.149 GC
2 setlinecap
1 LJ
0.5 LW
N
463.6 231 M
463.6 235.34 L
S
GR
GS
0.149 GC
2 setlinecap
1 LJ
0.5 LW
N
507 231 M
507 235.34 L
S
GR
GS
[1 0 0 1 73 378] CT
0.149 GC
/Helvetica 10 F
GS
[1 0 0 1 0 0] CT
-10.5 10 moveto 
1 -1 scale
(-100) t 
GR
GR
GS
[1 0 0 1 116.4 378] CT
0.149 GC
/Helvetica 10 F
GS
[1 0 0 1 0 0] CT
-8 10 moveto 
1 -1 scale
(-90) t 
GR
GR
GS
[1 0 0 1 159.8 378] CT
0.149 GC
/Helvetica 10 F
GS
[1 0 0 1 0 0] CT
-8 10 moveto 
1 -1 scale
(-80) t 
GR
GR
GS
[1 0 0 1 203.2 378] CT
0.149 GC
/Helvetica 10 F
GS
[1 0 0 1 0 0] CT
-8 10 moveto 
1 -1 scale
(-70) t 
GR
GR
GS
[1 0 0 1 246.60001 378] CT
0.149 GC
/Helvetica 10 F
GS
[1 0 0 1 0 0] CT
-8 10 moveto 
1 -1 scale
(-60) t 
GR
GR
GS
[1 0 0 1 290 378] CT
0.149 GC
/Helvetica 10 F
GS
[1 0 0 1 0 0] CT
-8 10 moveto 
1 -1 scale
(-50) t 
GR
GR
GS
[1 0 0 1 333.39999 378] CT
0.149 GC
/Helvetica 10 F
GS
[1 0 0 1 0 0] CT
-8 10 moveto 
1 -1 scale
(-40) t 
GR
GR
GS
[1 0 0 1 376.79999 378] CT
0.149 GC
/Helvetica 10 F
GS
[1 0 0 1 0 0] CT
-8 10 moveto 
1 -1 scale
(-30) t 
GR
GR
GS
[1 0 0 1 420.20001 378] CT
0.149 GC
/Helvetica 10 F
GS
[1 0 0 1 0 0] CT
-8 10 moveto 
1 -1 scale
(-20) t 
GR
GR
GS
[1 0 0 1 463.60001 378] CT
0.149 GC
/Helvetica 10 F
GS
[1 0 0 1 0 0] CT
-8 10 moveto 
1 -1 scale
(-10) t 
GR
GR
GS
[1 0 0 1 507 378] CT
0.149 GC
/Helvetica 10 F
GS
[1 0 0 1 0 0] CT
-3 10 moveto 
1 -1 scale
(0) t 
GR
GR
GS
[1 0 0 1 290.00021 392] CT
0.149 GC
/Helvetica-Bold 12 F
GS
[1 0 0 1 0 0] CT
-78 12 moveto 
1 -1 scale
(Camera translation \(in mm\)) t 
GR
GR
GS
0.149 GC
2 setlinecap
1 LJ
0.5 LW
N
73 374 M
73 231 L
S
GR
GS
0.149 GC
2 setlinecap
1 LJ
0.5 LW
N
507 374 M
507 231 L
S
GR
GS
0.149 GC
2 setlinecap
1 LJ
0.5 LW
N
73 374 M
77.34 374 L
S
GR
GS
0.149 GC
2 setlinecap
1 LJ
0.5 LW
N
73 350.167 M
77.34 350.167 L
S
GR
GS
0.149 GC
2 setlinecap
1 LJ
0.5 LW
N
73 326.333 M
77.34 326.333 L
S
GR
GS
0.149 GC
2 setlinecap
1 LJ
0.5 LW
N
73 302.5 M
77.34 302.5 L
S
GR
GS
0.149 GC
2 setlinecap
1 LJ
0.5 LW
N
73 278.667 M
77.34 278.667 L
S
GR
GS
0.149 GC
2 setlinecap
1 LJ
0.5 LW
N
73 254.833 M
77.34 254.833 L
S
GR
GS
0.149 GC
2 setlinecap
1 LJ
0.5 LW
N
73 231 M
77.34 231 L
S
GR
GS
0.149 GC
2 setlinecap
1 LJ
0.5 LW
N
507 374 M
502.66 374 L
S
GR
GS
0.149 GC
2 setlinecap
1 LJ
0.5 LW
N
507 350.167 M
502.66 350.167 L
S
GR
GS
0.149 GC
2 setlinecap
1 LJ
0.5 LW
N
507 326.333 M
502.66 326.333 L
S
GR
GS
0.149 GC
2 setlinecap
1 LJ
0.5 LW
N
507 302.5 M
502.66 302.5 L
S
GR
GS
0.149 GC
2 setlinecap
1 LJ
0.5 LW
N
507 278.667 M
502.66 278.667 L
S
GR
GS
0.149 GC
2 setlinecap
1 LJ
0.5 LW
N
507 254.833 M
502.66 254.833 L
S
GR
GS
0.149 GC
2 setlinecap
1 LJ
0.5 LW
N
507 231 M
502.66 231 L
S
GR
GS
[1 0 0 1 68.99999 374] CT
0.149 GC
/Helvetica 10 F
GS
[1 0 0 1 0 0] CT
-24 3.5 moveto 
1 -1 scale
(-0.02) t 
GR
GR
GS
[1 0 0 1 68.99999 350.16666] CT
0.149 GC
/Helvetica 10 F
GS
[1 0 0 1 0 0] CT
-29 3.5 moveto 
1 -1 scale
(-0.015) t 
GR
GR
GS
[1 0 0 1 68.99999 326.33334] CT
0.149 GC
/Helvetica 10 F
GS
[1 0 0 1 0 0] CT
-24 3.5 moveto 
1 -1 scale
(-0.01) t 
GR
GR
GS
[1 0 0 1 68.99999 302.5] CT
0.149 GC
/Helvetica 10 F
GS
[1 0 0 1 0 0] CT
-29 3.5 moveto 
1 -1 scale
(-0.005) t 
GR
GR
GS
[1 0 0 1 68.99999 278.66666] CT
0.149 GC
/Helvetica 10 F
GS
[1 0 0 1 0 0] CT
-6 3.5 moveto 
1 -1 scale
(0) t 
GR
GR
GS
[1 0 0 1 68.99999 254.83333] CT
0.149 GC
/Helvetica 10 F
GS
[1 0 0 1 0 0] CT
-26 3.5 moveto 
1 -1 scale
(0.005) t 
GR
GR
GS
[1 0 0 1 68.99999 231] CT
0.149 GC
/Helvetica 10 F
GS
[1 0 0 1 0 0] CT
-20 3.5 moveto 
1 -1 scale
(0.01) t 
GR
GR
GS
[0 -1 1 0 37.00001 302.49994] CT
0.149 GC
/Helvetica-Bold 12 F
GS
[1 0 0 1 0 0] CT
-56 -3 moveto 
1 -1 scale
(Depth error \(in mm\)) t 
GR
GR
GS
[1 0 0 1 73 294.17712] CT
0 0 1 RC
N
2.667 0 M
2.667 1.473 1.473 2.667 0 2.667 C
-1.473 2.667 -2.667 1.473 -2.667 0 C
-2.667 -1.473 -1.473 -2.667 0 -2.667 C
1.473 -2.667 2.667 -1.473 2.667 0 C
cp
f
GR
GS
[1 0 0 1 77.34 337.16336] CT
0 0 1 RC
N
2.667 0 M
2.667 1.473 1.473 2.667 0 2.667 C
-1.473 2.667 -2.667 1.473 -2.667 0 C
-2.667 -1.473 -1.473 -2.667 0 -2.667 C
1.473 -2.667 2.667 -1.473 2.667 0 C
cp
f
GR
GS
[1 0 0 1 81.68 286.27277] CT
0 0 1 RC
N
2.667 0 M
2.667 1.473 1.473 2.667 0 2.667 C
-1.473 2.667 -2.667 1.473 -2.667 0 C
-2.667 -1.473 -1.473 -2.667 0 -2.667 C
1.473 -2.667 2.667 -1.473 2.667 0 C
cp
f
GR
GS
[1 0 0 1 86.02 369.05032] CT
0 0 1 RC
N
2.667 0 M
2.667 1.473 1.473 2.667 0 2.667 C
-1.473 2.667 -2.667 1.473 -2.667 0 C
-2.667 -1.473 -1.473 -2.667 0 -2.667 C
1.473 -2.667 2.667 -1.473 2.667 0 C
cp
f
GR
GS
[1 0 0 1 90.36 271.14301] CT
0 0 1 RC
N
2.667 0 M
2.667 1.473 1.473 2.667 0 2.667 C
-1.473 2.667 -2.667 1.473 -2.667 0 C
-2.667 -1.473 -1.473 -2.667 0 -2.667 C
1.473 -2.667 2.667 -1.473 2.667 0 C
cp
f
GR
GS
[1 0 0 1 94.7 259.58957] CT
0 0 1 RC
N
2.667 0 M
2.667 1.473 1.473 2.667 0 2.667 C
-1.473 2.667 -2.667 1.473 -2.667 0 C
-2.667 -1.473 -1.473 -2.667 0 -2.667 C
1.473 -2.667 2.667 -1.473 2.667 0 C
cp
f
GR
GS
[1 0 0 1 99.04 296.43024] CT
0 0 1 RC
N
2.667 0 M
2.667 1.473 1.473 2.667 0 2.667 C
-1.473 2.667 -2.667 1.473 -2.667 0 C
-2.667 -1.473 -1.473 -2.667 0 -2.667 C
1.473 -2.667 2.667 -1.473 2.667 0 C
cp
f
GR
GS
[1 0 0 1 103.38 286.90955] CT
0 0 1 RC
N
2.667 0 M
2.667 1.473 1.473 2.667 0 2.667 C
-1.473 2.667 -2.667 1.473 -2.667 0 C
-2.667 -1.473 -1.473 -2.667 0 -2.667 C
1.473 -2.667 2.667 -1.473 2.667 0 C
cp
f
GR
GS
[1 0 0 1 107.72 237.95291] CT
0 0 1 RC
N
2.667 0 M
2.667 1.473 1.473 2.667 0 2.667 C
-1.473 2.667 -2.667 1.473 -2.667 0 C
-2.667 -1.473 -1.473 -2.667 0 -2.667 C
1.473 -2.667 2.667 -1.473 2.667 0 C
cp
f
GR
GS
[1 0 0 1 112.06 288.61942] CT
0 0 1 RC
N
2.667 0 M
2.667 1.473 1.473 2.667 0 2.667 C
-1.473 2.667 -2.667 1.473 -2.667 0 C
-2.667 -1.473 -1.473 -2.667 0 -2.667 C
1.473 -2.667 2.667 -1.473 2.667 0 C
cp
f
GR
GS
[1 0 0 1 116.4 265.42532] CT
0 0 1 RC
N
2.667 0 M
2.667 1.473 1.473 2.667 0 2.667 C
-1.473 2.667 -2.667 1.473 -2.667 0 C
-2.667 -1.473 -1.473 -2.667 0 -2.667 C
1.473 -2.667 2.667 -1.473 2.667 0 C
cp
f
GR
GS
[1 0 0 1 120.74 358.48505] CT
0 0 1 RC
N
2.667 0 M
2.667 1.473 1.473 2.667 0 2.667 C
-1.473 2.667 -2.667 1.473 -2.667 0 C
-2.667 -1.473 -1.473 -2.667 0 -2.667 C
1.473 -2.667 2.667 -1.473 2.667 0 C
cp
f
GR
GS
[1 0 0 1 125.08 297.73203] CT
0 0 1 RC
N
2.667 0 M
2.667 1.473 1.473 2.667 0 2.667 C
-1.473 2.667 -2.667 1.473 -2.667 0 C
-2.667 -1.473 -1.473 -2.667 0 -2.667 C
1.473 -2.667 2.667 -1.473 2.667 0 C
cp
f
GR
GS
[1 0 0 1 129.42 317.06406] CT
0 0 1 RC
N
2.667 0 M
2.667 1.473 1.473 2.667 0 2.667 C
-1.473 2.667 -2.667 1.473 -2.667 0 C
-2.667 -1.473 -1.473 -2.667 0 -2.667 C
1.473 -2.667 2.667 -1.473 2.667 0 C
cp
f
GR
GS
[1 0 0 1 133.75999 313.91028] CT
0 0 1 RC
N
2.667 0 M
2.667 1.473 1.473 2.667 0 2.667 C
-1.473 2.667 -2.667 1.473 -2.667 0 C
-2.667 -1.473 -1.473 -2.667 0 -2.667 C
1.473 -2.667 2.667 -1.473 2.667 0 C
cp
f
GR
GS
[1 0 0 1 138.10001 315.10889] CT
0 0 1 RC
N
2.667 0 M
2.667 1.473 1.473 2.667 0 2.667 C
-1.473 2.667 -2.667 1.473 -2.667 0 C
-2.667 -1.473 -1.473 -2.667 0 -2.667 C
1.473 -2.667 2.667 -1.473 2.667 0 C
cp
f
GR
GS
[1 0 0 1 142.44 299.5889] CT
0 0 1 RC
N
2.667 0 M
2.667 1.473 1.473 2.667 0 2.667 C
-1.473 2.667 -2.667 1.473 -2.667 0 C
-2.667 -1.473 -1.473 -2.667 0 -2.667 C
1.473 -2.667 2.667 -1.473 2.667 0 C
cp
f
GR
GS
[1 0 0 1 146.78 246.94287] CT
0 0 1 RC
N
2.667 0 M
2.667 1.473 1.473 2.667 0 2.667 C
-1.473 2.667 -2.667 1.473 -2.667 0 C
-2.667 -1.473 -1.473 -2.667 0 -2.667 C
1.473 -2.667 2.667 -1.473 2.667 0 C
cp
f
GR
GS
[1 0 0 1 151.12 308.17325] CT
0 0 1 RC
N
2.667 0 M
2.667 1.473 1.473 2.667 0 2.667 C
-1.473 2.667 -2.667 1.473 -2.667 0 C
-2.667 -1.473 -1.473 -2.667 0 -2.667 C
1.473 -2.667 2.667 -1.473 2.667 0 C
cp
f
GR
GS
[1 0 0 1 155.46001 261.746] CT
0 0 1 RC
N
2.667 0 M
2.667 1.473 1.473 2.667 0 2.667 C
-1.473 2.667 -2.667 1.473 -2.667 0 C
-2.667 -1.473 -1.473 -2.667 0 -2.667 C
1.473 -2.667 2.667 -1.473 2.667 0 C
cp
f
GR
GS
[1 0 0 1 159.8 248.32433] CT
0 0 1 RC
N
2.667 0 M
2.667 1.473 1.473 2.667 0 2.667 C
-1.473 2.667 -2.667 1.473 -2.667 0 C
-2.667 -1.473 -1.473 -2.667 0 -2.667 C
1.473 -2.667 2.667 -1.473 2.667 0 C
cp
f
GR
GS
[1 0 0 1 164.14 252.14539] CT
0 0 1 RC
N
2.667 0 M
2.667 1.473 1.473 2.667 0 2.667 C
-1.473 2.667 -2.667 1.473 -2.667 0 C
-2.667 -1.473 -1.473 -2.667 0 -2.667 C
1.473 -2.667 2.667 -1.473 2.667 0 C
cp
f
GR
GS
[1 0 0 1 168.48 337.00412] CT
0 0 1 RC
N
2.667 0 M
2.667 1.473 1.473 2.667 0 2.667 C
-1.473 2.667 -2.667 1.473 -2.667 0 C
-2.667 -1.473 -1.473 -2.667 0 -2.667 C
1.473 -2.667 2.667 -1.473 2.667 0 C
cp
f
GR
GS
[1 0 0 1 172.82001 302.29791] CT
0 0 1 RC
N
2.667 0 M
2.667 1.473 1.473 2.667 0 2.667 C
-1.473 2.667 -2.667 1.473 -2.667 0 C
-2.667 -1.473 -1.473 -2.667 0 -2.667 C
1.473 -2.667 2.667 -1.473 2.667 0 C
cp
f
GR
GS
[1 0 0 1 177.16 307.05219] CT
0 0 1 RC
N
2.667 0 M
2.667 1.473 1.473 2.667 0 2.667 C
-1.473 2.667 -2.667 1.473 -2.667 0 C
-2.667 -1.473 -1.473 -2.667 0 -2.667 C
1.473 -2.667 2.667 -1.473 2.667 0 C
cp
f
GR
GS
[1 0 0 1 181.5 280.83194] CT
0 0 1 RC
N
2.667 0 M
2.667 1.473 1.473 2.667 0 2.667 C
-1.473 2.667 -2.667 1.473 -2.667 0 C
-2.667 -1.473 -1.473 -2.667 0 -2.667 C
1.473 -2.667 2.667 -1.473 2.667 0 C
cp
f
GR
GS
[1 0 0 1 185.84 335.38626] CT
0 0 1 RC
N
2.667 0 M
2.667 1.473 1.473 2.667 0 2.667 C
-1.473 2.667 -2.667 1.473 -2.667 0 C
-2.667 -1.473 -1.473 -2.667 0 -2.667 C
1.473 -2.667 2.667 -1.473 2.667 0 C
cp
f
GR
GS
[1 0 0 1 190.17999 307.02261] CT
0 0 1 RC
N
2.667 0 M
2.667 1.473 1.473 2.667 0 2.667 C
-1.473 2.667 -2.667 1.473 -2.667 0 C
-2.667 -1.473 -1.473 -2.667 0 -2.667 C
1.473 -2.667 2.667 -1.473 2.667 0 C
cp
f
GR
GS
[1 0 0 1 194.52 306.48944] CT
0 0 1 RC
N
2.667 0 M
2.667 1.473 1.473 2.667 0 2.667 C
-1.473 2.667 -2.667 1.473 -2.667 0 C
-2.667 -1.473 -1.473 -2.667 0 -2.667 C
1.473 -2.667 2.667 -1.473 2.667 0 C
cp
f
GR
GS
[1 0 0 1 198.86 290.36639] CT
0 0 1 RC
N
2.667 0 M
2.667 1.473 1.473 2.667 0 2.667 C
-1.473 2.667 -2.667 1.473 -2.667 0 C
-2.667 -1.473 -1.473 -2.667 0 -2.667 C
1.473 -2.667 2.667 -1.473 2.667 0 C
cp
f
GR
GS
[1 0 0 1 203.2 255.01715] CT
0 0 1 RC
N
2.667 0 M
2.667 1.473 1.473 2.667 0 2.667 C
-1.473 2.667 -2.667 1.473 -2.667 0 C
-2.667 -1.473 -1.473 -2.667 0 -2.667 C
1.473 -2.667 2.667 -1.473 2.667 0 C
cp
f
GR
GS
[1 0 0 1 207.53999 259.83185] CT
0 0 1 RC
N
2.667 0 M
2.667 1.473 1.473 2.667 0 2.667 C
-1.473 2.667 -2.667 1.473 -2.667 0 C
-2.667 -1.473 -1.473 -2.667 0 -2.667 C
1.473 -2.667 2.667 -1.473 2.667 0 C
cp
f
GR
GS
[1 0 0 1 211.88 251.66112] CT
0 0 1 RC
N
2.667 0 M
2.667 1.473 1.473 2.667 0 2.667 C
-1.473 2.667 -2.667 1.473 -2.667 0 C
-2.667 -1.473 -1.473 -2.667 0 -2.667 C
1.473 -2.667 2.667 -1.473 2.667 0 C
cp
f
GR
GS
[1 0 0 1 216.22 281.89178] CT
0 0 1 RC
N
2.667 0 M
2.667 1.473 1.473 2.667 0 2.667 C
-1.473 2.667 -2.667 1.473 -2.667 0 C
-2.667 -1.473 -1.473 -2.667 0 -2.667 C
1.473 -2.667 2.667 -1.473 2.667 0 C
cp
f
GR
GS
[1 0 0 1 220.56 261.53015] CT
0 0 1 RC
N
2.667 0 M
2.667 1.473 1.473 2.667 0 2.667 C
-1.473 2.667 -2.667 1.473 -2.667 0 C
-2.667 -1.473 -1.473 -2.667 0 -2.667 C
1.473 -2.667 2.667 -1.473 2.667 0 C
cp
f
GR
GS
[1 0 0 1 224.89999 269.33505] CT
0 0 1 RC
N
2.667 0 M
2.667 1.473 1.473 2.667 0 2.667 C
-1.473 2.667 -2.667 1.473 -2.667 0 C
-2.667 -1.473 -1.473 -2.667 0 -2.667 C
1.473 -2.667 2.667 -1.473 2.667 0 C
cp
f
GR
GS
[1 0 0 1 229.24001 252.84892] CT
0 0 1 RC
N
2.667 0 M
2.667 1.473 1.473 2.667 0 2.667 C
-1.473 2.667 -2.667 1.473 -2.667 0 C
-2.667 -1.473 -1.473 -2.667 0 -2.667 C
1.473 -2.667 2.667 -1.473 2.667 0 C
cp
f
GR
GS
[1 0 0 1 233.58 263.86743] CT
0 0 1 RC
N
2.667 0 M
2.667 1.473 1.473 2.667 0 2.667 C
-1.473 2.667 -2.667 1.473 -2.667 0 C
-2.667 -1.473 -1.473 -2.667 0 -2.667 C
1.473 -2.667 2.667 -1.473 2.667 0 C
cp
f
GR
GS
[1 0 0 1 237.92 285.88162] CT
0 0 1 RC
N
2.667 0 M
2.667 1.473 1.473 2.667 0 2.667 C
-1.473 2.667 -2.667 1.473 -2.667 0 C
-2.667 -1.473 -1.473 -2.667 0 -2.667 C
1.473 -2.667 2.667 -1.473 2.667 0 C
cp
f
GR
GS
[1 0 0 1 242.25999 269.78427] CT
0 0 1 RC
N
2.667 0 M
2.667 1.473 1.473 2.667 0 2.667 C
-1.473 2.667 -2.667 1.473 -2.667 0 C
-2.667 -1.473 -1.473 -2.667 0 -2.667 C
1.473 -2.667 2.667 -1.473 2.667 0 C
cp
f
GR
GS
[1 0 0 1 246.60001 319.98611] CT
0 0 1 RC
N
2.667 0 M
2.667 1.473 1.473 2.667 0 2.667 C
-1.473 2.667 -2.667 1.473 -2.667 0 C
-2.667 -1.473 -1.473 -2.667 0 -2.667 C
1.473 -2.667 2.667 -1.473 2.667 0 C
cp
f
GR
GS
[1 0 0 1 250.94 260.83887] CT
0 0 1 RC
N
2.667 0 M
2.667 1.473 1.473 2.667 0 2.667 C
-1.473 2.667 -2.667 1.473 -2.667 0 C
-2.667 -1.473 -1.473 -2.667 0 -2.667 C
1.473 -2.667 2.667 -1.473 2.667 0 C
cp
f
GR
GS
[1 0 0 1 255.28 232.19673] CT
0 0 1 RC
N
2.667 0 M
2.667 1.473 1.473 2.667 0 2.667 C
-1.473 2.667 -2.667 1.473 -2.667 0 C
-2.667 -1.473 -1.473 -2.667 0 -2.667 C
1.473 -2.667 2.667 -1.473 2.667 0 C
cp
f
GR
GS
[1 0 0 1 259.62 259.39813] CT
0 0 1 RC
N
2.667 0 M
2.667 1.473 1.473 2.667 0 2.667 C
-1.473 2.667 -2.667 1.473 -2.667 0 C
-2.667 -1.473 -1.473 -2.667 0 -2.667 C
1.473 -2.667 2.667 -1.473 2.667 0 C
cp
f
GR
GS
[1 0 0 1 263.95999 280.51675] CT
0 0 1 RC
N
2.667 0 M
2.667 1.473 1.473 2.667 0 2.667 C
-1.473 2.667 -2.667 1.473 -2.667 0 C
-2.667 -1.473 -1.473 -2.667 0 -2.667 C
1.473 -2.667 2.667 -1.473 2.667 0 C
cp
f
GR
GS
[1 0 0 1 268.29999 273.77518] CT
0 0 1 RC
N
2.667 0 M
2.667 1.473 1.473 2.667 0 2.667 C
-1.473 2.667 -2.667 1.473 -2.667 0 C
-2.667 -1.473 -1.473 -2.667 0 -2.667 C
1.473 -2.667 2.667 -1.473 2.667 0 C
cp
f
GR
GS
[1 0 0 1 272.64001 251.32878] CT
0 0 1 RC
N
2.667 0 M
2.667 1.473 1.473 2.667 0 2.667 C
-1.473 2.667 -2.667 1.473 -2.667 0 C
-2.667 -1.473 -1.473 -2.667 0 -2.667 C
1.473 -2.667 2.667 -1.473 2.667 0 C
cp
f
GR
GS
[1 0 0 1 276.98001 302.93695] CT
0 0 1 RC
N
2.667 0 M
2.667 1.473 1.473 2.667 0 2.667 C
-1.473 2.667 -2.667 1.473 -2.667 0 C
-2.667 -1.473 -1.473 -2.667 0 -2.667 C
1.473 -2.667 2.667 -1.473 2.667 0 C
cp
f
GR
GS
[1 0 0 1 281.32001 254.97841] CT
0 0 1 RC
N
2.667 0 M
2.667 1.473 1.473 2.667 0 2.667 C
-1.473 2.667 -2.667 1.473 -2.667 0 C
-2.667 -1.473 -1.473 -2.667 0 -2.667 C
1.473 -2.667 2.667 -1.473 2.667 0 C
cp
f
GR
GS
[1 0 0 1 285.66 281.54211] CT
0 0 1 RC
N
2.667 0 M
2.667 1.473 1.473 2.667 0 2.667 C
-1.473 2.667 -2.667 1.473 -2.667 0 C
-2.667 -1.473 -1.473 -2.667 0 -2.667 C
1.473 -2.667 2.667 -1.473 2.667 0 C
cp
f
GR
GS
[1 0 0 1 290 272.37915] CT
0 0 1 RC
N
2.667 0 M
2.667 1.473 1.473 2.667 0 2.667 C
-1.473 2.667 -2.667 1.473 -2.667 0 C
-2.667 -1.473 -1.473 -2.667 0 -2.667 C
1.473 -2.667 2.667 -1.473 2.667 0 C
cp
f
GR
GS
[1 0 0 1 294.34 297.07822] CT
0 0 1 RC
N
2.667 0 M
2.667 1.473 1.473 2.667 0 2.667 C
-1.473 2.667 -2.667 1.473 -2.667 0 C
-2.667 -1.473 -1.473 -2.667 0 -2.667 C
1.473 -2.667 2.667 -1.473 2.667 0 C
cp
f
GR
GS
[1 0 0 1 298.67999 275.29086] CT
0 0 1 RC
N
2.667 0 M
2.667 1.473 1.473 2.667 0 2.667 C
-1.473 2.667 -2.667 1.473 -2.667 0 C
-2.667 -1.473 -1.473 -2.667 0 -2.667 C
1.473 -2.667 2.667 -1.473 2.667 0 C
cp
f
GR
GS
[1 0 0 1 303.01999 272.93393] CT
0 0 1 RC
N
2.667 0 M
2.667 1.473 1.473 2.667 0 2.667 C
-1.473 2.667 -2.667 1.473 -2.667 0 C
-2.667 -1.473 -1.473 -2.667 0 -2.667 C
1.473 -2.667 2.667 -1.473 2.667 0 C
cp
f
GR
GS
[1 0 0 1 307.35999 243.34042] CT
0 0 1 RC
N
2.667 0 M
2.667 1.473 1.473 2.667 0 2.667 C
-1.473 2.667 -2.667 1.473 -2.667 0 C
-2.667 -1.473 -1.473 -2.667 0 -2.667 C
1.473 -2.667 2.667 -1.473 2.667 0 C
cp
f
GR
GS
[1 0 0 1 311.70001 275.15338] CT
0 0 1 RC
N
2.667 0 M
2.667 1.473 1.473 2.667 0 2.667 C
-1.473 2.667 -2.667 1.473 -2.667 0 C
-2.667 -1.473 -1.473 -2.667 0 -2.667 C
1.473 -2.667 2.667 -1.473 2.667 0 C
cp
f
GR
GS
[1 0 0 1 316.04001 261.31888] CT
0 0 1 RC
N
2.667 0 M
2.667 1.473 1.473 2.667 0 2.667 C
-1.473 2.667 -2.667 1.473 -2.667 0 C
-2.667 -1.473 -1.473 -2.667 0 -2.667 C
1.473 -2.667 2.667 -1.473 2.667 0 C
cp
f
GR
GS
[1 0 0 1 320.38 284.77505] CT
0 0 1 RC
N
2.667 0 M
2.667 1.473 1.473 2.667 0 2.667 C
-1.473 2.667 -2.667 1.473 -2.667 0 C
-2.667 -1.473 -1.473 -2.667 0 -2.667 C
1.473 -2.667 2.667 -1.473 2.667 0 C
cp
f
GR
GS
[1 0 0 1 324.72 287.78683] CT
0 0 1 RC
N
2.667 0 M
2.667 1.473 1.473 2.667 0 2.667 C
-1.473 2.667 -2.667 1.473 -2.667 0 C
-2.667 -1.473 -1.473 -2.667 0 -2.667 C
1.473 -2.667 2.667 -1.473 2.667 0 C
cp
f
GR
GS
[1 0 0 1 329.06 282.41199] CT
0 0 1 RC
N
2.667 0 M
2.667 1.473 1.473 2.667 0 2.667 C
-1.473 2.667 -2.667 1.473 -2.667 0 C
-2.667 -1.473 -1.473 -2.667 0 -2.667 C
1.473 -2.667 2.667 -1.473 2.667 0 C
cp
f
GR
GS
[1 0 0 1 333.39999 259.35995] CT
0 0 1 RC
N
2.667 0 M
2.667 1.473 1.473 2.667 0 2.667 C
-1.473 2.667 -2.667 1.473 -2.667 0 C
-2.667 -1.473 -1.473 -2.667 0 -2.667 C
1.473 -2.667 2.667 -1.473 2.667 0 C
cp
f
GR
GS
[1 0 0 1 337.73999 284.48047] CT
0 0 1 RC
N
2.667 0 M
2.667 1.473 1.473 2.667 0 2.667 C
-1.473 2.667 -2.667 1.473 -2.667 0 C
-2.667 -1.473 -1.473 -2.667 0 -2.667 C
1.473 -2.667 2.667 -1.473 2.667 0 C
cp
f
GR
GS
[1 0 0 1 342.07999 263.66711] CT
0 0 1 RC
N
2.667 0 M
2.667 1.473 1.473 2.667 0 2.667 C
-1.473 2.667 -2.667 1.473 -2.667 0 C
-2.667 -1.473 -1.473 -2.667 0 -2.667 C
1.473 -2.667 2.667 -1.473 2.667 0 C
cp
f
GR
GS
[1 0 0 1 346.42001 289.03961] CT
0 0 1 RC
N
2.667 0 M
2.667 1.473 1.473 2.667 0 2.667 C
-1.473 2.667 -2.667 1.473 -2.667 0 C
-2.667 -1.473 -1.473 -2.667 0 -2.667 C
1.473 -2.667 2.667 -1.473 2.667 0 C
cp
f
GR
GS
[1 0 0 1 350.76001 285.3414] CT
0 0 1 RC
N
2.667 0 M
2.667 1.473 1.473 2.667 0 2.667 C
-1.473 2.667 -2.667 1.473 -2.667 0 C
-2.667 -1.473 -1.473 -2.667 0 -2.667 C
1.473 -2.667 2.667 -1.473 2.667 0 C
cp
f
GR
GS
[1 0 0 1 355.10001 262.05383] CT
0 0 1 RC
N
2.667 0 M
2.667 1.473 1.473 2.667 0 2.667 C
-1.473 2.667 -2.667 1.473 -2.667 0 C
-2.667 -1.473 -1.473 -2.667 0 -2.667 C
1.473 -2.667 2.667 -1.473 2.667 0 C
cp
f
GR
GS
[1 0 0 1 359.44 285.47745] CT
0 0 1 RC
N
2.667 0 M
2.667 1.473 1.473 2.667 0 2.667 C
-1.473 2.667 -2.667 1.473 -2.667 0 C
-2.667 -1.473 -1.473 -2.667 0 -2.667 C
1.473 -2.667 2.667 -1.473 2.667 0 C
cp
f
GR
GS
[1 0 0 1 363.78 268.26007] CT
0 0 1 RC
N
2.667 0 M
2.667 1.473 1.473 2.667 0 2.667 C
-1.473 2.667 -2.667 1.473 -2.667 0 C
-2.667 -1.473 -1.473 -2.667 0 -2.667 C
1.473 -2.667 2.667 -1.473 2.667 0 C
cp
f
GR
GS
[1 0 0 1 368.12 274.43466] CT
0 0 1 RC
N
2.667 0 M
2.667 1.473 1.473 2.667 0 2.667 C
-1.473 2.667 -2.667 1.473 -2.667 0 C
-2.667 -1.473 -1.473 -2.667 0 -2.667 C
1.473 -2.667 2.667 -1.473 2.667 0 C
cp
f
GR
GS
[1 0 0 1 372.45999 288.26633] CT
0 0 1 RC
N
2.667 0 M
2.667 1.473 1.473 2.667 0 2.667 C
-1.473 2.667 -2.667 1.473 -2.667 0 C
-2.667 -1.473 -1.473 -2.667 0 -2.667 C
1.473 -2.667 2.667 -1.473 2.667 0 C
cp
f
GR
GS
[1 0 0 1 376.79999 263.86447] CT
0 0 1 RC
N
2.667 0 M
2.667 1.473 1.473 2.667 0 2.667 C
-1.473 2.667 -2.667 1.473 -2.667 0 C
-2.667 -1.473 -1.473 -2.667 0 -2.667 C
1.473 -2.667 2.667 -1.473 2.667 0 C
cp
f
GR
GS
[1 0 0 1 381.14001 282.75632] CT
0 0 1 RC
N
2.667 0 M
2.667 1.473 1.473 2.667 0 2.667 C
-1.473 2.667 -2.667 1.473 -2.667 0 C
-2.667 -1.473 -1.473 -2.667 0 -2.667 C
1.473 -2.667 2.667 -1.473 2.667 0 C
cp
f
GR
GS
[1 0 0 1 385.48001 270.92899] CT
0 0 1 RC
N
2.667 0 M
2.667 1.473 1.473 2.667 0 2.667 C
-1.473 2.667 -2.667 1.473 -2.667 0 C
-2.667 -1.473 -1.473 -2.667 0 -2.667 C
1.473 -2.667 2.667 -1.473 2.667 0 C
cp
f
GR
GS
[1 0 0 1 389.82001 273.12628] CT
0 0 1 RC
N
2.667 0 M
2.667 1.473 1.473 2.667 0 2.667 C
-1.473 2.667 -2.667 1.473 -2.667 0 C
-2.667 -1.473 -1.473 -2.667 0 -2.667 C
1.473 -2.667 2.667 -1.473 2.667 0 C
cp
f
GR
GS
[1 0 0 1 394.16 288.13318] CT
0 0 1 RC
N
2.667 0 M
2.667 1.473 1.473 2.667 0 2.667 C
-1.473 2.667 -2.667 1.473 -2.667 0 C
-2.667 -1.473 -1.473 -2.667 0 -2.667 C
1.473 -2.667 2.667 -1.473 2.667 0 C
cp
f
GR
GS
[1 0 0 1 398.5 297.87683] CT
0 0 1 RC
N
2.667 0 M
2.667 1.473 1.473 2.667 0 2.667 C
-1.473 2.667 -2.667 1.473 -2.667 0 C
-2.667 -1.473 -1.473 -2.667 0 -2.667 C
1.473 -2.667 2.667 -1.473 2.667 0 C
cp
f
GR
GS
[1 0 0 1 402.84 271.95776] CT
0 0 1 RC
N
2.667 0 M
2.667 1.473 1.473 2.667 0 2.667 C
-1.473 2.667 -2.667 1.473 -2.667 0 C
-2.667 -1.473 -1.473 -2.667 0 -2.667 C
1.473 -2.667 2.667 -1.473 2.667 0 C
cp
f
GR
GS
[1 0 0 1 407.17999 268.7106] CT
0 0 1 RC
N
2.667 0 M
2.667 1.473 1.473 2.667 0 2.667 C
-1.473 2.667 -2.667 1.473 -2.667 0 C
-2.667 -1.473 -1.473 -2.667 0 -2.667 C
1.473 -2.667 2.667 -1.473 2.667 0 C
cp
f
GR
GS
[1 0 0 1 411.51999 275.27408] CT
0 0 1 RC
N
2.667 0 M
2.667 1.473 1.473 2.667 0 2.667 C
-1.473 2.667 -2.667 1.473 -2.667 0 C
-2.667 -1.473 -1.473 -2.667 0 -2.667 C
1.473 -2.667 2.667 -1.473 2.667 0 C
cp
f
GR
GS
[1 0 0 1 415.85999 284.05359] CT
0 0 1 RC
N
2.667 0 M
2.667 1.473 1.473 2.667 0 2.667 C
-1.473 2.667 -2.667 1.473 -2.667 0 C
-2.667 -1.473 -1.473 -2.667 0 -2.667 C
1.473 -2.667 2.667 -1.473 2.667 0 C
cp
f
GR
GS
[1 0 0 1 420.20001 266.5925] CT
0 0 1 RC
N
2.667 0 M
2.667 1.473 1.473 2.667 0 2.667 C
-1.473 2.667 -2.667 1.473 -2.667 0 C
-2.667 -1.473 -1.473 -2.667 0 -2.667 C
1.473 -2.667 2.667 -1.473 2.667 0 C
cp
f
GR
GS
[1 0 0 1 424.54001 286.95242] CT
0 0 1 RC
N
2.667 0 M
2.667 1.473 1.473 2.667 0 2.667 C
-1.473 2.667 -2.667 1.473 -2.667 0 C
-2.667 -1.473 -1.473 -2.667 0 -2.667 C
1.473 -2.667 2.667 -1.473 2.667 0 C
cp
f
GR
GS
[1 0 0 1 428.88 277.04874] CT
0 0 1 RC
N
2.667 0 M
2.667 1.473 1.473 2.667 0 2.667 C
-1.473 2.667 -2.667 1.473 -2.667 0 C
-2.667 -1.473 -1.473 -2.667 0 -2.667 C
1.473 -2.667 2.667 -1.473 2.667 0 C
cp
f
GR
GS
[1 0 0 1 433.22 285.83014] CT
0 0 1 RC
N
2.667 0 M
2.667 1.473 1.473 2.667 0 2.667 C
-1.473 2.667 -2.667 1.473 -2.667 0 C
-2.667 -1.473 -1.473 -2.667 0 -2.667 C
1.473 -2.667 2.667 -1.473 2.667 0 C
cp
f
GR
GS
[1 0 0 1 437.56 279.76822] CT
0 0 1 RC
N
2.667 0 M
2.667 1.473 1.473 2.667 0 2.667 C
-1.473 2.667 -2.667 1.473 -2.667 0 C
-2.667 -1.473 -1.473 -2.667 0 -2.667 C
1.473 -2.667 2.667 -1.473 2.667 0 C
cp
f
GR
GS
[1 0 0 1 441.89999 275.79971] CT
0 0 1 RC
N
2.667 0 M
2.667 1.473 1.473 2.667 0 2.667 C
-1.473 2.667 -2.667 1.473 -2.667 0 C
-2.667 -1.473 -1.473 -2.667 0 -2.667 C
1.473 -2.667 2.667 -1.473 2.667 0 C
cp
f
GR
GS
[1 0 0 1 446.23999 285.32083] CT
0 0 1 RC
N
2.667 0 M
2.667 1.473 1.473 2.667 0 2.667 C
-1.473 2.667 -2.667 1.473 -2.667 0 C
-2.667 -1.473 -1.473 -2.667 0 -2.667 C
1.473 -2.667 2.667 -1.473 2.667 0 C
cp
f
GR
GS
[1 0 0 1 450.57999 280.78925] CT
0 0 1 RC
N
2.667 0 M
2.667 1.473 1.473 2.667 0 2.667 C
-1.473 2.667 -2.667 1.473 -2.667 0 C
-2.667 -1.473 -1.473 -2.667 0 -2.667 C
1.473 -2.667 2.667 -1.473 2.667 0 C
cp
f
GR
GS
[1 0 0 1 454.92001 281.13171] CT
0 0 1 RC
N
2.667 0 M
2.667 1.473 1.473 2.667 0 2.667 C
-1.473 2.667 -2.667 1.473 -2.667 0 C
-2.667 -1.473 -1.473 -2.667 0 -2.667 C
1.473 -2.667 2.667 -1.473 2.667 0 C
cp
f
GR
GS
[1 0 0 1 459.26001 278.56619] CT
0 0 1 RC
N
2.667 0 M
2.667 1.473 1.473 2.667 0 2.667 C
-1.473 2.667 -2.667 1.473 -2.667 0 C
-2.667 -1.473 -1.473 -2.667 0 -2.667 C
1.473 -2.667 2.667 -1.473 2.667 0 C
cp
f
GR
GS
[1 0 0 1 463.60001 280.08762] CT
0 0 1 RC
N
2.667 0 M
2.667 1.473 1.473 2.667 0 2.667 C
-1.473 2.667 -2.667 1.473 -2.667 0 C
-2.667 -1.473 -1.473 -2.667 0 -2.667 C
1.473 -2.667 2.667 -1.473 2.667 0 C
cp
f
GR
GS
[1 0 0 1 467.94 284.50803] CT
0 0 1 RC
N
2.667 0 M
2.667 1.473 1.473 2.667 0 2.667 C
-1.473 2.667 -2.667 1.473 -2.667 0 C
-2.667 -1.473 -1.473 -2.667 0 -2.667 C
1.473 -2.667 2.667 -1.473 2.667 0 C
cp
f
GR
GS
[1 0 0 1 472.28 279.82782] CT
0 0 1 RC
N
2.667 0 M
2.667 1.473 1.473 2.667 0 2.667 C
-1.473 2.667 -2.667 1.473 -2.667 0 C
-2.667 -1.473 -1.473 -2.667 0 -2.667 C
1.473 -2.667 2.667 -1.473 2.667 0 C
cp
f
GR
GS
[1 0 0 1 476.62 284.89099] CT
0 0 1 RC
N
2.667 0 M
2.667 1.473 1.473 2.667 0 2.667 C
-1.473 2.667 -2.667 1.473 -2.667 0 C
-2.667 -1.473 -1.473 -2.667 0 -2.667 C
1.473 -2.667 2.667 -1.473 2.667 0 C
cp
f
GR
GS
[1 0 0 1 480.95999 283.70813] CT
0 0 1 RC
N
2.667 0 M
2.667 1.473 1.473 2.667 0 2.667 C
-1.473 2.667 -2.667 1.473 -2.667 0 C
-2.667 -1.473 -1.473 -2.667 0 -2.667 C
1.473 -2.667 2.667 -1.473 2.667 0 C
cp
f
GR
GS
[1 0 0 1 485.29999 281.2023] CT
0 0 1 RC
N
2.667 0 M
2.667 1.473 1.473 2.667 0 2.667 C
-1.473 2.667 -2.667 1.473 -2.667 0 C
-2.667 -1.473 -1.473 -2.667 0 -2.667 C
1.473 -2.667 2.667 -1.473 2.667 0 C
cp
f
GR
GS
[1 0 0 1 489.64001 282.34128] CT
0 0 1 RC
N
2.667 0 M
2.667 1.473 1.473 2.667 0 2.667 C
-1.473 2.667 -2.667 1.473 -2.667 0 C
-2.667 -1.473 -1.473 -2.667 0 -2.667 C
1.473 -2.667 2.667 -1.473 2.667 0 C
cp
f
GR
GS
[1 0 0 1 493.98001 286.24048] CT
0 0 1 RC
N
2.667 0 M
2.667 1.473 1.473 2.667 0 2.667 C
-1.473 2.667 -2.667 1.473 -2.667 0 C
-2.667 -1.473 -1.473 -2.667 0 -2.667 C
1.473 -2.667 2.667 -1.473 2.667 0 C
cp
f
GR
GS
[1 0 0 1 498.32001 285.52005] CT
0 0 1 RC
N
2.667 0 M
2.667 1.473 1.473 2.667 0 2.667 C
-1.473 2.667 -2.667 1.473 -2.667 0 C
-2.667 -1.473 -1.473 -2.667 0 -2.667 C
1.473 -2.667 2.667 -1.473 2.667 0 C
cp
f
GR
GS
[1 0 0 1 502.66 285.63797] CT
0 0 1 RC
N
2.667 0 M
2.667 1.473 1.473 2.667 0 2.667 C
-1.473 2.667 -2.667 1.473 -2.667 0 C
-2.667 -1.473 -1.473 -2.667 0 -2.667 C
1.473 -2.667 2.667 -1.473 2.667 0 C
cp
f
GR
GS
[1 0 0 1 507 286.02567] CT
0 0 1 RC
N
2.667 0 M
2.667 1.473 1.473 2.667 0 2.667 C
-1.473 2.667 -2.667 1.473 -2.667 0 C
-2.667 -1.473 -1.473 -2.667 0 -2.667 C
1.473 -2.667 2.667 -1.473 2.667 0 C
cp
f
GR
GS
1 0 0 RC
1 LJ
N
73 278.667 M
73.434 278.667 L
73.868 278.667 L
74.302 278.667 L
74.736 278.667 L
75.17 278.667 L
75.604 278.667 L
76.038 278.667 L
76.472 278.667 L
76.906 278.667 L
77.34 278.667 L
77.774 278.667 L
78.208 278.667 L
78.642 278.667 L
79.076 278.667 L
79.51 278.667 L
79.944 278.667 L
80.378 278.667 L
80.812 278.667 L
81.246 278.667 L
81.68 278.667 L
82.114 278.667 L
82.548 278.667 L
82.982 278.667 L
83.416 278.667 L
83.85 278.667 L
84.284 278.667 L
84.718 278.667 L
85.152 278.667 L
85.586 278.667 L
86.02 278.667 L
86.454 278.667 L
86.888 278.667 L
87.322 278.667 L
87.756 278.667 L
88.19 278.667 L
88.624 278.667 L
89.058 278.667 L
89.492 278.667 L
89.926 278.667 L
90.36 278.667 L
90.794 278.667 L
91.228 278.667 L
91.662 278.667 L
92.096 278.667 L
92.53 278.667 L
92.964 278.667 L
93.398 278.667 L
93.832 278.667 L
94.266 278.667 L
94.7 278.667 L
95.134 278.667 L
95.568 278.667 L
96.002 278.667 L
96.436 278.667 L
96.87 278.667 L
97.304 278.667 L
97.738 278.667 L
98.172 278.667 L
98.606 278.667 L
99.04 278.667 L
99.474 278.667 L
99.908 278.667 L
100.342 278.667 L
100.776 278.667 L
101.21 278.667 L
101.644 278.667 L
102.078 278.667 L
102.512 278.667 L
102.946 278.667 L
103.38 278.667 L
103.814 278.667 L
104.248 278.667 L
104.682 278.667 L
105.116 278.667 L
105.55 278.667 L
105.984 278.667 L
106.418 278.667 L
106.852 278.667 L
107.286 278.667 L
107.72 278.667 L
108.154 278.667 L
108.588 278.667 L
109.022 278.667 L
109.456 278.667 L
109.89 278.667 L
110.324 278.667 L
110.758 278.667 L
111.192 278.667 L
111.626 278.667 L
112.06 278.667 L
112.494 278.667 L
112.928 278.667 L
113.362 278.667 L
113.796 278.667 L
114.23 278.667 L
114.664 278.667 L
115.098 278.667 L
115.532 278.667 L
115.966 278.667 L
116.4 278.667 L
116.834 278.667 L
117.268 278.667 L
117.702 278.667 L
118.136 278.667 L
118.57 278.667 L
119.004 278.667 L
119.438 278.667 L
119.872 278.667 L
120.306 278.667 L
120.74 278.667 L
121.174 278.667 L
121.608 278.667 L
122.042 278.667 L
122.476 278.667 L
122.91 278.667 L
123.344 278.667 L
123.778 278.667 L
124.212 278.667 L
124.646 278.667 L
125.08 278.667 L
125.514 278.667 L
125.948 278.667 L
126.382 278.667 L
126.816 278.667 L
127.25 278.667 L
127.684 278.667 L
128.118 278.667 L
128.552 278.667 L
128.986 278.667 L
129.42 278.667 L
129.854 278.667 L
130.288 278.667 L
130.722 278.667 L
131.156 278.667 L
131.59 278.667 L
132.024 278.667 L
132.458 278.667 L
132.892 278.667 L
133.326 278.667 L
133.76 278.667 L
134.194 278.667 L
134.628 278.667 L
135.062 278.667 L
135.496 278.667 L
135.93 278.667 L
136.364 278.667 L
136.798 278.667 L
137.232 278.667 L
137.666 278.667 L
138.1 278.667 L
138.534 278.667 L
138.968 278.667 L
139.402 278.667 L
139.836 278.667 L
140.27 278.667 L
140.704 278.667 L
141.138 278.667 L
141.572 278.667 L
142.006 278.667 L
142.44 278.667 L
142.874 278.667 L
143.308 278.667 L
143.742 278.667 L
144.176 278.667 L
144.61 278.667 L
145.044 278.667 L
145.478 278.667 L
145.912 278.667 L
146.346 278.667 L
146.78 278.667 L
147.214 278.667 L
147.648 278.667 L
148.082 278.667 L
148.516 278.667 L
148.95 278.667 L
149.384 278.667 L
149.818 278.667 L
150.252 278.667 L
150.686 278.667 L
151.12 278.667 L
151.554 278.667 L
151.988 278.667 L
152.422 278.667 L
152.856 278.667 L
153.29 278.667 L
153.724 278.667 L
154.158 278.667 L
154.592 278.667 L
155.026 278.667 L
155.46 278.667 L
155.894 278.667 L
156.328 278.667 L
156.762 278.667 L
157.196 278.667 L
157.63 278.667 L
158.064 278.667 L
158.498 278.667 L
158.932 278.667 L
159.366 278.667 L
159.8 278.667 L
160.234 278.667 L
160.668 278.667 L
161.102 278.667 L
161.536 278.667 L
161.97 278.667 L
162.404 278.667 L
162.838 278.667 L
163.272 278.667 L
163.706 278.667 L
164.14 278.667 L
164.574 278.667 L
165.008 278.667 L
165.442 278.667 L
165.876 278.667 L
166.31 278.667 L
166.744 278.667 L
167.178 278.667 L
167.612 278.667 L
168.046 278.667 L
168.48 278.667 L
168.914 278.667 L
169.348 278.667 L
169.782 278.667 L
170.216 278.667 L
170.65 278.667 L
171.084 278.667 L
171.518 278.667 L
171.952 278.667 L
172.386 278.667 L
172.82 278.667 L
173.254 278.667 L
173.688 278.667 L
174.122 278.667 L
174.556 278.667 L
174.99 278.667 L
175.424 278.667 L
175.858 278.667 L
176.292 278.667 L
176.726 278.667 L
177.16 278.667 L
177.594 278.667 L
178.028 278.667 L
178.462 278.667 L
178.896 278.667 L
179.33 278.667 L
179.764 278.667 L
180.198 278.667 L
180.632 278.667 L
181.066 278.667 L
181.5 278.667 L
181.934 278.667 L
182.368 278.667 L
182.802 278.667 L
183.236 278.667 L
183.67 278.667 L
184.104 278.667 L
184.538 278.667 L
184.972 278.667 L
185.406 278.667 L
185.84 278.667 L
186.274 278.667 L
186.708 278.667 L
187.142 278.667 L
187.576 278.667 L
188.01 278.667 L
188.444 278.667 L
188.878 278.667 L
189.312 278.667 L
189.746 278.667 L
190.18 278.667 L
190.614 278.667 L
191.048 278.667 L
191.482 278.667 L
191.916 278.667 L
192.35 278.667 L
192.784 278.667 L
193.218 278.667 L
193.652 278.667 L
194.086 278.667 L
194.52 278.667 L
194.954 278.667 L
195.388 278.667 L
195.822 278.667 L
196.256 278.667 L
196.69 278.667 L
197.124 278.667 L
197.558 278.667 L
197.992 278.667 L
198.426 278.667 L
198.86 278.667 L
199.294 278.667 L
199.728 278.667 L
200.162 278.667 L
200.596 278.667 L
201.03 278.667 L
201.464 278.667 L
201.898 278.667 L
202.332 278.667 L
202.766 278.667 L
203.2 278.667 L
203.634 278.667 L
204.068 278.667 L
204.502 278.667 L
204.936 278.667 L
205.37 278.667 L
205.804 278.667 L
206.238 278.667 L
206.672 278.667 L
207.106 278.667 L
207.54 278.667 L
207.974 278.667 L
208.408 278.667 L
208.842 278.667 L
209.276 278.667 L
209.71 278.667 L
210.144 278.667 L
210.578 278.667 L
211.012 278.667 L
211.446 278.667 L
211.88 278.667 L
212.314 278.667 L
212.748 278.667 L
213.182 278.667 L
213.616 278.667 L
214.05 278.667 L
214.484 278.667 L
214.918 278.667 L
215.352 278.667 L
215.786 278.667 L
216.22 278.667 L
216.654 278.667 L
217.088 278.667 L
217.522 278.667 L
217.956 278.667 L
218.39 278.667 L
218.824 278.667 L
219.258 278.667 L
219.692 278.667 L
220.126 278.667 L
220.56 278.667 L
220.994 278.667 L
221.428 278.667 L
221.862 278.667 L
222.296 278.667 L
222.73 278.667 L
223.164 278.667 L
223.598 278.667 L
224.032 278.667 L
224.466 278.667 L
224.9 278.667 L
225.334 278.667 L
225.768 278.667 L
226.202 278.667 L
226.636 278.667 L
227.07 278.667 L
227.504 278.667 L
227.938 278.667 L
228.372 278.667 L
228.806 278.667 L
229.24 278.667 L
229.674 278.667 L
230.108 278.667 L
230.542 278.667 L
230.976 278.667 L
231.41 278.667 L
231.844 278.667 L
232.278 278.667 L
232.712 278.667 L
233.146 278.667 L
233.58 278.667 L
234.014 278.667 L
234.448 278.667 L
234.882 278.667 L
235.316 278.667 L
235.75 278.667 L
236.184 278.667 L
236.618 278.667 L
237.052 278.667 L
237.486 278.667 L
237.92 278.667 L
238.354 278.667 L
238.788 278.667 L
239.222 278.667 L
239.656 278.667 L
240.09 278.667 L
240.524 278.667 L
240.958 278.667 L
241.392 278.667 L
241.826 278.667 L
242.26 278.667 L
242.694 278.667 L
243.128 278.667 L
243.562 278.667 L
243.996 278.667 L
244.43 278.667 L
244.864 278.667 L
245.298 278.667 L
245.732 278.667 L
246.166 278.667 L
246.6 278.667 L
247.034 278.667 L
247.468 278.667 L
247.902 278.667 L
248.336 278.667 L
248.77 278.667 L
249.204 278.667 L
249.638 278.667 L
250.072 278.667 L
250.506 278.667 L
250.94 278.667 L
251.374 278.667 L
251.808 278.667 L
252.242 278.667 L
252.676 278.667 L
253.11 278.667 L
253.544 278.667 L
253.978 278.667 L
254.412 278.667 L
254.846 278.667 L
255.28 278.667 L
255.714 278.667 L
256.148 278.667 L
256.582 278.667 L
257.016 278.667 L
257.45 278.667 L
257.884 278.667 L
258.318 278.667 L
258.752 278.667 L
259.186 278.667 L
259.62 278.667 L
260.054 278.667 L
260.488 278.667 L
260.922 278.667 L
261.356 278.667 L
261.79 278.667 L
262.224 278.667 L
262.658 278.667 L
263.092 278.667 L
263.526 278.667 L
263.96 278.667 L
264.394 278.667 L
264.828 278.667 L
265.262 278.667 L
265.696 278.667 L
266.13 278.667 L
266.564 278.667 L
266.998 278.667 L
267.432 278.667 L
267.866 278.667 L
268.3 278.667 L
268.734 278.667 L
269.168 278.667 L
269.602 278.667 L
270.036 278.667 L
270.47 278.667 L
270.904 278.667 L
271.338 278.667 L
271.772 278.667 L
272.206 278.667 L
272.64 278.667 L
273.074 278.667 L
273.508 278.667 L
273.942 278.667 L
274.376 278.667 L
274.81 278.667 L
275.244 278.667 L
275.678 278.667 L
276.112 278.667 L
276.546 278.667 L
276.98 278.667 L
277.414 278.667 L
277.848 278.667 L
278.282 278.667 L
278.716 278.667 L
279.15 278.667 L
279.584 278.667 L
280.018 278.667 L
280.452 278.667 L
280.886 278.667 L
281.32 278.667 L
281.754 278.667 L
282.188 278.667 L
282.622 278.667 L
283.056 278.667 L
283.49 278.667 L
283.924 278.667 L
284.358 278.667 L
284.792 278.667 L
285.226 278.667 L
285.66 278.667 L
286.094 278.667 L
286.528 278.667 L
286.962 278.667 L
287.396 278.667 L
287.83 278.667 L
288.264 278.667 L
288.698 278.667 L
289.132 278.667 L
289.566 278.667 L
290 278.667 L
290.434 278.667 L
290.868 278.667 L
291.302 278.667 L
291.736 278.667 L
292.17 278.667 L
292.604 278.667 L
293.038 278.667 L
293.472 278.667 L
293.906 278.667 L
294.34 278.667 L
294.774 278.667 L
295.208 278.667 L
295.642 278.667 L
296.076 278.667 L
296.51 278.667 L
296.944 278.667 L
297.378 278.667 L
297.812 278.667 L
298.246 278.667 L
298.68 278.667 L
299.114 278.667 L
299.548 278.667 L
299.982 278.667 L
300.416 278.667 L
300.85 278.667 L
301.284 278.667 L
301.718 278.667 L
302.152 278.667 L
302.586 278.667 L
303.02 278.667 L
303.454 278.667 L
303.888 278.667 L
304.322 278.667 L
304.756 278.667 L
305.19 278.667 L
305.624 278.667 L
306.058 278.667 L
306.492 278.667 L
306.926 278.667 L
307.36 278.667 L
307.794 278.667 L
308.228 278.667 L
308.662 278.667 L
309.096 278.667 L
309.53 278.667 L
309.964 278.667 L
310.398 278.667 L
310.832 278.667 L
311.266 278.667 L
311.7 278.667 L
312.134 278.667 L
312.568 278.667 L
313.002 278.667 L
313.436 278.667 L
313.87 278.667 L
314.304 278.667 L
314.738 278.667 L
315.172 278.667 L
315.606 278.667 L
316.04 278.667 L
316.474 278.667 L
316.908 278.667 L
317.342 278.667 L
317.776 278.667 L
318.21 278.667 L
318.644 278.667 L
319.078 278.667 L
319.512 278.667 L
319.946 278.667 L
320.38 278.667 L
320.814 278.667 L
321.248 278.667 L
321.682 278.667 L
322.116 278.667 L
322.55 278.667 L
322.984 278.667 L
323.418 278.667 L
323.852 278.667 L
324.286 278.667 L
324.72 278.667 L
325.154 278.667 L
325.588 278.667 L
326.022 278.667 L
326.456 278.667 L
326.89 278.667 L
327.324 278.667 L
327.758 278.667 L
328.192 278.667 L
328.626 278.667 L
329.06 278.667 L
329.494 278.667 L
329.928 278.667 L
330.362 278.667 L
330.796 278.667 L
331.23 278.667 L
331.664 278.667 L
332.098 278.667 L
332.532 278.667 L
332.966 278.667 L
333.4 278.667 L
333.834 278.667 L
334.268 278.667 L
334.702 278.667 L
335.136 278.667 L
335.57 278.667 L
336.004 278.667 L
336.438 278.667 L
336.872 278.667 L
337.306 278.667 L
337.74 278.667 L
338.174 278.667 L
338.608 278.667 L
339.042 278.667 L
339.476 278.667 L
339.91 278.667 L
340.344 278.667 L
340.778 278.667 L
341.212 278.667 L
341.646 278.667 L
342.08 278.667 L
342.514 278.667 L
342.948 278.667 L
343.382 278.667 L
343.816 278.667 L
344.25 278.667 L
344.684 278.667 L
345.118 278.667 L
345.552 278.667 L
345.986 278.667 L
346.42 278.667 L
346.854 278.667 L
347.288 278.667 L
347.722 278.667 L
348.156 278.667 L
348.59 278.667 L
349.024 278.667 L
349.458 278.667 L
349.892 278.667 L
350.326 278.667 L
350.76 278.667 L
351.194 278.667 L
351.628 278.667 L
352.062 278.667 L
352.496 278.667 L
352.93 278.667 L
353.364 278.667 L
353.798 278.667 L
354.232 278.667 L
354.666 278.667 L
355.1 278.667 L
355.534 278.667 L
355.968 278.667 L
356.402 278.667 L
356.836 278.667 L
357.27 278.667 L
357.704 278.667 L
358.138 278.667 L
358.572 278.667 L
359.006 278.667 L
359.44 278.667 L
359.874 278.667 L
360.308 278.667 L
360.742 278.667 L
361.176 278.667 L
361.61 278.667 L
362.044 278.667 L
362.478 278.667 L
362.912 278.667 L
363.346 278.667 L
363.78 278.667 L
364.214 278.667 L
364.648 278.667 L
365.082 278.667 L
365.516 278.667 L
365.95 278.667 L
366.384 278.667 L
366.818 278.667 L
367.252 278.667 L
367.686 278.667 L
368.12 278.667 L
368.554 278.667 L
368.988 278.667 L
369.422 278.667 L
369.856 278.667 L
370.29 278.667 L
370.724 278.667 L
371.158 278.667 L
371.592 278.667 L
372.026 278.667 L
372.46 278.667 L
372.894 278.667 L
373.328 278.667 L
373.762 278.667 L
374.196 278.667 L
374.63 278.667 L
375.064 278.667 L
375.498 278.667 L
375.932 278.667 L
376.366 278.667 L
376.8 278.667 L
377.234 278.667 L
377.668 278.667 L
378.102 278.667 L
378.536 278.667 L
378.97 278.667 L
379.404 278.667 L
379.838 278.667 L
380.272 278.667 L
380.706 278.667 L
381.14 278.667 L
381.574 278.667 L
382.008 278.667 L
382.442 278.667 L
382.876 278.667 L
383.31 278.667 L
383.744 278.667 L
384.178 278.667 L
384.612 278.667 L
385.046 278.667 L
385.48 278.667 L
385.914 278.667 L
386.348 278.667 L
386.782 278.667 L
387.216 278.667 L
387.65 278.667 L
388.084 278.667 L
388.518 278.667 L
388.952 278.667 L
389.386 278.667 L
389.82 278.667 L
390.254 278.667 L
390.688 278.667 L
391.122 278.667 L
391.556 278.667 L
391.99 278.667 L
392.424 278.667 L
392.858 278.667 L
393.292 278.667 L
393.726 278.667 L
394.16 278.667 L
394.594 278.667 L
395.028 278.667 L
395.462 278.667 L
395.896 278.667 L
396.33 278.667 L
396.764 278.667 L
397.198 278.667 L
397.632 278.667 L
398.066 278.667 L
398.5 278.667 L
398.934 278.667 L
399.368 278.667 L
399.802 278.667 L
400.236 278.667 L
400.67 278.667 L
401.104 278.667 L
401.538 278.667 L
401.972 278.667 L
402.406 278.667 L
402.84 278.667 L
403.274 278.667 L
403.708 278.667 L
404.142 278.667 L
404.576 278.667 L
405.01 278.667 L
405.444 278.667 L
405.878 278.667 L
406.312 278.667 L
406.746 278.667 L
407.18 278.667 L
407.614 278.667 L
408.048 278.667 L
408.482 278.667 L
408.916 278.667 L
409.35 278.667 L
409.784 278.667 L
410.218 278.667 L
410.652 278.667 L
411.086 278.667 L
411.52 278.667 L
411.954 278.667 L
412.388 278.667 L
412.822 278.667 L
413.256 278.667 L
413.69 278.667 L
414.124 278.667 L
414.558 278.667 L
414.992 278.667 L
415.426 278.667 L
415.86 278.667 L
416.294 278.667 L
416.728 278.667 L
417.162 278.667 L
417.596 278.667 L
418.03 278.667 L
418.464 278.667 L
418.898 278.667 L
419.332 278.667 L
419.766 278.667 L
420.2 278.667 L
420.634 278.667 L
421.068 278.667 L
421.502 278.667 L
421.936 278.667 L
422.37 278.667 L
422.804 278.667 L
423.238 278.667 L
423.672 278.667 L
424.106 278.667 L
424.54 278.667 L
424.974 278.667 L
425.408 278.667 L
425.842 278.667 L
426.276 278.667 L
426.71 278.667 L
427.144 278.667 L
427.578 278.667 L
428.012 278.667 L
428.446 278.667 L
428.88 278.667 L
429.314 278.667 L
429.748 278.667 L
430.182 278.667 L
430.616 278.667 L
431.05 278.667 L
431.484 278.667 L
431.918 278.667 L
432.352 278.667 L
432.786 278.667 L
433.22 278.667 L
433.654 278.667 L
434.088 278.667 L
434.522 278.667 L
434.956 278.667 L
435.39 278.667 L
435.824 278.667 L
436.258 278.667 L
436.692 278.667 L
437.126 278.667 L
437.56 278.667 L
437.994 278.667 L
438.428 278.667 L
438.862 278.667 L
439.296 278.667 L
439.73 278.667 L
440.164 278.667 L
440.598 278.667 L
441.032 278.667 L
441.466 278.667 L
441.9 278.667 L
442.334 278.667 L
442.768 278.667 L
443.202 278.667 L
443.636 278.667 L
444.07 278.667 L
444.504 278.667 L
444.938 278.667 L
445.372 278.667 L
445.806 278.667 L
446.24 278.667 L
446.674 278.667 L
447.108 278.667 L
447.542 278.667 L
447.976 278.667 L
448.41 278.667 L
448.844 278.667 L
449.278 278.667 L
449.712 278.667 L
450.146 278.667 L
450.58 278.667 L
451.014 278.667 L
451.448 278.667 L
451.882 278.667 L
452.316 278.667 L
452.75 278.667 L
453.184 278.667 L
453.618 278.667 L
454.052 278.667 L
454.486 278.667 L
454.92 278.667 L
455.354 278.667 L
455.788 278.667 L
456.222 278.667 L
456.656 278.667 L
457.09 278.667 L
457.524 278.667 L
457.958 278.667 L
458.392 278.667 L
458.826 278.667 L
459.26 278.667 L
459.694 278.667 L
460.128 278.667 L
460.562 278.667 L
460.996 278.667 L
461.43 278.667 L
461.864 278.667 L
462.298 278.667 L
462.732 278.667 L
463.166 278.667 L
463.6 278.667 L
464.034 278.667 L
464.468 278.667 L
464.902 278.667 L
465.336 278.667 L
465.77 278.667 L
466.204 278.667 L
466.638 278.667 L
467.072 278.667 L
467.506 278.667 L
467.94 278.667 L
468.374 278.667 L
468.808 278.667 L
469.242 278.667 L
469.676 278.667 L
470.11 278.667 L
470.544 278.667 L
470.978 278.667 L
471.412 278.667 L
471.846 278.667 L
472.28 278.667 L
472.714 278.667 L
473.148 278.667 L
473.582 278.667 L
474.016 278.667 L
474.45 278.667 L
474.884 278.667 L
475.318 278.667 L
475.752 278.667 L
476.186 278.667 L
476.62 278.667 L
477.054 278.667 L
477.488 278.667 L
477.922 278.667 L
478.356 278.667 L
478.79 278.667 L
479.224 278.667 L
479.658 278.667 L
480.092 278.667 L
480.526 278.667 L
480.96 278.667 L
481.394 278.667 L
481.828 278.667 L
482.262 278.667 L
482.696 278.667 L
483.13 278.667 L
483.564 278.667 L
483.998 278.667 L
484.432 278.667 L
484.866 278.667 L
485.3 278.667 L
485.734 278.667 L
486.168 278.667 L
486.602 278.667 L
487.036 278.667 L
487.47 278.667 L
487.904 278.667 L
488.338 278.667 L
488.772 278.667 L
489.206 278.667 L
489.64 278.667 L
490.074 278.667 L
490.508 278.667 L
490.942 278.667 L
491.376 278.667 L
491.81 278.667 L
492.244 278.667 L
492.678 278.667 L
493.112 278.667 L
493.546 278.667 L
493.98 278.667 L
494.414 278.667 L
494.848 278.667 L
495.282 278.667 L
495.716 278.667 L
496.15 278.667 L
496.584 278.667 L
497.018 278.667 L
497.452 278.667 L
497.886 278.667 L
498.32 278.667 L
498.754 278.667 L
499.188 278.667 L
499.622 278.667 L
500.056 278.667 L
500.49 278.667 L
500.924 278.667 L
501.358 278.667 L
501.792 278.667 L
502.226 278.667 L
502.66 278.667 L
503.094 278.667 L
503.528 278.667 L
503.962 278.667 L
504.396 278.667 L
504.83 278.667 L
505.264 278.667 L
505.698 278.667 L
506.132 278.667 L
506.566 278.667 L
507 278.667 L
S
GR
GS
1 GC
N
363 264 M
363 237 L
501 237 L
501 264 L
cp
f
GR
GS
[1 0 0 1 400 244.64151] CT
/Helvetica 9 F
GS
[1 0 0 1 0 0] CT
0 3.5 moveto 
1 -1 scale
(Linear model - residuals) t 
GR
GR
GS
[1 0 0 1 382 244.64151] CT
0 0 1 RC
N
2.667 0 M
2.667 1.473 1.473 2.667 0 2.667 C
-1.473 2.667 -2.667 1.473 -2.667 0 C
-2.667 -1.473 -1.473 -2.667 0 -2.667 C
1.473 -2.667 2.667 -1.473 2.667 0 C
cp
f
GR
GS
[1 0 0 1 400 256.35849] CT
/Helvetica 9 F
GS
[1 0 0 1 0 0] CT
0 3.5 moveto 
1 -1 scale
(Zero Line) t 
GR
GR
GS
1 0 0 RC
1 LJ
N
367 256.358 M
397 256.358 L
S
GR
GS
0.149 GC
10.0 ML
0.5 LW
N
363 264 M
363 237 L
501 237 L
501 264 L
cp
S
GR
%%Trailer
%%Pages: 1
%%EOF
