%!PS-Adobe-3.0 EPSF-3.0
%%Creator: (MATLAB, The Mathworks, Inc. Version 9.0.0.341360 \(R2016a\). Operating System: Mac OS X)
%%Title: /Users/deepak/Documents/MATLAB/matlabprojects/singleCalib_IH/source/dtyp.eps
%%CreationDate: 2016-11-26T23:08:33
%%Pages: (atend)
%%BoundingBox: 0 0 560 420
%%LanguageLevel: 3
%%EndComments
%%BeginProlog
%%BeginResource: procset (Apache XML Graphics Std ProcSet) 1.2 0
%%Version: 1.2 0
%%Copyright: (Copyright 2001-2003,2010 The Apache Software Foundation. License terms: http://www.apache.org/licenses/LICENSE-2.0)
/bd{bind def}bind def
/ld{load def}bd
/GR/grestore ld
/M/moveto ld
/LJ/setlinejoin ld
/C/curveto ld
/f/fill ld
/LW/setlinewidth ld
/GC/setgray ld
/t/show ld
/N/newpath ld
/CT/concat ld
/cp/closepath ld
/S/stroke ld
/L/lineto ld
/CC/setcmykcolor ld
/A/ashow ld
/GS/gsave ld
/RC/setrgbcolor ld
/RM/rmoveto ld
/ML/setmiterlimit ld
/re {4 2 roll M
1 index 0 rlineto
0 exch rlineto
neg 0 rlineto
cp } bd
/_ctm matrix def
/_tm matrix def
/BT { _ctm currentmatrix pop matrix _tm copy pop 0 0 moveto } bd
/ET { _ctm setmatrix } bd
/iTm { _ctm setmatrix _tm concat } bd
/Tm { _tm astore pop iTm 0 0 moveto } bd
/ux 0.0 def
/uy 0.0 def
/F {
  /Tp exch def
  /Tf exch def
  Tf findfont Tp scalefont setfont
  /cf Tf def  /cs Tp def
} bd
/ULS {currentpoint /uy exch def /ux exch def} bd
/ULE {
  /Tcx currentpoint pop def
  gsave
  newpath
  cf findfont cs scalefont dup
  /FontMatrix get 0 get /Ts exch def /FontInfo get dup
  /UnderlinePosition get Ts mul /To exch def
  /UnderlineThickness get Ts mul /Tt exch def
  ux uy To add moveto  Tcx uy To add lineto
  Tt setlinewidth stroke
  grestore
} bd
/OLE {
  /Tcx currentpoint pop def
  gsave
  newpath
  cf findfont cs scalefont dup
  /FontMatrix get 0 get /Ts exch def /FontInfo get dup
  /UnderlinePosition get Ts mul /To exch def
  /UnderlineThickness get Ts mul /Tt exch def
  ux uy To add cs add moveto Tcx uy To add cs add lineto
  Tt setlinewidth stroke
  grestore
} bd
/SOE {
  /Tcx currentpoint pop def
  gsave
  newpath
  cf findfont cs scalefont dup
  /FontMatrix get 0 get /Ts exch def /FontInfo get dup
  /UnderlinePosition get Ts mul /To exch def
  /UnderlineThickness get Ts mul /Tt exch def
  ux uy To add cs 10 mul 26 idiv add moveto Tcx uy To add cs 10 mul 26 idiv add lineto
  Tt setlinewidth stroke
  grestore
} bd
/QT {
/Y22 exch store
/X22 exch store
/Y21 exch store
/X21 exch store
currentpoint
/Y21 load 2 mul add 3 div exch
/X21 load 2 mul add 3 div exch
/X21 load 2 mul /X22 load add 3 div
/Y21 load 2 mul /Y22 load add 3 div
/X22 load /Y22 load curveto
} bd
/SSPD {
dup length /d exch dict def
{
/v exch def
/k exch def
currentpagedevice k known {
/cpdv currentpagedevice k get def
v cpdv ne {
/upd false def
/nullv v type /nulltype eq def
/nullcpdv cpdv type /nulltype eq def
nullv nullcpdv or
{
/upd true def
} {
/sametype v type cpdv type eq def
sametype {
v type /arraytype eq {
/vlen v length def
/cpdvlen cpdv length def
vlen cpdvlen eq {
0 1 vlen 1 sub {
/i exch def
/obj v i get def
/cpdobj cpdv i get def
obj cpdobj ne {
/upd true def
exit
} if
} for
} {
/upd true def
} ifelse
} {
v type /dicttype eq {
v {
/dv exch def
/dk exch def
/cpddv cpdv dk get def
dv cpddv ne {
/upd true def
exit
} if
} forall
} {
/upd true def
} ifelse
} ifelse
} if
} ifelse
upd true eq {
d k v put
} if
} if
} if
} forall
d length 0 gt {
d setpagedevice
} if
} bd
%%EndResource
%%BeginResource: procset (Apache XML Graphics EPS ProcSet) 1.0 0
%%Version: 1.0 0
%%Copyright: (Copyright 2002-2003 The Apache Software Foundation. License terms: http://www.apache.org/licenses/LICENSE-2.0)
/BeginEPSF { %def
/b4_Inc_state save def         % Save state for cleanup
/dict_count countdictstack def % Count objects on dict stack
/op_count count 1 sub def      % Count objects on operand stack
userdict begin                 % Push userdict on dict stack
/showpage { } def              % Redefine showpage, { } = null proc
0 setgray 0 setlinecap         % Prepare graphics state
1 setlinewidth 0 setlinejoin
10 setmiterlimit [ ] 0 setdash newpath
/languagelevel where           % If level not equal to 1 then
{pop languagelevel             % set strokeadjust and
1 ne                           % overprint to their defaults.
{false setstrokeadjust false setoverprint
} if
} if
} bd
/EndEPSF { %def
count op_count sub {pop} repeat            % Clean up stacks
countdictstack dict_count sub {end} repeat
b4_Inc_state restore
} bd
%%EndResource
%FOPBeginFontDict
%%IncludeResource: font Courier-Bold
%%IncludeResource: font Helvetica
%%IncludeResource: font Courier-BoldOblique
%%IncludeResource: font Courier-Oblique
%%IncludeResource: font Times-Roman
%%IncludeResource: font Helvetica-BoldOblique
%%IncludeResource: font Helvetica-Bold
%%IncludeResource: font Helvetica-Oblique
%%IncludeResource: font Times-BoldItalic
%%IncludeResource: font Courier
%%IncludeResource: font Times-Italic
%%IncludeResource: font Times-Bold
%%IncludeResource: font Symbol
%%IncludeResource: font ZapfDingbats
%FOPEndFontDict
%%BeginResource: encoding WinAnsiEncoding
/WinAnsiEncoding [
/.notdef /.notdef /.notdef /.notdef /.notdef
/.notdef /.notdef /.notdef /.notdef /.notdef
/.notdef /.notdef /.notdef /.notdef /.notdef
/.notdef /.notdef /.notdef /.notdef /.notdef
/.notdef /.notdef /.notdef /.notdef /.notdef
/.notdef /.notdef /.notdef /.notdef /.notdef
/.notdef /.notdef /space /exclam /quotedbl
/numbersign /dollar /percent /ampersand /quotesingle
/parenleft /parenright /asterisk /plus /comma
/hyphen /period /slash /zero /one
/two /three /four /five /six
/seven /eight /nine /colon /semicolon
/less /equal /greater /question /at
/A /B /C /D /E
/F /G /H /I /J
/K /L /M /N /O
/P /Q /R /S /T
/U /V /W /X /Y
/Z /bracketleft /backslash /bracketright /asciicircum
/underscore /quoteleft /a /b /c
/d /e /f /g /h
/i /j /k /l /m
/n /o /p /q /r
/s /t /u /v /w
/x /y /z /braceleft /bar
/braceright /asciitilde /bullet /Euro /bullet
/quotesinglbase /florin /quotedblbase /ellipsis /dagger
/daggerdbl /circumflex /perthousand /Scaron /guilsinglleft
/OE /bullet /Zcaron /bullet /bullet
/quoteleft /quoteright /quotedblleft /quotedblright /bullet
/endash /emdash /asciitilde /trademark /scaron
/guilsinglright /oe /bullet /zcaron /Ydieresis
/space /exclamdown /cent /sterling /currency
/yen /brokenbar /section /dieresis /copyright
/ordfeminine /guillemotleft /logicalnot /sfthyphen /registered
/macron /degree /plusminus /twosuperior /threesuperior
/acute /mu /paragraph /middot /cedilla
/onesuperior /ordmasculine /guillemotright /onequarter /onehalf
/threequarters /questiondown /Agrave /Aacute /Acircumflex
/Atilde /Adieresis /Aring /AE /Ccedilla
/Egrave /Eacute /Ecircumflex /Edieresis /Igrave
/Iacute /Icircumflex /Idieresis /Eth /Ntilde
/Ograve /Oacute /Ocircumflex /Otilde /Odieresis
/multiply /Oslash /Ugrave /Uacute /Ucircumflex
/Udieresis /Yacute /Thorn /germandbls /agrave
/aacute /acircumflex /atilde /adieresis /aring
/ae /ccedilla /egrave /eacute /ecircumflex
/edieresis /igrave /iacute /icircumflex /idieresis
/eth /ntilde /ograve /oacute /ocircumflex
/otilde /odieresis /divide /oslash /ugrave
/uacute /ucircumflex /udieresis /yacute /thorn
/ydieresis
] def
%%EndResource
%FOPBeginFontReencode
/Courier-Bold findfont
dup length dict begin
  {1 index /FID ne {def} {pop pop} ifelse} forall
  /Encoding WinAnsiEncoding def
  currentdict
end
/Courier-Bold exch definefont pop
/Helvetica findfont
dup length dict begin
  {1 index /FID ne {def} {pop pop} ifelse} forall
  /Encoding WinAnsiEncoding def
  currentdict
end
/Helvetica exch definefont pop
/Courier-BoldOblique findfont
dup length dict begin
  {1 index /FID ne {def} {pop pop} ifelse} forall
  /Encoding WinAnsiEncoding def
  currentdict
end
/Courier-BoldOblique exch definefont pop
/Courier-Oblique findfont
dup length dict begin
  {1 index /FID ne {def} {pop pop} ifelse} forall
  /Encoding WinAnsiEncoding def
  currentdict
end
/Courier-Oblique exch definefont pop
/Times-Roman findfont
dup length dict begin
  {1 index /FID ne {def} {pop pop} ifelse} forall
  /Encoding WinAnsiEncoding def
  currentdict
end
/Times-Roman exch definefont pop
/Helvetica-BoldOblique findfont
dup length dict begin
  {1 index /FID ne {def} {pop pop} ifelse} forall
  /Encoding WinAnsiEncoding def
  currentdict
end
/Helvetica-BoldOblique exch definefont pop
/Helvetica-Bold findfont
dup length dict begin
  {1 index /FID ne {def} {pop pop} ifelse} forall
  /Encoding WinAnsiEncoding def
  currentdict
end
/Helvetica-Bold exch definefont pop
/Helvetica-Oblique findfont
dup length dict begin
  {1 index /FID ne {def} {pop pop} ifelse} forall
  /Encoding WinAnsiEncoding def
  currentdict
end
/Helvetica-Oblique exch definefont pop
/Times-BoldItalic findfont
dup length dict begin
  {1 index /FID ne {def} {pop pop} ifelse} forall
  /Encoding WinAnsiEncoding def
  currentdict
end
/Times-BoldItalic exch definefont pop
/Courier findfont
dup length dict begin
  {1 index /FID ne {def} {pop pop} ifelse} forall
  /Encoding WinAnsiEncoding def
  currentdict
end
/Courier exch definefont pop
/Times-Italic findfont
dup length dict begin
  {1 index /FID ne {def} {pop pop} ifelse} forall
  /Encoding WinAnsiEncoding def
  currentdict
end
/Times-Italic exch definefont pop
/Times-Bold findfont
dup length dict begin
  {1 index /FID ne {def} {pop pop} ifelse} forall
  /Encoding WinAnsiEncoding def
  currentdict
end
/Times-Bold exch definefont pop
%FOPEndFontReencode
%%EndProlog
%%Page: 1 1
%%PageBoundingBox: 0 0 560 420
%%BeginPageSetup
[1 0 0 -1 0 420] CT
%%EndPageSetup
GS
1 GC
N
0 0 560 420 re
f
GR
GS
1 GC
N
0 0 560 420 re
f
GR
GS
1 GC
N
73 175 M
507 175 L
507 31 L
73 31 L
cp
f
GR
GS
0.873 GC
1 LJ
0.5 LW
N
73 175 M
73 31 L
S
GR
GS
0.873 GC
1 LJ
0.5 LW
N
116.4 175 M
116.4 31 L
S
GR
GS
0.873 GC
1 LJ
0.5 LW
N
159.8 175 M
159.8 31 L
S
GR
GS
0.873 GC
1 LJ
0.5 LW
N
203.2 175 M
203.2 31 L
S
GR
GS
0.873 GC
1 LJ
0.5 LW
N
246.6 175 M
246.6 31 L
S
GR
GS
0.873 GC
1 LJ
0.5 LW
N
290 175 M
290 31 L
S
GR
GS
0.873 GC
1 LJ
0.5 LW
N
333.4 175 M
333.4 31 L
S
GR
GS
0.873 GC
1 LJ
0.5 LW
N
376.8 175 M
376.8 31 L
S
GR
GS
0.873 GC
1 LJ
0.5 LW
N
420.2 175 M
420.2 31 L
S
GR
GS
0.873 GC
1 LJ
0.5 LW
N
463.6 175 M
463.6 31 L
S
GR
GS
0.873 GC
1 LJ
0.5 LW
N
507 175 M
507 31 L
S
GR
GS
0.873 GC
1 LJ
0.5 LW
N
507 175 M
73 175 L
S
GR
GS
0.873 GC
1 LJ
0.5 LW
N
507 151 M
73 151 L
S
GR
GS
0.873 GC
1 LJ
0.5 LW
N
507 127 M
73 127 L
S
GR
GS
0.873 GC
1 LJ
0.5 LW
N
507 103 M
73 103 L
S
GR
GS
0.873 GC
1 LJ
0.5 LW
N
507 79 M
73 79 L
S
GR
GS
0.873 GC
1 LJ
0.5 LW
N
507 55 M
73 55 L
S
GR
GS
0.873 GC
1 LJ
0.5 LW
N
507 31 M
73 31 L
S
GR
GS
0.149 GC
2 setlinecap
1 LJ
0.5 LW
N
73 175 M
507 175 L
S
GR
GS
0.149 GC
2 setlinecap
1 LJ
0.5 LW
N
73 31 M
507 31 L
S
GR
GS
0.149 GC
2 setlinecap
1 LJ
0.5 LW
N
73 175 M
73 170.66 L
S
GR
GS
0.149 GC
2 setlinecap
1 LJ
0.5 LW
N
116.4 175 M
116.4 170.66 L
S
GR
GS
0.149 GC
2 setlinecap
1 LJ
0.5 LW
N
159.8 175 M
159.8 170.66 L
S
GR
GS
0.149 GC
2 setlinecap
1 LJ
0.5 LW
N
203.2 175 M
203.2 170.66 L
S
GR
GS
0.149 GC
2 setlinecap
1 LJ
0.5 LW
N
246.6 175 M
246.6 170.66 L
S
GR
GS
0.149 GC
2 setlinecap
1 LJ
0.5 LW
N
290 175 M
290 170.66 L
S
GR
GS
0.149 GC
2 setlinecap
1 LJ
0.5 LW
N
333.4 175 M
333.4 170.66 L
S
GR
GS
0.149 GC
2 setlinecap
1 LJ
0.5 LW
N
376.8 175 M
376.8 170.66 L
S
GR
GS
0.149 GC
2 setlinecap
1 LJ
0.5 LW
N
420.2 175 M
420.2 170.66 L
S
GR
GS
0.149 GC
2 setlinecap
1 LJ
0.5 LW
N
463.6 175 M
463.6 170.66 L
S
GR
GS
0.149 GC
2 setlinecap
1 LJ
0.5 LW
N
507 175 M
507 170.66 L
S
GR
GS
0.149 GC
2 setlinecap
1 LJ
0.5 LW
N
73 31 M
73 35.34 L
S
GR
GS
0.149 GC
2 setlinecap
1 LJ
0.5 LW
N
116.4 31 M
116.4 35.34 L
S
GR
GS
0.149 GC
2 setlinecap
1 LJ
0.5 LW
N
159.8 31 M
159.8 35.34 L
S
GR
GS
0.149 GC
2 setlinecap
1 LJ
0.5 LW
N
203.2 31 M
203.2 35.34 L
S
GR
GS
0.149 GC
2 setlinecap
1 LJ
0.5 LW
N
246.6 31 M
246.6 35.34 L
S
GR
GS
0.149 GC
2 setlinecap
1 LJ
0.5 LW
N
290 31 M
290 35.34 L
S
GR
GS
0.149 GC
2 setlinecap
1 LJ
0.5 LW
N
333.4 31 M
333.4 35.34 L
S
GR
GS
0.149 GC
2 setlinecap
1 LJ
0.5 LW
N
376.8 31 M
376.8 35.34 L
S
GR
GS
0.149 GC
2 setlinecap
1 LJ
0.5 LW
N
420.2 31 M
420.2 35.34 L
S
GR
GS
0.149 GC
2 setlinecap
1 LJ
0.5 LW
N
463.6 31 M
463.6 35.34 L
S
GR
GS
0.149 GC
2 setlinecap
1 LJ
0.5 LW
N
507 31 M
507 35.34 L
S
GR
GS
[1 0 0 1 73 179] CT
0.149 GC
/Helvetica 10 F
GS
[1 0 0 1 0 0] CT
-3 10 moveto 
1 -1 scale
(0) t 
GR
GR
GS
[1 0 0 1 116.4 179] CT
0.149 GC
/Helvetica 10 F
GS
[1 0 0 1 0 0] CT
-6 10 moveto 
1 -1 scale
(10) t 
GR
GR
GS
[1 0 0 1 159.8 179] CT
0.149 GC
/Helvetica 10 F
GS
[1 0 0 1 0 0] CT
-6 10 moveto 
1 -1 scale
(20) t 
GR
GR
GS
[1 0 0 1 203.2 179] CT
0.149 GC
/Helvetica 10 F
GS
[1 0 0 1 0 0] CT
-6 10 moveto 
1 -1 scale
(30) t 
GR
GR
GS
[1 0 0 1 246.60001 179] CT
0.149 GC
/Helvetica 10 F
GS
[1 0 0 1 0 0] CT
-6 10 moveto 
1 -1 scale
(40) t 
GR
GR
GS
[1 0 0 1 290 179] CT
0.149 GC
/Helvetica 10 F
GS
[1 0 0 1 0 0] CT
-6 10 moveto 
1 -1 scale
(50) t 
GR
GR
GS
[1 0 0 1 333.39999 179] CT
0.149 GC
/Helvetica 10 F
GS
[1 0 0 1 0 0] CT
-6 10 moveto 
1 -1 scale
(60) t 
GR
GR
GS
[1 0 0 1 376.79999 179] CT
0.149 GC
/Helvetica 10 F
GS
[1 0 0 1 0 0] CT
-6 10 moveto 
1 -1 scale
(70) t 
GR
GR
GS
[1 0 0 1 420.20001 179] CT
0.149 GC
/Helvetica 10 F
GS
[1 0 0 1 0 0] CT
-6 10 moveto 
1 -1 scale
(80) t 
GR
GR
GS
[1 0 0 1 463.60001 179] CT
0.149 GC
/Helvetica 10 F
GS
[1 0 0 1 0 0] CT
-6 10 moveto 
1 -1 scale
(90) t 
GR
GR
GS
[1 0 0 1 507 179] CT
0.149 GC
/Helvetica 10 F
GS
[1 0 0 1 0 0] CT
-8.5 10 moveto 
1 -1 scale
(100) t 
GR
GR
GS
[1 0 0 1 290.00021 193] CT
0.149 GC
/Helvetica-Bold 12 F
GS
[1 0 0 1 0 0] CT
-78 12 moveto 
1 -1 scale
(Camera translation \(in mm\)) t 
GR
GR
GS
0.149 GC
2 setlinecap
1 LJ
0.5 LW
N
73 175 M
73 31 L
S
GR
GS
0.149 GC
2 setlinecap
1 LJ
0.5 LW
N
507 175 M
507 31 L
S
GR
GS
0.149 GC
2 setlinecap
1 LJ
0.5 LW
N
73 175 M
77.34 175 L
S
GR
GS
0.149 GC
2 setlinecap
1 LJ
0.5 LW
N
73 151 M
77.34 151 L
S
GR
GS
0.149 GC
2 setlinecap
1 LJ
0.5 LW
N
73 127 M
77.34 127 L
S
GR
GS
0.149 GC
2 setlinecap
1 LJ
0.5 LW
N
73 103 M
77.34 103 L
S
GR
GS
0.149 GC
2 setlinecap
1 LJ
0.5 LW
N
73 79 M
77.34 79 L
S
GR
GS
0.149 GC
2 setlinecap
1 LJ
0.5 LW
N
73 55 M
77.34 55 L
S
GR
GS
0.149 GC
2 setlinecap
1 LJ
0.5 LW
N
73 31 M
77.34 31 L
S
GR
GS
0.149 GC
2 setlinecap
1 LJ
0.5 LW
N
507 175 M
502.66 175 L
S
GR
GS
0.149 GC
2 setlinecap
1 LJ
0.5 LW
N
507 151 M
502.66 151 L
S
GR
GS
0.149 GC
2 setlinecap
1 LJ
0.5 LW
N
507 127 M
502.66 127 L
S
GR
GS
0.149 GC
2 setlinecap
1 LJ
0.5 LW
N
507 103 M
502.66 103 L
S
GR
GS
0.149 GC
2 setlinecap
1 LJ
0.5 LW
N
507 79 M
502.66 79 L
S
GR
GS
0.149 GC
2 setlinecap
1 LJ
0.5 LW
N
507 55 M
502.66 55 L
S
GR
GS
0.149 GC
2 setlinecap
1 LJ
0.5 LW
N
507 31 M
502.66 31 L
S
GR
GS
[1 0 0 1 69 175] CT
0.149 GC
/Helvetica 10 F
GS
[1 0 0 1 0 0] CT
-18 3.5 moveto 
1 -1 scale
(-0.1) t 
GR
GR
GS
[1 0 0 1 69 151] CT
0.149 GC
/Helvetica 10 F
GS
[1 0 0 1 0 0] CT
-6 3.5 moveto 
1 -1 scale
(0) t 
GR
GR
GS
[1 0 0 1 69 127] CT
0.149 GC
/Helvetica 10 F
GS
[1 0 0 1 0 0] CT
-14 3.5 moveto 
1 -1 scale
(0.1) t 
GR
GR
GS
[1 0 0 1 69 103] CT
0.149 GC
/Helvetica 10 F
GS
[1 0 0 1 0 0] CT
-14 3.5 moveto 
1 -1 scale
(0.2) t 
GR
GR
GS
[1 0 0 1 69 79] CT
0.149 GC
/Helvetica 10 F
GS
[1 0 0 1 0 0] CT
-14 3.5 moveto 
1 -1 scale
(0.3) t 
GR
GR
GS
[1 0 0 1 69 55] CT
0.149 GC
/Helvetica 10 F
GS
[1 0 0 1 0 0] CT
-14 3.5 moveto 
1 -1 scale
(0.4) t 
GR
GR
GS
[1 0 0 1 69 31] CT
0.149 GC
/Helvetica 10 F
GS
[1 0 0 1 0 0] CT
-14 3.5 moveto 
1 -1 scale
(0.5) t 
GR
GR
GS
[0 -1 1 0 48 102.99993] CT
0.149 GC
/Helvetica-Bold 12 F
GS
[1 0 0 1 0 0] CT
-56 -3 moveto 
1 -1 scale
(Depth error \(in mm\)) t 
GR
GR
GS
[1 0 0 1 73 151] CT
0 0 1 RC
N
2.667 0 M
2.667 1.473 1.473 2.667 0 2.667 C
-1.473 2.667 -2.667 1.473 -2.667 0 C
-2.667 -1.473 -1.473 -2.667 0 -2.667 C
1.473 -2.667 2.667 -1.473 2.667 0 C
cp
f
GR
GS
[1 0 0 1 77.34 149.94426] CT
0 0 1 RC
N
2.667 0 M
2.667 1.473 1.473 2.667 0 2.667 C
-1.473 2.667 -2.667 1.473 -2.667 0 C
-2.667 -1.473 -1.473 -2.667 0 -2.667 C
1.473 -2.667 2.667 -1.473 2.667 0 C
cp
f
GR
GS
[1 0 0 1 81.68 148.9529] CT
0 0 1 RC
N
2.667 0 M
2.667 1.473 1.473 2.667 0 2.667 C
-1.473 2.667 -2.667 1.473 -2.667 0 C
-2.667 -1.473 -1.473 -2.667 0 -2.667 C
1.473 -2.667 2.667 -1.473 2.667 0 C
cp
f
GR
GS
[1 0 0 1 86.02 147.85333] CT
0 0 1 RC
N
2.667 0 M
2.667 1.473 1.473 2.667 0 2.667 C
-1.473 2.667 -2.667 1.473 -2.667 0 C
-2.667 -1.473 -1.473 -2.667 0 -2.667 C
1.473 -2.667 2.667 -1.473 2.667 0 C
cp
f
GR
GS
[1 0 0 1 90.36 146.80998] CT
0 0 1 RC
N
2.667 0 M
2.667 1.473 1.473 2.667 0 2.667 C
-1.473 2.667 -2.667 1.473 -2.667 0 C
-2.667 -1.473 -1.473 -2.667 0 -2.667 C
1.473 -2.667 2.667 -1.473 2.667 0 C
cp
f
GR
GS
[1 0 0 1 94.7 145.87617] CT
0 0 1 RC
N
2.667 0 M
2.667 1.473 1.473 2.667 0 2.667 C
-1.473 2.667 -2.667 1.473 -2.667 0 C
-2.667 -1.473 -1.473 -2.667 0 -2.667 C
1.473 -2.667 2.667 -1.473 2.667 0 C
cp
f
GR
GS
[1 0 0 1 99.04 144.83006] CT
0 0 1 RC
N
2.667 0 M
2.667 1.473 1.473 2.667 0 2.667 C
-1.473 2.667 -2.667 1.473 -2.667 0 C
-2.667 -1.473 -1.473 -2.667 0 -2.667 C
1.473 -2.667 2.667 -1.473 2.667 0 C
cp
f
GR
GS
[1 0 0 1 103.38 143.73726] CT
0 0 1 RC
N
2.667 0 M
2.667 1.473 1.473 2.667 0 2.667 C
-1.473 2.667 -2.667 1.473 -2.667 0 C
-2.667 -1.473 -1.473 -2.667 0 -2.667 C
1.473 -2.667 2.667 -1.473 2.667 0 C
cp
f
GR
GS
[1 0 0 1 107.72 142.69112] CT
0 0 1 RC
N
2.667 0 M
2.667 1.473 1.473 2.667 0 2.667 C
-1.473 2.667 -2.667 1.473 -2.667 0 C
-2.667 -1.473 -1.473 -2.667 0 -2.667 C
1.473 -2.667 2.667 -1.473 2.667 0 C
cp
f
GR
GS
[1 0 0 1 112.06 141.61499] CT
0 0 1 RC
N
2.667 0 M
2.667 1.473 1.473 2.667 0 2.667 C
-1.473 2.667 -2.667 1.473 -2.667 0 C
-2.667 -1.473 -1.473 -2.667 0 -2.667 C
1.473 -2.667 2.667 -1.473 2.667 0 C
cp
f
GR
GS
[1 0 0 1 116.4 140.9912] CT
0 0 1 RC
N
2.667 0 M
2.667 1.473 1.473 2.667 0 2.667 C
-1.473 2.667 -2.667 1.473 -2.667 0 C
-2.667 -1.473 -1.473 -2.667 0 -2.667 C
1.473 -2.667 2.667 -1.473 2.667 0 C
cp
f
GR
GS
[1 0 0 1 120.74 139.55319] CT
0 0 1 RC
N
2.667 0 M
2.667 1.473 1.473 2.667 0 2.667 C
-1.473 2.667 -2.667 1.473 -2.667 0 C
-2.667 -1.473 -1.473 -2.667 0 -2.667 C
1.473 -2.667 2.667 -1.473 2.667 0 C
cp
f
GR
GS
[1 0 0 1 125.08 138.50523] CT
0 0 1 RC
N
2.667 0 M
2.667 1.473 1.473 2.667 0 2.667 C
-1.473 2.667 -2.667 1.473 -2.667 0 C
-2.667 -1.473 -1.473 -2.667 0 -2.667 C
1.473 -2.667 2.667 -1.473 2.667 0 C
cp
f
GR
GS
[1 0 0 1 129.42 137.37434] CT
0 0 1 RC
N
2.667 0 M
2.667 1.473 1.473 2.667 0 2.667 C
-1.473 2.667 -2.667 1.473 -2.667 0 C
-2.667 -1.473 -1.473 -2.667 0 -2.667 C
1.473 -2.667 2.667 -1.473 2.667 0 C
cp
f
GR
GS
[1 0 0 1 133.75999 136.53738] CT
0 0 1 RC
N
2.667 0 M
2.667 1.473 1.473 2.667 0 2.667 C
-1.473 2.667 -2.667 1.473 -2.667 0 C
-2.667 -1.473 -1.473 -2.667 0 -2.667 C
1.473 -2.667 2.667 -1.473 2.667 0 C
cp
f
GR
GS
[1 0 0 1 138.10001 135.47125] CT
0 0 1 RC
N
2.667 0 M
2.667 1.473 1.473 2.667 0 2.667 C
-1.473 2.667 -2.667 1.473 -2.667 0 C
-2.667 -1.473 -1.473 -2.667 0 -2.667 C
1.473 -2.667 2.667 -1.473 2.667 0 C
cp
f
GR
GS
[1 0 0 1 142.44 134.49326] CT
0 0 1 RC
N
2.667 0 M
2.667 1.473 1.473 2.667 0 2.667 C
-1.473 2.667 -2.667 1.473 -2.667 0 C
-2.667 -1.473 -1.473 -2.667 0 -2.667 C
1.473 -2.667 2.667 -1.473 2.667 0 C
cp
f
GR
GS
[1 0 0 1 146.78 133.64111] CT
0 0 1 RC
N
2.667 0 M
2.667 1.473 1.473 2.667 0 2.667 C
-1.473 2.667 -2.667 1.473 -2.667 0 C
-2.667 -1.473 -1.473 -2.667 0 -2.667 C
1.473 -2.667 2.667 -1.473 2.667 0 C
cp
f
GR
GS
[1 0 0 1 151.12 132.68297] CT
0 0 1 RC
N
2.667 0 M
2.667 1.473 1.473 2.667 0 2.667 C
-1.473 2.667 -2.667 1.473 -2.667 0 C
-2.667 -1.473 -1.473 -2.667 0 -2.667 C
1.473 -2.667 2.667 -1.473 2.667 0 C
cp
f
GR
GS
[1 0 0 1 155.46001 131.10983] CT
0 0 1 RC
N
2.667 0 M
2.667 1.473 1.473 2.667 0 2.667 C
-1.473 2.667 -2.667 1.473 -2.667 0 C
-2.667 -1.473 -1.473 -2.667 0 -2.667 C
1.473 -2.667 2.667 -1.473 2.667 0 C
cp
f
GR
GS
[1 0 0 1 159.8 129.88289] CT
0 0 1 RC
N
2.667 0 M
2.667 1.473 1.473 2.667 0 2.667 C
-1.473 2.667 -2.667 1.473 -2.667 0 C
-2.667 -1.473 -1.473 -2.667 0 -2.667 C
1.473 -2.667 2.667 -1.473 2.667 0 C
cp
f
GR
GS
[1 0 0 1 164.14 128.35139] CT
0 0 1 RC
N
2.667 0 M
2.667 1.473 1.473 2.667 0 2.667 C
-1.473 2.667 -2.667 1.473 -2.667 0 C
-2.667 -1.473 -1.473 -2.667 0 -2.667 C
1.473 -2.667 2.667 -1.473 2.667 0 C
cp
f
GR
GS
[1 0 0 1 168.48 127.6355] CT
0 0 1 RC
N
2.667 0 M
2.667 1.473 1.473 2.667 0 2.667 C
-1.473 2.667 -2.667 1.473 -2.667 0 C
-2.667 -1.473 -1.473 -2.667 0 -2.667 C
1.473 -2.667 2.667 -1.473 2.667 0 C
cp
f
GR
GS
[1 0 0 1 172.82001 125.96421] CT
0 0 1 RC
N
2.667 0 M
2.667 1.473 1.473 2.667 0 2.667 C
-1.473 2.667 -2.667 1.473 -2.667 0 C
-2.667 -1.473 -1.473 -2.667 0 -2.667 C
1.473 -2.667 2.667 -1.473 2.667 0 C
cp
f
GR
GS
[1 0 0 1 177.16 125.04101] CT
0 0 1 RC
N
2.667 0 M
2.667 1.473 1.473 2.667 0 2.667 C
-1.473 2.667 -2.667 1.473 -2.667 0 C
-2.667 -1.473 -1.473 -2.667 0 -2.667 C
1.473 -2.667 2.667 -1.473 2.667 0 C
cp
f
GR
GS
[1 0 0 1 181.5 124.49878] CT
0 0 1 RC
N
2.667 0 M
2.667 1.473 1.473 2.667 0 2.667 C
-1.473 2.667 -2.667 1.473 -2.667 0 C
-2.667 -1.473 -1.473 -2.667 0 -2.667 C
1.473 -2.667 2.667 -1.473 2.667 0 C
cp
f
GR
GS
[1 0 0 1 185.84 124.47312] CT
0 0 1 RC
N
2.667 0 M
2.667 1.473 1.473 2.667 0 2.667 C
-1.473 2.667 -2.667 1.473 -2.667 0 C
-2.667 -1.473 -1.473 -2.667 0 -2.667 C
1.473 -2.667 2.667 -1.473 2.667 0 C
cp
f
GR
GS
[1 0 0 1 190.17999 123.27504] CT
0 0 1 RC
N
2.667 0 M
2.667 1.473 1.473 2.667 0 2.667 C
-1.473 2.667 -2.667 1.473 -2.667 0 C
-2.667 -1.473 -1.473 -2.667 0 -2.667 C
1.473 -2.667 2.667 -1.473 2.667 0 C
cp
f
GR
GS
[1 0 0 1 194.52 122.17179] CT
0 0 1 RC
N
2.667 0 M
2.667 1.473 1.473 2.667 0 2.667 C
-1.473 2.667 -2.667 1.473 -2.667 0 C
-2.667 -1.473 -1.473 -2.667 0 -2.667 C
1.473 -2.667 2.667 -1.473 2.667 0 C
cp
f
GR
GS
[1 0 0 1 198.86 121.591] CT
0 0 1 RC
N
2.667 0 M
2.667 1.473 1.473 2.667 0 2.667 C
-1.473 2.667 -2.667 1.473 -2.667 0 C
-2.667 -1.473 -1.473 -2.667 0 -2.667 C
1.473 -2.667 2.667 -1.473 2.667 0 C
cp
f
GR
GS
[1 0 0 1 203.2 119.87003] CT
0 0 1 RC
N
2.667 0 M
2.667 1.473 1.473 2.667 0 2.667 C
-1.473 2.667 -2.667 1.473 -2.667 0 C
-2.667 -1.473 -1.473 -2.667 0 -2.667 C
1.473 -2.667 2.667 -1.473 2.667 0 C
cp
f
GR
GS
[1 0 0 1 207.53999 118.82333] CT
0 0 1 RC
N
2.667 0 M
2.667 1.473 1.473 2.667 0 2.667 C
-1.473 2.667 -2.667 1.473 -2.667 0 C
-2.667 -1.473 -1.473 -2.667 0 -2.667 C
1.473 -2.667 2.667 -1.473 2.667 0 C
cp
f
GR
GS
[1 0 0 1 211.88 117.22895] CT
0 0 1 RC
N
2.667 0 M
2.667 1.473 1.473 2.667 0 2.667 C
-1.473 2.667 -2.667 1.473 -2.667 0 C
-2.667 -1.473 -1.473 -2.667 0 -2.667 C
1.473 -2.667 2.667 -1.473 2.667 0 C
cp
f
GR
GS
[1 0 0 1 216.22 115.47393] CT
0 0 1 RC
N
2.667 0 M
2.667 1.473 1.473 2.667 0 2.667 C
-1.473 2.667 -2.667 1.473 -2.667 0 C
-2.667 -1.473 -1.473 -2.667 0 -2.667 C
1.473 -2.667 2.667 -1.473 2.667 0 C
cp
f
GR
GS
[1 0 0 1 220.56 115.92621] CT
0 0 1 RC
N
2.667 0 M
2.667 1.473 1.473 2.667 0 2.667 C
-1.473 2.667 -2.667 1.473 -2.667 0 C
-2.667 -1.473 -1.473 -2.667 0 -2.667 C
1.473 -2.667 2.667 -1.473 2.667 0 C
cp
f
GR
GS
[1 0 0 1 224.89999 114.4442] CT
0 0 1 RC
N
2.667 0 M
2.667 1.473 1.473 2.667 0 2.667 C
-1.473 2.667 -2.667 1.473 -2.667 0 C
-2.667 -1.473 -1.473 -2.667 0 -2.667 C
1.473 -2.667 2.667 -1.473 2.667 0 C
cp
f
GR
GS
[1 0 0 1 229.24001 113.64797] CT
0 0 1 RC
N
2.667 0 M
2.667 1.473 1.473 2.667 0 2.667 C
-1.473 2.667 -2.667 1.473 -2.667 0 C
-2.667 -1.473 -1.473 -2.667 0 -2.667 C
1.473 -2.667 2.667 -1.473 2.667 0 C
cp
f
GR
GS
[1 0 0 1 233.58 112.59225] CT
0 0 1 RC
N
2.667 0 M
2.667 1.473 1.473 2.667 0 2.667 C
-1.473 2.667 -2.667 1.473 -2.667 0 C
-2.667 -1.473 -1.473 -2.667 0 -2.667 C
1.473 -2.667 2.667 -1.473 2.667 0 C
cp
f
GR
GS
[1 0 0 1 237.92 111.28114] CT
0 0 1 RC
N
2.667 0 M
2.667 1.473 1.473 2.667 0 2.667 C
-1.473 2.667 -2.667 1.473 -2.667 0 C
-2.667 -1.473 -1.473 -2.667 0 -2.667 C
1.473 -2.667 2.667 -1.473 2.667 0 C
cp
f
GR
GS
[1 0 0 1 242.25999 110.82742] CT
0 0 1 RC
N
2.667 0 M
2.667 1.473 1.473 2.667 0 2.667 C
-1.473 2.667 -2.667 1.473 -2.667 0 C
-2.667 -1.473 -1.473 -2.667 0 -2.667 C
1.473 -2.667 2.667 -1.473 2.667 0 C
cp
f
GR
GS
[1 0 0 1 246.60001 108.05849] CT
0 0 1 RC
N
2.667 0 M
2.667 1.473 1.473 2.667 0 2.667 C
-1.473 2.667 -2.667 1.473 -2.667 0 C
-2.667 -1.473 -1.473 -2.667 0 -2.667 C
1.473 -2.667 2.667 -1.473 2.667 0 C
cp
f
GR
GS
[1 0 0 1 250.94 107.927] CT
0 0 1 RC
N
2.667 0 M
2.667 1.473 1.473 2.667 0 2.667 C
-1.473 2.667 -2.667 1.473 -2.667 0 C
-2.667 -1.473 -1.473 -2.667 0 -2.667 C
1.473 -2.667 2.667 -1.473 2.667 0 C
cp
f
GR
GS
[1 0 0 1 255.28 105.90675] CT
0 0 1 RC
N
2.667 0 M
2.667 1.473 1.473 2.667 0 2.667 C
-1.473 2.667 -2.667 1.473 -2.667 0 C
-2.667 -1.473 -1.473 -2.667 0 -2.667 C
1.473 -2.667 2.667 -1.473 2.667 0 C
cp
f
GR
GS
[1 0 0 1 259.62 105.26391] CT
0 0 1 RC
N
2.667 0 M
2.667 1.473 1.473 2.667 0 2.667 C
-1.473 2.667 -2.667 1.473 -2.667 0 C
-2.667 -1.473 -1.473 -2.667 0 -2.667 C
1.473 -2.667 2.667 -1.473 2.667 0 C
cp
f
GR
GS
[1 0 0 1 263.95999 104.95285] CT
0 0 1 RC
N
2.667 0 M
2.667 1.473 1.473 2.667 0 2.667 C
-1.473 2.667 -2.667 1.473 -2.667 0 C
-2.667 -1.473 -1.473 -2.667 0 -2.667 C
1.473 -2.667 2.667 -1.473 2.667 0 C
cp
f
GR
GS
[1 0 0 1 268.29999 104.85044] CT
0 0 1 RC
N
2.667 0 M
2.667 1.473 1.473 2.667 0 2.667 C
-1.473 2.667 -2.667 1.473 -2.667 0 C
-2.667 -1.473 -1.473 -2.667 0 -2.667 C
1.473 -2.667 2.667 -1.473 2.667 0 C
cp
f
GR
GS
[1 0 0 1 272.64001 101.87849] CT
0 0 1 RC
N
2.667 0 M
2.667 1.473 1.473 2.667 0 2.667 C
-1.473 2.667 -2.667 1.473 -2.667 0 C
-2.667 -1.473 -1.473 -2.667 0 -2.667 C
1.473 -2.667 2.667 -1.473 2.667 0 C
cp
f
GR
GS
[1 0 0 1 276.98001 101.3529] CT
0 0 1 RC
N
2.667 0 M
2.667 1.473 1.473 2.667 0 2.667 C
-1.473 2.667 -2.667 1.473 -2.667 0 C
-2.667 -1.473 -1.473 -2.667 0 -2.667 C
1.473 -2.667 2.667 -1.473 2.667 0 C
cp
f
GR
GS
[1 0 0 1 281.32001 101.50792] CT
0 0 1 RC
N
2.667 0 M
2.667 1.473 1.473 2.667 0 2.667 C
-1.473 2.667 -2.667 1.473 -2.667 0 C
-2.667 -1.473 -1.473 -2.667 0 -2.667 C
1.473 -2.667 2.667 -1.473 2.667 0 C
cp
f
GR
GS
[1 0 0 1 285.66 99.94908] CT
0 0 1 RC
N
2.667 0 M
2.667 1.473 1.473 2.667 0 2.667 C
-1.473 2.667 -2.667 1.473 -2.667 0 C
-2.667 -1.473 -1.473 -2.667 0 -2.667 C
1.473 -2.667 2.667 -1.473 2.667 0 C
cp
f
GR
GS
[1 0 0 1 290 99.06409] CT
0 0 1 RC
N
2.667 0 M
2.667 1.473 1.473 2.667 0 2.667 C
-1.473 2.667 -2.667 1.473 -2.667 0 C
-2.667 -1.473 -1.473 -2.667 0 -2.667 C
1.473 -2.667 2.667 -1.473 2.667 0 C
cp
f
GR
GS
[1 0 0 1 294.34 98.37135] CT
0 0 1 RC
N
2.667 0 M
2.667 1.473 1.473 2.667 0 2.667 C
-1.473 2.667 -2.667 1.473 -2.667 0 C
-2.667 -1.473 -1.473 -2.667 0 -2.667 C
1.473 -2.667 2.667 -1.473 2.667 0 C
cp
f
GR
GS
[1 0 0 1 298.67999 96.18227] CT
0 0 1 RC
N
2.667 0 M
2.667 1.473 1.473 2.667 0 2.667 C
-1.473 2.667 -2.667 1.473 -2.667 0 C
-2.667 -1.473 -1.473 -2.667 0 -2.667 C
1.473 -2.667 2.667 -1.473 2.667 0 C
cp
f
GR
GS
[1 0 0 1 303.01999 95.69221] CT
0 0 1 RC
N
2.667 0 M
2.667 1.473 1.473 2.667 0 2.667 C
-1.473 2.667 -2.667 1.473 -2.667 0 C
-2.667 -1.473 -1.473 -2.667 0 -2.667 C
1.473 -2.667 2.667 -1.473 2.667 0 C
cp
f
GR
GS
[1 0 0 1 307.35999 95.29501] CT
0 0 1 RC
N
2.667 0 M
2.667 1.473 1.473 2.667 0 2.667 C
-1.473 2.667 -2.667 1.473 -2.667 0 C
-2.667 -1.473 -1.473 -2.667 0 -2.667 C
1.473 -2.667 2.667 -1.473 2.667 0 C
cp
f
GR
GS
[1 0 0 1 311.70001 93.50822] CT
0 0 1 RC
N
2.667 0 M
2.667 1.473 1.473 2.667 0 2.667 C
-1.473 2.667 -2.667 1.473 -2.667 0 C
-2.667 -1.473 -1.473 -2.667 0 -2.667 C
1.473 -2.667 2.667 -1.473 2.667 0 C
cp
f
GR
GS
[1 0 0 1 316.04001 92.04292] CT
0 0 1 RC
N
2.667 0 M
2.667 1.473 1.473 2.667 0 2.667 C
-1.473 2.667 -2.667 1.473 -2.667 0 C
-2.667 -1.473 -1.473 -2.667 0 -2.667 C
1.473 -2.667 2.667 -1.473 2.667 0 C
cp
f
GR
GS
[1 0 0 1 320.38 88.36082] CT
0 0 1 RC
N
2.667 0 M
2.667 1.473 1.473 2.667 0 2.667 C
-1.473 2.667 -2.667 1.473 -2.667 0 C
-2.667 -1.473 -1.473 -2.667 0 -2.667 C
1.473 -2.667 2.667 -1.473 2.667 0 C
cp
f
GR
GS
[1 0 0 1 324.72 88.52522] CT
0 0 1 RC
N
2.667 0 M
2.667 1.473 1.473 2.667 0 2.667 C
-1.473 2.667 -2.667 1.473 -2.667 0 C
-2.667 -1.473 -1.473 -2.667 0 -2.667 C
1.473 -2.667 2.667 -1.473 2.667 0 C
cp
f
GR
GS
[1 0 0 1 329.06 87.8236] CT
0 0 1 RC
N
2.667 0 M
2.667 1.473 1.473 2.667 0 2.667 C
-1.473 2.667 -2.667 1.473 -2.667 0 C
-2.667 -1.473 -1.473 -2.667 0 -2.667 C
1.473 -2.667 2.667 -1.473 2.667 0 C
cp
f
GR
GS
[1 0 0 1 333.39999 88.62023] CT
0 0 1 RC
N
2.667 0 M
2.667 1.473 1.473 2.667 0 2.667 C
-1.473 2.667 -2.667 1.473 -2.667 0 C
-2.667 -1.473 -1.473 -2.667 0 -2.667 C
1.473 -2.667 2.667 -1.473 2.667 0 C
cp
f
GR
GS
[1 0 0 1 337.73999 87.50414] CT
0 0 1 RC
N
2.667 0 M
2.667 1.473 1.473 2.667 0 2.667 C
-1.473 2.667 -2.667 1.473 -2.667 0 C
-2.667 -1.473 -1.473 -2.667 0 -2.667 C
1.473 -2.667 2.667 -1.473 2.667 0 C
cp
f
GR
GS
[1 0 0 1 342.07999 85.07302] CT
0 0 1 RC
N
2.667 0 M
2.667 1.473 1.473 2.667 0 2.667 C
-1.473 2.667 -2.667 1.473 -2.667 0 C
-2.667 -1.473 -1.473 -2.667 0 -2.667 C
1.473 -2.667 2.667 -1.473 2.667 0 C
cp
f
GR
GS
[1 0 0 1 346.42001 84.54869] CT
0 0 1 RC
N
2.667 0 M
2.667 1.473 1.473 2.667 0 2.667 C
-1.473 2.667 -2.667 1.473 -2.667 0 C
-2.667 -1.473 -1.473 -2.667 0 -2.667 C
1.473 -2.667 2.667 -1.473 2.667 0 C
cp
f
GR
GS
[1 0 0 1 350.76001 84.76203] CT
0 0 1 RC
N
2.667 0 M
2.667 1.473 1.473 2.667 0 2.667 C
-1.473 2.667 -2.667 1.473 -2.667 0 C
-2.667 -1.473 -1.473 -2.667 0 -2.667 C
1.473 -2.667 2.667 -1.473 2.667 0 C
cp
f
GR
GS
[1 0 0 1 355.10001 80.08387] CT
0 0 1 RC
N
2.667 0 M
2.667 1.473 1.473 2.667 0 2.667 C
-1.473 2.667 -2.667 1.473 -2.667 0 C
-2.667 -1.473 -1.473 -2.667 0 -2.667 C
1.473 -2.667 2.667 -1.473 2.667 0 C
cp
f
GR
GS
[1 0 0 1 359.44 79.37585] CT
0 0 1 RC
N
2.667 0 M
2.667 1.473 1.473 2.667 0 2.667 C
-1.473 2.667 -2.667 1.473 -2.667 0 C
-2.667 -1.473 -1.473 -2.667 0 -2.667 C
1.473 -2.667 2.667 -1.473 2.667 0 C
cp
f
GR
GS
[1 0 0 1 363.78 80.40527] CT
0 0 1 RC
N
2.667 0 M
2.667 1.473 1.473 2.667 0 2.667 C
-1.473 2.667 -2.667 1.473 -2.667 0 C
-2.667 -1.473 -1.473 -2.667 0 -2.667 C
1.473 -2.667 2.667 -1.473 2.667 0 C
cp
f
GR
GS
[1 0 0 1 368.12 77.30996] CT
0 0 1 RC
N
2.667 0 M
2.667 1.473 1.473 2.667 0 2.667 C
-1.473 2.667 -2.667 1.473 -2.667 0 C
-2.667 -1.473 -1.473 -2.667 0 -2.667 C
1.473 -2.667 2.667 -1.473 2.667 0 C
cp
f
GR
GS
[1 0 0 1 372.45999 77.5614] CT
0 0 1 RC
N
2.667 0 M
2.667 1.473 1.473 2.667 0 2.667 C
-1.473 2.667 -2.667 1.473 -2.667 0 C
-2.667 -1.473 -1.473 -2.667 0 -2.667 C
1.473 -2.667 2.667 -1.473 2.667 0 C
cp
f
GR
GS
[1 0 0 1 376.79999 76.94518] CT
0 0 1 RC
N
2.667 0 M
2.667 1.473 1.473 2.667 0 2.667 C
-1.473 2.667 -2.667 1.473 -2.667 0 C
-2.667 -1.473 -1.473 -2.667 0 -2.667 C
1.473 -2.667 2.667 -1.473 2.667 0 C
cp
f
GR
GS
[1 0 0 1 381.14001 74.75236] CT
0 0 1 RC
N
2.667 0 M
2.667 1.473 1.473 2.667 0 2.667 C
-1.473 2.667 -2.667 1.473 -2.667 0 C
-2.667 -1.473 -1.473 -2.667 0 -2.667 C
1.473 -2.667 2.667 -1.473 2.667 0 C
cp
f
GR
GS
[1 0 0 1 385.48001 73.96019] CT
0 0 1 RC
N
2.667 0 M
2.667 1.473 1.473 2.667 0 2.667 C
-1.473 2.667 -2.667 1.473 -2.667 0 C
-2.667 -1.473 -1.473 -2.667 0 -2.667 C
1.473 -2.667 2.667 -1.473 2.667 0 C
cp
f
GR
GS
[1 0 0 1 389.82001 72.64704] CT
0 0 1 RC
N
2.667 0 M
2.667 1.473 1.473 2.667 0 2.667 C
-1.473 2.667 -2.667 1.473 -2.667 0 C
-2.667 -1.473 -1.473 -2.667 0 -2.667 C
1.473 -2.667 2.667 -1.473 2.667 0 C
cp
f
GR
GS
[1 0 0 1 394.16 74.68363] CT
0 0 1 RC
N
2.667 0 M
2.667 1.473 1.473 2.667 0 2.667 C
-1.473 2.667 -2.667 1.473 -2.667 0 C
-2.667 -1.473 -1.473 -2.667 0 -2.667 C
1.473 -2.667 2.667 -1.473 2.667 0 C
cp
f
GR
GS
[1 0 0 1 398.5 70.16609] CT
0 0 1 RC
N
2.667 0 M
2.667 1.473 1.473 2.667 0 2.667 C
-1.473 2.667 -2.667 1.473 -2.667 0 C
-2.667 -1.473 -1.473 -2.667 0 -2.667 C
1.473 -2.667 2.667 -1.473 2.667 0 C
cp
f
GR
GS
[1 0 0 1 402.84 67.83951] CT
0 0 1 RC
N
2.667 0 M
2.667 1.473 1.473 2.667 0 2.667 C
-1.473 2.667 -2.667 1.473 -2.667 0 C
-2.667 -1.473 -1.473 -2.667 0 -2.667 C
1.473 -2.667 2.667 -1.473 2.667 0 C
cp
f
GR
GS
[1 0 0 1 407.17999 68.86145] CT
0 0 1 RC
N
2.667 0 M
2.667 1.473 1.473 2.667 0 2.667 C
-1.473 2.667 -2.667 1.473 -2.667 0 C
-2.667 -1.473 -1.473 -2.667 0 -2.667 C
1.473 -2.667 2.667 -1.473 2.667 0 C
cp
f
GR
GS
[1 0 0 1 411.51999 70.87553] CT
0 0 1 RC
N
2.667 0 M
2.667 1.473 1.473 2.667 0 2.667 C
-1.473 2.667 -2.667 1.473 -2.667 0 C
-2.667 -1.473 -1.473 -2.667 0 -2.667 C
1.473 -2.667 2.667 -1.473 2.667 0 C
cp
f
GR
GS
[1 0 0 1 415.85999 65.54967] CT
0 0 1 RC
N
2.667 0 M
2.667 1.473 1.473 2.667 0 2.667 C
-1.473 2.667 -2.667 1.473 -2.667 0 C
-2.667 -1.473 -1.473 -2.667 0 -2.667 C
1.473 -2.667 2.667 -1.473 2.667 0 C
cp
f
GR
GS
[1 0 0 1 420.20001 65.18578] CT
0 0 1 RC
N
2.667 0 M
2.667 1.473 1.473 2.667 0 2.667 C
-1.473 2.667 -2.667 1.473 -2.667 0 C
-2.667 -1.473 -1.473 -2.667 0 -2.667 C
1.473 -2.667 2.667 -1.473 2.667 0 C
cp
f
GR
GS
[1 0 0 1 424.54001 66.86753] CT
0 0 1 RC
N
2.667 0 M
2.667 1.473 1.473 2.667 0 2.667 C
-1.473 2.667 -2.667 1.473 -2.667 0 C
-2.667 -1.473 -1.473 -2.667 0 -2.667 C
1.473 -2.667 2.667 -1.473 2.667 0 C
cp
f
GR
GS
[1 0 0 1 428.88 64.80751] CT
0 0 1 RC
N
2.667 0 M
2.667 1.473 1.473 2.667 0 2.667 C
-1.473 2.667 -2.667 1.473 -2.667 0 C
-2.667 -1.473 -1.473 -2.667 0 -2.667 C
1.473 -2.667 2.667 -1.473 2.667 0 C
cp
f
GR
GS
[1 0 0 1 433.22 62.78989] CT
0 0 1 RC
N
2.667 0 M
2.667 1.473 1.473 2.667 0 2.667 C
-1.473 2.667 -2.667 1.473 -2.667 0 C
-2.667 -1.473 -1.473 -2.667 0 -2.667 C
1.473 -2.667 2.667 -1.473 2.667 0 C
cp
f
GR
GS
[1 0 0 1 437.56 60.26634] CT
0 0 1 RC
N
2.667 0 M
2.667 1.473 1.473 2.667 0 2.667 C
-1.473 2.667 -2.667 1.473 -2.667 0 C
-2.667 -1.473 -1.473 -2.667 0 -2.667 C
1.473 -2.667 2.667 -1.473 2.667 0 C
cp
f
GR
GS
[1 0 0 1 441.89999 59.8396] CT
0 0 1 RC
N
2.667 0 M
2.667 1.473 1.473 2.667 0 2.667 C
-1.473 2.667 -2.667 1.473 -2.667 0 C
-2.667 -1.473 -1.473 -2.667 0 -2.667 C
1.473 -2.667 2.667 -1.473 2.667 0 C
cp
f
GR
GS
[1 0 0 1 446.23999 57.70728] CT
0 0 1 RC
N
2.667 0 M
2.667 1.473 1.473 2.667 0 2.667 C
-1.473 2.667 -2.667 1.473 -2.667 0 C
-2.667 -1.473 -1.473 -2.667 0 -2.667 C
1.473 -2.667 2.667 -1.473 2.667 0 C
cp
f
GR
GS
[1 0 0 1 450.57999 58.59646] CT
0 0 1 RC
N
2.667 0 M
2.667 1.473 1.473 2.667 0 2.667 C
-1.473 2.667 -2.667 1.473 -2.667 0 C
-2.667 -1.473 -1.473 -2.667 0 -2.667 C
1.473 -2.667 2.667 -1.473 2.667 0 C
cp
f
GR
GS
[1 0 0 1 454.92001 52.88091] CT
0 0 1 RC
N
2.667 0 M
2.667 1.473 1.473 2.667 0 2.667 C
-1.473 2.667 -2.667 1.473 -2.667 0 C
-2.667 -1.473 -1.473 -2.667 0 -2.667 C
1.473 -2.667 2.667 -1.473 2.667 0 C
cp
f
GR
GS
[1 0 0 1 459.26001 58.06496] CT
0 0 1 RC
N
2.667 0 M
2.667 1.473 1.473 2.667 0 2.667 C
-1.473 2.667 -2.667 1.473 -2.667 0 C
-2.667 -1.473 -1.473 -2.667 0 -2.667 C
1.473 -2.667 2.667 -1.473 2.667 0 C
cp
f
GR
GS
[1 0 0 1 463.60001 55.30752] CT
0 0 1 RC
N
2.667 0 M
2.667 1.473 1.473 2.667 0 2.667 C
-1.473 2.667 -2.667 1.473 -2.667 0 C
-2.667 -1.473 -1.473 -2.667 0 -2.667 C
1.473 -2.667 2.667 -1.473 2.667 0 C
cp
f
GR
GS
[1 0 0 1 467.94 54.16103] CT
0 0 1 RC
N
2.667 0 M
2.667 1.473 1.473 2.667 0 2.667 C
-1.473 2.667 -2.667 1.473 -2.667 0 C
-2.667 -1.473 -1.473 -2.667 0 -2.667 C
1.473 -2.667 2.667 -1.473 2.667 0 C
cp
f
GR
GS
[1 0 0 1 472.28 53.31235] CT
0 0 1 RC
N
2.667 0 M
2.667 1.473 1.473 2.667 0 2.667 C
-1.473 2.667 -2.667 1.473 -2.667 0 C
-2.667 -1.473 -1.473 -2.667 0 -2.667 C
1.473 -2.667 2.667 -1.473 2.667 0 C
cp
f
GR
GS
[1 0 0 1 476.62 49.94355] CT
0 0 1 RC
N
2.667 0 M
2.667 1.473 1.473 2.667 0 2.667 C
-1.473 2.667 -2.667 1.473 -2.667 0 C
-2.667 -1.473 -1.473 -2.667 0 -2.667 C
1.473 -2.667 2.667 -1.473 2.667 0 C
cp
f
GR
GS
[1 0 0 1 480.95999 50.36576] CT
0 0 1 RC
N
2.667 0 M
2.667 1.473 1.473 2.667 0 2.667 C
-1.473 2.667 -2.667 1.473 -2.667 0 C
-2.667 -1.473 -1.473 -2.667 0 -2.667 C
1.473 -2.667 2.667 -1.473 2.667 0 C
cp
f
GR
GS
[1 0 0 1 485.29999 49.68353] CT
0 0 1 RC
N
2.667 0 M
2.667 1.473 1.473 2.667 0 2.667 C
-1.473 2.667 -2.667 1.473 -2.667 0 C
-2.667 -1.473 -1.473 -2.667 0 -2.667 C
1.473 -2.667 2.667 -1.473 2.667 0 C
cp
f
GR
GS
[1 0 0 1 489.64001 47.33544] CT
0 0 1 RC
N
2.667 0 M
2.667 1.473 1.473 2.667 0 2.667 C
-1.473 2.667 -2.667 1.473 -2.667 0 C
-2.667 -1.473 -1.473 -2.667 0 -2.667 C
1.473 -2.667 2.667 -1.473 2.667 0 C
cp
f
GR
GS
[1 0 0 1 493.98001 46.0598] CT
0 0 1 RC
N
2.667 0 M
2.667 1.473 1.473 2.667 0 2.667 C
-1.473 2.667 -2.667 1.473 -2.667 0 C
-2.667 -1.473 -1.473 -2.667 0 -2.667 C
1.473 -2.667 2.667 -1.473 2.667 0 C
cp
f
GR
GS
[1 0 0 1 498.32001 43.5617] CT
0 0 1 RC
N
2.667 0 M
2.667 1.473 1.473 2.667 0 2.667 C
-1.473 2.667 -2.667 1.473 -2.667 0 C
-2.667 -1.473 -1.473 -2.667 0 -2.667 C
1.473 -2.667 2.667 -1.473 2.667 0 C
cp
f
GR
GS
[1 0 0 1 502.66 45.41622] CT
0 0 1 RC
N
2.667 0 M
2.667 1.473 1.473 2.667 0 2.667 C
-1.473 2.667 -2.667 1.473 -2.667 0 C
-2.667 -1.473 -1.473 -2.667 0 -2.667 C
1.473 -2.667 2.667 -1.473 2.667 0 C
cp
f
GR
GS
[1 0 0 1 507 43.95122] CT
0 0 1 RC
N
2.667 0 M
2.667 1.473 1.473 2.667 0 2.667 C
-1.473 2.667 -2.667 1.473 -2.667 0 C
-2.667 -1.473 -1.473 -2.667 0 -2.667 C
1.473 -2.667 2.667 -1.473 2.667 0 C
cp
f
GR
GS
1 0 0 RC
1 LJ
N
73 151.646 M
73.434 151.538 L
73.868 151.431 L
74.302 151.324 L
74.736 151.216 L
75.17 151.109 L
75.604 151.001 L
76.038 150.894 L
76.472 150.787 L
76.906 150.679 L
77.34 150.572 L
77.774 150.464 L
78.208 150.357 L
78.642 150.25 L
79.076 150.142 L
79.51 150.035 L
79.944 149.928 L
80.378 149.82 L
80.812 149.713 L
81.246 149.605 L
81.68 149.498 L
82.114 149.391 L
82.548 149.283 L
82.982 149.176 L
83.416 149.068 L
83.85 148.961 L
84.284 148.854 L
84.718 148.746 L
85.152 148.639 L
85.586 148.532 L
86.02 148.424 L
86.454 148.317 L
86.888 148.209 L
87.322 148.102 L
87.756 147.995 L
88.19 147.887 L
88.624 147.78 L
89.058 147.672 L
89.492 147.565 L
89.926 147.458 L
90.36 147.35 L
90.794 147.243 L
91.228 147.135 L
91.662 147.028 L
92.096 146.921 L
92.53 146.813 L
92.964 146.706 L
93.398 146.599 L
93.832 146.491 L
94.266 146.384 L
94.7 146.276 L
95.134 146.169 L
95.568 146.062 L
96.002 145.954 L
96.436 145.847 L
96.87 145.739 L
97.304 145.632 L
97.738 145.525 L
98.172 145.417 L
98.606 145.31 L
99.04 145.203 L
99.474 145.095 L
99.908 144.988 L
100.342 144.88 L
100.776 144.773 L
101.21 144.666 L
101.644 144.558 L
102.078 144.451 L
102.512 144.343 L
102.946 144.236 L
103.38 144.129 L
103.814 144.021 L
104.248 143.914 L
104.682 143.807 L
105.116 143.699 L
105.55 143.592 L
105.984 143.484 L
106.418 143.377 L
106.852 143.27 L
107.286 143.162 L
107.72 143.055 L
108.154 142.947 L
108.588 142.84 L
109.022 142.733 L
109.456 142.625 L
109.89 142.518 L
110.324 142.41 L
110.758 142.303 L
111.192 142.196 L
111.626 142.088 L
112.06 141.981 L
112.494 141.874 L
112.928 141.766 L
113.362 141.659 L
113.796 141.551 L
114.23 141.444 L
114.664 141.337 L
115.098 141.229 L
115.532 141.122 L
115.966 141.014 L
116.4 140.907 L
116.834 140.8 L
117.268 140.692 L
117.702 140.585 L
118.136 140.478 L
118.57 140.37 L
119.004 140.263 L
119.438 140.155 L
119.872 140.048 L
120.306 139.941 L
120.74 139.833 L
121.174 139.726 L
121.608 139.618 L
122.042 139.511 L
122.476 139.404 L
122.91 139.296 L
123.344 139.189 L
123.778 139.082 L
124.212 138.974 L
124.646 138.867 L
125.08 138.759 L
125.514 138.652 L
125.948 138.545 L
126.382 138.437 L
126.816 138.33 L
127.25 138.222 L
127.684 138.115 L
128.118 138.008 L
128.552 137.9 L
128.986 137.793 L
129.42 137.686 L
129.854 137.578 L
130.288 137.471 L
130.722 137.363 L
131.156 137.256 L
131.59 137.149 L
132.024 137.041 L
132.458 136.934 L
132.892 136.826 L
133.326 136.719 L
133.76 136.612 L
134.194 136.504 L
134.628 136.397 L
135.062 136.289 L
135.496 136.182 L
135.93 136.075 L
136.364 135.967 L
136.798 135.86 L
137.232 135.753 L
137.666 135.645 L
138.1 135.538 L
138.534 135.43 L
138.968 135.323 L
139.402 135.216 L
139.836 135.108 L
140.27 135.001 L
140.704 134.893 L
141.138 134.786 L
141.572 134.679 L
142.006 134.571 L
142.44 134.464 L
142.874 134.357 L
143.308 134.249 L
143.742 134.142 L
144.176 134.034 L
144.61 133.927 L
145.044 133.82 L
145.478 133.712 L
145.912 133.605 L
146.346 133.497 L
146.78 133.39 L
147.214 133.283 L
147.648 133.175 L
148.082 133.068 L
148.516 132.961 L
148.95 132.853 L
149.384 132.746 L
149.818 132.638 L
150.252 132.531 L
150.686 132.424 L
151.12 132.316 L
151.554 132.209 L
151.988 132.101 L
152.422 131.994 L
152.856 131.887 L
153.29 131.779 L
153.724 131.672 L
154.158 131.564 L
154.592 131.457 L
155.026 131.35 L
155.46 131.242 L
155.894 131.135 L
156.328 131.028 L
156.762 130.92 L
157.196 130.813 L
157.63 130.705 L
158.064 130.598 L
158.498 130.491 L
158.932 130.383 L
159.366 130.276 L
159.8 130.168 L
160.234 130.061 L
160.668 129.954 L
161.102 129.846 L
161.536 129.739 L
161.97 129.632 L
162.404 129.524 L
162.838 129.417 L
163.272 129.309 L
163.706 129.202 L
164.14 129.095 L
164.574 128.987 L
165.008 128.88 L
165.442 128.772 L
165.876 128.665 L
166.31 128.558 L
166.744 128.45 L
167.178 128.343 L
167.612 128.236 L
168.046 128.128 L
168.48 128.021 L
168.914 127.913 L
169.348 127.806 L
169.782 127.699 L
170.216 127.591 L
170.65 127.484 L
171.084 127.376 L
171.518 127.269 L
171.952 127.162 L
172.386 127.054 L
172.82 126.947 L
173.254 126.839 L
173.688 126.732 L
174.122 126.625 L
174.556 126.517 L
174.99 126.41 L
175.424 126.303 L
175.858 126.195 L
176.292 126.088 L
176.726 125.98 L
177.16 125.873 L
177.594 125.766 L
178.028 125.658 L
178.462 125.551 L
178.896 125.443 L
179.33 125.336 L
179.764 125.229 L
180.198 125.121 L
180.632 125.014 L
181.066 124.907 L
181.5 124.799 L
181.934 124.692 L
182.368 124.584 L
182.802 124.477 L
183.236 124.37 L
183.67 124.262 L
184.104 124.155 L
184.538 124.047 L
184.972 123.94 L
185.406 123.833 L
185.84 123.725 L
186.274 123.618 L
186.708 123.511 L
187.142 123.403 L
187.576 123.296 L
188.01 123.188 L
188.444 123.081 L
188.878 122.974 L
189.312 122.866 L
189.746 122.759 L
190.18 122.651 L
190.614 122.544 L
191.048 122.437 L
191.482 122.329 L
191.916 122.222 L
192.35 122.114 L
192.784 122.007 L
193.218 121.9 L
193.652 121.792 L
194.086 121.685 L
194.52 121.578 L
194.954 121.47 L
195.388 121.363 L
195.822 121.255 L
196.256 121.148 L
196.69 121.041 L
197.124 120.933 L
197.558 120.826 L
197.992 120.718 L
198.426 120.611 L
198.86 120.504 L
199.294 120.396 L
199.728 120.289 L
200.162 120.182 L
200.596 120.074 L
201.03 119.967 L
201.464 119.859 L
201.898 119.752 L
202.332 119.645 L
202.766 119.537 L
203.2 119.43 L
203.634 119.322 L
204.068 119.215 L
204.502 119.108 L
204.936 119 L
205.37 118.893 L
205.804 118.786 L
206.238 118.678 L
206.672 118.571 L
207.106 118.463 L
207.54 118.356 L
207.974 118.249 L
208.408 118.141 L
208.842 118.034 L
209.276 117.926 L
209.71 117.819 L
210.144 117.712 L
210.578 117.604 L
211.012 117.497 L
211.446 117.39 L
211.88 117.282 L
212.314 117.175 L
212.748 117.067 L
213.182 116.96 L
213.616 116.853 L
214.05 116.745 L
214.484 116.638 L
214.918 116.53 L
215.352 116.423 L
215.786 116.316 L
216.22 116.208 L
216.654 116.101 L
217.088 115.993 L
217.522 115.886 L
217.956 115.779 L
218.39 115.671 L
218.824 115.564 L
219.258 115.457 L
219.692 115.349 L
220.126 115.242 L
220.56 115.134 L
220.994 115.027 L
221.428 114.92 L
221.862 114.812 L
222.296 114.705 L
222.73 114.597 L
223.164 114.49 L
223.598 114.383 L
224.032 114.275 L
224.466 114.168 L
224.9 114.061 L
225.334 113.953 L
225.768 113.846 L
226.202 113.738 L
226.636 113.631 L
227.07 113.524 L
227.504 113.416 L
227.938 113.309 L
228.372 113.201 L
228.806 113.094 L
229.24 112.987 L
229.674 112.879 L
230.108 112.772 L
230.542 112.665 L
230.976 112.557 L
231.41 112.45 L
231.844 112.342 L
232.278 112.235 L
232.712 112.128 L
233.146 112.02 L
233.58 111.913 L
234.014 111.805 L
234.448 111.698 L
234.882 111.591 L
235.316 111.483 L
235.75 111.376 L
236.184 111.268 L
236.618 111.161 L
237.052 111.054 L
237.486 110.946 L
237.92 110.839 L
238.354 110.732 L
238.788 110.624 L
239.222 110.517 L
239.656 110.409 L
240.09 110.302 L
240.524 110.195 L
240.958 110.087 L
241.392 109.98 L
241.826 109.872 L
242.26 109.765 L
242.694 109.658 L
243.128 109.55 L
243.562 109.443 L
243.996 109.336 L
244.43 109.228 L
244.864 109.121 L
245.298 109.013 L
245.732 108.906 L
246.166 108.799 L
246.6 108.691 L
247.034 108.584 L
247.468 108.476 L
247.902 108.369 L
248.336 108.262 L
248.77 108.154 L
249.204 108.047 L
249.638 107.94 L
250.072 107.832 L
250.506 107.725 L
250.94 107.617 L
251.374 107.51 L
251.808 107.403 L
252.242 107.295 L
252.676 107.188 L
253.11 107.08 L
253.544 106.973 L
253.978 106.866 L
254.412 106.758 L
254.846 106.651 L
255.28 106.543 L
255.714 106.436 L
256.148 106.329 L
256.582 106.221 L
257.016 106.114 L
257.45 106.007 L
257.884 105.899 L
258.318 105.792 L
258.752 105.684 L
259.186 105.577 L
259.62 105.47 L
260.054 105.362 L
260.488 105.255 L
260.922 105.147 L
261.356 105.04 L
261.79 104.933 L
262.224 104.825 L
262.658 104.718 L
263.092 104.611 L
263.526 104.503 L
263.96 104.396 L
264.394 104.288 L
264.828 104.181 L
265.262 104.074 L
265.696 103.966 L
266.13 103.859 L
266.564 103.751 L
266.998 103.644 L
267.432 103.537 L
267.866 103.429 L
268.3 103.322 L
268.734 103.215 L
269.168 103.107 L
269.602 103 L
270.036 102.892 L
270.47 102.785 L
270.904 102.678 L
271.338 102.57 L
271.772 102.463 L
272.206 102.355 L
272.64 102.248 L
273.074 102.141 L
273.508 102.033 L
273.942 101.926 L
274.376 101.818 L
274.81 101.711 L
275.244 101.604 L
275.678 101.496 L
276.112 101.389 L
276.546 101.282 L
276.98 101.174 L
277.414 101.067 L
277.848 100.959 L
278.282 100.852 L
278.716 100.745 L
279.15 100.637 L
279.584 100.53 L
280.018 100.422 L
280.452 100.315 L
280.886 100.208 L
281.32 100.1 L
281.754 99.993 L
282.188 99.886 L
282.622 99.778 L
283.056 99.671 L
283.49 99.563 L
283.924 99.456 L
284.358 99.349 L
284.792 99.241 L
285.226 99.134 L
285.66 99.026 L
286.094 98.919 L
286.528 98.812 L
286.962 98.704 L
287.396 98.597 L
287.83 98.49 L
288.264 98.382 L
288.698 98.275 L
289.132 98.167 L
289.566 98.06 L
290 97.953 L
290.434 97.845 L
290.868 97.738 L
291.302 97.63 L
291.736 97.523 L
292.17 97.416 L
292.604 97.308 L
293.038 97.201 L
293.472 97.093 L
293.906 96.986 L
294.34 96.879 L
294.774 96.771 L
295.208 96.664 L
295.642 96.557 L
296.076 96.449 L
296.51 96.342 L
296.944 96.234 L
297.378 96.127 L
297.812 96.02 L
298.246 95.912 L
298.68 95.805 L
299.114 95.697 L
299.548 95.59 L
299.982 95.483 L
300.416 95.375 L
300.85 95.268 L
301.284 95.161 L
301.718 95.053 L
302.152 94.946 L
302.586 94.838 L
303.02 94.731 L
303.454 94.624 L
303.888 94.516 L
304.322 94.409 L
304.756 94.301 L
305.19 94.194 L
305.624 94.087 L
306.058 93.979 L
306.492 93.872 L
306.926 93.765 L
307.36 93.657 L
307.794 93.55 L
308.228 93.442 L
308.662 93.335 L
309.096 93.228 L
309.53 93.12 L
309.964 93.013 L
310.398 92.905 L
310.832 92.798 L
311.266 92.691 L
311.7 92.583 L
312.134 92.476 L
312.568 92.368 L
313.002 92.261 L
313.436 92.154 L
313.87 92.046 L
314.304 91.939 L
314.738 91.832 L
315.172 91.724 L
315.606 91.617 L
316.04 91.509 L
316.474 91.402 L
316.908 91.295 L
317.342 91.187 L
317.776 91.08 L
318.21 90.972 L
318.644 90.865 L
319.078 90.758 L
319.512 90.65 L
319.946 90.543 L
320.38 90.436 L
320.814 90.328 L
321.248 90.221 L
321.682 90.113 L
322.116 90.006 L
322.55 89.899 L
322.984 89.791 L
323.418 89.684 L
323.852 89.576 L
324.286 89.469 L
324.72 89.362 L
325.154 89.254 L
325.588 89.147 L
326.022 89.04 L
326.456 88.932 L
326.89 88.825 L
327.324 88.717 L
327.758 88.61 L
328.192 88.503 L
328.626 88.395 L
329.06 88.288 L
329.494 88.18 L
329.928 88.073 L
330.362 87.966 L
330.796 87.858 L
331.23 87.751 L
331.664 87.644 L
332.098 87.536 L
332.532 87.429 L
332.966 87.321 L
333.4 87.214 L
333.834 87.107 L
334.268 86.999 L
334.702 86.892 L
335.136 86.784 L
335.57 86.677 L
336.004 86.57 L
336.438 86.462 L
336.872 86.355 L
337.306 86.247 L
337.74 86.14 L
338.174 86.033 L
338.608 85.925 L
339.042 85.818 L
339.476 85.711 L
339.91 85.603 L
340.344 85.496 L
340.778 85.388 L
341.212 85.281 L
341.646 85.174 L
342.08 85.066 L
342.514 84.959 L
342.948 84.851 L
343.382 84.744 L
343.816 84.637 L
344.25 84.529 L
344.684 84.422 L
345.118 84.315 L
345.552 84.207 L
345.986 84.1 L
346.42 83.992 L
346.854 83.885 L
347.288 83.778 L
347.722 83.67 L
348.156 83.563 L
348.59 83.455 L
349.024 83.348 L
349.458 83.241 L
349.892 83.133 L
350.326 83.026 L
350.76 82.919 L
351.194 82.811 L
351.628 82.704 L
352.062 82.596 L
352.496 82.489 L
352.93 82.382 L
353.364 82.274 L
353.798 82.167 L
354.232 82.059 L
354.666 81.952 L
355.1 81.845 L
355.534 81.737 L
355.968 81.63 L
356.402 81.522 L
356.836 81.415 L
357.27 81.308 L
357.704 81.2 L
358.138 81.093 L
358.572 80.986 L
359.006 80.878 L
359.44 80.771 L
359.874 80.663 L
360.308 80.556 L
360.742 80.449 L
361.176 80.341 L
361.61 80.234 L
362.044 80.126 L
362.478 80.019 L
362.912 79.912 L
363.346 79.804 L
363.78 79.697 L
364.214 79.59 L
364.648 79.482 L
365.082 79.375 L
365.516 79.267 L
365.95 79.16 L
366.384 79.053 L
366.818 78.945 L
367.252 78.838 L
367.686 78.73 L
368.12 78.623 L
368.554 78.516 L
368.988 78.408 L
369.422 78.301 L
369.856 78.194 L
370.29 78.086 L
370.724 77.979 L
371.158 77.871 L
371.592 77.764 L
372.026 77.657 L
372.46 77.549 L
372.894 77.442 L
373.328 77.334 L
373.762 77.227 L
374.196 77.12 L
374.63 77.012 L
375.064 76.905 L
375.498 76.797 L
375.932 76.69 L
376.366 76.583 L
376.8 76.475 L
377.234 76.368 L
377.668 76.261 L
378.102 76.153 L
378.536 76.046 L
378.97 75.938 L
379.404 75.831 L
379.838 75.724 L
380.272 75.616 L
380.706 75.509 L
381.14 75.401 L
381.574 75.294 L
382.008 75.187 L
382.442 75.079 L
382.876 74.972 L
383.31 74.865 L
383.744 74.757 L
384.178 74.65 L
384.612 74.542 L
385.046 74.435 L
385.48 74.328 L
385.914 74.22 L
386.348 74.113 L
386.782 74.005 L
387.216 73.898 L
387.65 73.791 L
388.084 73.683 L
388.518 73.576 L
388.952 73.469 L
389.386 73.361 L
389.82 73.254 L
390.254 73.146 L
390.688 73.039 L
391.122 72.932 L
391.556 72.824 L
391.99 72.717 L
392.424 72.609 L
392.858 72.502 L
393.292 72.395 L
393.726 72.287 L
394.16 72.18 L
394.594 72.073 L
395.028 71.965 L
395.462 71.858 L
395.896 71.75 L
396.33 71.643 L
396.764 71.536 L
397.198 71.428 L
397.632 71.321 L
398.066 71.213 L
398.5 71.106 L
398.934 70.999 L
399.368 70.891 L
399.802 70.784 L
400.236 70.676 L
400.67 70.569 L
401.104 70.462 L
401.538 70.354 L
401.972 70.247 L
402.406 70.14 L
402.84 70.032 L
403.274 69.925 L
403.708 69.817 L
404.142 69.71 L
404.576 69.603 L
405.01 69.495 L
405.444 69.388 L
405.878 69.28 L
406.312 69.173 L
406.746 69.066 L
407.18 68.958 L
407.614 68.851 L
408.048 68.744 L
408.482 68.636 L
408.916 68.529 L
409.35 68.421 L
409.784 68.314 L
410.218 68.207 L
410.652 68.099 L
411.086 67.992 L
411.52 67.884 L
411.954 67.777 L
412.388 67.67 L
412.822 67.562 L
413.256 67.455 L
413.69 67.348 L
414.124 67.24 L
414.558 67.133 L
414.992 67.025 L
415.426 66.918 L
415.86 66.811 L
416.294 66.703 L
416.728 66.596 L
417.162 66.488 L
417.596 66.381 L
418.03 66.274 L
418.464 66.166 L
418.898 66.059 L
419.332 65.951 L
419.766 65.844 L
420.2 65.737 L
420.634 65.629 L
421.068 65.522 L
421.502 65.415 L
421.936 65.307 L
422.37 65.2 L
422.804 65.092 L
423.238 64.985 L
423.672 64.878 L
424.106 64.77 L
424.54 64.663 L
424.974 64.555 L
425.408 64.448 L
425.842 64.341 L
426.276 64.233 L
426.71 64.126 L
427.144 64.019 L
427.578 63.911 L
428.012 63.804 L
428.446 63.696 L
428.88 63.589 L
429.314 63.482 L
429.748 63.374 L
430.182 63.267 L
430.616 63.159 L
431.05 63.052 L
431.484 62.945 L
431.918 62.837 L
432.352 62.73 L
432.786 62.623 L
433.22 62.515 L
433.654 62.408 L
434.088 62.3 L
434.522 62.193 L
434.956 62.086 L
435.39 61.978 L
435.824 61.871 L
436.258 61.763 L
436.692 61.656 L
437.126 61.549 L
437.56 61.441 L
437.994 61.334 L
438.428 61.226 L
438.862 61.119 L
439.296 61.012 L
439.73 60.904 L
440.164 60.797 L
440.598 60.69 L
441.032 60.582 L
441.466 60.475 L
441.9 60.367 L
442.334 60.26 L
442.768 60.153 L
443.202 60.045 L
443.636 59.938 L
444.07 59.83 L
444.504 59.723 L
444.938 59.616 L
445.372 59.508 L
445.806 59.401 L
446.24 59.294 L
446.674 59.186 L
447.108 59.079 L
447.542 58.971 L
447.976 58.864 L
448.41 58.757 L
448.844 58.649 L
449.278 58.542 L
449.712 58.434 L
450.146 58.327 L
450.58 58.22 L
451.014 58.112 L
451.448 58.005 L
451.882 57.898 L
452.316 57.79 L
452.75 57.683 L
453.184 57.575 L
453.618 57.468 L
454.052 57.361 L
454.486 57.253 L
454.92 57.146 L
455.354 57.038 L
455.788 56.931 L
456.222 56.824 L
456.656 56.716 L
457.09 56.609 L
457.524 56.501 L
457.958 56.394 L
458.392 56.287 L
458.826 56.179 L
459.26 56.072 L
459.694 55.965 L
460.128 55.857 L
460.562 55.75 L
460.996 55.642 L
461.43 55.535 L
461.864 55.428 L
462.298 55.32 L
462.732 55.213 L
463.166 55.105 L
463.6 54.998 L
464.034 54.891 L
464.468 54.783 L
464.902 54.676 L
465.336 54.569 L
465.77 54.461 L
466.204 54.354 L
466.638 54.246 L
467.072 54.139 L
467.506 54.032 L
467.94 53.924 L
468.374 53.817 L
468.808 53.709 L
469.242 53.602 L
469.676 53.495 L
470.11 53.387 L
470.544 53.28 L
470.978 53.173 L
471.412 53.065 L
471.846 52.958 L
472.28 52.85 L
472.714 52.743 L
473.148 52.636 L
473.582 52.528 L
474.016 52.421 L
474.45 52.313 L
474.884 52.206 L
475.318 52.099 L
475.752 51.991 L
476.186 51.884 L
476.62 51.776 L
477.054 51.669 L
477.488 51.562 L
477.922 51.454 L
478.356 51.347 L
478.79 51.24 L
479.224 51.132 L
479.658 51.025 L
480.092 50.917 L
480.526 50.81 L
480.96 50.703 L
481.394 50.595 L
481.828 50.488 L
482.262 50.38 L
482.696 50.273 L
483.13 50.166 L
483.564 50.058 L
483.998 49.951 L
484.432 49.844 L
484.866 49.736 L
485.3 49.629 L
485.734 49.521 L
486.168 49.414 L
486.602 49.307 L
487.036 49.199 L
487.47 49.092 L
487.904 48.984 L
488.338 48.877 L
488.772 48.77 L
489.206 48.662 L
489.64 48.555 L
490.074 48.448 L
490.508 48.34 L
490.942 48.233 L
491.376 48.125 L
491.81 48.018 L
492.244 47.911 L
492.678 47.803 L
493.112 47.696 L
493.546 47.588 L
493.98 47.481 L
494.414 47.374 L
494.848 47.266 L
495.282 47.159 L
495.716 47.052 L
496.15 46.944 L
496.584 46.837 L
497.018 46.729 L
497.452 46.622 L
497.886 46.515 L
498.32 46.407 L
498.754 46.3 L
499.188 46.192 L
499.622 46.085 L
500.056 45.978 L
500.49 45.87 L
500.924 45.763 L
501.358 45.655 L
501.792 45.548 L
502.226 45.441 L
502.66 45.333 L
503.094 45.226 L
503.528 45.119 L
503.962 45.011 L
504.396 44.904 L
504.83 44.796 L
505.264 44.689 L
505.698 44.582 L
506.132 44.474 L
506.566 44.367 L
507 44.259 L
S
GR
GS
1 GC
N
80 62 M
80 36 L
174 36 L
174 62 L
cp
f
GR
GS
[1 0 0 1 117 43.35849] CT
/Helvetica 9 F
GS
[1 0 0 1 0 0] CT
0 3.5 moveto 
1 -1 scale
(Error data) t 
GR
GR
GS
[1 0 0 1 99 43.35849] CT
0 0 1 RC
N
2.667 0 M
2.667 1.473 1.473 2.667 0 2.667 C
-1.473 2.667 -2.667 1.473 -2.667 0 C
-2.667 -1.473 -1.473 -2.667 0 -2.667 C
1.473 -2.667 2.667 -1.473 2.667 0 C
cp
f
GR
GS
[1 0 0 1 117 54.64151] CT
/Helvetica 9 F
GS
[1 0 0 1 0 0] CT
0 3.5 moveto 
1 -1 scale
(Linear model) t 
GR
GR
GS
1 0 0 RC
1 LJ
N
84 54.642 M
114 54.642 L
S
GR
GS
0.149 GC
10.0 ML
0.5 LW
N
80 62 M
80 36 L
174 36 L
174 62 L
cp
S
GR
GS
1 GC
N
73 374 M
507 374 L
507 231 L
73 231 L
cp
f
GR
GS
0.873 GC
1 LJ
0.5 LW
N
73 374 M
73 231 L
S
GR
GS
0.873 GC
1 LJ
0.5 LW
N
116.4 374 M
116.4 231 L
S
GR
GS
0.873 GC
1 LJ
0.5 LW
N
159.8 374 M
159.8 231 L
S
GR
GS
0.873 GC
1 LJ
0.5 LW
N
203.2 374 M
203.2 231 L
S
GR
GS
0.873 GC
1 LJ
0.5 LW
N
246.6 374 M
246.6 231 L
S
GR
GS
0.873 GC
1 LJ
0.5 LW
N
290 374 M
290 231 L
S
GR
GS
0.873 GC
1 LJ
0.5 LW
N
333.4 374 M
333.4 231 L
S
GR
GS
0.873 GC
1 LJ
0.5 LW
N
376.8 374 M
376.8 231 L
S
GR
GS
0.873 GC
1 LJ
0.5 LW
N
420.2 374 M
420.2 231 L
S
GR
GS
0.873 GC
1 LJ
0.5 LW
N
463.6 374 M
463.6 231 L
S
GR
GS
0.873 GC
1 LJ
0.5 LW
N
507 374 M
507 231 L
S
GR
GS
0.873 GC
1 LJ
0.5 LW
N
507 374 M
73 374 L
S
GR
GS
0.873 GC
1 LJ
0.5 LW
N
507 338.25 M
73 338.25 L
S
GR
GS
0.873 GC
1 LJ
0.5 LW
N
507 302.5 M
73 302.5 L
S
GR
GS
0.873 GC
1 LJ
0.5 LW
N
507 266.75 M
73 266.75 L
S
GR
GS
0.873 GC
1 LJ
0.5 LW
N
507 231 M
73 231 L
S
GR
GS
0.149 GC
2 setlinecap
1 LJ
0.5 LW
N
73 374 M
507 374 L
S
GR
GS
0.149 GC
2 setlinecap
1 LJ
0.5 LW
N
73 231 M
507 231 L
S
GR
GS
0.149 GC
2 setlinecap
1 LJ
0.5 LW
N
73 374 M
73 369.66 L
S
GR
GS
0.149 GC
2 setlinecap
1 LJ
0.5 LW
N
116.4 374 M
116.4 369.66 L
S
GR
GS
0.149 GC
2 setlinecap
1 LJ
0.5 LW
N
159.8 374 M
159.8 369.66 L
S
GR
GS
0.149 GC
2 setlinecap
1 LJ
0.5 LW
N
203.2 374 M
203.2 369.66 L
S
GR
GS
0.149 GC
2 setlinecap
1 LJ
0.5 LW
N
246.6 374 M
246.6 369.66 L
S
GR
GS
0.149 GC
2 setlinecap
1 LJ
0.5 LW
N
290 374 M
290 369.66 L
S
GR
GS
0.149 GC
2 setlinecap
1 LJ
0.5 LW
N
333.4 374 M
333.4 369.66 L
S
GR
GS
0.149 GC
2 setlinecap
1 LJ
0.5 LW
N
376.8 374 M
376.8 369.66 L
S
GR
GS
0.149 GC
2 setlinecap
1 LJ
0.5 LW
N
420.2 374 M
420.2 369.66 L
S
GR
GS
0.149 GC
2 setlinecap
1 LJ
0.5 LW
N
463.6 374 M
463.6 369.66 L
S
GR
GS
0.149 GC
2 setlinecap
1 LJ
0.5 LW
N
507 374 M
507 369.66 L
S
GR
GS
0.149 GC
2 setlinecap
1 LJ
0.5 LW
N
73 231 M
73 235.34 L
S
GR
GS
0.149 GC
2 setlinecap
1 LJ
0.5 LW
N
116.4 231 M
116.4 235.34 L
S
GR
GS
0.149 GC
2 setlinecap
1 LJ
0.5 LW
N
159.8 231 M
159.8 235.34 L
S
GR
GS
0.149 GC
2 setlinecap
1 LJ
0.5 LW
N
203.2 231 M
203.2 235.34 L
S
GR
GS
0.149 GC
2 setlinecap
1 LJ
0.5 LW
N
246.6 231 M
246.6 235.34 L
S
GR
GS
0.149 GC
2 setlinecap
1 LJ
0.5 LW
N
290 231 M
290 235.34 L
S
GR
GS
0.149 GC
2 setlinecap
1 LJ
0.5 LW
N
333.4 231 M
333.4 235.34 L
S
GR
GS
0.149 GC
2 setlinecap
1 LJ
0.5 LW
N
376.8 231 M
376.8 235.34 L
S
GR
GS
0.149 GC
2 setlinecap
1 LJ
0.5 LW
N
420.2 231 M
420.2 235.34 L
S
GR
GS
0.149 GC
2 setlinecap
1 LJ
0.5 LW
N
463.6 231 M
463.6 235.34 L
S
GR
GS
0.149 GC
2 setlinecap
1 LJ
0.5 LW
N
507 231 M
507 235.34 L
S
GR
GS
[1 0 0 1 73 378] CT
0.149 GC
/Helvetica 10 F
GS
[1 0 0 1 0 0] CT
-3 10 moveto 
1 -1 scale
(0) t 
GR
GR
GS
[1 0 0 1 116.4 378] CT
0.149 GC
/Helvetica 10 F
GS
[1 0 0 1 0 0] CT
-6 10 moveto 
1 -1 scale
(10) t 
GR
GR
GS
[1 0 0 1 159.8 378] CT
0.149 GC
/Helvetica 10 F
GS
[1 0 0 1 0 0] CT
-6 10 moveto 
1 -1 scale
(20) t 
GR
GR
GS
[1 0 0 1 203.2 378] CT
0.149 GC
/Helvetica 10 F
GS
[1 0 0 1 0 0] CT
-6 10 moveto 
1 -1 scale
(30) t 
GR
GR
GS
[1 0 0 1 246.60001 378] CT
0.149 GC
/Helvetica 10 F
GS
[1 0 0 1 0 0] CT
-6 10 moveto 
1 -1 scale
(40) t 
GR
GR
GS
[1 0 0 1 290 378] CT
0.149 GC
/Helvetica 10 F
GS
[1 0 0 1 0 0] CT
-6 10 moveto 
1 -1 scale
(50) t 
GR
GR
GS
[1 0 0 1 333.39999 378] CT
0.149 GC
/Helvetica 10 F
GS
[1 0 0 1 0 0] CT
-6 10 moveto 
1 -1 scale
(60) t 
GR
GR
GS
[1 0 0 1 376.79999 378] CT
0.149 GC
/Helvetica 10 F
GS
[1 0 0 1 0 0] CT
-6 10 moveto 
1 -1 scale
(70) t 
GR
GR
GS
[1 0 0 1 420.20001 378] CT
0.149 GC
/Helvetica 10 F
GS
[1 0 0 1 0 0] CT
-6 10 moveto 
1 -1 scale
(80) t 
GR
GR
GS
[1 0 0 1 463.60001 378] CT
0.149 GC
/Helvetica 10 F
GS
[1 0 0 1 0 0] CT
-6 10 moveto 
1 -1 scale
(90) t 
GR
GR
GS
[1 0 0 1 507 378] CT
0.149 GC
/Helvetica 10 F
GS
[1 0 0 1 0 0] CT
-8.5 10 moveto 
1 -1 scale
(100) t 
GR
GR
GS
[1 0 0 1 290.00021 392] CT
0.149 GC
/Helvetica-Bold 12 F
GS
[1 0 0 1 0 0] CT
-78 12 moveto 
1 -1 scale
(Camera translation \(in mm\)) t 
GR
GR
GS
0.149 GC
2 setlinecap
1 LJ
0.5 LW
N
73 374 M
73 231 L
S
GR
GS
0.149 GC
2 setlinecap
1 LJ
0.5 LW
N
507 374 M
507 231 L
S
GR
GS
0.149 GC
2 setlinecap
1 LJ
0.5 LW
N
73 374 M
77.34 374 L
S
GR
GS
0.149 GC
2 setlinecap
1 LJ
0.5 LW
N
73 338.25 M
77.34 338.25 L
S
GR
GS
0.149 GC
2 setlinecap
1 LJ
0.5 LW
N
73 302.5 M
77.34 302.5 L
S
GR
GS
0.149 GC
2 setlinecap
1 LJ
0.5 LW
N
73 266.75 M
77.34 266.75 L
S
GR
GS
0.149 GC
2 setlinecap
1 LJ
0.5 LW
N
73 231 M
77.34 231 L
S
GR
GS
0.149 GC
2 setlinecap
1 LJ
0.5 LW
N
507 374 M
502.66 374 L
S
GR
GS
0.149 GC
2 setlinecap
1 LJ
0.5 LW
N
507 338.25 M
502.66 338.25 L
S
GR
GS
0.149 GC
2 setlinecap
1 LJ
0.5 LW
N
507 302.5 M
502.66 302.5 L
S
GR
GS
0.149 GC
2 setlinecap
1 LJ
0.5 LW
N
507 266.75 M
502.66 266.75 L
S
GR
GS
0.149 GC
2 setlinecap
1 LJ
0.5 LW
N
507 231 M
502.66 231 L
S
GR
GS
[1 0 0 1 69 374] CT
0.149 GC
/Helvetica 10 F
GS
[1 0 0 1 0 0] CT
-24 3.5 moveto 
1 -1 scale
(-0.02) t 
GR
GR
GS
[1 0 0 1 69 338.25] CT
0.149 GC
/Helvetica 10 F
GS
[1 0 0 1 0 0] CT
-24 3.5 moveto 
1 -1 scale
(-0.01) t 
GR
GR
GS
[1 0 0 1 69 302.5] CT
0.149 GC
/Helvetica 10 F
GS
[1 0 0 1 0 0] CT
-6 3.5 moveto 
1 -1 scale
(0) t 
GR
GR
GS
[1 0 0 1 69 266.75] CT
0.149 GC
/Helvetica 10 F
GS
[1 0 0 1 0 0] CT
-20 3.5 moveto 
1 -1 scale
(0.01) t 
GR
GR
GS
[1 0 0 1 69 231] CT
0.149 GC
/Helvetica 10 F
GS
[1 0 0 1 0 0] CT
-20 3.5 moveto 
1 -1 scale
(0.02) t 
GR
GR
GS
[0 -1 1 0 42 302.49994] CT
0.149 GC
/Helvetica-Bold 12 F
GS
[1 0 0 1 0 0] CT
-56 -3 moveto 
1 -1 scale
(Depth error \(in mm\)) t 
GR
GR
GS
[1 0 0 1 73 292.88156] CT
0 0 1 RC
N
2.667 0 M
2.667 1.473 1.473 2.667 0 2.667 C
-1.473 2.667 -2.667 1.473 -2.667 0 C
-2.667 -1.473 -1.473 -2.667 0 -2.667 C
1.473 -2.667 2.667 -1.473 2.667 0 C
cp
f
GR
GS
[1 0 0 1 77.34 293.15143] CT
0 0 1 RC
N
2.667 0 M
2.667 1.473 1.473 2.667 0 2.667 C
-1.473 2.667 -2.667 1.473 -2.667 0 C
-2.667 -1.473 -1.473 -2.667 0 -2.667 C
1.473 -2.667 2.667 -1.473 2.667 0 C
cp
f
GR
GS
[1 0 0 1 81.68 294.3804] CT
0 0 1 RC
N
2.667 0 M
2.667 1.473 1.473 2.667 0 2.667 C
-1.473 2.667 -2.667 1.473 -2.667 0 C
-2.667 -1.473 -1.473 -2.667 0 -2.667 C
1.473 -2.667 2.667 -1.473 2.667 0 C
cp
f
GR
GS
[1 0 0 1 86.02 293.99768] CT
0 0 1 RC
N
2.667 0 M
2.667 1.473 1.473 2.667 0 2.667 C
-1.473 2.667 -2.667 1.473 -2.667 0 C
-2.667 -1.473 -1.473 -2.667 0 -2.667 C
1.473 -2.667 2.667 -1.473 2.667 0 C
cp
f
GR
GS
[1 0 0 1 90.36 294.452] CT
0 0 1 RC
N
2.667 0 M
2.667 1.473 1.473 2.667 0 2.667 C
-1.473 2.667 -2.667 1.473 -2.667 0 C
-2.667 -1.473 -1.473 -2.667 0 -2.667 C
1.473 -2.667 2.667 -1.473 2.667 0 C
cp
f
GR
GS
[1 0 0 1 94.7 296.5383] CT
0 0 1 RC
N
2.667 0 M
2.667 1.473 1.473 2.667 0 2.667 C
-1.473 2.667 -2.667 1.473 -2.667 0 C
-2.667 -1.473 -1.473 -2.667 0 -2.667 C
1.473 -2.667 2.667 -1.473 2.667 0 C
cp
f
GR
GS
[1 0 0 1 99.04 296.95178] CT
0 0 1 RC
N
2.667 0 M
2.667 1.473 1.473 2.667 0 2.667 C
-1.473 2.667 -2.667 1.473 -2.667 0 C
-2.667 -1.473 -1.473 -2.667 0 -2.667 C
1.473 -2.667 2.667 -1.473 2.667 0 C
cp
f
GR
GS
[1 0 0 1 103.38 296.66959] CT
0 0 1 RC
N
2.667 0 M
2.667 1.473 1.473 2.667 0 2.667 C
-1.473 2.667 -2.667 1.473 -2.667 0 C
-2.667 -1.473 -1.473 -2.667 0 -2.667 C
1.473 -2.667 2.667 -1.473 2.667 0 C
cp
f
GR
GS
[1 0 0 1 107.72 297.08246] CT
0 0 1 RC
N
2.667 0 M
2.667 1.473 1.473 2.667 0 2.667 C
-1.473 2.667 -2.667 1.473 -2.667 0 C
-2.667 -1.473 -1.473 -2.667 0 -2.667 C
1.473 -2.667 2.667 -1.473 2.667 0 C
cp
f
GR
GS
[1 0 0 1 112.06 297.04883] CT
0 0 1 RC
N
2.667 0 M
2.667 1.473 1.473 2.667 0 2.667 C
-1.473 2.667 -2.667 1.473 -2.667 0 C
-2.667 -1.473 -1.473 -2.667 0 -2.667 C
1.473 -2.667 2.667 -1.473 2.667 0 C
cp
f
GR
GS
[1 0 0 1 116.4 303.75296] CT
0 0 1 RC
N
2.667 0 M
2.667 1.473 1.473 2.667 0 2.667 C
-1.473 2.667 -2.667 1.473 -2.667 0 C
-2.667 -1.473 -1.473 -2.667 0 -2.667 C
1.473 -2.667 2.667 -1.473 2.667 0 C
cp
f
GR
GS
[1 0 0 1 120.74 298.32867] CT
0 0 1 RC
N
2.667 0 M
2.667 1.473 1.473 2.667 0 2.667 C
-1.473 2.667 -2.667 1.473 -2.667 0 C
-2.667 -1.473 -1.473 -2.667 0 -2.667 C
1.473 -2.667 2.667 -1.473 2.667 0 C
cp
f
GR
GS
[1 0 0 1 125.08 298.71463] CT
0 0 1 RC
N
2.667 0 M
2.667 1.473 1.473 2.667 0 2.667 C
-1.473 2.667 -2.667 1.473 -2.667 0 C
-2.667 -1.473 -1.473 -2.667 0 -2.667 C
1.473 -2.667 2.667 -1.473 2.667 0 C
cp
f
GR
GS
[1 0 0 1 129.42 297.86517] CT
0 0 1 RC
N
2.667 0 M
2.667 1.473 1.473 2.667 0 2.667 C
-1.473 2.667 -2.667 1.473 -2.667 0 C
-2.667 -1.473 -1.473 -2.667 0 -2.667 C
1.473 -2.667 2.667 -1.473 2.667 0 C
cp
f
GR
GS
[1 0 0 1 133.75999 301.39404] CT
0 0 1 RC
N
2.667 0 M
2.667 1.473 1.473 2.667 0 2.667 C
-1.473 2.667 -2.667 1.473 -2.667 0 C
-2.667 -1.473 -1.473 -2.667 0 -2.667 C
1.473 -2.667 2.667 -1.473 2.667 0 C
cp
f
GR
GS
[1 0 0 1 138.10001 301.50909] CT
0 0 1 RC
N
2.667 0 M
2.667 1.473 1.473 2.667 0 2.667 C
-1.473 2.667 -2.667 1.473 -2.667 0 C
-2.667 -1.473 -1.473 -2.667 0 -2.667 C
1.473 -2.667 2.667 -1.473 2.667 0 C
cp
f
GR
GS
[1 0 0 1 142.44 302.93716] CT
0 0 1 RC
N
2.667 0 M
2.667 1.473 1.473 2.667 0 2.667 C
-1.473 2.667 -2.667 1.473 -2.667 0 C
-2.667 -1.473 -1.473 -2.667 0 -2.667 C
1.473 -2.667 2.667 -1.473 2.667 0 C
cp
f
GR
GS
[1 0 0 1 146.78 306.23987] CT
0 0 1 RC
N
2.667 0 M
2.667 1.473 1.473 2.667 0 2.667 C
-1.473 2.667 -2.667 1.473 -2.667 0 C
-2.667 -1.473 -1.473 -2.667 0 -2.667 C
1.473 -2.667 2.667 -1.473 2.667 0 C
cp
f
GR
GS
[1 0 0 1 151.12 307.96347] CT
0 0 1 RC
N
2.667 0 M
2.667 1.473 1.473 2.667 0 2.667 C
-1.473 2.667 -2.667 1.473 -2.667 0 C
-2.667 -1.473 -1.473 -2.667 0 -2.667 C
1.473 -2.667 2.667 -1.473 2.667 0 C
cp
f
GR
GS
[1 0 0 1 155.46001 300.5264] CT
0 0 1 RC
N
2.667 0 M
2.667 1.473 1.473 2.667 0 2.667 C
-1.473 2.667 -2.667 1.473 -2.667 0 C
-2.667 -1.473 -1.473 -2.667 0 -2.667 C
1.473 -2.667 2.667 -1.473 2.667 0 C
cp
f
GR
GS
[1 0 0 1 159.8 298.24609] CT
0 0 1 RC
N
2.667 0 M
2.667 1.473 1.473 2.667 0 2.667 C
-1.473 2.667 -2.667 1.473 -2.667 0 C
-2.667 -1.473 -1.473 -2.667 0 -2.667 C
1.473 -2.667 2.667 -1.473 2.667 0 C
cp
f
GR
GS
[1 0 0 1 164.14 291.42938] CT
0 0 1 RC
N
2.667 0 M
2.667 1.473 1.473 2.667 0 2.667 C
-1.473 2.667 -2.667 1.473 -2.667 0 C
-2.667 -1.473 -1.473 -2.667 0 -2.667 C
1.473 -2.667 2.667 -1.473 2.667 0 C
cp
f
GR
GS
[1 0 0 1 168.48 296.76157] CT
0 0 1 RC
N
2.667 0 M
2.667 1.473 1.473 2.667 0 2.667 C
-1.473 2.667 -2.667 1.473 -2.667 0 C
-2.667 -1.473 -1.473 -2.667 0 -2.667 C
1.473 -2.667 2.667 -1.473 2.667 0 C
cp
f
GR
GS
[1 0 0 1 172.82001 287.86237] CT
0 0 1 RC
N
2.667 0 M
2.667 1.473 1.473 2.667 0 2.667 C
-1.473 2.667 -2.667 1.473 -2.667 0 C
-2.667 -1.473 -1.473 -2.667 0 -2.667 C
1.473 -2.667 2.667 -1.473 2.667 0 C
cp
f
GR
GS
[1 0 0 1 177.16 290.10663] CT
0 0 1 RC
N
2.667 0 M
2.667 1.473 1.473 2.667 0 2.667 C
-1.473 2.667 -2.667 1.473 -2.667 0 C
-2.667 -1.473 -1.473 -2.667 0 -2.667 C
1.473 -2.667 2.667 -1.473 2.667 0 C
cp
f
GR
GS
[1 0 0 1 181.5 298.0257] CT
0 0 1 RC
N
2.667 0 M
2.667 1.473 1.473 2.667 0 2.667 C
-1.473 2.667 -2.667 1.473 -2.667 0 C
-2.667 -1.473 -1.473 -2.667 0 -2.667 C
1.473 -2.667 2.667 -1.473 2.667 0 C
cp
f
GR
GS
[1 0 0 1 185.84 313.63959] CT
0 0 1 RC
N
2.667 0 M
2.667 1.473 1.473 2.667 0 2.667 C
-1.473 2.667 -2.667 1.473 -2.667 0 C
-2.667 -1.473 -1.473 -2.667 0 -2.667 C
1.473 -2.667 2.667 -1.473 2.667 0 C
cp
f
GR
GS
[1 0 0 1 190.17999 311.78931] CT
0 0 1 RC
N
2.667 0 M
2.667 1.473 1.473 2.667 0 2.667 C
-1.473 2.667 -2.667 1.473 -2.667 0 C
-2.667 -1.473 -1.473 -2.667 0 -2.667 C
1.473 -2.667 2.667 -1.473 2.667 0 C
cp
f
GR
GS
[1 0 0 1 194.52 311.35156] CT
0 0 1 RC
N
2.667 0 M
2.667 1.473 1.473 2.667 0 2.667 C
-1.473 2.667 -2.667 1.473 -2.667 0 C
-2.667 -1.473 -1.473 -2.667 0 -2.667 C
1.473 -2.667 2.667 -1.473 2.667 0 C
cp
f
GR
GS
[1 0 0 1 198.86 318.69632] CT
0 0 1 RC
N
2.667 0 M
2.667 1.473 1.473 2.667 0 2.667 C
-1.473 2.667 -2.667 1.473 -2.667 0 C
-2.667 -1.473 -1.473 -2.667 0 -2.667 C
1.473 -2.667 2.667 -1.473 2.667 0 C
cp
f
GR
GS
[1 0 0 1 203.2 309.0571] CT
0 0 1 RC
N
2.667 0 M
2.667 1.473 1.473 2.667 0 2.667 C
-1.473 2.667 -2.667 1.473 -2.667 0 C
-2.667 -1.473 -1.473 -2.667 0 -2.667 C
1.473 -2.667 2.667 -1.473 2.667 0 C
cp
f
GR
GS
[1 0 0 1 207.53999 309.46167] CT
0 0 1 RC
N
2.667 0 M
2.667 1.473 1.473 2.667 0 2.667 C
-1.473 2.667 -2.667 1.473 -2.667 0 C
-2.667 -1.473 -1.473 -2.667 0 -2.667 C
1.473 -2.667 2.667 -1.473 2.667 0 C
cp
f
GR
GS
[1 0 0 1 211.88 301.70816] CT
0 0 1 RC
N
2.667 0 M
2.667 1.473 1.473 2.667 0 2.667 C
-1.473 2.667 -2.667 1.473 -2.667 0 C
-2.667 -1.473 -1.473 -2.667 0 -2.667 C
1.473 -2.667 2.667 -1.473 2.667 0 C
cp
f
GR
GS
[1 0 0 1 216.22 291.56161] CT
0 0 1 RC
N
2.667 0 M
2.667 1.473 1.473 2.667 0 2.667 C
-1.473 2.667 -2.667 1.473 -2.667 0 C
-2.667 -1.473 -1.473 -2.667 0 -2.667 C
1.473 -2.667 2.667 -1.473 2.667 0 C
cp
f
GR
GS
[1 0 0 1 220.56 314.29483] CT
0 0 1 RC
N
2.667 0 M
2.667 1.473 1.473 2.667 0 2.667 C
-1.473 2.667 -2.667 1.473 -2.667 0 C
-2.667 -1.473 -1.473 -2.667 0 -2.667 C
1.473 -2.667 2.667 -1.473 2.667 0 C
cp
f
GR
GS
[1 0 0 1 224.89999 308.21515] CT
0 0 1 RC
N
2.667 0 M
2.667 1.473 1.473 2.667 0 2.667 C
-1.473 2.667 -2.667 1.473 -2.667 0 C
-2.667 -1.473 -1.473 -2.667 0 -2.667 C
1.473 -2.667 2.667 -1.473 2.667 0 C
cp
f
GR
GS
[1 0 0 1 229.24001 312.35071] CT
0 0 1 RC
N
2.667 0 M
2.667 1.473 1.473 2.667 0 2.667 C
-1.473 2.667 -2.667 1.473 -2.667 0 C
-2.667 -1.473 -1.473 -2.667 0 -2.667 C
1.473 -2.667 2.667 -1.473 2.667 0 C
cp
f
GR
GS
[1 0 0 1 233.58 312.62097] CT
0 0 1 RC
N
2.667 0 M
2.667 1.473 1.473 2.667 0 2.667 C
-1.473 2.667 -2.667 1.473 -2.667 0 C
-2.667 -1.473 -1.473 -2.667 0 -2.667 C
1.473 -2.667 2.667 -1.473 2.667 0 C
cp
f
GR
GS
[1 0 0 1 237.92 309.08704] CT
0 0 1 RC
N
2.667 0 M
2.667 1.473 1.473 2.667 0 2.667 C
-1.473 2.667 -2.667 1.473 -2.667 0 C
-2.667 -1.473 -1.473 -2.667 0 -2.667 C
1.473 -2.667 2.667 -1.473 2.667 0 C
cp
f
GR
GS
[1 0 0 1 242.25999 318.32455] CT
0 0 1 RC
N
2.667 0 M
2.667 1.473 1.473 2.667 0 2.667 C
-1.473 2.667 -2.667 1.473 -2.667 0 C
-2.667 -1.473 -1.473 -2.667 0 -2.667 C
1.473 -2.667 2.667 -1.473 2.667 0 C
cp
f
GR
GS
[1 0 0 1 246.60001 293.07501] CT
0 0 1 RC
N
2.667 0 M
2.667 1.473 1.473 2.667 0 2.667 C
-1.473 2.667 -2.667 1.473 -2.667 0 C
-2.667 -1.473 -1.473 -2.667 0 -2.667 C
1.473 -2.667 2.667 -1.473 2.667 0 C
cp
f
GR
GS
[1 0 0 1 250.94 307.11249] CT
0 0 1 RC
N
2.667 0 M
2.667 1.473 1.473 2.667 0 2.667 C
-1.473 2.667 -2.667 1.473 -2.667 0 C
-2.667 -1.473 -1.473 -2.667 0 -2.667 C
1.473 -2.667 2.667 -1.473 2.667 0 C
cp
f
GR
GS
[1 0 0 1 255.28 293.01526] CT
0 0 1 RC
N
2.667 0 M
2.667 1.473 1.473 2.667 0 2.667 C
-1.473 2.667 -2.667 1.473 -2.667 0 C
-2.667 -1.473 -1.473 -2.667 0 -2.667 C
1.473 -2.667 2.667 -1.473 2.667 0 C
cp
f
GR
GS
[1 0 0 1 259.62 299.43567] CT
0 0 1 RC
N
2.667 0 M
2.667 1.473 1.473 2.667 0 2.667 C
-1.473 2.667 -2.667 1.473 -2.667 0 C
-2.667 -1.473 -1.473 -2.667 0 -2.667 C
1.473 -2.667 2.667 -1.473 2.667 0 C
cp
f
GR
GS
[1 0 0 1 263.95999 310.79831] CT
0 0 1 RC
N
2.667 0 M
2.667 1.473 1.473 2.667 0 2.667 C
-1.473 2.667 -2.667 1.473 -2.667 0 C
-2.667 -1.473 -1.473 -2.667 0 -2.667 C
1.473 -2.667 2.667 -1.473 2.667 0 C
cp
f
GR
GS
[1 0 0 1 268.29999 325.26898] CT
0 0 1 RC
N
2.667 0 M
2.667 1.473 1.473 2.667 0 2.667 C
-1.473 2.667 -2.667 1.473 -2.667 0 C
-2.667 -1.473 -1.473 -2.667 0 -2.667 C
1.473 -2.667 2.667 -1.473 2.667 0 C
cp
f
GR
GS
[1 0 0 1 272.64001 296.99527] CT
0 0 1 RC
N
2.667 0 M
2.667 1.473 1.473 2.667 0 2.667 C
-1.473 2.667 -2.667 1.473 -2.667 0 C
-2.667 -1.473 -1.473 -2.667 0 -2.667 C
1.473 -2.667 2.667 -1.473 2.667 0 C
cp
f
GR
GS
[1 0 0 1 276.98001 305.16226] CT
0 0 1 RC
N
2.667 0 M
2.667 1.473 1.473 2.667 0 2.667 C
-1.473 2.667 -2.667 1.473 -2.667 0 C
-2.667 -1.473 -1.473 -2.667 0 -2.667 C
1.473 -2.667 2.667 -1.473 2.667 0 C
cp
f
GR
GS
[1 0 0 1 281.32001 323.46756] CT
0 0 1 RC
N
2.667 0 M
2.667 1.473 1.473 2.667 0 2.667 C
-1.473 2.667 -2.667 1.473 -2.667 0 C
-2.667 -1.473 -1.473 -2.667 0 -2.667 C
1.473 -2.667 2.667 -1.473 2.667 0 C
cp
f
GR
GS
[1 0 0 1 285.66 316.24335] CT
0 0 1 RC
N
2.667 0 M
2.667 1.473 1.473 2.667 0 2.667 C
-1.473 2.667 -2.667 1.473 -2.667 0 C
-2.667 -1.473 -1.473 -2.667 0 -2.667 C
1.473 -2.667 2.667 -1.473 2.667 0 C
cp
f
GR
GS
[1 0 0 1 290 319.05673] CT
0 0 1 RC
N
2.667 0 M
2.667 1.473 1.473 2.667 0 2.667 C
-1.473 2.667 -2.667 1.473 -2.667 0 C
-2.667 -1.473 -1.473 -2.667 0 -2.667 C
1.473 -2.667 2.667 -1.473 2.667 0 C
cp
f
GR
GS
[1 0 0 1 294.34 324.73398] CT
0 0 1 RC
N
2.667 0 M
2.667 1.473 1.473 2.667 0 2.667 C
-1.473 2.667 -2.667 1.473 -2.667 0 C
-2.667 -1.473 -1.473 -2.667 0 -2.667 C
1.473 -2.667 2.667 -1.473 2.667 0 C
cp
f
GR
GS
[1 0 0 1 298.67999 308.1217] CT
0 0 1 RC
N
2.667 0 M
2.667 1.473 1.473 2.667 0 2.667 C
-1.473 2.667 -2.667 1.473 -2.667 0 C
-2.667 -1.473 -1.473 -2.667 0 -2.667 C
1.473 -2.667 2.667 -1.473 2.667 0 C
cp
f
GR
GS
[1 0 0 1 303.01999 316.81799] CT
0 0 1 RC
N
2.667 0 M
2.667 1.473 1.473 2.667 0 2.667 C
-1.473 2.667 -2.667 1.473 -2.667 0 C
-2.667 -1.473 -1.473 -2.667 0 -2.667 C
1.473 -2.667 2.667 -1.473 2.667 0 C
cp
f
GR
GS
[1 0 0 1 307.35999 326.89755] CT
0 0 1 RC
N
2.667 0 M
2.667 1.473 1.473 2.667 0 2.667 C
-1.473 2.667 -2.667 1.473 -2.667 0 C
-2.667 -1.473 -1.473 -2.667 0 -2.667 C
1.473 -2.667 2.667 -1.473 2.667 0 C
cp
f
GR
GS
[1 0 0 1 311.70001 316.27777] CT
0 0 1 RC
N
2.667 0 M
2.667 1.473 1.473 2.667 0 2.667 C
-1.473 2.667 -2.667 1.473 -2.667 0 C
-2.667 -1.473 -1.473 -2.667 0 -2.667 C
1.473 -2.667 2.667 -1.473 2.667 0 C
cp
f
GR
GS
[1 0 0 1 316.04001 310.44708] CT
0 0 1 RC
N
2.667 0 M
2.667 1.473 1.473 2.667 0 2.667 C
-1.473 2.667 -2.667 1.473 -2.667 0 C
-2.667 -1.473 -1.473 -2.667 0 -2.667 C
1.473 -2.667 2.667 -1.473 2.667 0 C
cp
f
GR
GS
[1 0 0 1 320.38 271.59509] CT
0 0 1 RC
N
2.667 0 M
2.667 1.473 1.473 2.667 0 2.667 C
-1.473 2.667 -2.667 1.473 -2.667 0 C
-2.667 -1.473 -1.473 -2.667 0 -2.667 C
1.473 -2.667 2.667 -1.473 2.667 0 C
cp
f
GR
GS
[1 0 0 1 324.72 290.04001] CT
0 0 1 RC
N
2.667 0 M
2.667 1.473 1.473 2.667 0 2.667 C
-1.473 2.667 -2.667 1.473 -2.667 0 C
-2.667 -1.473 -1.473 -2.667 0 -2.667 C
1.473 -2.667 2.667 -1.473 2.667 0 C
cp
f
GR
GS
[1 0 0 1 329.06 295.58502] CT
0 0 1 RC
N
2.667 0 M
2.667 1.473 1.473 2.667 0 2.667 C
-1.473 2.667 -2.667 1.473 -2.667 0 C
-2.667 -1.473 -1.473 -2.667 0 -2.667 C
1.473 -2.667 2.667 -1.473 2.667 0 C
cp
f
GR
GS
[1 0 0 1 333.39999 323.44757] CT
0 0 1 RC
N
2.667 0 M
2.667 1.473 1.473 2.667 0 2.667 C
-1.473 2.667 -2.667 1.473 -2.667 0 C
-2.667 -1.473 -1.473 -2.667 0 -2.667 C
1.473 -2.667 2.667 -1.473 2.667 0 C
cp
f
GR
GS
[1 0 0 1 337.73999 322.81851] CT
0 0 1 RC
N
2.667 0 M
2.667 1.473 1.473 2.667 0 2.667 C
-1.473 2.667 -2.667 1.473 -2.667 0 C
-2.667 -1.473 -1.473 -2.667 0 -2.667 C
1.473 -2.667 2.667 -1.473 2.667 0 C
cp
f
GR
GS
[1 0 0 1 342.07999 302.60098] CT
0 0 1 RC
N
2.667 0 M
2.667 1.473 1.473 2.667 0 2.667 C
-1.473 2.667 -2.667 1.473 -2.667 0 C
-2.667 -1.473 -1.473 -2.667 0 -2.667 C
1.473 -2.667 2.667 -1.473 2.667 0 C
cp
f
GR
GS
[1 0 0 1 346.42001 310.7869] CT
0 0 1 RC
N
2.667 0 M
2.667 1.473 1.473 2.667 0 2.667 C
-1.473 2.667 -2.667 1.473 -2.667 0 C
-2.667 -1.473 -1.473 -2.667 0 -2.667 C
1.473 -2.667 2.667 -1.473 2.667 0 C
cp
f
GR
GS
[1 0 0 1 350.76001 329.96078] CT
0 0 1 RC
N
2.667 0 M
2.667 1.473 1.473 2.667 0 2.667 C
-1.473 2.667 -2.667 1.473 -2.667 0 C
-2.667 -1.473 -1.473 -2.667 0 -2.667 C
1.473 -2.667 2.667 -1.473 2.667 0 C
cp
f
GR
GS
[1 0 0 1 355.10001 276.27167] CT
0 0 1 RC
N
2.667 0 M
2.667 1.473 1.473 2.667 0 2.667 C
-1.473 2.667 -2.667 1.473 -2.667 0 C
-2.667 -1.473 -1.473 -2.667 0 -2.667 C
1.473 -2.667 2.667 -1.473 2.667 0 C
cp
f
GR
GS
[1 0 0 1 359.44 281.72141] CT
0 0 1 RC
N
2.667 0 M
2.667 1.473 1.473 2.667 0 2.667 C
-1.473 2.667 -2.667 1.473 -2.667 0 C
-2.667 -1.473 -1.473 -2.667 0 -2.667 C
1.473 -2.667 2.667 -1.473 2.667 0 C
cp
f
GR
GS
[1 0 0 1 363.78 313.05148] CT
0 0 1 RC
N
2.667 0 M
2.667 1.473 1.473 2.667 0 2.667 C
-1.473 2.667 -2.667 1.473 -2.667 0 C
-2.667 -1.473 -1.473 -2.667 0 -2.667 C
1.473 -2.667 2.667 -1.473 2.667 0 C
cp
f
GR
GS
[1 0 0 1 368.12 282.94034] CT
0 0 1 RC
N
2.667 0 M
2.667 1.473 1.473 2.667 0 2.667 C
-1.473 2.667 -2.667 1.473 -2.667 0 C
-2.667 -1.473 -1.473 -2.667 0 -2.667 C
1.473 -2.667 2.667 -1.473 2.667 0 C
cp
f
GR
GS
[1 0 0 1 372.45999 302.68182] CT
0 0 1 RC
N
2.667 0 M
2.667 1.473 1.473 2.667 0 2.667 C
-1.473 2.667 -2.667 1.473 -2.667 0 C
-2.667 -1.473 -1.473 -2.667 0 -2.667 C
1.473 -2.667 2.667 -1.473 2.667 0 C
cp
f
GR
GS
[1 0 0 1 376.79999 309.49866] CT
0 0 1 RC
N
2.667 0 M
2.667 1.473 1.473 2.667 0 2.667 C
-1.473 2.667 -2.667 1.473 -2.667 0 C
-2.667 -1.473 -1.473 -2.667 0 -2.667 C
1.473 -2.667 2.667 -1.473 2.667 0 C
cp
f
GR
GS
[1 0 0 1 381.14001 292.83084] CT
0 0 1 RC
N
2.667 0 M
2.667 1.473 1.473 2.667 0 2.667 C
-1.473 2.667 -2.667 1.473 -2.667 0 C
-2.667 -1.473 -1.473 -2.667 0 -2.667 C
1.473 -2.667 2.667 -1.473 2.667 0 C
cp
f
GR
GS
[1 0 0 1 385.48001 297.02692] CT
0 0 1 RC
N
2.667 0 M
2.667 1.473 1.473 2.667 0 2.667 C
-1.473 2.667 -2.667 1.473 -2.667 0 C
-2.667 -1.473 -1.473 -2.667 0 -2.667 C
1.473 -2.667 2.667 -1.473 2.667 0 C
cp
f
GR
GS
[1 0 0 1 389.82001 293.46259] CT
0 0 1 RC
N
2.667 0 M
2.667 1.473 1.473 2.667 0 2.667 C
-1.473 2.667 -2.667 1.473 -2.667 0 C
-2.667 -1.473 -1.473 -2.667 0 -2.667 C
1.473 -2.667 2.667 -1.473 2.667 0 C
cp
f
GR
GS
[1 0 0 1 394.16 339.79529] CT
0 0 1 RC
N
2.667 0 M
2.667 1.473 1.473 2.667 0 2.667 C
-1.473 2.667 -2.667 1.473 -2.667 0 C
-2.667 -1.473 -1.473 -2.667 0 -2.667 C
1.473 -2.667 2.667 -1.473 2.667 0 C
cp
f
GR
GS
[1 0 0 1 398.5 288.49887] CT
0 0 1 RC
N
2.667 0 M
2.667 1.473 1.473 2.667 0 2.667 C
-1.473 2.667 -2.667 1.473 -2.667 0 C
-2.667 -1.473 -1.473 -2.667 0 -2.667 C
1.473 -2.667 2.667 -1.473 2.667 0 C
cp
f
GR
GS
[1 0 0 1 402.84 269.83862] CT
0 0 1 RC
N
2.667 0 M
2.667 1.473 1.473 2.667 0 2.667 C
-1.473 2.667 -2.667 1.473 -2.667 0 C
-2.667 -1.473 -1.473 -2.667 0 -2.667 C
1.473 -2.667 2.667 -1.473 2.667 0 C
cp
f
GR
GS
[1 0 0 1 407.17999 301.05731] CT
0 0 1 RC
N
2.667 0 M
2.667 1.473 1.473 2.667 0 2.667 C
-1.473 2.667 -2.667 1.473 -2.667 0 C
-2.667 -1.473 -1.473 -2.667 0 -2.667 C
1.473 -2.667 2.667 -1.473 2.667 0 C
cp
f
GR
GS
[1 0 0 1 411.51999 347.05484] CT
0 0 1 RC
N
2.667 0 M
2.667 1.473 1.473 2.667 0 2.667 C
-1.473 2.667 -2.667 1.473 -2.667 0 C
-2.667 -1.473 -1.473 -2.667 0 -2.667 C
1.473 -2.667 2.667 -1.473 2.667 0 C
cp
f
GR
GS
[1 0 0 1 415.85999 283.71783] CT
0 0 1 RC
N
2.667 0 M
2.667 1.473 1.473 2.667 0 2.667 C
-1.473 2.667 -2.667 1.473 -2.667 0 C
-2.667 -1.473 -1.473 -2.667 0 -2.667 C
1.473 -2.667 2.667 -1.473 2.667 0 C
cp
f
GR
GS
[1 0 0 1 420.20001 294.29343] CT
0 0 1 RC
N
2.667 0 M
2.667 1.473 1.473 2.667 0 2.667 C
-1.473 2.667 -2.667 1.473 -2.667 0 C
-2.667 -1.473 -1.473 -2.667 0 -2.667 C
1.473 -2.667 2.667 -1.473 2.667 0 C
cp
f
GR
GS
[1 0 0 1 424.54001 335.34058] CT
0 0 1 RC
N
2.667 0 M
2.667 1.473 1.473 2.667 0 2.667 C
-1.473 2.667 -2.667 1.473 -2.667 0 C
-2.667 -1.473 -1.473 -2.667 0 -2.667 C
1.473 -2.667 2.667 -1.473 2.667 0 C
cp
f
GR
GS
[1 0 0 1 428.88 320.65091] CT
0 0 1 RC
N
2.667 0 M
2.667 1.473 1.473 2.667 0 2.667 C
-1.473 2.667 -2.667 1.473 -2.667 0 C
-2.667 -1.473 -1.473 -2.667 0 -2.667 C
1.473 -2.667 2.667 -1.473 2.667 0 C
cp
f
GR
GS
[1 0 0 1 433.22 306.59286] CT
0 0 1 RC
N
2.667 0 M
2.667 1.473 1.473 2.667 0 2.667 C
-1.473 2.667 -2.667 1.473 -2.667 0 C
-2.667 -1.473 -1.473 -2.667 0 -2.667 C
1.473 -2.667 2.667 -1.473 2.667 0 C
cp
f
GR
GS
[1 0 0 1 437.56 284.99863] CT
0 0 1 RC
N
2.667 0 M
2.667 1.473 1.473 2.667 0 2.667 C
-1.473 2.667 -2.667 1.473 -2.667 0 C
-2.667 -1.473 -1.473 -2.667 0 -2.667 C
1.473 -2.667 2.667 -1.473 2.667 0 C
cp
f
GR
GS
[1 0 0 1 441.89999 294.63794] CT
0 0 1 RC
N
2.667 0 M
2.667 1.473 1.473 2.667 0 2.667 C
-1.473 2.667 -2.667 1.473 -2.667 0 C
-2.667 -1.473 -1.473 -2.667 0 -2.667 C
1.473 -2.667 2.667 -1.473 2.667 0 C
cp
f
GR
GS
[1 0 0 1 446.23999 278.87149] CT
0 0 1 RC
N
2.667 0 M
2.667 1.473 1.473 2.667 0 2.667 C
-1.473 2.667 -2.667 1.473 -2.667 0 C
-2.667 -1.473 -1.473 -2.667 0 -2.667 C
1.473 -2.667 2.667 -1.473 2.667 0 C
cp
f
GR
GS
[1 0 0 1 450.57999 308.11261] CT
0 0 1 RC
N
2.667 0 M
2.667 1.473 1.473 2.667 0 2.667 C
-1.473 2.667 -2.667 1.473 -2.667 0 C
-2.667 -1.473 -1.473 -2.667 0 -2.667 C
1.473 -2.667 2.667 -1.473 2.667 0 C
cp
f
GR
GS
[1 0 0 1 454.92001 238.97072] CT
0 0 1 RC
N
2.667 0 M
2.667 1.473 1.473 2.667 0 2.667 C
-1.473 2.667 -2.667 1.473 -2.667 0 C
-2.667 -1.473 -1.473 -2.667 0 -2.667 C
1.473 -2.667 2.667 -1.473 2.667 0 C
cp
f
GR
GS
[1 0 0 1 459.26001 332.18753] CT
0 0 1 RC
N
2.667 0 M
2.667 1.473 1.473 2.667 0 2.667 C
-1.473 2.667 -2.667 1.473 -2.667 0 C
-2.667 -1.473 -1.473 -2.667 0 -2.667 C
1.473 -2.667 2.667 -1.473 2.667 0 C
cp
f
GR
GS
[1 0 0 1 463.60001 307.10931] CT
0 0 1 RC
N
2.667 0 M
2.667 1.473 1.473 2.667 0 2.667 C
-1.473 2.667 -2.667 1.473 -2.667 0 C
-2.667 -1.473 -1.473 -2.667 0 -2.667 C
1.473 -2.667 2.667 -1.473 2.667 0 C
cp
f
GR
GS
[1 0 0 1 467.94 306.0275] CT
0 0 1 RC
N
2.667 0 M
2.667 1.473 1.473 2.667 0 2.667 C
-1.473 2.667 -2.667 1.473 -2.667 0 C
-2.667 -1.473 -1.473 -2.667 0 -2.667 C
1.473 -2.667 2.667 -1.473 2.667 0 C
cp
f
GR
GS
[1 0 0 1 472.28 309.38165] CT
0 0 1 RC
N
2.667 0 M
2.667 1.473 1.473 2.667 0 2.667 C
-1.473 2.667 -2.667 1.473 -2.667 0 C
-2.667 -1.473 -1.473 -2.667 0 -2.667 C
1.473 -2.667 2.667 -1.473 2.667 0 C
cp
f
GR
GS
[1 0 0 1 476.62 275.19684] CT
0 0 1 RC
N
2.667 0 M
2.667 1.473 1.473 2.667 0 2.667 C
-1.473 2.667 -2.667 1.473 -2.667 0 C
-2.667 -1.473 -1.473 -2.667 0 -2.667 C
1.473 -2.667 2.667 -1.473 2.667 0 C
cp
f
GR
GS
[1 0 0 1 480.95999 297.48187] CT
0 0 1 RC
N
2.667 0 M
2.667 1.473 1.473 2.667 0 2.667 C
-1.473 2.667 -2.667 1.473 -2.667 0 C
-2.667 -1.473 -1.473 -2.667 0 -2.667 C
1.473 -2.667 2.667 -1.473 2.667 0 C
cp
f
GR
GS
[1 0 0 1 485.29999 303.31552] CT
0 0 1 RC
N
2.667 0 M
2.667 1.473 1.473 2.667 0 2.667 C
-1.473 2.667 -2.667 1.473 -2.667 0 C
-2.667 -1.473 -1.473 -2.667 0 -2.667 C
1.473 -2.667 2.667 -1.473 2.667 0 C
cp
f
GR
GS
[1 0 0 1 489.64001 284.33502] CT
0 0 1 RC
N
2.667 0 M
2.667 1.473 1.473 2.667 0 2.667 C
-1.473 2.667 -2.667 1.473 -2.667 0 C
-2.667 -1.473 -1.473 -2.667 0 -2.667 C
1.473 -2.667 2.667 -1.473 2.667 0 C
cp
f
GR
GS
[1 0 0 1 493.98001 281.32938] CT
0 0 1 RC
N
2.667 0 M
2.667 1.473 1.473 2.667 0 2.667 C
-1.473 2.667 -2.667 1.473 -2.667 0 C
-2.667 -1.473 -1.473 -2.667 0 -2.667 C
1.473 -2.667 2.667 -1.473 2.667 0 C
cp
f
GR
GS
[1 0 0 1 498.32001 260.11401] CT
0 0 1 RC
N
2.667 0 M
2.667 1.473 1.473 2.667 0 2.667 C
-1.473 2.667 -2.667 1.473 -2.667 0 C
-2.667 -1.473 -1.473 -2.667 0 -2.667 C
1.473 -2.667 2.667 -1.473 2.667 0 C
cp
f
GR
GS
[1 0 0 1 502.66 303.73483] CT
0 0 1 RC
N
2.667 0 M
2.667 1.473 1.473 2.667 0 2.667 C
-1.473 2.667 -2.667 1.473 -2.667 0 C
-2.667 -1.473 -1.473 -2.667 0 -2.667 C
1.473 -2.667 2.667 -1.473 2.667 0 C
cp
f
GR
GS
[1 0 0 1 507 297.90854] CT
0 0 1 RC
N
2.667 0 M
2.667 1.473 1.473 2.667 0 2.667 C
-1.473 2.667 -2.667 1.473 -2.667 0 C
-2.667 -1.473 -1.473 -2.667 0 -2.667 C
1.473 -2.667 2.667 -1.473 2.667 0 C
cp
f
GR
GS
1 0 0 RC
1 LJ
N
73 302.5 M
73.434 302.5 L
73.868 302.5 L
74.302 302.5 L
74.736 302.5 L
75.17 302.5 L
75.604 302.5 L
76.038 302.5 L
76.472 302.5 L
76.906 302.5 L
77.34 302.5 L
77.774 302.5 L
78.208 302.5 L
78.642 302.5 L
79.076 302.5 L
79.51 302.5 L
79.944 302.5 L
80.378 302.5 L
80.812 302.5 L
81.246 302.5 L
81.68 302.5 L
82.114 302.5 L
82.548 302.5 L
82.982 302.5 L
83.416 302.5 L
83.85 302.5 L
84.284 302.5 L
84.718 302.5 L
85.152 302.5 L
85.586 302.5 L
86.02 302.5 L
86.454 302.5 L
86.888 302.5 L
87.322 302.5 L
87.756 302.5 L
88.19 302.5 L
88.624 302.5 L
89.058 302.5 L
89.492 302.5 L
89.926 302.5 L
90.36 302.5 L
90.794 302.5 L
91.228 302.5 L
91.662 302.5 L
92.096 302.5 L
92.53 302.5 L
92.964 302.5 L
93.398 302.5 L
93.832 302.5 L
94.266 302.5 L
94.7 302.5 L
95.134 302.5 L
95.568 302.5 L
96.002 302.5 L
96.436 302.5 L
96.87 302.5 L
97.304 302.5 L
97.738 302.5 L
98.172 302.5 L
98.606 302.5 L
99.04 302.5 L
99.474 302.5 L
99.908 302.5 L
100.342 302.5 L
100.776 302.5 L
101.21 302.5 L
101.644 302.5 L
102.078 302.5 L
102.512 302.5 L
102.946 302.5 L
103.38 302.5 L
103.814 302.5 L
104.248 302.5 L
104.682 302.5 L
105.116 302.5 L
105.55 302.5 L
105.984 302.5 L
106.418 302.5 L
106.852 302.5 L
107.286 302.5 L
107.72 302.5 L
108.154 302.5 L
108.588 302.5 L
109.022 302.5 L
109.456 302.5 L
109.89 302.5 L
110.324 302.5 L
110.758 302.5 L
111.192 302.5 L
111.626 302.5 L
112.06 302.5 L
112.494 302.5 L
112.928 302.5 L
113.362 302.5 L
113.796 302.5 L
114.23 302.5 L
114.664 302.5 L
115.098 302.5 L
115.532 302.5 L
115.966 302.5 L
116.4 302.5 L
116.834 302.5 L
117.268 302.5 L
117.702 302.5 L
118.136 302.5 L
118.57 302.5 L
119.004 302.5 L
119.438 302.5 L
119.872 302.5 L
120.306 302.5 L
120.74 302.5 L
121.174 302.5 L
121.608 302.5 L
122.042 302.5 L
122.476 302.5 L
122.91 302.5 L
123.344 302.5 L
123.778 302.5 L
124.212 302.5 L
124.646 302.5 L
125.08 302.5 L
125.514 302.5 L
125.948 302.5 L
126.382 302.5 L
126.816 302.5 L
127.25 302.5 L
127.684 302.5 L
128.118 302.5 L
128.552 302.5 L
128.986 302.5 L
129.42 302.5 L
129.854 302.5 L
130.288 302.5 L
130.722 302.5 L
131.156 302.5 L
131.59 302.5 L
132.024 302.5 L
132.458 302.5 L
132.892 302.5 L
133.326 302.5 L
133.76 302.5 L
134.194 302.5 L
134.628 302.5 L
135.062 302.5 L
135.496 302.5 L
135.93 302.5 L
136.364 302.5 L
136.798 302.5 L
137.232 302.5 L
137.666 302.5 L
138.1 302.5 L
138.534 302.5 L
138.968 302.5 L
139.402 302.5 L
139.836 302.5 L
140.27 302.5 L
140.704 302.5 L
141.138 302.5 L
141.572 302.5 L
142.006 302.5 L
142.44 302.5 L
142.874 302.5 L
143.308 302.5 L
143.742 302.5 L
144.176 302.5 L
144.61 302.5 L
145.044 302.5 L
145.478 302.5 L
145.912 302.5 L
146.346 302.5 L
146.78 302.5 L
147.214 302.5 L
147.648 302.5 L
148.082 302.5 L
148.516 302.5 L
148.95 302.5 L
149.384 302.5 L
149.818 302.5 L
150.252 302.5 L
150.686 302.5 L
151.12 302.5 L
151.554 302.5 L
151.988 302.5 L
152.422 302.5 L
152.856 302.5 L
153.29 302.5 L
153.724 302.5 L
154.158 302.5 L
154.592 302.5 L
155.026 302.5 L
155.46 302.5 L
155.894 302.5 L
156.328 302.5 L
156.762 302.5 L
157.196 302.5 L
157.63 302.5 L
158.064 302.5 L
158.498 302.5 L
158.932 302.5 L
159.366 302.5 L
159.8 302.5 L
160.234 302.5 L
160.668 302.5 L
161.102 302.5 L
161.536 302.5 L
161.97 302.5 L
162.404 302.5 L
162.838 302.5 L
163.272 302.5 L
163.706 302.5 L
164.14 302.5 L
164.574 302.5 L
165.008 302.5 L
165.442 302.5 L
165.876 302.5 L
166.31 302.5 L
166.744 302.5 L
167.178 302.5 L
167.612 302.5 L
168.046 302.5 L
168.48 302.5 L
168.914 302.5 L
169.348 302.5 L
169.782 302.5 L
170.216 302.5 L
170.65 302.5 L
171.084 302.5 L
171.518 302.5 L
171.952 302.5 L
172.386 302.5 L
172.82 302.5 L
173.254 302.5 L
173.688 302.5 L
174.122 302.5 L
174.556 302.5 L
174.99 302.5 L
175.424 302.5 L
175.858 302.5 L
176.292 302.5 L
176.726 302.5 L
177.16 302.5 L
177.594 302.5 L
178.028 302.5 L
178.462 302.5 L
178.896 302.5 L
179.33 302.5 L
179.764 302.5 L
180.198 302.5 L
180.632 302.5 L
181.066 302.5 L
181.5 302.5 L
181.934 302.5 L
182.368 302.5 L
182.802 302.5 L
183.236 302.5 L
183.67 302.5 L
184.104 302.5 L
184.538 302.5 L
184.972 302.5 L
185.406 302.5 L
185.84 302.5 L
186.274 302.5 L
186.708 302.5 L
187.142 302.5 L
187.576 302.5 L
188.01 302.5 L
188.444 302.5 L
188.878 302.5 L
189.312 302.5 L
189.746 302.5 L
190.18 302.5 L
190.614 302.5 L
191.048 302.5 L
191.482 302.5 L
191.916 302.5 L
192.35 302.5 L
192.784 302.5 L
193.218 302.5 L
193.652 302.5 L
194.086 302.5 L
194.52 302.5 L
194.954 302.5 L
195.388 302.5 L
195.822 302.5 L
196.256 302.5 L
196.69 302.5 L
197.124 302.5 L
197.558 302.5 L
197.992 302.5 L
198.426 302.5 L
198.86 302.5 L
199.294 302.5 L
199.728 302.5 L
200.162 302.5 L
200.596 302.5 L
201.03 302.5 L
201.464 302.5 L
201.898 302.5 L
202.332 302.5 L
202.766 302.5 L
203.2 302.5 L
203.634 302.5 L
204.068 302.5 L
204.502 302.5 L
204.936 302.5 L
205.37 302.5 L
205.804 302.5 L
206.238 302.5 L
206.672 302.5 L
207.106 302.5 L
207.54 302.5 L
207.974 302.5 L
208.408 302.5 L
208.842 302.5 L
209.276 302.5 L
209.71 302.5 L
210.144 302.5 L
210.578 302.5 L
211.012 302.5 L
211.446 302.5 L
211.88 302.5 L
212.314 302.5 L
212.748 302.5 L
213.182 302.5 L
213.616 302.5 L
214.05 302.5 L
214.484 302.5 L
214.918 302.5 L
215.352 302.5 L
215.786 302.5 L
216.22 302.5 L
216.654 302.5 L
217.088 302.5 L
217.522 302.5 L
217.956 302.5 L
218.39 302.5 L
218.824 302.5 L
219.258 302.5 L
219.692 302.5 L
220.126 302.5 L
220.56 302.5 L
220.994 302.5 L
221.428 302.5 L
221.862 302.5 L
222.296 302.5 L
222.73 302.5 L
223.164 302.5 L
223.598 302.5 L
224.032 302.5 L
224.466 302.5 L
224.9 302.5 L
225.334 302.5 L
225.768 302.5 L
226.202 302.5 L
226.636 302.5 L
227.07 302.5 L
227.504 302.5 L
227.938 302.5 L
228.372 302.5 L
228.806 302.5 L
229.24 302.5 L
229.674 302.5 L
230.108 302.5 L
230.542 302.5 L
230.976 302.5 L
231.41 302.5 L
231.844 302.5 L
232.278 302.5 L
232.712 302.5 L
233.146 302.5 L
233.58 302.5 L
234.014 302.5 L
234.448 302.5 L
234.882 302.5 L
235.316 302.5 L
235.75 302.5 L
236.184 302.5 L
236.618 302.5 L
237.052 302.5 L
237.486 302.5 L
237.92 302.5 L
238.354 302.5 L
238.788 302.5 L
239.222 302.5 L
239.656 302.5 L
240.09 302.5 L
240.524 302.5 L
240.958 302.5 L
241.392 302.5 L
241.826 302.5 L
242.26 302.5 L
242.694 302.5 L
243.128 302.5 L
243.562 302.5 L
243.996 302.5 L
244.43 302.5 L
244.864 302.5 L
245.298 302.5 L
245.732 302.5 L
246.166 302.5 L
246.6 302.5 L
247.034 302.5 L
247.468 302.5 L
247.902 302.5 L
248.336 302.5 L
248.77 302.5 L
249.204 302.5 L
249.638 302.5 L
250.072 302.5 L
250.506 302.5 L
250.94 302.5 L
251.374 302.5 L
251.808 302.5 L
252.242 302.5 L
252.676 302.5 L
253.11 302.5 L
253.544 302.5 L
253.978 302.5 L
254.412 302.5 L
254.846 302.5 L
255.28 302.5 L
255.714 302.5 L
256.148 302.5 L
256.582 302.5 L
257.016 302.5 L
257.45 302.5 L
257.884 302.5 L
258.318 302.5 L
258.752 302.5 L
259.186 302.5 L
259.62 302.5 L
260.054 302.5 L
260.488 302.5 L
260.922 302.5 L
261.356 302.5 L
261.79 302.5 L
262.224 302.5 L
262.658 302.5 L
263.092 302.5 L
263.526 302.5 L
263.96 302.5 L
264.394 302.5 L
264.828 302.5 L
265.262 302.5 L
265.696 302.5 L
266.13 302.5 L
266.564 302.5 L
266.998 302.5 L
267.432 302.5 L
267.866 302.5 L
268.3 302.5 L
268.734 302.5 L
269.168 302.5 L
269.602 302.5 L
270.036 302.5 L
270.47 302.5 L
270.904 302.5 L
271.338 302.5 L
271.772 302.5 L
272.206 302.5 L
272.64 302.5 L
273.074 302.5 L
273.508 302.5 L
273.942 302.5 L
274.376 302.5 L
274.81 302.5 L
275.244 302.5 L
275.678 302.5 L
276.112 302.5 L
276.546 302.5 L
276.98 302.5 L
277.414 302.5 L
277.848 302.5 L
278.282 302.5 L
278.716 302.5 L
279.15 302.5 L
279.584 302.5 L
280.018 302.5 L
280.452 302.5 L
280.886 302.5 L
281.32 302.5 L
281.754 302.5 L
282.188 302.5 L
282.622 302.5 L
283.056 302.5 L
283.49 302.5 L
283.924 302.5 L
284.358 302.5 L
284.792 302.5 L
285.226 302.5 L
285.66 302.5 L
286.094 302.5 L
286.528 302.5 L
286.962 302.5 L
287.396 302.5 L
287.83 302.5 L
288.264 302.5 L
288.698 302.5 L
289.132 302.5 L
289.566 302.5 L
290 302.5 L
290.434 302.5 L
290.868 302.5 L
291.302 302.5 L
291.736 302.5 L
292.17 302.5 L
292.604 302.5 L
293.038 302.5 L
293.472 302.5 L
293.906 302.5 L
294.34 302.5 L
294.774 302.5 L
295.208 302.5 L
295.642 302.5 L
296.076 302.5 L
296.51 302.5 L
296.944 302.5 L
297.378 302.5 L
297.812 302.5 L
298.246 302.5 L
298.68 302.5 L
299.114 302.5 L
299.548 302.5 L
299.982 302.5 L
300.416 302.5 L
300.85 302.5 L
301.284 302.5 L
301.718 302.5 L
302.152 302.5 L
302.586 302.5 L
303.02 302.5 L
303.454 302.5 L
303.888 302.5 L
304.322 302.5 L
304.756 302.5 L
305.19 302.5 L
305.624 302.5 L
306.058 302.5 L
306.492 302.5 L
306.926 302.5 L
307.36 302.5 L
307.794 302.5 L
308.228 302.5 L
308.662 302.5 L
309.096 302.5 L
309.53 302.5 L
309.964 302.5 L
310.398 302.5 L
310.832 302.5 L
311.266 302.5 L
311.7 302.5 L
312.134 302.5 L
312.568 302.5 L
313.002 302.5 L
313.436 302.5 L
313.87 302.5 L
314.304 302.5 L
314.738 302.5 L
315.172 302.5 L
315.606 302.5 L
316.04 302.5 L
316.474 302.5 L
316.908 302.5 L
317.342 302.5 L
317.776 302.5 L
318.21 302.5 L
318.644 302.5 L
319.078 302.5 L
319.512 302.5 L
319.946 302.5 L
320.38 302.5 L
320.814 302.5 L
321.248 302.5 L
321.682 302.5 L
322.116 302.5 L
322.55 302.5 L
322.984 302.5 L
323.418 302.5 L
323.852 302.5 L
324.286 302.5 L
324.72 302.5 L
325.154 302.5 L
325.588 302.5 L
326.022 302.5 L
326.456 302.5 L
326.89 302.5 L
327.324 302.5 L
327.758 302.5 L
328.192 302.5 L
328.626 302.5 L
329.06 302.5 L
329.494 302.5 L
329.928 302.5 L
330.362 302.5 L
330.796 302.5 L
331.23 302.5 L
331.664 302.5 L
332.098 302.5 L
332.532 302.5 L
332.966 302.5 L
333.4 302.5 L
333.834 302.5 L
334.268 302.5 L
334.702 302.5 L
335.136 302.5 L
335.57 302.5 L
336.004 302.5 L
336.438 302.5 L
336.872 302.5 L
337.306 302.5 L
337.74 302.5 L
338.174 302.5 L
338.608 302.5 L
339.042 302.5 L
339.476 302.5 L
339.91 302.5 L
340.344 302.5 L
340.778 302.5 L
341.212 302.5 L
341.646 302.5 L
342.08 302.5 L
342.514 302.5 L
342.948 302.5 L
343.382 302.5 L
343.816 302.5 L
344.25 302.5 L
344.684 302.5 L
345.118 302.5 L
345.552 302.5 L
345.986 302.5 L
346.42 302.5 L
346.854 302.5 L
347.288 302.5 L
347.722 302.5 L
348.156 302.5 L
348.59 302.5 L
349.024 302.5 L
349.458 302.5 L
349.892 302.5 L
350.326 302.5 L
350.76 302.5 L
351.194 302.5 L
351.628 302.5 L
352.062 302.5 L
352.496 302.5 L
352.93 302.5 L
353.364 302.5 L
353.798 302.5 L
354.232 302.5 L
354.666 302.5 L
355.1 302.5 L
355.534 302.5 L
355.968 302.5 L
356.402 302.5 L
356.836 302.5 L
357.27 302.5 L
357.704 302.5 L
358.138 302.5 L
358.572 302.5 L
359.006 302.5 L
359.44 302.5 L
359.874 302.5 L
360.308 302.5 L
360.742 302.5 L
361.176 302.5 L
361.61 302.5 L
362.044 302.5 L
362.478 302.5 L
362.912 302.5 L
363.346 302.5 L
363.78 302.5 L
364.214 302.5 L
364.648 302.5 L
365.082 302.5 L
365.516 302.5 L
365.95 302.5 L
366.384 302.5 L
366.818 302.5 L
367.252 302.5 L
367.686 302.5 L
368.12 302.5 L
368.554 302.5 L
368.988 302.5 L
369.422 302.5 L
369.856 302.5 L
370.29 302.5 L
370.724 302.5 L
371.158 302.5 L
371.592 302.5 L
372.026 302.5 L
372.46 302.5 L
372.894 302.5 L
373.328 302.5 L
373.762 302.5 L
374.196 302.5 L
374.63 302.5 L
375.064 302.5 L
375.498 302.5 L
375.932 302.5 L
376.366 302.5 L
376.8 302.5 L
377.234 302.5 L
377.668 302.5 L
378.102 302.5 L
378.536 302.5 L
378.97 302.5 L
379.404 302.5 L
379.838 302.5 L
380.272 302.5 L
380.706 302.5 L
381.14 302.5 L
381.574 302.5 L
382.008 302.5 L
382.442 302.5 L
382.876 302.5 L
383.31 302.5 L
383.744 302.5 L
384.178 302.5 L
384.612 302.5 L
385.046 302.5 L
385.48 302.5 L
385.914 302.5 L
386.348 302.5 L
386.782 302.5 L
387.216 302.5 L
387.65 302.5 L
388.084 302.5 L
388.518 302.5 L
388.952 302.5 L
389.386 302.5 L
389.82 302.5 L
390.254 302.5 L
390.688 302.5 L
391.122 302.5 L
391.556 302.5 L
391.99 302.5 L
392.424 302.5 L
392.858 302.5 L
393.292 302.5 L
393.726 302.5 L
394.16 302.5 L
394.594 302.5 L
395.028 302.5 L
395.462 302.5 L
395.896 302.5 L
396.33 302.5 L
396.764 302.5 L
397.198 302.5 L
397.632 302.5 L
398.066 302.5 L
398.5 302.5 L
398.934 302.5 L
399.368 302.5 L
399.802 302.5 L
400.236 302.5 L
400.67 302.5 L
401.104 302.5 L
401.538 302.5 L
401.972 302.5 L
402.406 302.5 L
402.84 302.5 L
403.274 302.5 L
403.708 302.5 L
404.142 302.5 L
404.576 302.5 L
405.01 302.5 L
405.444 302.5 L
405.878 302.5 L
406.312 302.5 L
406.746 302.5 L
407.18 302.5 L
407.614 302.5 L
408.048 302.5 L
408.482 302.5 L
408.916 302.5 L
409.35 302.5 L
409.784 302.5 L
410.218 302.5 L
410.652 302.5 L
411.086 302.5 L
411.52 302.5 L
411.954 302.5 L
412.388 302.5 L
412.822 302.5 L
413.256 302.5 L
413.69 302.5 L
414.124 302.5 L
414.558 302.5 L
414.992 302.5 L
415.426 302.5 L
415.86 302.5 L
416.294 302.5 L
416.728 302.5 L
417.162 302.5 L
417.596 302.5 L
418.03 302.5 L
418.464 302.5 L
418.898 302.5 L
419.332 302.5 L
419.766 302.5 L
420.2 302.5 L
420.634 302.5 L
421.068 302.5 L
421.502 302.5 L
421.936 302.5 L
422.37 302.5 L
422.804 302.5 L
423.238 302.5 L
423.672 302.5 L
424.106 302.5 L
424.54 302.5 L
424.974 302.5 L
425.408 302.5 L
425.842 302.5 L
426.276 302.5 L
426.71 302.5 L
427.144 302.5 L
427.578 302.5 L
428.012 302.5 L
428.446 302.5 L
428.88 302.5 L
429.314 302.5 L
429.748 302.5 L
430.182 302.5 L
430.616 302.5 L
431.05 302.5 L
431.484 302.5 L
431.918 302.5 L
432.352 302.5 L
432.786 302.5 L
433.22 302.5 L
433.654 302.5 L
434.088 302.5 L
434.522 302.5 L
434.956 302.5 L
435.39 302.5 L
435.824 302.5 L
436.258 302.5 L
436.692 302.5 L
437.126 302.5 L
437.56 302.5 L
437.994 302.5 L
438.428 302.5 L
438.862 302.5 L
439.296 302.5 L
439.73 302.5 L
440.164 302.5 L
440.598 302.5 L
441.032 302.5 L
441.466 302.5 L
441.9 302.5 L
442.334 302.5 L
442.768 302.5 L
443.202 302.5 L
443.636 302.5 L
444.07 302.5 L
444.504 302.5 L
444.938 302.5 L
445.372 302.5 L
445.806 302.5 L
446.24 302.5 L
446.674 302.5 L
447.108 302.5 L
447.542 302.5 L
447.976 302.5 L
448.41 302.5 L
448.844 302.5 L
449.278 302.5 L
449.712 302.5 L
450.146 302.5 L
450.58 302.5 L
451.014 302.5 L
451.448 302.5 L
451.882 302.5 L
452.316 302.5 L
452.75 302.5 L
453.184 302.5 L
453.618 302.5 L
454.052 302.5 L
454.486 302.5 L
454.92 302.5 L
455.354 302.5 L
455.788 302.5 L
456.222 302.5 L
456.656 302.5 L
457.09 302.5 L
457.524 302.5 L
457.958 302.5 L
458.392 302.5 L
458.826 302.5 L
459.26 302.5 L
459.694 302.5 L
460.128 302.5 L
460.562 302.5 L
460.996 302.5 L
461.43 302.5 L
461.864 302.5 L
462.298 302.5 L
462.732 302.5 L
463.166 302.5 L
463.6 302.5 L
464.034 302.5 L
464.468 302.5 L
464.902 302.5 L
465.336 302.5 L
465.77 302.5 L
466.204 302.5 L
466.638 302.5 L
467.072 302.5 L
467.506 302.5 L
467.94 302.5 L
468.374 302.5 L
468.808 302.5 L
469.242 302.5 L
469.676 302.5 L
470.11 302.5 L
470.544 302.5 L
470.978 302.5 L
471.412 302.5 L
471.846 302.5 L
472.28 302.5 L
472.714 302.5 L
473.148 302.5 L
473.582 302.5 L
474.016 302.5 L
474.45 302.5 L
474.884 302.5 L
475.318 302.5 L
475.752 302.5 L
476.186 302.5 L
476.62 302.5 L
477.054 302.5 L
477.488 302.5 L
477.922 302.5 L
478.356 302.5 L
478.79 302.5 L
479.224 302.5 L
479.658 302.5 L
480.092 302.5 L
480.526 302.5 L
480.96 302.5 L
481.394 302.5 L
481.828 302.5 L
482.262 302.5 L
482.696 302.5 L
483.13 302.5 L
483.564 302.5 L
483.998 302.5 L
484.432 302.5 L
484.866 302.5 L
485.3 302.5 L
485.734 302.5 L
486.168 302.5 L
486.602 302.5 L
487.036 302.5 L
487.47 302.5 L
487.904 302.5 L
488.338 302.5 L
488.772 302.5 L
489.206 302.5 L
489.64 302.5 L
490.074 302.5 L
490.508 302.5 L
490.942 302.5 L
491.376 302.5 L
491.81 302.5 L
492.244 302.5 L
492.678 302.5 L
493.112 302.5 L
493.546 302.5 L
493.98 302.5 L
494.414 302.5 L
494.848 302.5 L
495.282 302.5 L
495.716 302.5 L
496.15 302.5 L
496.584 302.5 L
497.018 302.5 L
497.452 302.5 L
497.886 302.5 L
498.32 302.5 L
498.754 302.5 L
499.188 302.5 L
499.622 302.5 L
500.056 302.5 L
500.49 302.5 L
500.924 302.5 L
501.358 302.5 L
501.792 302.5 L
502.226 302.5 L
502.66 302.5 L
503.094 302.5 L
503.528 302.5 L
503.962 302.5 L
504.396 302.5 L
504.83 302.5 L
505.264 302.5 L
505.698 302.5 L
506.132 302.5 L
506.566 302.5 L
507 302.5 L
S
GR
GS
1 GC
N
79 263 M
79 236 L
217 236 L
217 263 L
cp
f
GR
GS
[1 0 0 1 116 243.64151] CT
/Helvetica 9 F
GS
[1 0 0 1 0 0] CT
0 3.5 moveto 
1 -1 scale
(Linear model - residuals) t 
GR
GR
GS
[1 0 0 1 98 243.64151] CT
0 0 1 RC
N
2.667 0 M
2.667 1.473 1.473 2.667 0 2.667 C
-1.473 2.667 -2.667 1.473 -2.667 0 C
-2.667 -1.473 -1.473 -2.667 0 -2.667 C
1.473 -2.667 2.667 -1.473 2.667 0 C
cp
f
GR
GS
[1 0 0 1 116 255.35849] CT
/Helvetica 9 F
GS
[1 0 0 1 0 0] CT
0 3.5 moveto 
1 -1 scale
(Zero Line) t 
GR
GR
GS
1 0 0 RC
1 LJ
N
83 255.358 M
113 255.358 L
S
GR
GS
0.149 GC
10.0 ML
0.5 LW
N
79 263 M
79 236 L
217 236 L
217 263 L
cp
S
GR
%%Trailer
%%Pages: 1
%%EOF
