%!PS-Adobe-3.0 EPSF-3.0
%%Creator: (MATLAB, The Mathworks, Inc. Version 9.0.0.341360 \(R2016a\). Operating System: Mac OS X)
%%Title: /Users/deepak/Documents/MATLAB/matlabprojects/singleCalib_IH/source/dtzn.eps
%%CreationDate: 2016-11-26T23:15:30
%%Pages: (atend)
%%BoundingBox: 0 0 560 420
%%LanguageLevel: 3
%%EndComments
%%BeginProlog
%%BeginResource: procset (Apache XML Graphics Std ProcSet) 1.2 0
%%Version: 1.2 0
%%Copyright: (Copyright 2001-2003,2010 The Apache Software Foundation. License terms: http://www.apache.org/licenses/LICENSE-2.0)
/bd{bind def}bind def
/ld{load def}bd
/GR/grestore ld
/M/moveto ld
/LJ/setlinejoin ld
/C/curveto ld
/f/fill ld
/LW/setlinewidth ld
/GC/setgray ld
/t/show ld
/N/newpath ld
/CT/concat ld
/cp/closepath ld
/S/stroke ld
/L/lineto ld
/CC/setcmykcolor ld
/A/ashow ld
/GS/gsave ld
/RC/setrgbcolor ld
/RM/rmoveto ld
/ML/setmiterlimit ld
/re {4 2 roll M
1 index 0 rlineto
0 exch rlineto
neg 0 rlineto
cp } bd
/_ctm matrix def
/_tm matrix def
/BT { _ctm currentmatrix pop matrix _tm copy pop 0 0 moveto } bd
/ET { _ctm setmatrix } bd
/iTm { _ctm setmatrix _tm concat } bd
/Tm { _tm astore pop iTm 0 0 moveto } bd
/ux 0.0 def
/uy 0.0 def
/F {
  /Tp exch def
  /Tf exch def
  Tf findfont Tp scalefont setfont
  /cf Tf def  /cs Tp def
} bd
/ULS {currentpoint /uy exch def /ux exch def} bd
/ULE {
  /Tcx currentpoint pop def
  gsave
  newpath
  cf findfont cs scalefont dup
  /FontMatrix get 0 get /Ts exch def /FontInfo get dup
  /UnderlinePosition get Ts mul /To exch def
  /UnderlineThickness get Ts mul /Tt exch def
  ux uy To add moveto  Tcx uy To add lineto
  Tt setlinewidth stroke
  grestore
} bd
/OLE {
  /Tcx currentpoint pop def
  gsave
  newpath
  cf findfont cs scalefont dup
  /FontMatrix get 0 get /Ts exch def /FontInfo get dup
  /UnderlinePosition get Ts mul /To exch def
  /UnderlineThickness get Ts mul /Tt exch def
  ux uy To add cs add moveto Tcx uy To add cs add lineto
  Tt setlinewidth stroke
  grestore
} bd
/SOE {
  /Tcx currentpoint pop def
  gsave
  newpath
  cf findfont cs scalefont dup
  /FontMatrix get 0 get /Ts exch def /FontInfo get dup
  /UnderlinePosition get Ts mul /To exch def
  /UnderlineThickness get Ts mul /Tt exch def
  ux uy To add cs 10 mul 26 idiv add moveto Tcx uy To add cs 10 mul 26 idiv add lineto
  Tt setlinewidth stroke
  grestore
} bd
/QT {
/Y22 exch store
/X22 exch store
/Y21 exch store
/X21 exch store
currentpoint
/Y21 load 2 mul add 3 div exch
/X21 load 2 mul add 3 div exch
/X21 load 2 mul /X22 load add 3 div
/Y21 load 2 mul /Y22 load add 3 div
/X22 load /Y22 load curveto
} bd
/SSPD {
dup length /d exch dict def
{
/v exch def
/k exch def
currentpagedevice k known {
/cpdv currentpagedevice k get def
v cpdv ne {
/upd false def
/nullv v type /nulltype eq def
/nullcpdv cpdv type /nulltype eq def
nullv nullcpdv or
{
/upd true def
} {
/sametype v type cpdv type eq def
sametype {
v type /arraytype eq {
/vlen v length def
/cpdvlen cpdv length def
vlen cpdvlen eq {
0 1 vlen 1 sub {
/i exch def
/obj v i get def
/cpdobj cpdv i get def
obj cpdobj ne {
/upd true def
exit
} if
} for
} {
/upd true def
} ifelse
} {
v type /dicttype eq {
v {
/dv exch def
/dk exch def
/cpddv cpdv dk get def
dv cpddv ne {
/upd true def
exit
} if
} forall
} {
/upd true def
} ifelse
} ifelse
} if
} ifelse
upd true eq {
d k v put
} if
} if
} if
} forall
d length 0 gt {
d setpagedevice
} if
} bd
%%EndResource
%%BeginResource: procset (Apache XML Graphics EPS ProcSet) 1.0 0
%%Version: 1.0 0
%%Copyright: (Copyright 2002-2003 The Apache Software Foundation. License terms: http://www.apache.org/licenses/LICENSE-2.0)
/BeginEPSF { %def
/b4_Inc_state save def         % Save state for cleanup
/dict_count countdictstack def % Count objects on dict stack
/op_count count 1 sub def      % Count objects on operand stack
userdict begin                 % Push userdict on dict stack
/showpage { } def              % Redefine showpage, { } = null proc
0 setgray 0 setlinecap         % Prepare graphics state
1 setlinewidth 0 setlinejoin
10 setmiterlimit [ ] 0 setdash newpath
/languagelevel where           % If level not equal to 1 then
{pop languagelevel             % set strokeadjust and
1 ne                           % overprint to their defaults.
{false setstrokeadjust false setoverprint
} if
} if
} bd
/EndEPSF { %def
count op_count sub {pop} repeat            % Clean up stacks
countdictstack dict_count sub {end} repeat
b4_Inc_state restore
} bd
%%EndResource
%FOPBeginFontDict
%%IncludeResource: font Courier-Bold
%%IncludeResource: font Helvetica
%%IncludeResource: font Courier-BoldOblique
%%IncludeResource: font Courier-Oblique
%%IncludeResource: font Times-Roman
%%IncludeResource: font Helvetica-BoldOblique
%%IncludeResource: font Helvetica-Bold
%%IncludeResource: font Helvetica-Oblique
%%IncludeResource: font Times-BoldItalic
%%IncludeResource: font Courier
%%IncludeResource: font Times-Italic
%%IncludeResource: font Times-Bold
%%IncludeResource: font Symbol
%%IncludeResource: font ZapfDingbats
%FOPEndFontDict
%%BeginResource: encoding WinAnsiEncoding
/WinAnsiEncoding [
/.notdef /.notdef /.notdef /.notdef /.notdef
/.notdef /.notdef /.notdef /.notdef /.notdef
/.notdef /.notdef /.notdef /.notdef /.notdef
/.notdef /.notdef /.notdef /.notdef /.notdef
/.notdef /.notdef /.notdef /.notdef /.notdef
/.notdef /.notdef /.notdef /.notdef /.notdef
/.notdef /.notdef /space /exclam /quotedbl
/numbersign /dollar /percent /ampersand /quotesingle
/parenleft /parenright /asterisk /plus /comma
/hyphen /period /slash /zero /one
/two /three /four /five /six
/seven /eight /nine /colon /semicolon
/less /equal /greater /question /at
/A /B /C /D /E
/F /G /H /I /J
/K /L /M /N /O
/P /Q /R /S /T
/U /V /W /X /Y
/Z /bracketleft /backslash /bracketright /asciicircum
/underscore /quoteleft /a /b /c
/d /e /f /g /h
/i /j /k /l /m
/n /o /p /q /r
/s /t /u /v /w
/x /y /z /braceleft /bar
/braceright /asciitilde /bullet /Euro /bullet
/quotesinglbase /florin /quotedblbase /ellipsis /dagger
/daggerdbl /circumflex /perthousand /Scaron /guilsinglleft
/OE /bullet /Zcaron /bullet /bullet
/quoteleft /quoteright /quotedblleft /quotedblright /bullet
/endash /emdash /asciitilde /trademark /scaron
/guilsinglright /oe /bullet /zcaron /Ydieresis
/space /exclamdown /cent /sterling /currency
/yen /brokenbar /section /dieresis /copyright
/ordfeminine /guillemotleft /logicalnot /sfthyphen /registered
/macron /degree /plusminus /twosuperior /threesuperior
/acute /mu /paragraph /middot /cedilla
/onesuperior /ordmasculine /guillemotright /onequarter /onehalf
/threequarters /questiondown /Agrave /Aacute /Acircumflex
/Atilde /Adieresis /Aring /AE /Ccedilla
/Egrave /Eacute /Ecircumflex /Edieresis /Igrave
/Iacute /Icircumflex /Idieresis /Eth /Ntilde
/Ograve /Oacute /Ocircumflex /Otilde /Odieresis
/multiply /Oslash /Ugrave /Uacute /Ucircumflex
/Udieresis /Yacute /Thorn /germandbls /agrave
/aacute /acircumflex /atilde /adieresis /aring
/ae /ccedilla /egrave /eacute /ecircumflex
/edieresis /igrave /iacute /icircumflex /idieresis
/eth /ntilde /ograve /oacute /ocircumflex
/otilde /odieresis /divide /oslash /ugrave
/uacute /ucircumflex /udieresis /yacute /thorn
/ydieresis
] def
%%EndResource
%FOPBeginFontReencode
/Courier-Bold findfont
dup length dict begin
  {1 index /FID ne {def} {pop pop} ifelse} forall
  /Encoding WinAnsiEncoding def
  currentdict
end
/Courier-Bold exch definefont pop
/Helvetica findfont
dup length dict begin
  {1 index /FID ne {def} {pop pop} ifelse} forall
  /Encoding WinAnsiEncoding def
  currentdict
end
/Helvetica exch definefont pop
/Courier-BoldOblique findfont
dup length dict begin
  {1 index /FID ne {def} {pop pop} ifelse} forall
  /Encoding WinAnsiEncoding def
  currentdict
end
/Courier-BoldOblique exch definefont pop
/Courier-Oblique findfont
dup length dict begin
  {1 index /FID ne {def} {pop pop} ifelse} forall
  /Encoding WinAnsiEncoding def
  currentdict
end
/Courier-Oblique exch definefont pop
/Times-Roman findfont
dup length dict begin
  {1 index /FID ne {def} {pop pop} ifelse} forall
  /Encoding WinAnsiEncoding def
  currentdict
end
/Times-Roman exch definefont pop
/Helvetica-BoldOblique findfont
dup length dict begin
  {1 index /FID ne {def} {pop pop} ifelse} forall
  /Encoding WinAnsiEncoding def
  currentdict
end
/Helvetica-BoldOblique exch definefont pop
/Helvetica-Bold findfont
dup length dict begin
  {1 index /FID ne {def} {pop pop} ifelse} forall
  /Encoding WinAnsiEncoding def
  currentdict
end
/Helvetica-Bold exch definefont pop
/Helvetica-Oblique findfont
dup length dict begin
  {1 index /FID ne {def} {pop pop} ifelse} forall
  /Encoding WinAnsiEncoding def
  currentdict
end
/Helvetica-Oblique exch definefont pop
/Times-BoldItalic findfont
dup length dict begin
  {1 index /FID ne {def} {pop pop} ifelse} forall
  /Encoding WinAnsiEncoding def
  currentdict
end
/Times-BoldItalic exch definefont pop
/Courier findfont
dup length dict begin
  {1 index /FID ne {def} {pop pop} ifelse} forall
  /Encoding WinAnsiEncoding def
  currentdict
end
/Courier exch definefont pop
/Times-Italic findfont
dup length dict begin
  {1 index /FID ne {def} {pop pop} ifelse} forall
  /Encoding WinAnsiEncoding def
  currentdict
end
/Times-Italic exch definefont pop
/Times-Bold findfont
dup length dict begin
  {1 index /FID ne {def} {pop pop} ifelse} forall
  /Encoding WinAnsiEncoding def
  currentdict
end
/Times-Bold exch definefont pop
%FOPEndFontReencode
%%EndProlog
%%Page: 1 1
%%PageBoundingBox: 0 0 560 420
%%BeginPageSetup
[1 0 0 -1 0 420] CT
%%EndPageSetup
GS
1 GC
N
0 0 560 420 re
f
GR
GS
1 GC
N
0 0 560 420 re
f
GR
GS
1 GC
N
73 175 M
507 175 L
507 31 L
73 31 L
cp
f
GR
GS
0.873 GC
1 LJ
0.5 LW
N
73 175 M
73 31 L
S
GR
GS
0.873 GC
1 LJ
0.5 LW
N
116.4 175 M
116.4 31 L
S
GR
GS
0.873 GC
1 LJ
0.5 LW
N
159.8 175 M
159.8 31 L
S
GR
GS
0.873 GC
1 LJ
0.5 LW
N
203.2 175 M
203.2 31 L
S
GR
GS
0.873 GC
1 LJ
0.5 LW
N
246.6 175 M
246.6 31 L
S
GR
GS
0.873 GC
1 LJ
0.5 LW
N
290 175 M
290 31 L
S
GR
GS
0.873 GC
1 LJ
0.5 LW
N
333.4 175 M
333.4 31 L
S
GR
GS
0.873 GC
1 LJ
0.5 LW
N
376.8 175 M
376.8 31 L
S
GR
GS
0.873 GC
1 LJ
0.5 LW
N
420.2 175 M
420.2 31 L
S
GR
GS
0.873 GC
1 LJ
0.5 LW
N
463.6 175 M
463.6 31 L
S
GR
GS
0.873 GC
1 LJ
0.5 LW
N
507 175 M
507 31 L
S
GR
GS
0.873 GC
1 LJ
0.5 LW
N
507 175 M
73 175 L
S
GR
GS
0.873 GC
1 LJ
0.5 LW
N
507 139 M
73 139 L
S
GR
GS
0.873 GC
1 LJ
0.5 LW
N
507 103 M
73 103 L
S
GR
GS
0.873 GC
1 LJ
0.5 LW
N
507 67 M
73 67 L
S
GR
GS
0.873 GC
1 LJ
0.5 LW
N
507 31 M
73 31 L
S
GR
GS
0.149 GC
2 setlinecap
1 LJ
0.5 LW
N
73 175 M
507 175 L
S
GR
GS
0.149 GC
2 setlinecap
1 LJ
0.5 LW
N
73 31 M
507 31 L
S
GR
GS
0.149 GC
2 setlinecap
1 LJ
0.5 LW
N
73 175 M
73 170.66 L
S
GR
GS
0.149 GC
2 setlinecap
1 LJ
0.5 LW
N
116.4 175 M
116.4 170.66 L
S
GR
GS
0.149 GC
2 setlinecap
1 LJ
0.5 LW
N
159.8 175 M
159.8 170.66 L
S
GR
GS
0.149 GC
2 setlinecap
1 LJ
0.5 LW
N
203.2 175 M
203.2 170.66 L
S
GR
GS
0.149 GC
2 setlinecap
1 LJ
0.5 LW
N
246.6 175 M
246.6 170.66 L
S
GR
GS
0.149 GC
2 setlinecap
1 LJ
0.5 LW
N
290 175 M
290 170.66 L
S
GR
GS
0.149 GC
2 setlinecap
1 LJ
0.5 LW
N
333.4 175 M
333.4 170.66 L
S
GR
GS
0.149 GC
2 setlinecap
1 LJ
0.5 LW
N
376.8 175 M
376.8 170.66 L
S
GR
GS
0.149 GC
2 setlinecap
1 LJ
0.5 LW
N
420.2 175 M
420.2 170.66 L
S
GR
GS
0.149 GC
2 setlinecap
1 LJ
0.5 LW
N
463.6 175 M
463.6 170.66 L
S
GR
GS
0.149 GC
2 setlinecap
1 LJ
0.5 LW
N
507 175 M
507 170.66 L
S
GR
GS
0.149 GC
2 setlinecap
1 LJ
0.5 LW
N
73 31 M
73 35.34 L
S
GR
GS
0.149 GC
2 setlinecap
1 LJ
0.5 LW
N
116.4 31 M
116.4 35.34 L
S
GR
GS
0.149 GC
2 setlinecap
1 LJ
0.5 LW
N
159.8 31 M
159.8 35.34 L
S
GR
GS
0.149 GC
2 setlinecap
1 LJ
0.5 LW
N
203.2 31 M
203.2 35.34 L
S
GR
GS
0.149 GC
2 setlinecap
1 LJ
0.5 LW
N
246.6 31 M
246.6 35.34 L
S
GR
GS
0.149 GC
2 setlinecap
1 LJ
0.5 LW
N
290 31 M
290 35.34 L
S
GR
GS
0.149 GC
2 setlinecap
1 LJ
0.5 LW
N
333.4 31 M
333.4 35.34 L
S
GR
GS
0.149 GC
2 setlinecap
1 LJ
0.5 LW
N
376.8 31 M
376.8 35.34 L
S
GR
GS
0.149 GC
2 setlinecap
1 LJ
0.5 LW
N
420.2 31 M
420.2 35.34 L
S
GR
GS
0.149 GC
2 setlinecap
1 LJ
0.5 LW
N
463.6 31 M
463.6 35.34 L
S
GR
GS
0.149 GC
2 setlinecap
1 LJ
0.5 LW
N
507 31 M
507 35.34 L
S
GR
GS
[1 0 0 1 73 179] CT
0.149 GC
/Helvetica 10 F
GS
[1 0 0 1 0 0] CT
-10.5 10 moveto 
1 -1 scale
(-100) t 
GR
GR
GS
[1 0 0 1 116.4 179] CT
0.149 GC
/Helvetica 10 F
GS
[1 0 0 1 0 0] CT
-8 10 moveto 
1 -1 scale
(-90) t 
GR
GR
GS
[1 0 0 1 159.8 179] CT
0.149 GC
/Helvetica 10 F
GS
[1 0 0 1 0 0] CT
-8 10 moveto 
1 -1 scale
(-80) t 
GR
GR
GS
[1 0 0 1 203.2 179] CT
0.149 GC
/Helvetica 10 F
GS
[1 0 0 1 0 0] CT
-8 10 moveto 
1 -1 scale
(-70) t 
GR
GR
GS
[1 0 0 1 246.60001 179] CT
0.149 GC
/Helvetica 10 F
GS
[1 0 0 1 0 0] CT
-8 10 moveto 
1 -1 scale
(-60) t 
GR
GR
GS
[1 0 0 1 290 179] CT
0.149 GC
/Helvetica 10 F
GS
[1 0 0 1 0 0] CT
-8 10 moveto 
1 -1 scale
(-50) t 
GR
GR
GS
[1 0 0 1 333.39999 179] CT
0.149 GC
/Helvetica 10 F
GS
[1 0 0 1 0 0] CT
-8 10 moveto 
1 -1 scale
(-40) t 
GR
GR
GS
[1 0 0 1 376.79999 179] CT
0.149 GC
/Helvetica 10 F
GS
[1 0 0 1 0 0] CT
-8 10 moveto 
1 -1 scale
(-30) t 
GR
GR
GS
[1 0 0 1 420.20001 179] CT
0.149 GC
/Helvetica 10 F
GS
[1 0 0 1 0 0] CT
-8 10 moveto 
1 -1 scale
(-20) t 
GR
GR
GS
[1 0 0 1 463.60001 179] CT
0.149 GC
/Helvetica 10 F
GS
[1 0 0 1 0 0] CT
-8 10 moveto 
1 -1 scale
(-10) t 
GR
GR
GS
[1 0 0 1 507 179] CT
0.149 GC
/Helvetica 10 F
GS
[1 0 0 1 0 0] CT
-3 10 moveto 
1 -1 scale
(0) t 
GR
GR
GS
[1 0 0 1 290.00021 193] CT
0.149 GC
/Helvetica-Bold 12 F
GS
[1 0 0 1 0 0] CT
-78 12 moveto 
1 -1 scale
(Camera translation \(in mm\)) t 
GR
GR
GS
0.149 GC
2 setlinecap
1 LJ
0.5 LW
N
73 175 M
73 31 L
S
GR
GS
0.149 GC
2 setlinecap
1 LJ
0.5 LW
N
507 175 M
507 31 L
S
GR
GS
0.149 GC
2 setlinecap
1 LJ
0.5 LW
N
73 175 M
77.34 175 L
S
GR
GS
0.149 GC
2 setlinecap
1 LJ
0.5 LW
N
73 139 M
77.34 139 L
S
GR
GS
0.149 GC
2 setlinecap
1 LJ
0.5 LW
N
73 103 M
77.34 103 L
S
GR
GS
0.149 GC
2 setlinecap
1 LJ
0.5 LW
N
73 67 M
77.34 67 L
S
GR
GS
0.149 GC
2 setlinecap
1 LJ
0.5 LW
N
73 31 M
77.34 31 L
S
GR
GS
0.149 GC
2 setlinecap
1 LJ
0.5 LW
N
507 175 M
502.66 175 L
S
GR
GS
0.149 GC
2 setlinecap
1 LJ
0.5 LW
N
507 139 M
502.66 139 L
S
GR
GS
0.149 GC
2 setlinecap
1 LJ
0.5 LW
N
507 103 M
502.66 103 L
S
GR
GS
0.149 GC
2 setlinecap
1 LJ
0.5 LW
N
507 67 M
502.66 67 L
S
GR
GS
0.149 GC
2 setlinecap
1 LJ
0.5 LW
N
507 31 M
502.66 31 L
S
GR
GS
[1 0 0 1 68.99999 175] CT
0.149 GC
/Helvetica 10 F
GS
[1 0 0 1 0 0] CT
-18 3.5 moveto 
1 -1 scale
(-0.2) t 
GR
GR
GS
[1 0 0 1 68.99999 139] CT
0.149 GC
/Helvetica 10 F
GS
[1 0 0 1 0 0] CT
-6 3.5 moveto 
1 -1 scale
(0) t 
GR
GR
GS
[1 0 0 1 68.99999 103] CT
0.149 GC
/Helvetica 10 F
GS
[1 0 0 1 0 0] CT
-14 3.5 moveto 
1 -1 scale
(0.2) t 
GR
GR
GS
[1 0 0 1 68.99999 67] CT
0.149 GC
/Helvetica 10 F
GS
[1 0 0 1 0 0] CT
-14 3.5 moveto 
1 -1 scale
(0.4) t 
GR
GR
GS
[1 0 0 1 68.99999 31] CT
0.149 GC
/Helvetica 10 F
GS
[1 0 0 1 0 0] CT
-14 3.5 moveto 
1 -1 scale
(0.6) t 
GR
GR
GS
[0 -1 1 0 48 102.99993] CT
0.149 GC
/Helvetica-Bold 12 F
GS
[1 0 0 1 0 0] CT
-56 -3 moveto 
1 -1 scale
(Depth error \(in mm\)) t 
GR
GR
GS
[1 0 0 1 73 41.42465] CT
0 0 1 RC
N
2.667 0 M
2.667 1.473 1.473 2.667 0 2.667 C
-1.473 2.667 -2.667 1.473 -2.667 0 C
-2.667 -1.473 -1.473 -2.667 0 -2.667 C
1.473 -2.667 2.667 -1.473 2.667 0 C
cp
f
GR
GS
[1 0 0 1 77.34 43.44843] CT
0 0 1 RC
N
2.667 0 M
2.667 1.473 1.473 2.667 0 2.667 C
-1.473 2.667 -2.667 1.473 -2.667 0 C
-2.667 -1.473 -1.473 -2.667 0 -2.667 C
1.473 -2.667 2.667 -1.473 2.667 0 C
cp
f
GR
GS
[1 0 0 1 81.68 46.79938] CT
0 0 1 RC
N
2.667 0 M
2.667 1.473 1.473 2.667 0 2.667 C
-1.473 2.667 -2.667 1.473 -2.667 0 C
-2.667 -1.473 -1.473 -2.667 0 -2.667 C
1.473 -2.667 2.667 -1.473 2.667 0 C
cp
f
GR
GS
[1 0 0 1 86.02 44.39449] CT
0 0 1 RC
N
2.667 0 M
2.667 1.473 1.473 2.667 0 2.667 C
-1.473 2.667 -2.667 1.473 -2.667 0 C
-2.667 -1.473 -1.473 -2.667 0 -2.667 C
1.473 -2.667 2.667 -1.473 2.667 0 C
cp
f
GR
GS
[1 0 0 1 90.36 47.16318] CT
0 0 1 RC
N
2.667 0 M
2.667 1.473 1.473 2.667 0 2.667 C
-1.473 2.667 -2.667 1.473 -2.667 0 C
-2.667 -1.473 -1.473 -2.667 0 -2.667 C
1.473 -2.667 2.667 -1.473 2.667 0 C
cp
f
GR
GS
[1 0 0 1 94.7 45.5542] CT
0 0 1 RC
N
2.667 0 M
2.667 1.473 1.473 2.667 0 2.667 C
-1.473 2.667 -2.667 1.473 -2.667 0 C
-2.667 -1.473 -1.473 -2.667 0 -2.667 C
1.473 -2.667 2.667 -1.473 2.667 0 C
cp
f
GR
GS
[1 0 0 1 99.04 46.77209] CT
0 0 1 RC
N
2.667 0 M
2.667 1.473 1.473 2.667 0 2.667 C
-1.473 2.667 -2.667 1.473 -2.667 0 C
-2.667 -1.473 -1.473 -2.667 0 -2.667 C
1.473 -2.667 2.667 -1.473 2.667 0 C
cp
f
GR
GS
[1 0 0 1 103.38 49.04727] CT
0 0 1 RC
N
2.667 0 M
2.667 1.473 1.473 2.667 0 2.667 C
-1.473 2.667 -2.667 1.473 -2.667 0 C
-2.667 -1.473 -1.473 -2.667 0 -2.667 C
1.473 -2.667 2.667 -1.473 2.667 0 C
cp
f
GR
GS
[1 0 0 1 107.72 50.94765] CT
0 0 1 RC
N
2.667 0 M
2.667 1.473 1.473 2.667 0 2.667 C
-1.473 2.667 -2.667 1.473 -2.667 0 C
-2.667 -1.473 -1.473 -2.667 0 -2.667 C
1.473 -2.667 2.667 -1.473 2.667 0 C
cp
f
GR
GS
[1 0 0 1 112.06 52.34848] CT
0 0 1 RC
N
2.667 0 M
2.667 1.473 1.473 2.667 0 2.667 C
-1.473 2.667 -2.667 1.473 -2.667 0 C
-2.667 -1.473 -1.473 -2.667 0 -2.667 C
1.473 -2.667 2.667 -1.473 2.667 0 C
cp
f
GR
GS
[1 0 0 1 116.4 57.2209] CT
0 0 1 RC
N
2.667 0 M
2.667 1.473 1.473 2.667 0 2.667 C
-1.473 2.667 -2.667 1.473 -2.667 0 C
-2.667 -1.473 -1.473 -2.667 0 -2.667 C
1.473 -2.667 2.667 -1.473 2.667 0 C
cp
f
GR
GS
[1 0 0 1 120.74 55.65243] CT
0 0 1 RC
N
2.667 0 M
2.667 1.473 1.473 2.667 0 2.667 C
-1.473 2.667 -2.667 1.473 -2.667 0 C
-2.667 -1.473 -1.473 -2.667 0 -2.667 C
1.473 -2.667 2.667 -1.473 2.667 0 C
cp
f
GR
GS
[1 0 0 1 125.08 58.19859] CT
0 0 1 RC
N
2.667 0 M
2.667 1.473 1.473 2.667 0 2.667 C
-1.473 2.667 -2.667 1.473 -2.667 0 C
-2.667 -1.473 -1.473 -2.667 0 -2.667 C
1.473 -2.667 2.667 -1.473 2.667 0 C
cp
f
GR
GS
[1 0 0 1 129.42 55.03821] CT
0 0 1 RC
N
2.667 0 M
2.667 1.473 1.473 2.667 0 2.667 C
-1.473 2.667 -2.667 1.473 -2.667 0 C
-2.667 -1.473 -1.473 -2.667 0 -2.667 C
1.473 -2.667 2.667 -1.473 2.667 0 C
cp
f
GR
GS
[1 0 0 1 133.75999 55.23963] CT
0 0 1 RC
N
2.667 0 M
2.667 1.473 1.473 2.667 0 2.667 C
-1.473 2.667 -2.667 1.473 -2.667 0 C
-2.667 -1.473 -1.473 -2.667 0 -2.667 C
1.473 -2.667 2.667 -1.473 2.667 0 C
cp
f
GR
GS
[1 0 0 1 138.10001 59.75144] CT
0 0 1 RC
N
2.667 0 M
2.667 1.473 1.473 2.667 0 2.667 C
-1.473 2.667 -2.667 1.473 -2.667 0 C
-2.667 -1.473 -1.473 -2.667 0 -2.667 C
1.473 -2.667 2.667 -1.473 2.667 0 C
cp
f
GR
GS
[1 0 0 1 142.44 60.541] CT
0 0 1 RC
N
2.667 0 M
2.667 1.473 1.473 2.667 0 2.667 C
-1.473 2.667 -2.667 1.473 -2.667 0 C
-2.667 -1.473 -1.473 -2.667 0 -2.667 C
1.473 -2.667 2.667 -1.473 2.667 0 C
cp
f
GR
GS
[1 0 0 1 146.78 60.27155] CT
0 0 1 RC
N
2.667 0 M
2.667 1.473 1.473 2.667 0 2.667 C
-1.473 2.667 -2.667 1.473 -2.667 0 C
-2.667 -1.473 -1.473 -2.667 0 -2.667 C
1.473 -2.667 2.667 -1.473 2.667 0 C
cp
f
GR
GS
[1 0 0 1 151.12 61.10014] CT
0 0 1 RC
N
2.667 0 M
2.667 1.473 1.473 2.667 0 2.667 C
-1.473 2.667 -2.667 1.473 -2.667 0 C
-2.667 -1.473 -1.473 -2.667 0 -2.667 C
1.473 -2.667 2.667 -1.473 2.667 0 C
cp
f
GR
GS
[1 0 0 1 155.46001 61.07473] CT
0 0 1 RC
N
2.667 0 M
2.667 1.473 1.473 2.667 0 2.667 C
-1.473 2.667 -2.667 1.473 -2.667 0 C
-2.667 -1.473 -1.473 -2.667 0 -2.667 C
1.473 -2.667 2.667 -1.473 2.667 0 C
cp
f
GR
GS
[1 0 0 1 159.8 63.8152] CT
0 0 1 RC
N
2.667 0 M
2.667 1.473 1.473 2.667 0 2.667 C
-1.473 2.667 -2.667 1.473 -2.667 0 C
-2.667 -1.473 -1.473 -2.667 0 -2.667 C
1.473 -2.667 2.667 -1.473 2.667 0 C
cp
f
GR
GS
[1 0 0 1 164.14 64.00262] CT
0 0 1 RC
N
2.667 0 M
2.667 1.473 1.473 2.667 0 2.667 C
-1.473 2.667 -2.667 1.473 -2.667 0 C
-2.667 -1.473 -1.473 -2.667 0 -2.667 C
1.473 -2.667 2.667 -1.473 2.667 0 C
cp
f
GR
GS
[1 0 0 1 168.48 64.83981] CT
0 0 1 RC
N
2.667 0 M
2.667 1.473 1.473 2.667 0 2.667 C
-1.473 2.667 -2.667 1.473 -2.667 0 C
-2.667 -1.473 -1.473 -2.667 0 -2.667 C
1.473 -2.667 2.667 -1.473 2.667 0 C
cp
f
GR
GS
[1 0 0 1 172.82001 63.88154] CT
0 0 1 RC
N
2.667 0 M
2.667 1.473 1.473 2.667 0 2.667 C
-1.473 2.667 -2.667 1.473 -2.667 0 C
-2.667 -1.473 -1.473 -2.667 0 -2.667 C
1.473 -2.667 2.667 -1.473 2.667 0 C
cp
f
GR
GS
[1 0 0 1 177.16 68.88085] CT
0 0 1 RC
N
2.667 0 M
2.667 1.473 1.473 2.667 0 2.667 C
-1.473 2.667 -2.667 1.473 -2.667 0 C
-2.667 -1.473 -1.473 -2.667 0 -2.667 C
1.473 -2.667 2.667 -1.473 2.667 0 C
cp
f
GR
GS
[1 0 0 1 181.5 69.1646] CT
0 0 1 RC
N
2.667 0 M
2.667 1.473 1.473 2.667 0 2.667 C
-1.473 2.667 -2.667 1.473 -2.667 0 C
-2.667 -1.473 -1.473 -2.667 0 -2.667 C
1.473 -2.667 2.667 -1.473 2.667 0 C
cp
f
GR
GS
[1 0 0 1 185.84 66.81737] CT
0 0 1 RC
N
2.667 0 M
2.667 1.473 1.473 2.667 0 2.667 C
-1.473 2.667 -2.667 1.473 -2.667 0 C
-2.667 -1.473 -1.473 -2.667 0 -2.667 C
1.473 -2.667 2.667 -1.473 2.667 0 C
cp
f
GR
GS
[1 0 0 1 190.17999 68.16622] CT
0 0 1 RC
N
2.667 0 M
2.667 1.473 1.473 2.667 0 2.667 C
-1.473 2.667 -2.667 1.473 -2.667 0 C
-2.667 -1.473 -1.473 -2.667 0 -2.667 C
1.473 -2.667 2.667 -1.473 2.667 0 C
cp
f
GR
GS
[1 0 0 1 194.52 71.37048] CT
0 0 1 RC
N
2.667 0 M
2.667 1.473 1.473 2.667 0 2.667 C
-1.473 2.667 -2.667 1.473 -2.667 0 C
-2.667 -1.473 -1.473 -2.667 0 -2.667 C
1.473 -2.667 2.667 -1.473 2.667 0 C
cp
f
GR
GS
[1 0 0 1 198.86 72.23225] CT
0 0 1 RC
N
2.667 0 M
2.667 1.473 1.473 2.667 0 2.667 C
-1.473 2.667 -2.667 1.473 -2.667 0 C
-2.667 -1.473 -1.473 -2.667 0 -2.667 C
1.473 -2.667 2.667 -1.473 2.667 0 C
cp
f
GR
GS
[1 0 0 1 203.2 71.96832] CT
0 0 1 RC
N
2.667 0 M
2.667 1.473 1.473 2.667 0 2.667 C
-1.473 2.667 -2.667 1.473 -2.667 0 C
-2.667 -1.473 -1.473 -2.667 0 -2.667 C
1.473 -2.667 2.667 -1.473 2.667 0 C
cp
f
GR
GS
[1 0 0 1 207.53999 75.46581] CT
0 0 1 RC
N
2.667 0 M
2.667 1.473 1.473 2.667 0 2.667 C
-1.473 2.667 -2.667 1.473 -2.667 0 C
-2.667 -1.473 -1.473 -2.667 0 -2.667 C
1.473 -2.667 2.667 -1.473 2.667 0 C
cp
f
GR
GS
[1 0 0 1 211.88 75.02022] CT
0 0 1 RC
N
2.667 0 M
2.667 1.473 1.473 2.667 0 2.667 C
-1.473 2.667 -2.667 1.473 -2.667 0 C
-2.667 -1.473 -1.473 -2.667 0 -2.667 C
1.473 -2.667 2.667 -1.473 2.667 0 C
cp
f
GR
GS
[1 0 0 1 216.22 74.30498] CT
0 0 1 RC
N
2.667 0 M
2.667 1.473 1.473 2.667 0 2.667 C
-1.473 2.667 -2.667 1.473 -2.667 0 C
-2.667 -1.473 -1.473 -2.667 0 -2.667 C
1.473 -2.667 2.667 -1.473 2.667 0 C
cp
f
GR
GS
[1 0 0 1 220.56 79.6246] CT
0 0 1 RC
N
2.667 0 M
2.667 1.473 1.473 2.667 0 2.667 C
-1.473 2.667 -2.667 1.473 -2.667 0 C
-2.667 -1.473 -1.473 -2.667 0 -2.667 C
1.473 -2.667 2.667 -1.473 2.667 0 C
cp
f
GR
GS
[1 0 0 1 224.89999 77.96436] CT
0 0 1 RC
N
2.667 0 M
2.667 1.473 1.473 2.667 0 2.667 C
-1.473 2.667 -2.667 1.473 -2.667 0 C
-2.667 -1.473 -1.473 -2.667 0 -2.667 C
1.473 -2.667 2.667 -1.473 2.667 0 C
cp
f
GR
GS
[1 0 0 1 229.24001 76.78821] CT
0 0 1 RC
N
2.667 0 M
2.667 1.473 1.473 2.667 0 2.667 C
-1.473 2.667 -2.667 1.473 -2.667 0 C
-2.667 -1.473 -1.473 -2.667 0 -2.667 C
1.473 -2.667 2.667 -1.473 2.667 0 C
cp
f
GR
GS
[1 0 0 1 233.58 78.88647] CT
0 0 1 RC
N
2.667 0 M
2.667 1.473 1.473 2.667 0 2.667 C
-1.473 2.667 -2.667 1.473 -2.667 0 C
-2.667 -1.473 -1.473 -2.667 0 -2.667 C
1.473 -2.667 2.667 -1.473 2.667 0 C
cp
f
GR
GS
[1 0 0 1 237.92 81.05768] CT
0 0 1 RC
N
2.667 0 M
2.667 1.473 1.473 2.667 0 2.667 C
-1.473 2.667 -2.667 1.473 -2.667 0 C
-2.667 -1.473 -1.473 -2.667 0 -2.667 C
1.473 -2.667 2.667 -1.473 2.667 0 C
cp
f
GR
GS
[1 0 0 1 242.25999 81.53415] CT
0 0 1 RC
N
2.667 0 M
2.667 1.473 1.473 2.667 0 2.667 C
-1.473 2.667 -2.667 1.473 -2.667 0 C
-2.667 -1.473 -1.473 -2.667 0 -2.667 C
1.473 -2.667 2.667 -1.473 2.667 0 C
cp
f
GR
GS
[1 0 0 1 246.60001 82.8559] CT
0 0 1 RC
N
2.667 0 M
2.667 1.473 1.473 2.667 0 2.667 C
-1.473 2.667 -2.667 1.473 -2.667 0 C
-2.667 -1.473 -1.473 -2.667 0 -2.667 C
1.473 -2.667 2.667 -1.473 2.667 0 C
cp
f
GR
GS
[1 0 0 1 250.94 82.33237] CT
0 0 1 RC
N
2.667 0 M
2.667 1.473 1.473 2.667 0 2.667 C
-1.473 2.667 -2.667 1.473 -2.667 0 C
-2.667 -1.473 -1.473 -2.667 0 -2.667 C
1.473 -2.667 2.667 -1.473 2.667 0 C
cp
f
GR
GS
[1 0 0 1 255.28 85.22642] CT
0 0 1 RC
N
2.667 0 M
2.667 1.473 1.473 2.667 0 2.667 C
-1.473 2.667 -2.667 1.473 -2.667 0 C
-2.667 -1.473 -1.473 -2.667 0 -2.667 C
1.473 -2.667 2.667 -1.473 2.667 0 C
cp
f
GR
GS
[1 0 0 1 259.62 85.60658] CT
0 0 1 RC
N
2.667 0 M
2.667 1.473 1.473 2.667 0 2.667 C
-1.473 2.667 -2.667 1.473 -2.667 0 C
-2.667 -1.473 -1.473 -2.667 0 -2.667 C
1.473 -2.667 2.667 -1.473 2.667 0 C
cp
f
GR
GS
[1 0 0 1 263.95999 86.25594] CT
0 0 1 RC
N
2.667 0 M
2.667 1.473 1.473 2.667 0 2.667 C
-1.473 2.667 -2.667 1.473 -2.667 0 C
-2.667 -1.473 -1.473 -2.667 0 -2.667 C
1.473 -2.667 2.667 -1.473 2.667 0 C
cp
f
GR
GS
[1 0 0 1 268.29999 85.4465] CT
0 0 1 RC
N
2.667 0 M
2.667 1.473 1.473 2.667 0 2.667 C
-1.473 2.667 -2.667 1.473 -2.667 0 C
-2.667 -1.473 -1.473 -2.667 0 -2.667 C
1.473 -2.667 2.667 -1.473 2.667 0 C
cp
f
GR
GS
[1 0 0 1 272.64001 88.14582] CT
0 0 1 RC
N
2.667 0 M
2.667 1.473 1.473 2.667 0 2.667 C
-1.473 2.667 -2.667 1.473 -2.667 0 C
-2.667 -1.473 -1.473 -2.667 0 -2.667 C
1.473 -2.667 2.667 -1.473 2.667 0 C
cp
f
GR
GS
[1 0 0 1 276.98001 86.39691] CT
0 0 1 RC
N
2.667 0 M
2.667 1.473 1.473 2.667 0 2.667 C
-1.473 2.667 -2.667 1.473 -2.667 0 C
-2.667 -1.473 -1.473 -2.667 0 -2.667 C
1.473 -2.667 2.667 -1.473 2.667 0 C
cp
f
GR
GS
[1 0 0 1 281.32001 90.10536] CT
0 0 1 RC
N
2.667 0 M
2.667 1.473 1.473 2.667 0 2.667 C
-1.473 2.667 -2.667 1.473 -2.667 0 C
-2.667 -1.473 -1.473 -2.667 0 -2.667 C
1.473 -2.667 2.667 -1.473 2.667 0 C
cp
f
GR
GS
[1 0 0 1 285.66 90.81768] CT
0 0 1 RC
N
2.667 0 M
2.667 1.473 1.473 2.667 0 2.667 C
-1.473 2.667 -2.667 1.473 -2.667 0 C
-2.667 -1.473 -1.473 -2.667 0 -2.667 C
1.473 -2.667 2.667 -1.473 2.667 0 C
cp
f
GR
GS
[1 0 0 1 290 91.69218] CT
0 0 1 RC
N
2.667 0 M
2.667 1.473 1.473 2.667 0 2.667 C
-1.473 2.667 -2.667 1.473 -2.667 0 C
-2.667 -1.473 -1.473 -2.667 0 -2.667 C
1.473 -2.667 2.667 -1.473 2.667 0 C
cp
f
GR
GS
[1 0 0 1 294.34 92.61671] CT
0 0 1 RC
N
2.667 0 M
2.667 1.473 1.473 2.667 0 2.667 C
-1.473 2.667 -2.667 1.473 -2.667 0 C
-2.667 -1.473 -1.473 -2.667 0 -2.667 C
1.473 -2.667 2.667 -1.473 2.667 0 C
cp
f
GR
GS
[1 0 0 1 298.67999 93.89503] CT
0 0 1 RC
N
2.667 0 M
2.667 1.473 1.473 2.667 0 2.667 C
-1.473 2.667 -2.667 1.473 -2.667 0 C
-2.667 -1.473 -1.473 -2.667 0 -2.667 C
1.473 -2.667 2.667 -1.473 2.667 0 C
cp
f
GR
GS
[1 0 0 1 303.01999 94.03515] CT
0 0 1 RC
N
2.667 0 M
2.667 1.473 1.473 2.667 0 2.667 C
-1.473 2.667 -2.667 1.473 -2.667 0 C
-2.667 -1.473 -1.473 -2.667 0 -2.667 C
1.473 -2.667 2.667 -1.473 2.667 0 C
cp
f
GR
GS
[1 0 0 1 307.35999 97.26314] CT
0 0 1 RC
N
2.667 0 M
2.667 1.473 1.473 2.667 0 2.667 C
-1.473 2.667 -2.667 1.473 -2.667 0 C
-2.667 -1.473 -1.473 -2.667 0 -2.667 C
1.473 -2.667 2.667 -1.473 2.667 0 C
cp
f
GR
GS
[1 0 0 1 311.70001 97.66259] CT
0 0 1 RC
N
2.667 0 M
2.667 1.473 1.473 2.667 0 2.667 C
-1.473 2.667 -2.667 1.473 -2.667 0 C
-2.667 -1.473 -1.473 -2.667 0 -2.667 C
1.473 -2.667 2.667 -1.473 2.667 0 C
cp
f
GR
GS
[1 0 0 1 316.04001 97.73467] CT
0 0 1 RC
N
2.667 0 M
2.667 1.473 1.473 2.667 0 2.667 C
-1.473 2.667 -2.667 1.473 -2.667 0 C
-2.667 -1.473 -1.473 -2.667 0 -2.667 C
1.473 -2.667 2.667 -1.473 2.667 0 C
cp
f
GR
GS
[1 0 0 1 320.38 98.86855] CT
0 0 1 RC
N
2.667 0 M
2.667 1.473 1.473 2.667 0 2.667 C
-1.473 2.667 -2.667 1.473 -2.667 0 C
-2.667 -1.473 -1.473 -2.667 0 -2.667 C
1.473 -2.667 2.667 -1.473 2.667 0 C
cp
f
GR
GS
[1 0 0 1 324.72 98.3261] CT
0 0 1 RC
N
2.667 0 M
2.667 1.473 1.473 2.667 0 2.667 C
-1.473 2.667 -2.667 1.473 -2.667 0 C
-2.667 -1.473 -1.473 -2.667 0 -2.667 C
1.473 -2.667 2.667 -1.473 2.667 0 C
cp
f
GR
GS
[1 0 0 1 329.06 101.02515] CT
0 0 1 RC
N
2.667 0 M
2.667 1.473 1.473 2.667 0 2.667 C
-1.473 2.667 -2.667 1.473 -2.667 0 C
-2.667 -1.473 -1.473 -2.667 0 -2.667 C
1.473 -2.667 2.667 -1.473 2.667 0 C
cp
f
GR
GS
[1 0 0 1 333.39999 103.36079] CT
0 0 1 RC
N
2.667 0 M
2.667 1.473 1.473 2.667 0 2.667 C
-1.473 2.667 -2.667 1.473 -2.667 0 C
-2.667 -1.473 -1.473 -2.667 0 -2.667 C
1.473 -2.667 2.667 -1.473 2.667 0 C
cp
f
GR
GS
[1 0 0 1 337.73999 103.34303] CT
0 0 1 RC
N
2.667 0 M
2.667 1.473 1.473 2.667 0 2.667 C
-1.473 2.667 -2.667 1.473 -2.667 0 C
-2.667 -1.473 -1.473 -2.667 0 -2.667 C
1.473 -2.667 2.667 -1.473 2.667 0 C
cp
f
GR
GS
[1 0 0 1 342.07999 103.01527] CT
0 0 1 RC
N
2.667 0 M
2.667 1.473 1.473 2.667 0 2.667 C
-1.473 2.667 -2.667 1.473 -2.667 0 C
-2.667 -1.473 -1.473 -2.667 0 -2.667 C
1.473 -2.667 2.667 -1.473 2.667 0 C
cp
f
GR
GS
[1 0 0 1 346.42001 103.74646] CT
0 0 1 RC
N
2.667 0 M
2.667 1.473 1.473 2.667 0 2.667 C
-1.473 2.667 -2.667 1.473 -2.667 0 C
-2.667 -1.473 -1.473 -2.667 0 -2.667 C
1.473 -2.667 2.667 -1.473 2.667 0 C
cp
f
GR
GS
[1 0 0 1 350.76001 105.19084] CT
0 0 1 RC
N
2.667 0 M
2.667 1.473 1.473 2.667 0 2.667 C
-1.473 2.667 -2.667 1.473 -2.667 0 C
-2.667 -1.473 -1.473 -2.667 0 -2.667 C
1.473 -2.667 2.667 -1.473 2.667 0 C
cp
f
GR
GS
[1 0 0 1 355.10001 106.50866] CT
0 0 1 RC
N
2.667 0 M
2.667 1.473 1.473 2.667 0 2.667 C
-1.473 2.667 -2.667 1.473 -2.667 0 C
-2.667 -1.473 -1.473 -2.667 0 -2.667 C
1.473 -2.667 2.667 -1.473 2.667 0 C
cp
f
GR
GS
[1 0 0 1 359.44 107.83923] CT
0 0 1 RC
N
2.667 0 M
2.667 1.473 1.473 2.667 0 2.667 C
-1.473 2.667 -2.667 1.473 -2.667 0 C
-2.667 -1.473 -1.473 -2.667 0 -2.667 C
1.473 -2.667 2.667 -1.473 2.667 0 C
cp
f
GR
GS
[1 0 0 1 363.78 108.09476] CT
0 0 1 RC
N
2.667 0 M
2.667 1.473 1.473 2.667 0 2.667 C
-1.473 2.667 -2.667 1.473 -2.667 0 C
-2.667 -1.473 -1.473 -2.667 0 -2.667 C
1.473 -2.667 2.667 -1.473 2.667 0 C
cp
f
GR
GS
[1 0 0 1 368.12 108.9837] CT
0 0 1 RC
N
2.667 0 M
2.667 1.473 1.473 2.667 0 2.667 C
-1.473 2.667 -2.667 1.473 -2.667 0 C
-2.667 -1.473 -1.473 -2.667 0 -2.667 C
1.473 -2.667 2.667 -1.473 2.667 0 C
cp
f
GR
GS
[1 0 0 1 372.45999 109.64665] CT
0 0 1 RC
N
2.667 0 M
2.667 1.473 1.473 2.667 0 2.667 C
-1.473 2.667 -2.667 1.473 -2.667 0 C
-2.667 -1.473 -1.473 -2.667 0 -2.667 C
1.473 -2.667 2.667 -1.473 2.667 0 C
cp
f
GR
GS
[1 0 0 1 376.79999 111.18024] CT
0 0 1 RC
N
2.667 0 M
2.667 1.473 1.473 2.667 0 2.667 C
-1.473 2.667 -2.667 1.473 -2.667 0 C
-2.667 -1.473 -1.473 -2.667 0 -2.667 C
1.473 -2.667 2.667 -1.473 2.667 0 C
cp
f
GR
GS
[1 0 0 1 381.14001 111.97654] CT
0 0 1 RC
N
2.667 0 M
2.667 1.473 1.473 2.667 0 2.667 C
-1.473 2.667 -2.667 1.473 -2.667 0 C
-2.667 -1.473 -1.473 -2.667 0 -2.667 C
1.473 -2.667 2.667 -1.473 2.667 0 C
cp
f
GR
GS
[1 0 0 1 385.48001 113.08521] CT
0 0 1 RC
N
2.667 0 M
2.667 1.473 1.473 2.667 0 2.667 C
-1.473 2.667 -2.667 1.473 -2.667 0 C
-2.667 -1.473 -1.473 -2.667 0 -2.667 C
1.473 -2.667 2.667 -1.473 2.667 0 C
cp
f
GR
GS
[1 0 0 1 389.82001 113.19093] CT
0 0 1 RC
N
2.667 0 M
2.667 1.473 1.473 2.667 0 2.667 C
-1.473 2.667 -2.667 1.473 -2.667 0 C
-2.667 -1.473 -1.473 -2.667 0 -2.667 C
1.473 -2.667 2.667 -1.473 2.667 0 C
cp
f
GR
GS
[1 0 0 1 394.16 115.08543] CT
0 0 1 RC
N
2.667 0 M
2.667 1.473 1.473 2.667 0 2.667 C
-1.473 2.667 -2.667 1.473 -2.667 0 C
-2.667 -1.473 -1.473 -2.667 0 -2.667 C
1.473 -2.667 2.667 -1.473 2.667 0 C
cp
f
GR
GS
[1 0 0 1 398.5 116.14713] CT
0 0 1 RC
N
2.667 0 M
2.667 1.473 1.473 2.667 0 2.667 C
-1.473 2.667 -2.667 1.473 -2.667 0 C
-2.667 -1.473 -1.473 -2.667 0 -2.667 C
1.473 -2.667 2.667 -1.473 2.667 0 C
cp
f
GR
GS
[1 0 0 1 402.84 116.53059] CT
0 0 1 RC
N
2.667 0 M
2.667 1.473 1.473 2.667 0 2.667 C
-1.473 2.667 -2.667 1.473 -2.667 0 C
-2.667 -1.473 -1.473 -2.667 0 -2.667 C
1.473 -2.667 2.667 -1.473 2.667 0 C
cp
f
GR
GS
[1 0 0 1 407.17999 116.86221] CT
0 0 1 RC
N
2.667 0 M
2.667 1.473 1.473 2.667 0 2.667 C
-1.473 2.667 -2.667 1.473 -2.667 0 C
-2.667 -1.473 -1.473 -2.667 0 -2.667 C
1.473 -2.667 2.667 -1.473 2.667 0 C
cp
f
GR
GS
[1 0 0 1 411.51999 118.90523] CT
0 0 1 RC
N
2.667 0 M
2.667 1.473 1.473 2.667 0 2.667 C
-1.473 2.667 -2.667 1.473 -2.667 0 C
-2.667 -1.473 -1.473 -2.667 0 -2.667 C
1.473 -2.667 2.667 -1.473 2.667 0 C
cp
f
GR
GS
[1 0 0 1 415.85999 119.23347] CT
0 0 1 RC
N
2.667 0 M
2.667 1.473 1.473 2.667 0 2.667 C
-1.473 2.667 -2.667 1.473 -2.667 0 C
-2.667 -1.473 -1.473 -2.667 0 -2.667 C
1.473 -2.667 2.667 -1.473 2.667 0 C
cp
f
GR
GS
[1 0 0 1 420.20001 119.597] CT
0 0 1 RC
N
2.667 0 M
2.667 1.473 1.473 2.667 0 2.667 C
-1.473 2.667 -2.667 1.473 -2.667 0 C
-2.667 -1.473 -1.473 -2.667 0 -2.667 C
1.473 -2.667 2.667 -1.473 2.667 0 C
cp
f
GR
GS
[1 0 0 1 424.54001 121.53535] CT
0 0 1 RC
N
2.667 0 M
2.667 1.473 1.473 2.667 0 2.667 C
-1.473 2.667 -2.667 1.473 -2.667 0 C
-2.667 -1.473 -1.473 -2.667 0 -2.667 C
1.473 -2.667 2.667 -1.473 2.667 0 C
cp
f
GR
GS
[1 0 0 1 428.88 121.99291] CT
0 0 1 RC
N
2.667 0 M
2.667 1.473 1.473 2.667 0 2.667 C
-1.473 2.667 -2.667 1.473 -2.667 0 C
-2.667 -1.473 -1.473 -2.667 0 -2.667 C
1.473 -2.667 2.667 -1.473 2.667 0 C
cp
f
GR
GS
[1 0 0 1 433.22 123.24217] CT
0 0 1 RC
N
2.667 0 M
2.667 1.473 1.473 2.667 0 2.667 C
-1.473 2.667 -2.667 1.473 -2.667 0 C
-2.667 -1.473 -1.473 -2.667 0 -2.667 C
1.473 -2.667 2.667 -1.473 2.667 0 C
cp
f
GR
GS
[1 0 0 1 437.56 123.84731] CT
0 0 1 RC
N
2.667 0 M
2.667 1.473 1.473 2.667 0 2.667 C
-1.473 2.667 -2.667 1.473 -2.667 0 C
-2.667 -1.473 -1.473 -2.667 0 -2.667 C
1.473 -2.667 2.667 -1.473 2.667 0 C
cp
f
GR
GS
[1 0 0 1 441.89999 124.57232] CT
0 0 1 RC
N
2.667 0 M
2.667 1.473 1.473 2.667 0 2.667 C
-1.473 2.667 -2.667 1.473 -2.667 0 C
-2.667 -1.473 -1.473 -2.667 0 -2.667 C
1.473 -2.667 2.667 -1.473 2.667 0 C
cp
f
GR
GS
[1 0 0 1 446.23999 126.24957] CT
0 0 1 RC
N
2.667 0 M
2.667 1.473 1.473 2.667 0 2.667 C
-1.473 2.667 -2.667 1.473 -2.667 0 C
-2.667 -1.473 -1.473 -2.667 0 -2.667 C
1.473 -2.667 2.667 -1.473 2.667 0 C
cp
f
GR
GS
[1 0 0 1 450.57999 127.03956] CT
0 0 1 RC
N
2.667 0 M
2.667 1.473 1.473 2.667 0 2.667 C
-1.473 2.667 -2.667 1.473 -2.667 0 C
-2.667 -1.473 -1.473 -2.667 0 -2.667 C
1.473 -2.667 2.667 -1.473 2.667 0 C
cp
f
GR
GS
[1 0 0 1 454.92001 127.88229] CT
0 0 1 RC
N
2.667 0 M
2.667 1.473 1.473 2.667 0 2.667 C
-1.473 2.667 -2.667 1.473 -2.667 0 C
-2.667 -1.473 -1.473 -2.667 0 -2.667 C
1.473 -2.667 2.667 -1.473 2.667 0 C
cp
f
GR
GS
[1 0 0 1 459.26001 128.83226] CT
0 0 1 RC
N
2.667 0 M
2.667 1.473 1.473 2.667 0 2.667 C
-1.473 2.667 -2.667 1.473 -2.667 0 C
-2.667 -1.473 -1.473 -2.667 0 -2.667 C
1.473 -2.667 2.667 -1.473 2.667 0 C
cp
f
GR
GS
[1 0 0 1 463.60001 129.79111] CT
0 0 1 RC
N
2.667 0 M
2.667 1.473 1.473 2.667 0 2.667 C
-1.473 2.667 -2.667 1.473 -2.667 0 C
-2.667 -1.473 -1.473 -2.667 0 -2.667 C
1.473 -2.667 2.667 -1.473 2.667 0 C
cp
f
GR
GS
[1 0 0 1 467.94 130.4704] CT
0 0 1 RC
N
2.667 0 M
2.667 1.473 1.473 2.667 0 2.667 C
-1.473 2.667 -2.667 1.473 -2.667 0 C
-2.667 -1.473 -1.473 -2.667 0 -2.667 C
1.473 -2.667 2.667 -1.473 2.667 0 C
cp
f
GR
GS
[1 0 0 1 472.28 131.62123] CT
0 0 1 RC
N
2.667 0 M
2.667 1.473 1.473 2.667 0 2.667 C
-1.473 2.667 -2.667 1.473 -2.667 0 C
-2.667 -1.473 -1.473 -2.667 0 -2.667 C
1.473 -2.667 2.667 -1.473 2.667 0 C
cp
f
GR
GS
[1 0 0 1 476.62 132.34122] CT
0 0 1 RC
N
2.667 0 M
2.667 1.473 1.473 2.667 0 2.667 C
-1.473 2.667 -2.667 1.473 -2.667 0 C
-2.667 -1.473 -1.473 -2.667 0 -2.667 C
1.473 -2.667 2.667 -1.473 2.667 0 C
cp
f
GR
GS
[1 0 0 1 480.95999 133.2556] CT
0 0 1 RC
N
2.667 0 M
2.667 1.473 1.473 2.667 0 2.667 C
-1.473 2.667 -2.667 1.473 -2.667 0 C
-2.667 -1.473 -1.473 -2.667 0 -2.667 C
1.473 -2.667 2.667 -1.473 2.667 0 C
cp
f
GR
GS
[1 0 0 1 485.29999 134.33104] CT
0 0 1 RC
N
2.667 0 M
2.667 1.473 1.473 2.667 0 2.667 C
-1.473 2.667 -2.667 1.473 -2.667 0 C
-2.667 -1.473 -1.473 -2.667 0 -2.667 C
1.473 -2.667 2.667 -1.473 2.667 0 C
cp
f
GR
GS
[1 0 0 1 489.64001 135.32645] CT
0 0 1 RC
N
2.667 0 M
2.667 1.473 1.473 2.667 0 2.667 C
-1.473 2.667 -2.667 1.473 -2.667 0 C
-2.667 -1.473 -1.473 -2.667 0 -2.667 C
1.473 -2.667 2.667 -1.473 2.667 0 C
cp
f
GR
GS
[1 0 0 1 493.98001 136.28252] CT
0 0 1 RC
N
2.667 0 M
2.667 1.473 1.473 2.667 0 2.667 C
-1.473 2.667 -2.667 1.473 -2.667 0 C
-2.667 -1.473 -1.473 -2.667 0 -2.667 C
1.473 -2.667 2.667 -1.473 2.667 0 C
cp
f
GR
GS
[1 0 0 1 498.32001 137.14819] CT
0 0 1 RC
N
2.667 0 M
2.667 1.473 1.473 2.667 0 2.667 C
-1.473 2.667 -2.667 1.473 -2.667 0 C
-2.667 -1.473 -1.473 -2.667 0 -2.667 C
1.473 -2.667 2.667 -1.473 2.667 0 C
cp
f
GR
GS
[1 0 0 1 502.66 138.05038] CT
0 0 1 RC
N
2.667 0 M
2.667 1.473 1.473 2.667 0 2.667 C
-1.473 2.667 -2.667 1.473 -2.667 0 C
-2.667 -1.473 -1.473 -2.667 0 -2.667 C
1.473 -2.667 2.667 -1.473 2.667 0 C
cp
f
GR
GS
[1 0 0 1 507 139] CT
0 0 1 RC
N
2.667 0 M
2.667 1.473 1.473 2.667 0 2.667 C
-1.473 2.667 -2.667 1.473 -2.667 0 C
-2.667 -1.473 -1.473 -2.667 0 -2.667 C
1.473 -2.667 2.667 -1.473 2.667 0 C
cp
f
GR
GS
1 0 0 RC
1 LJ
N
73 43.911 M
73.434 44.007 L
73.868 44.102 L
74.302 44.198 L
74.736 44.293 L
75.17 44.389 L
75.604 44.484 L
76.038 44.58 L
76.472 44.676 L
76.906 44.771 L
77.34 44.867 L
77.774 44.962 L
78.208 45.058 L
78.642 45.153 L
79.076 45.249 L
79.51 45.344 L
79.944 45.44 L
80.378 45.535 L
80.812 45.631 L
81.246 45.726 L
81.68 45.822 L
82.114 45.917 L
82.548 46.013 L
82.982 46.108 L
83.416 46.204 L
83.85 46.3 L
84.284 46.395 L
84.718 46.491 L
85.152 46.586 L
85.586 46.682 L
86.02 46.777 L
86.454 46.873 L
86.888 46.968 L
87.322 47.064 L
87.756 47.159 L
88.19 47.255 L
88.624 47.35 L
89.058 47.446 L
89.492 47.541 L
89.926 47.637 L
90.36 47.732 L
90.794 47.828 L
91.228 47.924 L
91.662 48.019 L
92.096 48.115 L
92.53 48.21 L
92.964 48.306 L
93.398 48.401 L
93.832 48.497 L
94.266 48.592 L
94.7 48.688 L
95.134 48.783 L
95.568 48.879 L
96.002 48.974 L
96.436 49.07 L
96.87 49.165 L
97.304 49.261 L
97.738 49.357 L
98.172 49.452 L
98.606 49.548 L
99.04 49.643 L
99.474 49.739 L
99.908 49.834 L
100.342 49.93 L
100.776 50.025 L
101.21 50.121 L
101.644 50.216 L
102.078 50.312 L
102.512 50.407 L
102.946 50.503 L
103.38 50.598 L
103.814 50.694 L
104.248 50.789 L
104.682 50.885 L
105.116 50.981 L
105.55 51.076 L
105.984 51.172 L
106.418 51.267 L
106.852 51.363 L
107.286 51.458 L
107.72 51.554 L
108.154 51.649 L
108.588 51.745 L
109.022 51.84 L
109.456 51.936 L
109.89 52.031 L
110.324 52.127 L
110.758 52.222 L
111.192 52.318 L
111.626 52.413 L
112.06 52.509 L
112.494 52.605 L
112.928 52.7 L
113.362 52.796 L
113.796 52.891 L
114.23 52.987 L
114.664 53.082 L
115.098 53.178 L
115.532 53.273 L
115.966 53.369 L
116.4 53.464 L
116.834 53.56 L
117.268 53.655 L
117.702 53.751 L
118.136 53.846 L
118.57 53.942 L
119.004 54.038 L
119.438 54.133 L
119.872 54.229 L
120.306 54.324 L
120.74 54.42 L
121.174 54.515 L
121.608 54.611 L
122.042 54.706 L
122.476 54.802 L
122.91 54.897 L
123.344 54.993 L
123.778 55.088 L
124.212 55.184 L
124.646 55.279 L
125.08 55.375 L
125.514 55.47 L
125.948 55.566 L
126.382 55.662 L
126.816 55.757 L
127.25 55.853 L
127.684 55.948 L
128.118 56.044 L
128.552 56.139 L
128.986 56.235 L
129.42 56.33 L
129.854 56.426 L
130.288 56.521 L
130.722 56.617 L
131.156 56.712 L
131.59 56.808 L
132.024 56.903 L
132.458 56.999 L
132.892 57.094 L
133.326 57.19 L
133.76 57.286 L
134.194 57.381 L
134.628 57.477 L
135.062 57.572 L
135.496 57.668 L
135.93 57.763 L
136.364 57.859 L
136.798 57.954 L
137.232 58.05 L
137.666 58.145 L
138.1 58.241 L
138.534 58.336 L
138.968 58.432 L
139.402 58.527 L
139.836 58.623 L
140.27 58.719 L
140.704 58.814 L
141.138 58.91 L
141.572 59.005 L
142.006 59.101 L
142.44 59.196 L
142.874 59.292 L
143.308 59.387 L
143.742 59.483 L
144.176 59.578 L
144.61 59.674 L
145.044 59.769 L
145.478 59.865 L
145.912 59.96 L
146.346 60.056 L
146.78 60.151 L
147.214 60.247 L
147.648 60.343 L
148.082 60.438 L
148.516 60.534 L
148.95 60.629 L
149.384 60.725 L
149.818 60.82 L
150.252 60.916 L
150.686 61.011 L
151.12 61.107 L
151.554 61.202 L
151.988 61.298 L
152.422 61.393 L
152.856 61.489 L
153.29 61.584 L
153.724 61.68 L
154.158 61.775 L
154.592 61.871 L
155.026 61.967 L
155.46 62.062 L
155.894 62.158 L
156.328 62.253 L
156.762 62.349 L
157.196 62.444 L
157.63 62.54 L
158.064 62.635 L
158.498 62.731 L
158.932 62.826 L
159.366 62.922 L
159.8 63.017 L
160.234 63.113 L
160.668 63.208 L
161.102 63.304 L
161.536 63.399 L
161.97 63.495 L
162.404 63.591 L
162.838 63.686 L
163.272 63.782 L
163.706 63.877 L
164.14 63.973 L
164.574 64.068 L
165.008 64.164 L
165.442 64.259 L
165.876 64.355 L
166.31 64.45 L
166.744 64.546 L
167.178 64.641 L
167.612 64.737 L
168.046 64.832 L
168.48 64.928 L
168.914 65.024 L
169.348 65.119 L
169.782 65.215 L
170.216 65.31 L
170.65 65.406 L
171.084 65.501 L
171.518 65.597 L
171.952 65.692 L
172.386 65.788 L
172.82 65.883 L
173.254 65.979 L
173.688 66.074 L
174.122 66.17 L
174.556 66.265 L
174.99 66.361 L
175.424 66.456 L
175.858 66.552 L
176.292 66.648 L
176.726 66.743 L
177.16 66.839 L
177.594 66.934 L
178.028 67.03 L
178.462 67.125 L
178.896 67.221 L
179.33 67.316 L
179.764 67.412 L
180.198 67.507 L
180.632 67.603 L
181.066 67.698 L
181.5 67.794 L
181.934 67.889 L
182.368 67.985 L
182.802 68.08 L
183.236 68.176 L
183.67 68.272 L
184.104 68.367 L
184.538 68.463 L
184.972 68.558 L
185.406 68.654 L
185.84 68.749 L
186.274 68.845 L
186.708 68.94 L
187.142 69.036 L
187.576 69.131 L
188.01 69.227 L
188.444 69.322 L
188.878 69.418 L
189.312 69.513 L
189.746 69.609 L
190.18 69.705 L
190.614 69.8 L
191.048 69.896 L
191.482 69.991 L
191.916 70.087 L
192.35 70.182 L
192.784 70.278 L
193.218 70.373 L
193.652 70.469 L
194.086 70.564 L
194.52 70.66 L
194.954 70.755 L
195.388 70.851 L
195.822 70.946 L
196.256 71.042 L
196.69 71.137 L
197.124 71.233 L
197.558 71.329 L
197.992 71.424 L
198.426 71.52 L
198.86 71.615 L
199.294 71.711 L
199.728 71.806 L
200.162 71.902 L
200.596 71.997 L
201.03 72.093 L
201.464 72.188 L
201.898 72.284 L
202.332 72.379 L
202.766 72.475 L
203.2 72.57 L
203.634 72.666 L
204.068 72.761 L
204.502 72.857 L
204.936 72.953 L
205.37 73.048 L
205.804 73.144 L
206.238 73.239 L
206.672 73.335 L
207.106 73.43 L
207.54 73.526 L
207.974 73.621 L
208.408 73.717 L
208.842 73.812 L
209.276 73.908 L
209.71 74.003 L
210.144 74.099 L
210.578 74.194 L
211.012 74.29 L
211.446 74.386 L
211.88 74.481 L
212.314 74.577 L
212.748 74.672 L
213.182 74.768 L
213.616 74.863 L
214.05 74.959 L
214.484 75.054 L
214.918 75.15 L
215.352 75.245 L
215.786 75.341 L
216.22 75.436 L
216.654 75.532 L
217.088 75.627 L
217.522 75.723 L
217.956 75.818 L
218.39 75.914 L
218.824 76.01 L
219.258 76.105 L
219.692 76.201 L
220.126 76.296 L
220.56 76.392 L
220.994 76.487 L
221.428 76.583 L
221.862 76.678 L
222.296 76.774 L
222.73 76.869 L
223.164 76.965 L
223.598 77.06 L
224.032 77.156 L
224.466 77.251 L
224.9 77.347 L
225.334 77.442 L
225.768 77.538 L
226.202 77.634 L
226.636 77.729 L
227.07 77.825 L
227.504 77.92 L
227.938 78.016 L
228.372 78.111 L
228.806 78.207 L
229.24 78.302 L
229.674 78.398 L
230.108 78.493 L
230.542 78.589 L
230.976 78.684 L
231.41 78.78 L
231.844 78.875 L
232.278 78.971 L
232.712 79.066 L
233.146 79.162 L
233.58 79.258 L
234.014 79.353 L
234.448 79.449 L
234.882 79.544 L
235.316 79.64 L
235.75 79.735 L
236.184 79.831 L
236.618 79.926 L
237.052 80.022 L
237.486 80.117 L
237.92 80.213 L
238.354 80.308 L
238.788 80.404 L
239.222 80.499 L
239.656 80.595 L
240.09 80.691 L
240.524 80.786 L
240.958 80.882 L
241.392 80.977 L
241.826 81.073 L
242.26 81.168 L
242.694 81.264 L
243.128 81.359 L
243.562 81.455 L
243.996 81.55 L
244.43 81.646 L
244.864 81.741 L
245.298 81.837 L
245.732 81.932 L
246.166 82.028 L
246.6 82.123 L
247.034 82.219 L
247.468 82.315 L
247.902 82.41 L
248.336 82.506 L
248.77 82.601 L
249.204 82.697 L
249.638 82.792 L
250.072 82.888 L
250.506 82.983 L
250.94 83.079 L
251.374 83.174 L
251.808 83.27 L
252.242 83.365 L
252.676 83.461 L
253.11 83.556 L
253.544 83.652 L
253.978 83.747 L
254.412 83.843 L
254.846 83.939 L
255.28 84.034 L
255.714 84.13 L
256.148 84.225 L
256.582 84.321 L
257.016 84.416 L
257.45 84.512 L
257.884 84.607 L
258.318 84.703 L
258.752 84.798 L
259.186 84.894 L
259.62 84.989 L
260.054 85.085 L
260.488 85.18 L
260.922 85.276 L
261.356 85.372 L
261.79 85.467 L
262.224 85.563 L
262.658 85.658 L
263.092 85.754 L
263.526 85.849 L
263.96 85.945 L
264.394 86.04 L
264.828 86.136 L
265.262 86.231 L
265.696 86.327 L
266.13 86.422 L
266.564 86.518 L
266.998 86.613 L
267.432 86.709 L
267.866 86.804 L
268.3 86.9 L
268.734 86.996 L
269.168 87.091 L
269.602 87.187 L
270.036 87.282 L
270.47 87.378 L
270.904 87.473 L
271.338 87.569 L
271.772 87.664 L
272.206 87.76 L
272.64 87.855 L
273.074 87.951 L
273.508 88.046 L
273.942 88.142 L
274.376 88.237 L
274.81 88.333 L
275.244 88.428 L
275.678 88.524 L
276.112 88.62 L
276.546 88.715 L
276.98 88.811 L
277.414 88.906 L
277.848 89.002 L
278.282 89.097 L
278.716 89.193 L
279.15 89.288 L
279.584 89.384 L
280.018 89.479 L
280.452 89.575 L
280.886 89.67 L
281.32 89.766 L
281.754 89.861 L
282.188 89.957 L
282.622 90.053 L
283.056 90.148 L
283.49 90.244 L
283.924 90.339 L
284.358 90.435 L
284.792 90.53 L
285.226 90.626 L
285.66 90.721 L
286.094 90.817 L
286.528 90.912 L
286.962 91.008 L
287.396 91.103 L
287.83 91.199 L
288.264 91.294 L
288.698 91.39 L
289.132 91.485 L
289.566 91.581 L
290 91.677 L
290.434 91.772 L
290.868 91.868 L
291.302 91.963 L
291.736 92.059 L
292.17 92.154 L
292.604 92.25 L
293.038 92.345 L
293.472 92.441 L
293.906 92.536 L
294.34 92.632 L
294.774 92.727 L
295.208 92.823 L
295.642 92.918 L
296.076 93.014 L
296.51 93.109 L
296.944 93.205 L
297.378 93.301 L
297.812 93.396 L
298.246 93.492 L
298.68 93.587 L
299.114 93.683 L
299.548 93.778 L
299.982 93.874 L
300.416 93.969 L
300.85 94.065 L
301.284 94.16 L
301.718 94.256 L
302.152 94.351 L
302.586 94.447 L
303.02 94.542 L
303.454 94.638 L
303.888 94.734 L
304.322 94.829 L
304.756 94.925 L
305.19 95.02 L
305.624 95.116 L
306.058 95.211 L
306.492 95.307 L
306.926 95.402 L
307.36 95.498 L
307.794 95.593 L
308.228 95.689 L
308.662 95.784 L
309.096 95.88 L
309.53 95.975 L
309.964 96.071 L
310.398 96.166 L
310.832 96.262 L
311.266 96.358 L
311.7 96.453 L
312.134 96.549 L
312.568 96.644 L
313.002 96.74 L
313.436 96.835 L
313.87 96.931 L
314.304 97.026 L
314.738 97.122 L
315.172 97.217 L
315.606 97.313 L
316.04 97.408 L
316.474 97.504 L
316.908 97.599 L
317.342 97.695 L
317.776 97.79 L
318.21 97.886 L
318.644 97.982 L
319.078 98.077 L
319.512 98.173 L
319.946 98.268 L
320.38 98.364 L
320.814 98.459 L
321.248 98.555 L
321.682 98.65 L
322.116 98.746 L
322.55 98.841 L
322.984 98.937 L
323.418 99.032 L
323.852 99.128 L
324.286 99.223 L
324.72 99.319 L
325.154 99.415 L
325.588 99.51 L
326.022 99.606 L
326.456 99.701 L
326.89 99.797 L
327.324 99.892 L
327.758 99.988 L
328.192 100.083 L
328.626 100.179 L
329.06 100.274 L
329.494 100.37 L
329.928 100.465 L
330.362 100.561 L
330.796 100.656 L
331.23 100.752 L
331.664 100.847 L
332.098 100.943 L
332.532 101.039 L
332.966 101.134 L
333.4 101.23 L
333.834 101.325 L
334.268 101.421 L
334.702 101.516 L
335.136 101.612 L
335.57 101.707 L
336.004 101.803 L
336.438 101.898 L
336.872 101.994 L
337.306 102.089 L
337.74 102.185 L
338.174 102.28 L
338.608 102.376 L
339.042 102.471 L
339.476 102.567 L
339.91 102.663 L
340.344 102.758 L
340.778 102.854 L
341.212 102.949 L
341.646 103.045 L
342.08 103.14 L
342.514 103.236 L
342.948 103.331 L
343.382 103.427 L
343.816 103.522 L
344.25 103.618 L
344.684 103.713 L
345.118 103.809 L
345.552 103.904 L
345.986 104 L
346.42 104.095 L
346.854 104.191 L
347.288 104.287 L
347.722 104.382 L
348.156 104.478 L
348.59 104.573 L
349.024 104.669 L
349.458 104.764 L
349.892 104.86 L
350.326 104.955 L
350.76 105.051 L
351.194 105.146 L
351.628 105.242 L
352.062 105.337 L
352.496 105.433 L
352.93 105.528 L
353.364 105.624 L
353.798 105.72 L
354.232 105.815 L
354.666 105.911 L
355.1 106.006 L
355.534 106.102 L
355.968 106.197 L
356.402 106.293 L
356.836 106.388 L
357.27 106.484 L
357.704 106.579 L
358.138 106.675 L
358.572 106.77 L
359.006 106.866 L
359.44 106.961 L
359.874 107.057 L
360.308 107.152 L
360.742 107.248 L
361.176 107.344 L
361.61 107.439 L
362.044 107.535 L
362.478 107.63 L
362.912 107.726 L
363.346 107.821 L
363.78 107.917 L
364.214 108.012 L
364.648 108.108 L
365.082 108.203 L
365.516 108.299 L
365.95 108.394 L
366.384 108.49 L
366.818 108.585 L
367.252 108.681 L
367.686 108.776 L
368.12 108.872 L
368.554 108.968 L
368.988 109.063 L
369.422 109.159 L
369.856 109.254 L
370.29 109.35 L
370.724 109.445 L
371.158 109.541 L
371.592 109.636 L
372.026 109.732 L
372.46 109.827 L
372.894 109.923 L
373.328 110.018 L
373.762 110.114 L
374.196 110.209 L
374.63 110.305 L
375.064 110.401 L
375.498 110.496 L
375.932 110.592 L
376.366 110.687 L
376.8 110.783 L
377.234 110.878 L
377.668 110.974 L
378.102 111.069 L
378.536 111.165 L
378.97 111.26 L
379.404 111.356 L
379.838 111.451 L
380.272 111.547 L
380.706 111.642 L
381.14 111.738 L
381.574 111.833 L
382.008 111.929 L
382.442 112.025 L
382.876 112.12 L
383.31 112.216 L
383.744 112.311 L
384.178 112.407 L
384.612 112.502 L
385.046 112.598 L
385.48 112.693 L
385.914 112.789 L
386.348 112.884 L
386.782 112.98 L
387.216 113.075 L
387.65 113.171 L
388.084 113.266 L
388.518 113.362 L
388.952 113.457 L
389.386 113.553 L
389.82 113.649 L
390.254 113.744 L
390.688 113.84 L
391.122 113.935 L
391.556 114.031 L
391.99 114.126 L
392.424 114.222 L
392.858 114.317 L
393.292 114.413 L
393.726 114.508 L
394.16 114.604 L
394.594 114.699 L
395.028 114.795 L
395.462 114.89 L
395.896 114.986 L
396.33 115.082 L
396.764 115.177 L
397.198 115.273 L
397.632 115.368 L
398.066 115.464 L
398.5 115.559 L
398.934 115.655 L
399.368 115.75 L
399.802 115.846 L
400.236 115.941 L
400.67 116.037 L
401.104 116.132 L
401.538 116.228 L
401.972 116.323 L
402.406 116.419 L
402.84 116.514 L
403.274 116.61 L
403.708 116.706 L
404.142 116.801 L
404.576 116.897 L
405.01 116.992 L
405.444 117.088 L
405.878 117.183 L
406.312 117.279 L
406.746 117.374 L
407.18 117.47 L
407.614 117.565 L
408.048 117.661 L
408.482 117.756 L
408.916 117.852 L
409.35 117.947 L
409.784 118.043 L
410.218 118.138 L
410.652 118.234 L
411.086 118.33 L
411.52 118.425 L
411.954 118.521 L
412.388 118.616 L
412.822 118.712 L
413.256 118.807 L
413.69 118.903 L
414.124 118.998 L
414.558 119.094 L
414.992 119.189 L
415.426 119.285 L
415.86 119.38 L
416.294 119.476 L
416.728 119.571 L
417.162 119.667 L
417.596 119.763 L
418.03 119.858 L
418.464 119.954 L
418.898 120.049 L
419.332 120.145 L
419.766 120.24 L
420.2 120.336 L
420.634 120.431 L
421.068 120.527 L
421.502 120.622 L
421.936 120.718 L
422.37 120.813 L
422.804 120.909 L
423.238 121.004 L
423.672 121.1 L
424.106 121.195 L
424.54 121.291 L
424.974 121.387 L
425.408 121.482 L
425.842 121.578 L
426.276 121.673 L
426.71 121.769 L
427.144 121.864 L
427.578 121.96 L
428.012 122.055 L
428.446 122.151 L
428.88 122.246 L
429.314 122.342 L
429.748 122.437 L
430.182 122.533 L
430.616 122.628 L
431.05 122.724 L
431.484 122.819 L
431.918 122.915 L
432.352 123.011 L
432.786 123.106 L
433.22 123.202 L
433.654 123.297 L
434.088 123.393 L
434.522 123.488 L
434.956 123.584 L
435.39 123.679 L
435.824 123.775 L
436.258 123.87 L
436.692 123.966 L
437.126 124.061 L
437.56 124.157 L
437.994 124.252 L
438.428 124.348 L
438.862 124.443 L
439.296 124.539 L
439.73 124.635 L
440.164 124.73 L
440.598 124.826 L
441.032 124.921 L
441.466 125.017 L
441.9 125.112 L
442.334 125.208 L
442.768 125.303 L
443.202 125.399 L
443.636 125.494 L
444.07 125.59 L
444.504 125.685 L
444.938 125.781 L
445.372 125.876 L
445.806 125.972 L
446.24 126.068 L
446.674 126.163 L
447.108 126.259 L
447.542 126.354 L
447.976 126.45 L
448.41 126.545 L
448.844 126.641 L
449.278 126.736 L
449.712 126.832 L
450.146 126.927 L
450.58 127.023 L
451.014 127.118 L
451.448 127.214 L
451.882 127.309 L
452.316 127.405 L
452.75 127.5 L
453.184 127.596 L
453.618 127.692 L
454.052 127.787 L
454.486 127.883 L
454.92 127.978 L
455.354 128.074 L
455.788 128.169 L
456.222 128.265 L
456.656 128.36 L
457.09 128.456 L
457.524 128.551 L
457.958 128.647 L
458.392 128.742 L
458.826 128.838 L
459.26 128.933 L
459.694 129.029 L
460.128 129.124 L
460.562 129.22 L
460.996 129.316 L
461.43 129.411 L
461.864 129.507 L
462.298 129.602 L
462.732 129.698 L
463.166 129.793 L
463.6 129.889 L
464.034 129.984 L
464.468 130.08 L
464.902 130.175 L
465.336 130.271 L
465.77 130.366 L
466.204 130.462 L
466.638 130.557 L
467.072 130.653 L
467.506 130.749 L
467.94 130.844 L
468.374 130.94 L
468.808 131.035 L
469.242 131.131 L
469.676 131.226 L
470.11 131.322 L
470.544 131.417 L
470.978 131.513 L
471.412 131.608 L
471.846 131.704 L
472.28 131.799 L
472.714 131.895 L
473.148 131.99 L
473.582 132.086 L
474.016 132.181 L
474.45 132.277 L
474.884 132.373 L
475.318 132.468 L
475.752 132.564 L
476.186 132.659 L
476.62 132.755 L
477.054 132.85 L
477.488 132.946 L
477.922 133.041 L
478.356 133.137 L
478.79 133.232 L
479.224 133.328 L
479.658 133.423 L
480.092 133.519 L
480.526 133.614 L
480.96 133.71 L
481.394 133.805 L
481.828 133.901 L
482.262 133.997 L
482.696 134.092 L
483.13 134.188 L
483.564 134.283 L
483.998 134.379 L
484.432 134.474 L
484.866 134.57 L
485.3 134.665 L
485.734 134.761 L
486.168 134.856 L
486.602 134.952 L
487.036 135.047 L
487.47 135.143 L
487.904 135.238 L
488.338 135.334 L
488.772 135.43 L
489.206 135.525 L
489.64 135.621 L
490.074 135.716 L
490.508 135.812 L
490.942 135.907 L
491.376 136.003 L
491.81 136.098 L
492.244 136.194 L
492.678 136.289 L
493.112 136.385 L
493.546 136.48 L
493.98 136.576 L
494.414 136.671 L
494.848 136.767 L
495.282 136.862 L
495.716 136.958 L
496.15 137.054 L
496.584 137.149 L
497.018 137.245 L
497.452 137.34 L
497.886 137.436 L
498.32 137.531 L
498.754 137.627 L
499.188 137.722 L
499.622 137.818 L
500.056 137.913 L
500.49 138.009 L
500.924 138.104 L
501.358 138.2 L
501.792 138.295 L
502.226 138.391 L
502.66 138.486 L
503.094 138.582 L
503.528 138.678 L
503.962 138.773 L
504.396 138.869 L
504.83 138.964 L
505.264 139.06 L
505.698 139.155 L
506.132 139.251 L
506.566 139.346 L
507 139.442 L
S
GR
GS
1 GC
N
408 63 M
408 37 L
502 37 L
502 63 L
cp
f
GR
GS
[1 0 0 1 445 44.35849] CT
/Helvetica 9 F
GS
[1 0 0 1 0 0] CT
0 3.5 moveto 
1 -1 scale
(Error data) t 
GR
GR
GS
[1 0 0 1 427 44.35849] CT
0 0 1 RC
N
2.667 0 M
2.667 1.473 1.473 2.667 0 2.667 C
-1.473 2.667 -2.667 1.473 -2.667 0 C
-2.667 -1.473 -1.473 -2.667 0 -2.667 C
1.473 -2.667 2.667 -1.473 2.667 0 C
cp
f
GR
GS
[1 0 0 1 445 55.64151] CT
/Helvetica 9 F
GS
[1 0 0 1 0 0] CT
0 3.5 moveto 
1 -1 scale
(Linear model) t 
GR
GR
GS
1 0 0 RC
1 LJ
N
412 55.642 M
442 55.642 L
S
GR
GS
0.149 GC
10.0 ML
0.5 LW
N
408 63 M
408 37 L
502 37 L
502 63 L
cp
S
GR
GS
1 GC
N
73 374 M
507 374 L
507 231 L
73 231 L
cp
f
GR
GS
0.873 GC
1 LJ
0.5 LW
N
73 374 M
73 231 L
S
GR
GS
0.873 GC
1 LJ
0.5 LW
N
116.4 374 M
116.4 231 L
S
GR
GS
0.873 GC
1 LJ
0.5 LW
N
159.8 374 M
159.8 231 L
S
GR
GS
0.873 GC
1 LJ
0.5 LW
N
203.2 374 M
203.2 231 L
S
GR
GS
0.873 GC
1 LJ
0.5 LW
N
246.6 374 M
246.6 231 L
S
GR
GS
0.873 GC
1 LJ
0.5 LW
N
290 374 M
290 231 L
S
GR
GS
0.873 GC
1 LJ
0.5 LW
N
333.4 374 M
333.4 231 L
S
GR
GS
0.873 GC
1 LJ
0.5 LW
N
376.8 374 M
376.8 231 L
S
GR
GS
0.873 GC
1 LJ
0.5 LW
N
420.2 374 M
420.2 231 L
S
GR
GS
0.873 GC
1 LJ
0.5 LW
N
463.6 374 M
463.6 231 L
S
GR
GS
0.873 GC
1 LJ
0.5 LW
N
507 374 M
507 231 L
S
GR
GS
0.873 GC
1 LJ
0.5 LW
N
507 374 M
73 374 L
S
GR
GS
0.873 GC
1 LJ
0.5 LW
N
507 345.4 M
73 345.4 L
S
GR
GS
0.873 GC
1 LJ
0.5 LW
N
507 316.8 M
73 316.8 L
S
GR
GS
0.873 GC
1 LJ
0.5 LW
N
507 288.2 M
73 288.2 L
S
GR
GS
0.873 GC
1 LJ
0.5 LW
N
507 259.6 M
73 259.6 L
S
GR
GS
0.873 GC
1 LJ
0.5 LW
N
507 231 M
73 231 L
S
GR
GS
0.149 GC
2 setlinecap
1 LJ
0.5 LW
N
73 374 M
507 374 L
S
GR
GS
0.149 GC
2 setlinecap
1 LJ
0.5 LW
N
73 231 M
507 231 L
S
GR
GS
0.149 GC
2 setlinecap
1 LJ
0.5 LW
N
73 374 M
73 369.66 L
S
GR
GS
0.149 GC
2 setlinecap
1 LJ
0.5 LW
N
116.4 374 M
116.4 369.66 L
S
GR
GS
0.149 GC
2 setlinecap
1 LJ
0.5 LW
N
159.8 374 M
159.8 369.66 L
S
GR
GS
0.149 GC
2 setlinecap
1 LJ
0.5 LW
N
203.2 374 M
203.2 369.66 L
S
GR
GS
0.149 GC
2 setlinecap
1 LJ
0.5 LW
N
246.6 374 M
246.6 369.66 L
S
GR
GS
0.149 GC
2 setlinecap
1 LJ
0.5 LW
N
290 374 M
290 369.66 L
S
GR
GS
0.149 GC
2 setlinecap
1 LJ
0.5 LW
N
333.4 374 M
333.4 369.66 L
S
GR
GS
0.149 GC
2 setlinecap
1 LJ
0.5 LW
N
376.8 374 M
376.8 369.66 L
S
GR
GS
0.149 GC
2 setlinecap
1 LJ
0.5 LW
N
420.2 374 M
420.2 369.66 L
S
GR
GS
0.149 GC
2 setlinecap
1 LJ
0.5 LW
N
463.6 374 M
463.6 369.66 L
S
GR
GS
0.149 GC
2 setlinecap
1 LJ
0.5 LW
N
507 374 M
507 369.66 L
S
GR
GS
0.149 GC
2 setlinecap
1 LJ
0.5 LW
N
73 231 M
73 235.34 L
S
GR
GS
0.149 GC
2 setlinecap
1 LJ
0.5 LW
N
116.4 231 M
116.4 235.34 L
S
GR
GS
0.149 GC
2 setlinecap
1 LJ
0.5 LW
N
159.8 231 M
159.8 235.34 L
S
GR
GS
0.149 GC
2 setlinecap
1 LJ
0.5 LW
N
203.2 231 M
203.2 235.34 L
S
GR
GS
0.149 GC
2 setlinecap
1 LJ
0.5 LW
N
246.6 231 M
246.6 235.34 L
S
GR
GS
0.149 GC
2 setlinecap
1 LJ
0.5 LW
N
290 231 M
290 235.34 L
S
GR
GS
0.149 GC
2 setlinecap
1 LJ
0.5 LW
N
333.4 231 M
333.4 235.34 L
S
GR
GS
0.149 GC
2 setlinecap
1 LJ
0.5 LW
N
376.8 231 M
376.8 235.34 L
S
GR
GS
0.149 GC
2 setlinecap
1 LJ
0.5 LW
N
420.2 231 M
420.2 235.34 L
S
GR
GS
0.149 GC
2 setlinecap
1 LJ
0.5 LW
N
463.6 231 M
463.6 235.34 L
S
GR
GS
0.149 GC
2 setlinecap
1 LJ
0.5 LW
N
507 231 M
507 235.34 L
S
GR
GS
[1 0 0 1 73 378] CT
0.149 GC
/Helvetica 10 F
GS
[1 0 0 1 0 0] CT
-10.5 10 moveto 
1 -1 scale
(-100) t 
GR
GR
GS
[1 0 0 1 116.4 378] CT
0.149 GC
/Helvetica 10 F
GS
[1 0 0 1 0 0] CT
-8 10 moveto 
1 -1 scale
(-90) t 
GR
GR
GS
[1 0 0 1 159.8 378] CT
0.149 GC
/Helvetica 10 F
GS
[1 0 0 1 0 0] CT
-8 10 moveto 
1 -1 scale
(-80) t 
GR
GR
GS
[1 0 0 1 203.2 378] CT
0.149 GC
/Helvetica 10 F
GS
[1 0 0 1 0 0] CT
-8 10 moveto 
1 -1 scale
(-70) t 
GR
GR
GS
[1 0 0 1 246.60001 378] CT
0.149 GC
/Helvetica 10 F
GS
[1 0 0 1 0 0] CT
-8 10 moveto 
1 -1 scale
(-60) t 
GR
GR
GS
[1 0 0 1 290 378] CT
0.149 GC
/Helvetica 10 F
GS
[1 0 0 1 0 0] CT
-8 10 moveto 
1 -1 scale
(-50) t 
GR
GR
GS
[1 0 0 1 333.39999 378] CT
0.149 GC
/Helvetica 10 F
GS
[1 0 0 1 0 0] CT
-8 10 moveto 
1 -1 scale
(-40) t 
GR
GR
GS
[1 0 0 1 376.79999 378] CT
0.149 GC
/Helvetica 10 F
GS
[1 0 0 1 0 0] CT
-8 10 moveto 
1 -1 scale
(-30) t 
GR
GR
GS
[1 0 0 1 420.20001 378] CT
0.149 GC
/Helvetica 10 F
GS
[1 0 0 1 0 0] CT
-8 10 moveto 
1 -1 scale
(-20) t 
GR
GR
GS
[1 0 0 1 463.60001 378] CT
0.149 GC
/Helvetica 10 F
GS
[1 0 0 1 0 0] CT
-8 10 moveto 
1 -1 scale
(-10) t 
GR
GR
GS
[1 0 0 1 507 378] CT
0.149 GC
/Helvetica 10 F
GS
[1 0 0 1 0 0] CT
-3 10 moveto 
1 -1 scale
(0) t 
GR
GR
GS
[1 0 0 1 290.00021 392] CT
0.149 GC
/Helvetica-Bold 12 F
GS
[1 0 0 1 0 0] CT
-78 12 moveto 
1 -1 scale
(Camera translation \(in mm\)) t 
GR
GR
GS
0.149 GC
2 setlinecap
1 LJ
0.5 LW
N
73 374 M
73 231 L
S
GR
GS
0.149 GC
2 setlinecap
1 LJ
0.5 LW
N
507 374 M
507 231 L
S
GR
GS
0.149 GC
2 setlinecap
1 LJ
0.5 LW
N
73 374 M
77.34 374 L
S
GR
GS
0.149 GC
2 setlinecap
1 LJ
0.5 LW
N
73 345.4 M
77.34 345.4 L
S
GR
GS
0.149 GC
2 setlinecap
1 LJ
0.5 LW
N
73 316.8 M
77.34 316.8 L
S
GR
GS
0.149 GC
2 setlinecap
1 LJ
0.5 LW
N
73 288.2 M
77.34 288.2 L
S
GR
GS
0.149 GC
2 setlinecap
1 LJ
0.5 LW
N
73 259.6 M
77.34 259.6 L
S
GR
GS
0.149 GC
2 setlinecap
1 LJ
0.5 LW
N
73 231 M
77.34 231 L
S
GR
GS
0.149 GC
2 setlinecap
1 LJ
0.5 LW
N
507 374 M
502.66 374 L
S
GR
GS
0.149 GC
2 setlinecap
1 LJ
0.5 LW
N
507 345.4 M
502.66 345.4 L
S
GR
GS
0.149 GC
2 setlinecap
1 LJ
0.5 LW
N
507 316.8 M
502.66 316.8 L
S
GR
GS
0.149 GC
2 setlinecap
1 LJ
0.5 LW
N
507 288.2 M
502.66 288.2 L
S
GR
GS
0.149 GC
2 setlinecap
1 LJ
0.5 LW
N
507 259.6 M
502.66 259.6 L
S
GR
GS
0.149 GC
2 setlinecap
1 LJ
0.5 LW
N
507 231 M
502.66 231 L
S
GR
GS
[1 0 0 1 68.99999 374] CT
0.149 GC
/Helvetica 10 F
GS
[1 0 0 1 0 0] CT
-24 3.5 moveto 
1 -1 scale
(-0.03) t 
GR
GR
GS
[1 0 0 1 68.99999 345.39999] CT
0.149 GC
/Helvetica 10 F
GS
[1 0 0 1 0 0] CT
-24 3.5 moveto 
1 -1 scale
(-0.02) t 
GR
GR
GS
[1 0 0 1 68.99999 316.79999] CT
0.149 GC
/Helvetica 10 F
GS
[1 0 0 1 0 0] CT
-24 3.5 moveto 
1 -1 scale
(-0.01) t 
GR
GR
GS
[1 0 0 1 68.99999 288.20001] CT
0.149 GC
/Helvetica 10 F
GS
[1 0 0 1 0 0] CT
-6 3.5 moveto 
1 -1 scale
(0) t 
GR
GR
GS
[1 0 0 1 68.99999 259.60001] CT
0.149 GC
/Helvetica 10 F
GS
[1 0 0 1 0 0] CT
-20 3.5 moveto 
1 -1 scale
(0.01) t 
GR
GR
GS
[1 0 0 1 68.99999 231] CT
0.149 GC
/Helvetica 10 F
GS
[1 0 0 1 0 0] CT
-20 3.5 moveto 
1 -1 scale
(0.02) t 
GR
GR
GS
[0 -1 1 0 41.99998 302.49994] CT
0.149 GC
/Helvetica-Bold 12 F
GS
[1 0 0 1 0 0] CT
-56 -3 moveto 
1 -1 scale
(Depth error \(in mm\)) t 
GR
GR
GS
[1 0 0 1 73 248.69028] CT
0 0 1 RC
N
2.667 0 M
2.667 1.473 1.473 2.667 0 2.667 C
-1.473 2.667 -2.667 1.473 -2.667 0 C
-2.667 -1.473 -1.473 -2.667 0 -2.667 C
1.473 -2.667 2.667 -1.473 2.667 0 C
cp
f
GR
GS
[1 0 0 1 77.34 265.66714] CT
0 0 1 RC
N
2.667 0 M
2.667 1.473 1.473 2.667 0 2.667 C
-1.473 2.667 -2.667 1.473 -2.667 0 C
-2.667 -1.473 -1.473 -2.667 0 -2.667 C
1.473 -2.667 2.667 -1.473 2.667 0 C
cp
f
GR
GS
[1 0 0 1 81.68 303.73126] CT
0 0 1 RC
N
2.667 0 M
2.667 1.473 1.473 2.667 0 2.667 C
-1.473 2.667 -2.667 1.473 -2.667 0 C
-2.667 -1.473 -1.473 -2.667 0 -2.667 C
1.473 -2.667 2.667 -1.473 2.667 0 C
cp
f
GR
GS
[1 0 0 1 86.02 250.34157] CT
0 0 1 RC
N
2.667 0 M
2.667 1.473 1.473 2.667 0 2.667 C
-1.473 2.667 -2.667 1.473 -2.667 0 C
-2.667 -1.473 -1.473 -2.667 0 -2.667 C
1.473 -2.667 2.667 -1.473 2.667 0 C
cp
f
GR
GS
[1 0 0 1 90.36 279.15433] CT
0 0 1 RC
N
2.667 0 M
2.667 1.473 1.473 2.667 0 2.667 C
-1.473 2.667 -2.667 1.473 -2.667 0 C
-2.667 -1.473 -1.473 -2.667 0 -2.667 C
1.473 -2.667 2.667 -1.473 2.667 0 C
cp
f
GR
GS
[1 0 0 1 94.7 238.41066] CT
0 0 1 RC
N
2.667 0 M
2.667 1.473 1.473 2.667 0 2.667 C
-1.473 2.667 -2.667 1.473 -2.667 0 C
-2.667 -1.473 -1.473 -2.667 0 -2.667 C
1.473 -2.667 2.667 -1.473 2.667 0 C
cp
f
GR
GS
[1 0 0 1 99.04 242.58287] CT
0 0 1 RC
N
2.667 0 M
2.667 1.473 1.473 2.667 0 2.667 C
-1.473 2.667 -2.667 1.473 -2.667 0 C
-2.667 -1.473 -1.473 -2.667 0 -2.667 C
1.473 -2.667 2.667 -1.473 2.667 0 C
cp
f
GR
GS
[1 0 0 1 103.38 263.55423] CT
0 0 1 RC
N
2.667 0 M
2.667 1.473 1.473 2.667 0 2.667 C
-1.473 2.667 -2.667 1.473 -2.667 0 C
-2.667 -1.473 -1.473 -2.667 0 -2.667 C
1.473 -2.667 2.667 -1.473 2.667 0 C
cp
f
GR
GS
[1 0 0 1 107.72 278.57037] CT
0 0 1 RC
N
2.667 0 M
2.667 1.473 1.473 2.667 0 2.667 C
-1.473 2.667 -2.667 1.473 -2.667 0 C
-2.667 -1.473 -1.473 -2.667 0 -2.667 C
1.473 -2.667 2.667 -1.473 2.667 0 C
cp
f
GR
GS
[1 0 0 1 112.06 285.64932] CT
0 0 1 RC
N
2.667 0 M
2.667 1.473 1.473 2.667 0 2.667 C
-1.473 2.667 -2.667 1.473 -2.667 0 C
-2.667 -1.473 -1.473 -2.667 0 -2.667 C
1.473 -2.667 2.667 -1.473 2.667 0 C
cp
f
GR
GS
[1 0 0 1 116.4 347.88788] CT
0 0 1 RC
N
2.667 0 M
2.667 1.473 1.473 2.667 0 2.667 C
-1.473 2.667 -2.667 1.473 -2.667 0 C
-2.667 -1.473 -1.473 -2.667 0 -2.667 C
1.473 -2.667 2.667 -1.473 2.667 0 C
cp
f
GR
GS
[1 0 0 1 120.74 307.78787] CT
0 0 1 RC
N
2.667 0 M
2.667 1.473 1.473 2.667 0 2.667 C
-1.473 2.667 -2.667 1.473 -2.667 0 C
-2.667 -1.473 -1.473 -2.667 0 -2.667 C
1.473 -2.667 2.667 -1.473 2.667 0 C
cp
f
GR
GS
[1 0 0 1 125.08 333.06482] CT
0 0 1 RC
N
2.667 0 M
2.667 1.473 1.473 2.667 0 2.667 C
-1.473 2.667 -2.667 1.473 -2.667 0 C
-2.667 -1.473 -1.473 -2.667 0 -2.667 C
1.473 -2.667 2.667 -1.473 2.667 0 C
cp
f
GR
GS
[1 0 0 1 129.42 267.67117] CT
0 0 1 RC
N
2.667 0 M
2.667 1.473 1.473 2.667 0 2.667 C
-1.473 2.667 -2.667 1.473 -2.667 0 C
-2.667 -1.473 -1.473 -2.667 0 -2.667 C
1.473 -2.667 2.667 -1.473 2.667 0 C
cp
f
GR
GS
[1 0 0 1 133.75999 255.69281] CT
0 0 1 RC
N
2.667 0 M
2.667 1.473 1.473 2.667 0 2.667 C
-1.473 2.667 -2.667 1.473 -2.667 0 C
-2.667 -1.473 -1.473 -2.667 0 -2.667 C
1.473 -2.667 2.667 -1.473 2.667 0 C
cp
f
GR
GS
[1 0 0 1 138.10001 312.2016] CT
0 0 1 RC
N
2.667 0 M
2.667 1.473 1.473 2.667 0 2.667 C
-1.473 2.667 -2.667 1.473 -2.667 0 C
-2.667 -1.473 -1.473 -2.667 0 -2.667 C
1.473 -2.667 2.667 -1.473 2.667 0 C
cp
f
GR
GS
[1 0 0 1 142.44 309.56821] CT
0 0 1 RC
N
2.667 0 M
2.667 1.473 1.473 2.667 0 2.667 C
-1.473 2.667 -2.667 1.473 -2.667 0 C
-2.667 -1.473 -1.473 -2.667 0 -2.667 C
1.473 -2.667 2.667 -1.473 2.667 0 C
cp
f
GR
GS
[1 0 0 1 146.78 290.10806] CT
0 0 1 RC
N
2.667 0 M
2.667 1.473 1.473 2.667 0 2.667 C
-1.473 2.667 -2.667 1.473 -2.667 0 C
-2.667 -1.473 -1.473 -2.667 0 -2.667 C
1.473 -2.667 2.667 -1.473 2.667 0 C
cp
f
GR
GS
[1 0 0 1 151.12 288.09482] CT
0 0 1 RC
N
2.667 0 M
2.667 1.473 1.473 2.667 0 2.667 C
-1.473 2.667 -2.667 1.473 -2.667 0 C
-2.667 -1.473 -1.473 -2.667 0 -2.667 C
1.473 -2.667 2.667 -1.473 2.667 0 C
cp
f
GR
GS
[1 0 0 1 155.46001 272.51227] CT
0 0 1 RC
N
2.667 0 M
2.667 1.473 1.473 2.667 0 2.667 C
-1.473 2.667 -2.667 1.473 -2.667 0 C
-2.667 -1.473 -1.473 -2.667 0 -2.667 C
1.473 -2.667 2.667 -1.473 2.667 0 C
cp
f
GR
GS
[1 0 0 1 159.8 300.87653] CT
0 0 1 RC
N
2.667 0 M
2.667 1.473 1.473 2.667 0 2.667 C
-1.473 2.667 -2.667 1.473 -2.667 0 C
-2.667 -1.473 -1.473 -2.667 0 -2.667 C
1.473 -2.667 2.667 -1.473 2.667 0 C
cp
f
GR
GS
[1 0 0 1 164.14 288.67575] CT
0 0 1 RC
N
2.667 0 M
2.667 1.473 1.473 2.667 0 2.667 C
-1.473 2.667 -2.667 1.473 -2.667 0 C
-2.667 -1.473 -1.473 -2.667 0 -2.667 C
1.473 -2.667 2.667 -1.473 2.667 0 C
cp
f
GR
GS
[1 0 0 1 168.48 286.79892] CT
0 0 1 RC
N
2.667 0 M
2.667 1.473 1.473 2.667 0 2.667 C
-1.473 2.667 -2.667 1.473 -2.667 0 C
-2.667 -1.473 -1.473 -2.667 0 -2.667 C
1.473 -2.667 2.667 -1.473 2.667 0 C
cp
f
GR
GS
[1 0 0 1 172.82001 256.39444] CT
0 0 1 RC
N
2.667 0 M
2.667 1.473 1.473 2.667 0 2.667 C
-1.473 2.667 -2.667 1.473 -2.667 0 C
-2.667 -1.473 -1.473 -2.667 0 -2.667 C
1.473 -2.667 2.667 -1.473 2.667 0 C
cp
f
GR
GS
[1 0 0 1 177.16 320.64914] CT
0 0 1 RC
N
2.667 0 M
2.667 1.473 1.473 2.667 0 2.667 C
-1.473 2.667 -2.667 1.473 -2.667 0 C
-2.667 -1.473 -1.473 -2.667 0 -2.667 C
1.473 -2.667 2.667 -1.473 2.667 0 C
cp
f
GR
GS
[1 0 0 1 181.5 309.97891] CT
0 0 1 RC
N
2.667 0 M
2.667 1.473 1.473 2.667 0 2.667 C
-1.473 2.667 -2.667 1.473 -2.667 0 C
-2.667 -1.473 -1.473 -2.667 0 -2.667 C
1.473 -2.667 2.667 -1.473 2.667 0 C
cp
f
GR
GS
[1 0 0 1 185.84 257.50528] CT
0 0 1 RC
N
2.667 0 M
2.667 1.473 1.473 2.667 0 2.667 C
-1.473 2.667 -2.667 1.473 -2.667 0 C
-2.667 -1.473 -1.473 -2.667 0 -2.667 C
1.473 -2.667 2.667 -1.473 2.667 0 C
cp
f
GR
GS
[1 0 0 1 190.17999 263.7583] CT
0 0 1 RC
N
2.667 0 M
2.667 1.473 1.473 2.667 0 2.667 C
-1.473 2.667 -2.667 1.473 -2.667 0 C
-2.667 -1.473 -1.473 -2.667 0 -2.667 C
1.473 -2.667 2.667 -1.473 2.667 0 C
cp
f
GR
GS
[1 0 0 1 194.52 299.49182] CT
0 0 1 RC
N
2.667 0 M
2.667 1.473 1.473 2.667 0 2.667 C
-1.473 2.667 -2.667 1.473 -2.667 0 C
-2.667 -1.473 -1.473 -2.667 0 -2.667 C
1.473 -2.667 2.667 -1.473 2.667 0 C
cp
f
GR
GS
[1 0 0 1 198.86 298.0054] CT
0 0 1 RC
N
2.667 0 M
2.667 1.473 1.473 2.667 0 2.667 C
-1.473 2.667 -2.667 1.473 -2.667 0 C
-2.667 -1.473 -1.473 -2.667 0 -2.667 C
1.473 -2.667 2.667 -1.473 2.667 0 C
cp
f
GR
GS
[1 0 0 1 203.2 278.63312] CT
0 0 1 RC
N
2.667 0 M
2.667 1.473 1.473 2.667 0 2.667 C
-1.473 2.667 -2.667 1.473 -2.667 0 C
-2.667 -1.473 -1.473 -2.667 0 -2.667 C
1.473 -2.667 2.667 -1.473 2.667 0 C
cp
f
GR
GS
[1 0 0 1 207.53999 319.02551] CT
0 0 1 RC
N
2.667 0 M
2.667 1.473 1.473 2.667 0 2.667 C
-1.473 2.667 -2.667 1.473 -2.667 0 C
-2.667 -1.473 -1.473 -2.667 0 -2.667 C
1.473 -2.667 2.667 -1.473 2.667 0 C
cp
f
GR
GS
[1 0 0 1 211.88 296.767] CT
0 0 1 RC
N
2.667 0 M
2.667 1.473 1.473 2.667 0 2.667 C
-1.473 2.667 -2.667 1.473 -2.667 0 C
-2.667 -1.473 -1.473 -2.667 0 -2.667 C
1.473 -2.667 2.667 -1.473 2.667 0 C
cp
f
GR
GS
[1 0 0 1 216.22 270.22385] CT
0 0 1 RC
N
2.667 0 M
2.667 1.473 1.473 2.667 0 2.667 C
-1.473 2.667 -2.667 1.473 -2.667 0 C
-2.667 -1.473 -1.473 -2.667 0 -2.667 C
1.473 -2.667 2.667 -1.473 2.667 0 C
cp
f
GR
GS
[1 0 0 1 220.56 339.56787] CT
0 0 1 RC
N
2.667 0 M
2.667 1.473 1.473 2.667 0 2.667 C
-1.473 2.667 -2.667 1.473 -2.667 0 C
-2.667 -1.473 -1.473 -2.667 0 -2.667 C
1.473 -2.667 2.667 -1.473 2.667 0 C
cp
f
GR
GS
[1 0 0 1 224.89999 298.00989] CT
0 0 1 RC
N
2.667 0 M
2.667 1.473 1.473 2.667 0 2.667 C
-1.473 2.667 -2.667 1.473 -2.667 0 C
-2.667 -1.473 -1.473 -2.667 0 -2.667 C
1.473 -2.667 2.667 -1.473 2.667 0 C
cp
f
GR
GS
[1 0 0 1 229.24001 264.14346] CT
0 0 1 RC
N
2.667 0 M
2.667 1.473 1.473 2.667 0 2.667 C
-1.473 2.667 -2.667 1.473 -2.667 0 C
-2.667 -1.473 -1.473 -2.667 0 -2.667 C
1.473 -2.667 2.667 -1.473 2.667 0 C
cp
f
GR
GS
[1 0 0 1 233.58 282.30368] CT
0 0 1 RC
N
2.667 0 M
2.667 1.473 1.473 2.667 0 2.667 C
-1.473 2.667 -2.667 1.473 -2.667 0 C
-2.667 -1.473 -1.473 -2.667 0 -2.667 C
1.473 -2.667 2.667 -1.473 2.667 0 C
cp
f
GR
GS
[1 0 0 1 237.92 301.62302] CT
0 0 1 RC
N
2.667 0 M
2.667 1.473 1.473 2.667 0 2.667 C
-1.473 2.667 -2.667 1.473 -2.667 0 C
-2.667 -1.473 -1.473 -2.667 0 -2.667 C
1.473 -2.667 2.667 -1.473 2.667 0 C
cp
f
GR
GS
[1 0 0 1 242.25999 294.01495] CT
0 0 1 RC
N
2.667 0 M
2.667 1.473 1.473 2.667 0 2.667 C
-1.473 2.667 -2.667 1.473 -2.667 0 C
-2.667 -1.473 -1.473 -2.667 0 -2.667 C
1.473 -2.667 2.667 -1.473 2.667 0 C
cp
f
GR
GS
[1 0 0 1 246.60001 299.83743] CT
0 0 1 RC
N
2.667 0 M
2.667 1.473 1.473 2.667 0 2.667 C
-1.473 2.667 -2.667 1.473 -2.667 0 C
-2.667 -1.473 -1.473 -2.667 0 -2.667 C
1.473 -2.667 2.667 -1.473 2.667 0 C
cp
f
GR
GS
[1 0 0 1 250.94 276.34021] CT
0 0 1 RC
N
2.667 0 M
2.667 1.473 1.473 2.667 0 2.667 C
-1.473 2.667 -2.667 1.473 -2.667 0 C
-2.667 -1.473 -1.473 -2.667 0 -2.667 C
1.473 -2.667 2.667 -1.473 2.667 0 C
cp
f
GR
GS
[1 0 0 1 255.28 307.14481] CT
0 0 1 RC
N
2.667 0 M
2.667 1.473 1.473 2.667 0 2.667 C
-1.473 2.667 -2.667 1.473 -2.667 0 C
-2.667 -1.473 -1.473 -2.667 0 -2.667 C
1.473 -2.667 2.667 -1.473 2.667 0 C
cp
f
GR
GS
[1 0 0 1 259.62 298.00641] CT
0 0 1 RC
N
2.667 0 M
2.667 1.473 1.473 2.667 0 2.667 C
-1.473 2.667 -2.667 1.473 -2.667 0 C
-2.667 -1.473 -1.473 -2.667 0 -2.667 C
1.473 -2.667 2.667 -1.473 2.667 0 C
cp
f
GR
GS
[1 0 0 1 263.95999 293.14532] CT
0 0 1 RC
N
2.667 0 M
2.667 1.473 1.473 2.667 0 2.667 C
-1.473 2.667 -2.667 1.473 -2.667 0 C
-2.667 -1.473 -1.473 -2.667 0 -2.667 C
1.473 -2.667 2.667 -1.473 2.667 0 C
cp
f
GR
GS
[1 0 0 1 268.29999 265.10535] CT
0 0 1 RC
N
2.667 0 M
2.667 1.473 1.473 2.667 0 2.667 C
-1.473 2.667 -2.667 1.473 -2.667 0 C
-2.667 -1.473 -1.473 -2.667 0 -2.667 C
1.473 -2.667 2.667 -1.473 2.667 0 C
cp
f
GR
GS
[1 0 0 1 272.64001 292.81595] CT
0 0 1 RC
N
2.667 0 M
2.667 1.473 1.473 2.667 0 2.667 C
-1.473 2.667 -2.667 1.473 -2.667 0 C
-2.667 -1.473 -1.473 -2.667 0 -2.667 C
1.473 -2.667 2.667 -1.473 2.667 0 C
cp
f
GR
GS
[1 0 0 1 276.98001 249.849] CT
0 0 1 RC
N
2.667 0 M
2.667 1.473 1.473 2.667 0 2.667 C
-1.473 2.667 -2.667 1.473 -2.667 0 C
-2.667 -1.473 -1.473 -2.667 0 -2.667 C
1.473 -2.667 2.667 -1.473 2.667 0 C
cp
f
GR
GS
[1 0 0 1 281.32001 293.59332] CT
0 0 1 RC
N
2.667 0 M
2.667 1.473 1.473 2.667 0 2.667 C
-1.473 2.667 -2.667 1.473 -2.667 0 C
-2.667 -1.473 -1.473 -2.667 0 -2.667 C
1.473 -2.667 2.667 -1.473 2.667 0 C
cp
f
GR
GS
[1 0 0 1 285.66 289.73254] CT
0 0 1 RC
N
2.667 0 M
2.667 1.473 1.473 2.667 0 2.667 C
-1.473 2.667 -2.667 1.473 -2.667 0 C
-2.667 -1.473 -1.473 -2.667 0 -2.667 C
1.473 -2.667 2.667 -1.473 2.667 0 C
cp
f
GR
GS
[1 0 0 1 290 288.44855] CT
0 0 1 RC
N
2.667 0 M
2.667 1.473 1.473 2.667 0 2.667 C
-1.473 2.667 -2.667 1.473 -2.667 0 C
-2.667 -1.473 -1.473 -2.667 0 -2.667 C
1.473 -2.667 2.667 -1.473 2.667 0 C
cp
f
GR
GS
[1 0 0 1 294.34 287.95966] CT
0 0 1 RC
N
2.667 0 M
2.667 1.473 1.473 2.667 0 2.667 C
-1.473 2.667 -2.667 1.473 -2.667 0 C
-2.667 -1.473 -1.473 -2.667 0 -2.667 C
1.473 -2.667 2.667 -1.473 2.667 0 C
cp
f
GR
GS
[1 0 0 1 298.67999 293.09204] CT
0 0 1 RC
N
2.667 0 M
2.667 1.473 1.473 2.667 0 2.667 C
-1.473 2.667 -2.667 1.473 -2.667 0 C
-2.667 -1.473 -1.473 -2.667 0 -2.667 C
1.473 -2.667 2.667 -1.473 2.667 0 C
cp
f
GR
GS
[1 0 0 1 303.01999 280.13953] CT
0 0 1 RC
N
2.667 0 M
2.667 1.473 1.473 2.667 0 2.667 C
-1.473 2.667 -2.667 1.473 -2.667 0 C
-2.667 -1.473 -1.473 -2.667 0 -2.667 C
1.473 -2.667 2.667 -1.473 2.667 0 C
cp
f
GR
GS
[1 0 0 1 307.35999 316.25003] CT
0 0 1 RC
N
2.667 0 M
2.667 1.473 1.473 2.667 0 2.667 C
-1.473 2.667 -2.667 1.473 -2.667 0 C
-2.667 -1.473 -1.473 -2.667 0 -2.667 C
1.473 -2.667 2.667 -1.473 2.667 0 C
cp
f
GR
GS
[1 0 0 1 311.70001 307.41815] CT
0 0 1 RC
N
2.667 0 M
2.667 1.473 1.473 2.667 0 2.667 C
-1.473 2.667 -2.667 1.473 -2.667 0 C
-2.667 -1.473 -1.473 -2.667 0 -2.667 C
1.473 -2.667 2.667 -1.473 2.667 0 C
cp
f
GR
GS
[1 0 0 1 316.04001 293.3847] CT
0 0 1 RC
N
2.667 0 M
2.667 1.473 1.473 2.667 0 2.667 C
-1.473 2.667 -2.667 1.473 -2.667 0 C
-2.667 -1.473 -1.473 -2.667 0 -2.667 C
1.473 -2.667 2.667 -1.473 2.667 0 C
cp
f
GR
GS
[1 0 0 1 320.38 296.22192] CT
0 0 1 RC
N
2.667 0 M
2.667 1.473 1.473 2.667 0 2.667 C
-1.473 2.667 -2.667 1.473 -2.667 0 C
-2.667 -1.473 -1.473 -2.667 0 -2.667 C
1.473 -2.667 2.667 -1.473 2.667 0 C
cp
f
GR
GS
[1 0 0 1 324.72 272.42438] CT
0 0 1 RC
N
2.667 0 M
2.667 1.473 1.473 2.667 0 2.667 C
-1.473 2.667 -2.667 1.473 -2.667 0 C
-2.667 -1.473 -1.473 -2.667 0 -2.667 C
1.473 -2.667 2.667 -1.473 2.667 0 C
cp
f
GR
GS
[1 0 0 1 329.06 300.13058] CT
0 0 1 RC
N
2.667 0 M
2.667 1.473 1.473 2.667 0 2.667 C
-1.473 2.667 -2.667 1.473 -2.667 0 C
-2.667 -1.473 -1.473 -2.667 0 -2.667 C
1.473 -2.667 2.667 -1.473 2.667 0 C
cp
f
GR
GS
[1 0 0 1 333.39999 322.06241] CT
0 0 1 RC
N
2.667 0 M
2.667 1.473 1.473 2.667 0 2.667 C
-1.473 2.667 -2.667 1.473 -2.667 0 C
-2.667 -1.473 -1.473 -2.667 0 -2.667 C
1.473 -2.667 2.667 -1.473 2.667 0 C
cp
f
GR
GS
[1 0 0 1 337.73999 306.60168] CT
0 0 1 RC
N
2.667 0 M
2.667 1.473 1.473 2.667 0 2.667 C
-1.473 2.667 -2.667 1.473 -2.667 0 C
-2.667 -1.473 -1.473 -2.667 0 -2.667 C
1.473 -2.667 2.667 -1.473 2.667 0 C
cp
f
GR
GS
[1 0 0 1 342.07999 286.21518] CT
0 0 1 RC
N
2.667 0 M
2.667 1.473 1.473 2.667 0 2.667 C
-1.473 2.667 -2.667 1.473 -2.667 0 C
-2.667 -1.473 -1.473 -2.667 0 -2.667 C
1.473 -2.667 2.667 -1.473 2.667 0 C
cp
f
GR
GS
[1 0 0 1 346.42001 282.65417] CT
0 0 1 RC
N
2.667 0 M
2.667 1.473 1.473 2.667 0 2.667 C
-1.473 2.667 -2.667 1.473 -2.667 0 C
-2.667 -1.473 -1.473 -2.667 0 -2.667 C
1.473 -2.667 2.667 -1.473 2.667 0 C
cp
f
GR
GS
[1 0 0 1 350.76001 290.42508] CT
0 0 1 RC
N
2.667 0 M
2.667 1.473 1.473 2.667 0 2.667 C
-1.473 2.667 -2.667 1.473 -2.667 0 C
-2.667 -1.473 -1.473 -2.667 0 -2.667 C
1.473 -2.667 2.667 -1.473 2.667 0 C
cp
f
GR
GS
[1 0 0 1 355.10001 296.18497] CT
0 0 1 RC
N
2.667 0 M
2.667 1.473 1.473 2.667 0 2.667 C
-1.473 2.667 -2.667 1.473 -2.667 0 C
-2.667 -1.473 -1.473 -2.667 0 -2.667 C
1.473 -2.667 2.667 -1.473 2.667 0 C
cp
f
GR
GS
[1 0 0 1 359.44 302.14755] CT
0 0 1 RC
N
2.667 0 M
2.667 1.473 1.473 2.667 0 2.667 C
-1.473 2.667 -2.667 1.473 -2.667 0 C
-2.667 -1.473 -1.473 -2.667 0 -2.667 C
1.473 -2.667 2.667 -1.473 2.667 0 C
cp
f
GR
GS
[1 0 0 1 363.78 291.02881] CT
0 0 1 RC
N
2.667 0 M
2.667 1.473 1.473 2.667 0 2.667 C
-1.473 2.667 -2.667 1.473 -2.667 0 C
-2.667 -1.473 -1.473 -2.667 0 -2.667 C
1.473 -2.667 2.667 -1.473 2.667 0 C
cp
f
GR
GS
[1 0 0 1 368.12 289.97449] CT
0 0 1 RC
N
2.667 0 M
2.667 1.473 1.473 2.667 0 2.667 C
-1.473 2.667 -2.667 1.473 -2.667 0 C
-2.667 -1.473 -1.473 -2.667 0 -2.667 C
1.473 -2.667 2.667 -1.473 2.667 0 C
cp
f
GR
GS
[1 0 0 1 372.45999 285.32925] CT
0 0 1 RC
N
2.667 0 M
2.667 1.473 1.473 2.667 0 2.667 C
-1.473 2.667 -2.667 1.473 -2.667 0 C
-2.667 -1.473 -1.473 -2.667 0 -2.667 C
1.473 -2.667 2.667 -1.473 2.667 0 C
cp
f
GR
GS
[1 0 0 1 376.79999 294.51758] CT
0 0 1 RC
N
2.667 0 M
2.667 1.473 1.473 2.667 0 2.667 C
-1.473 2.667 -2.667 1.473 -2.667 0 C
-2.667 -1.473 -1.473 -2.667 0 -2.667 C
1.473 -2.667 2.667 -1.473 2.667 0 C
cp
f
GR
GS
[1 0 0 1 381.14001 291.99112] CT
0 0 1 RC
N
2.667 0 M
2.667 1.473 1.473 2.667 0 2.667 C
-1.473 2.667 -2.667 1.473 -2.667 0 C
-2.667 -1.473 -1.473 -2.667 0 -2.667 C
1.473 -2.667 2.667 -1.473 2.667 0 C
cp
f
GR
GS
[1 0 0 1 385.48001 294.42792] CT
0 0 1 RC
N
2.667 0 M
2.667 1.473 1.473 2.667 0 2.667 C
-1.473 2.667 -2.667 1.473 -2.667 0 C
-2.667 -1.473 -1.473 -2.667 0 -2.667 C
1.473 -2.667 2.667 -1.473 2.667 0 C
cp
f
GR
GS
[1 0 0 1 389.82001 280.92883] CT
0 0 1 RC
N
2.667 0 M
2.667 1.473 1.473 2.667 0 2.667 C
-1.473 2.667 -2.667 1.473 -2.667 0 C
-2.667 -1.473 -1.473 -2.667 0 -2.667 C
1.473 -2.667 2.667 -1.473 2.667 0 C
cp
f
GR
GS
[1 0 0 1 394.16 295.85172] CT
0 0 1 RC
N
2.667 0 M
2.667 1.473 1.473 2.667 0 2.667 C
-1.473 2.667 -2.667 1.473 -2.667 0 C
-2.667 -1.473 -1.473 -2.667 0 -2.667 C
1.473 -2.667 2.667 -1.473 2.667 0 C
cp
f
GR
GS
[1 0 0 1 398.5 297.54208] CT
0 0 1 RC
N
2.667 0 M
2.667 1.473 1.473 2.667 0 2.667 C
-1.473 2.667 -2.667 1.473 -2.667 0 C
-2.667 -1.473 -1.473 -2.667 0 -2.667 C
1.473 -2.667 2.667 -1.473 2.667 0 C
cp
f
GR
GS
[1 0 0 1 402.84 288.45621] CT
0 0 1 RC
N
2.667 0 M
2.667 1.473 1.473 2.667 0 2.667 C
-1.473 2.667 -2.667 1.473 -2.667 0 C
-2.667 -1.473 -1.473 -2.667 0 -2.667 C
1.473 -2.667 2.667 -1.473 2.667 0 C
cp
f
GR
GS
[1 0 0 1 407.17999 278.54642] CT
0 0 1 RC
N
2.667 0 M
2.667 1.473 1.473 2.667 0 2.667 C
-1.473 2.667 -2.667 1.473 -2.667 0 C
-2.667 -1.473 -1.473 -2.667 0 -2.667 C
1.473 -2.667 2.667 -1.473 2.667 0 C
cp
f
GR
GS
[1 0 0 1 411.51999 295.82907] CT
0 0 1 RC
N
2.667 0 M
2.667 1.473 1.473 2.667 0 2.667 C
-1.473 2.667 -2.667 1.473 -2.667 0 C
-2.667 -1.473 -1.473 -2.667 0 -2.667 C
1.473 -2.667 2.667 -1.473 2.667 0 C
cp
f
GR
GS
[1 0 0 1 415.85999 285.86578] CT
0 0 1 RC
N
2.667 0 M
2.667 1.473 1.473 2.667 0 2.667 C
-1.473 2.667 -2.667 1.473 -2.667 0 C
-2.667 -1.473 -1.473 -2.667 0 -2.667 C
1.473 -2.667 2.667 -1.473 2.667 0 C
cp
f
GR
GS
[1 0 0 1 420.20001 276.46301] CT
0 0 1 RC
N
2.667 0 M
2.667 1.473 1.473 2.667 0 2.667 C
-1.473 2.667 -2.667 1.473 -2.667 0 C
-2.667 -1.473 -1.473 -2.667 0 -2.667 C
1.473 -2.667 2.667 -1.473 2.667 0 C
cp
f
GR
GS
[1 0 0 1 424.54001 292.08267] CT
0 0 1 RC
N
2.667 0 M
2.667 1.473 1.473 2.667 0 2.667 C
-1.473 2.667 -2.667 1.473 -2.667 0 C
-2.667 -1.473 -1.473 -2.667 0 -2.667 C
1.473 -2.667 2.667 -1.473 2.667 0 C
cp
f
GR
GS
[1 0 0 1 428.88 284.17401] CT
0 0 1 RC
N
2.667 0 M
2.667 1.473 1.473 2.667 0 2.667 C
-1.473 2.667 -2.667 1.473 -2.667 0 C
-2.667 -1.473 -1.473 -2.667 0 -2.667 C
1.473 -2.667 2.667 -1.473 2.667 0 C
cp
f
GR
GS
[1 0 0 1 433.22 288.84454] CT
0 0 1 RC
N
2.667 0 M
2.667 1.473 1.473 2.667 0 2.667 C
-1.473 2.667 -2.667 1.473 -2.667 0 C
-2.667 -1.473 -1.473 -2.667 0 -2.667 C
1.473 -2.667 2.667 -1.473 2.667 0 C
cp
f
GR
GS
[1 0 0 1 437.56 283.28088] CT
0 0 1 RC
N
2.667 0 M
2.667 1.473 1.473 2.667 0 2.667 C
-1.473 2.667 -2.667 1.473 -2.667 0 C
-2.667 -1.473 -1.473 -2.667 0 -2.667 C
1.473 -2.667 2.667 -1.473 2.667 0 C
cp
f
GR
GS
[1 0 0 1 441.89999 279.62161] CT
0 0 1 RC
N
2.667 0 M
2.667 1.473 1.473 2.667 0 2.667 C
-1.473 2.667 -2.667 1.473 -2.667 0 C
-2.667 -1.473 -1.473 -2.667 0 -2.667 C
1.473 -2.667 2.667 -1.473 2.667 0 C
cp
f
GR
GS
[1 0 0 1 446.23999 291.09268] CT
0 0 1 RC
N
2.667 0 M
2.667 1.473 1.473 2.667 0 2.667 C
-1.473 2.667 -2.667 1.473 -2.667 0 C
-2.667 -1.473 -1.473 -2.667 0 -2.667 C
1.473 -2.667 2.667 -1.473 2.667 0 C
cp
f
GR
GS
[1 0 0 1 450.57999 288.46591] CT
0 0 1 RC
N
2.667 0 M
2.667 1.473 1.473 2.667 0 2.667 C
-1.473 2.667 -2.667 1.473 -2.667 0 C
-2.667 -1.473 -1.473 -2.667 0 -2.667 C
1.473 -2.667 2.667 -1.473 2.667 0 C
cp
f
GR
GS
[1 0 0 1 454.92001 286.67712] CT
0 0 1 RC
N
2.667 0 M
2.667 1.473 1.473 2.667 0 2.667 C
-1.473 2.667 -2.667 1.473 -2.667 0 C
-2.667 -1.473 -1.473 -2.667 0 -2.667 C
1.473 -2.667 2.667 -1.473 2.667 0 C
cp
f
GR
GS
[1 0 0 1 459.26001 286.59256] CT
0 0 1 RC
N
2.667 0 M
2.667 1.473 1.473 2.667 0 2.667 C
-1.473 2.667 -2.667 1.473 -2.667 0 C
-2.667 -1.473 -1.473 -2.667 0 -2.667 C
1.473 -2.667 2.667 -1.473 2.667 0 C
cp
f
GR
GS
[1 0 0 1 463.60001 286.64877] CT
0 0 1 RC
N
2.667 0 M
2.667 1.473 1.473 2.667 0 2.667 C
-1.473 2.667 -2.667 1.473 -2.667 0 C
-2.667 -1.473 -1.473 -2.667 0 -2.667 C
1.473 -2.667 2.667 -1.473 2.667 0 C
cp
f
GR
GS
[1 0 0 1 467.94 282.26318] CT
0 0 1 RC
N
2.667 0 M
2.667 1.473 1.473 2.667 0 2.667 C
-1.473 2.667 -2.667 1.473 -2.667 0 C
-2.667 -1.473 -1.473 -2.667 0 -2.667 C
1.473 -2.667 2.667 -1.473 2.667 0 C
cp
f
GR
GS
[1 0 0 1 472.28 285.37] CT
0 0 1 RC
N
2.667 0 M
2.667 1.473 1.473 2.667 0 2.667 C
-1.473 2.667 -2.667 1.473 -2.667 0 C
-2.667 -1.473 -1.473 -2.667 0 -2.667 C
1.473 -2.667 2.667 -1.473 2.667 0 C
cp
f
GR
GS
[1 0 0 1 476.62 281.63089] CT
0 0 1 RC
N
2.667 0 M
2.667 1.473 1.473 2.667 0 2.667 C
-1.473 2.667 -2.667 1.473 -2.667 0 C
-2.667 -1.473 -1.473 -2.667 0 -2.667 C
1.473 -2.667 2.667 -1.473 2.667 0 C
cp
f
GR
GS
[1 0 0 1 480.95999 280.98062] CT
0 0 1 RC
N
2.667 0 M
2.667 1.473 1.473 2.667 0 2.667 C
-1.473 2.667 -2.667 1.473 -2.667 0 C
-2.667 -1.473 -1.473 -2.667 0 -2.667 C
1.473 -2.667 2.667 -1.473 2.667 0 C
cp
f
GR
GS
[1 0 0 1 485.29999 282.88943] CT
0 0 1 RC
N
2.667 0 M
2.667 1.473 1.473 2.667 0 2.667 C
-1.473 2.667 -2.667 1.473 -2.667 0 C
-2.667 -1.473 -1.473 -2.667 0 -2.667 C
1.473 -2.667 2.667 -1.473 2.667 0 C
cp
f
GR
GS
[1 0 0 1 489.64001 283.52676] CT
0 0 1 RC
N
2.667 0 M
2.667 1.473 1.473 2.667 0 2.667 C
-1.473 2.667 -2.667 1.473 -2.667 0 C
-2.667 -1.473 -1.473 -2.667 0 -2.667 C
1.473 -2.667 2.667 -1.473 2.667 0 C
cp
f
GR
GS
[1 0 0 1 493.98001 283.53882] CT
0 0 1 RC
N
2.667 0 M
2.667 1.473 1.473 2.667 0 2.667 C
-1.473 2.667 -2.667 1.473 -2.667 0 C
-2.667 -1.473 -1.473 -2.667 0 -2.667 C
1.473 -2.667 2.667 -1.473 2.667 0 C
cp
f
GR
GS
[1 0 0 1 498.32001 282.11469] CT
0 0 1 RC
N
2.667 0 M
2.667 1.473 1.473 2.667 0 2.667 C
-1.473 2.667 -2.667 1.473 -2.667 0 C
-2.667 -1.473 -1.473 -2.667 0 -2.667 C
1.473 -2.667 2.667 -1.473 2.667 0 C
cp
f
GR
GS
[1 0 0 1 502.66 281.27084] CT
0 0 1 RC
N
2.667 0 M
2.667 1.473 1.473 2.667 0 2.667 C
-1.473 2.667 -2.667 1.473 -2.667 0 C
-2.667 -1.473 -1.473 -2.667 0 -2.667 C
1.473 -2.667 2.667 -1.473 2.667 0 C
cp
f
GR
GS
[1 0 0 1 507 281.18042] CT
0 0 1 RC
N
2.667 0 M
2.667 1.473 1.473 2.667 0 2.667 C
-1.473 2.667 -2.667 1.473 -2.667 0 C
-2.667 -1.473 -1.473 -2.667 0 -2.667 C
1.473 -2.667 2.667 -1.473 2.667 0 C
cp
f
GR
GS
1 0 0 RC
1 LJ
N
73 288.2 M
73.434 288.2 L
73.868 288.2 L
74.302 288.2 L
74.736 288.2 L
75.17 288.2 L
75.604 288.2 L
76.038 288.2 L
76.472 288.2 L
76.906 288.2 L
77.34 288.2 L
77.774 288.2 L
78.208 288.2 L
78.642 288.2 L
79.076 288.2 L
79.51 288.2 L
79.944 288.2 L
80.378 288.2 L
80.812 288.2 L
81.246 288.2 L
81.68 288.2 L
82.114 288.2 L
82.548 288.2 L
82.982 288.2 L
83.416 288.2 L
83.85 288.2 L
84.284 288.2 L
84.718 288.2 L
85.152 288.2 L
85.586 288.2 L
86.02 288.2 L
86.454 288.2 L
86.888 288.2 L
87.322 288.2 L
87.756 288.2 L
88.19 288.2 L
88.624 288.2 L
89.058 288.2 L
89.492 288.2 L
89.926 288.2 L
90.36 288.2 L
90.794 288.2 L
91.228 288.2 L
91.662 288.2 L
92.096 288.2 L
92.53 288.2 L
92.964 288.2 L
93.398 288.2 L
93.832 288.2 L
94.266 288.2 L
94.7 288.2 L
95.134 288.2 L
95.568 288.2 L
96.002 288.2 L
96.436 288.2 L
96.87 288.2 L
97.304 288.2 L
97.738 288.2 L
98.172 288.2 L
98.606 288.2 L
99.04 288.2 L
99.474 288.2 L
99.908 288.2 L
100.342 288.2 L
100.776 288.2 L
101.21 288.2 L
101.644 288.2 L
102.078 288.2 L
102.512 288.2 L
102.946 288.2 L
103.38 288.2 L
103.814 288.2 L
104.248 288.2 L
104.682 288.2 L
105.116 288.2 L
105.55 288.2 L
105.984 288.2 L
106.418 288.2 L
106.852 288.2 L
107.286 288.2 L
107.72 288.2 L
108.154 288.2 L
108.588 288.2 L
109.022 288.2 L
109.456 288.2 L
109.89 288.2 L
110.324 288.2 L
110.758 288.2 L
111.192 288.2 L
111.626 288.2 L
112.06 288.2 L
112.494 288.2 L
112.928 288.2 L
113.362 288.2 L
113.796 288.2 L
114.23 288.2 L
114.664 288.2 L
115.098 288.2 L
115.532 288.2 L
115.966 288.2 L
116.4 288.2 L
116.834 288.2 L
117.268 288.2 L
117.702 288.2 L
118.136 288.2 L
118.57 288.2 L
119.004 288.2 L
119.438 288.2 L
119.872 288.2 L
120.306 288.2 L
120.74 288.2 L
121.174 288.2 L
121.608 288.2 L
122.042 288.2 L
122.476 288.2 L
122.91 288.2 L
123.344 288.2 L
123.778 288.2 L
124.212 288.2 L
124.646 288.2 L
125.08 288.2 L
125.514 288.2 L
125.948 288.2 L
126.382 288.2 L
126.816 288.2 L
127.25 288.2 L
127.684 288.2 L
128.118 288.2 L
128.552 288.2 L
128.986 288.2 L
129.42 288.2 L
129.854 288.2 L
130.288 288.2 L
130.722 288.2 L
131.156 288.2 L
131.59 288.2 L
132.024 288.2 L
132.458 288.2 L
132.892 288.2 L
133.326 288.2 L
133.76 288.2 L
134.194 288.2 L
134.628 288.2 L
135.062 288.2 L
135.496 288.2 L
135.93 288.2 L
136.364 288.2 L
136.798 288.2 L
137.232 288.2 L
137.666 288.2 L
138.1 288.2 L
138.534 288.2 L
138.968 288.2 L
139.402 288.2 L
139.836 288.2 L
140.27 288.2 L
140.704 288.2 L
141.138 288.2 L
141.572 288.2 L
142.006 288.2 L
142.44 288.2 L
142.874 288.2 L
143.308 288.2 L
143.742 288.2 L
144.176 288.2 L
144.61 288.2 L
145.044 288.2 L
145.478 288.2 L
145.912 288.2 L
146.346 288.2 L
146.78 288.2 L
147.214 288.2 L
147.648 288.2 L
148.082 288.2 L
148.516 288.2 L
148.95 288.2 L
149.384 288.2 L
149.818 288.2 L
150.252 288.2 L
150.686 288.2 L
151.12 288.2 L
151.554 288.2 L
151.988 288.2 L
152.422 288.2 L
152.856 288.2 L
153.29 288.2 L
153.724 288.2 L
154.158 288.2 L
154.592 288.2 L
155.026 288.2 L
155.46 288.2 L
155.894 288.2 L
156.328 288.2 L
156.762 288.2 L
157.196 288.2 L
157.63 288.2 L
158.064 288.2 L
158.498 288.2 L
158.932 288.2 L
159.366 288.2 L
159.8 288.2 L
160.234 288.2 L
160.668 288.2 L
161.102 288.2 L
161.536 288.2 L
161.97 288.2 L
162.404 288.2 L
162.838 288.2 L
163.272 288.2 L
163.706 288.2 L
164.14 288.2 L
164.574 288.2 L
165.008 288.2 L
165.442 288.2 L
165.876 288.2 L
166.31 288.2 L
166.744 288.2 L
167.178 288.2 L
167.612 288.2 L
168.046 288.2 L
168.48 288.2 L
168.914 288.2 L
169.348 288.2 L
169.782 288.2 L
170.216 288.2 L
170.65 288.2 L
171.084 288.2 L
171.518 288.2 L
171.952 288.2 L
172.386 288.2 L
172.82 288.2 L
173.254 288.2 L
173.688 288.2 L
174.122 288.2 L
174.556 288.2 L
174.99 288.2 L
175.424 288.2 L
175.858 288.2 L
176.292 288.2 L
176.726 288.2 L
177.16 288.2 L
177.594 288.2 L
178.028 288.2 L
178.462 288.2 L
178.896 288.2 L
179.33 288.2 L
179.764 288.2 L
180.198 288.2 L
180.632 288.2 L
181.066 288.2 L
181.5 288.2 L
181.934 288.2 L
182.368 288.2 L
182.802 288.2 L
183.236 288.2 L
183.67 288.2 L
184.104 288.2 L
184.538 288.2 L
184.972 288.2 L
185.406 288.2 L
185.84 288.2 L
186.274 288.2 L
186.708 288.2 L
187.142 288.2 L
187.576 288.2 L
188.01 288.2 L
188.444 288.2 L
188.878 288.2 L
189.312 288.2 L
189.746 288.2 L
190.18 288.2 L
190.614 288.2 L
191.048 288.2 L
191.482 288.2 L
191.916 288.2 L
192.35 288.2 L
192.784 288.2 L
193.218 288.2 L
193.652 288.2 L
194.086 288.2 L
194.52 288.2 L
194.954 288.2 L
195.388 288.2 L
195.822 288.2 L
196.256 288.2 L
196.69 288.2 L
197.124 288.2 L
197.558 288.2 L
197.992 288.2 L
198.426 288.2 L
198.86 288.2 L
199.294 288.2 L
199.728 288.2 L
200.162 288.2 L
200.596 288.2 L
201.03 288.2 L
201.464 288.2 L
201.898 288.2 L
202.332 288.2 L
202.766 288.2 L
203.2 288.2 L
203.634 288.2 L
204.068 288.2 L
204.502 288.2 L
204.936 288.2 L
205.37 288.2 L
205.804 288.2 L
206.238 288.2 L
206.672 288.2 L
207.106 288.2 L
207.54 288.2 L
207.974 288.2 L
208.408 288.2 L
208.842 288.2 L
209.276 288.2 L
209.71 288.2 L
210.144 288.2 L
210.578 288.2 L
211.012 288.2 L
211.446 288.2 L
211.88 288.2 L
212.314 288.2 L
212.748 288.2 L
213.182 288.2 L
213.616 288.2 L
214.05 288.2 L
214.484 288.2 L
214.918 288.2 L
215.352 288.2 L
215.786 288.2 L
216.22 288.2 L
216.654 288.2 L
217.088 288.2 L
217.522 288.2 L
217.956 288.2 L
218.39 288.2 L
218.824 288.2 L
219.258 288.2 L
219.692 288.2 L
220.126 288.2 L
220.56 288.2 L
220.994 288.2 L
221.428 288.2 L
221.862 288.2 L
222.296 288.2 L
222.73 288.2 L
223.164 288.2 L
223.598 288.2 L
224.032 288.2 L
224.466 288.2 L
224.9 288.2 L
225.334 288.2 L
225.768 288.2 L
226.202 288.2 L
226.636 288.2 L
227.07 288.2 L
227.504 288.2 L
227.938 288.2 L
228.372 288.2 L
228.806 288.2 L
229.24 288.2 L
229.674 288.2 L
230.108 288.2 L
230.542 288.2 L
230.976 288.2 L
231.41 288.2 L
231.844 288.2 L
232.278 288.2 L
232.712 288.2 L
233.146 288.2 L
233.58 288.2 L
234.014 288.2 L
234.448 288.2 L
234.882 288.2 L
235.316 288.2 L
235.75 288.2 L
236.184 288.2 L
236.618 288.2 L
237.052 288.2 L
237.486 288.2 L
237.92 288.2 L
238.354 288.2 L
238.788 288.2 L
239.222 288.2 L
239.656 288.2 L
240.09 288.2 L
240.524 288.2 L
240.958 288.2 L
241.392 288.2 L
241.826 288.2 L
242.26 288.2 L
242.694 288.2 L
243.128 288.2 L
243.562 288.2 L
243.996 288.2 L
244.43 288.2 L
244.864 288.2 L
245.298 288.2 L
245.732 288.2 L
246.166 288.2 L
246.6 288.2 L
247.034 288.2 L
247.468 288.2 L
247.902 288.2 L
248.336 288.2 L
248.77 288.2 L
249.204 288.2 L
249.638 288.2 L
250.072 288.2 L
250.506 288.2 L
250.94 288.2 L
251.374 288.2 L
251.808 288.2 L
252.242 288.2 L
252.676 288.2 L
253.11 288.2 L
253.544 288.2 L
253.978 288.2 L
254.412 288.2 L
254.846 288.2 L
255.28 288.2 L
255.714 288.2 L
256.148 288.2 L
256.582 288.2 L
257.016 288.2 L
257.45 288.2 L
257.884 288.2 L
258.318 288.2 L
258.752 288.2 L
259.186 288.2 L
259.62 288.2 L
260.054 288.2 L
260.488 288.2 L
260.922 288.2 L
261.356 288.2 L
261.79 288.2 L
262.224 288.2 L
262.658 288.2 L
263.092 288.2 L
263.526 288.2 L
263.96 288.2 L
264.394 288.2 L
264.828 288.2 L
265.262 288.2 L
265.696 288.2 L
266.13 288.2 L
266.564 288.2 L
266.998 288.2 L
267.432 288.2 L
267.866 288.2 L
268.3 288.2 L
268.734 288.2 L
269.168 288.2 L
269.602 288.2 L
270.036 288.2 L
270.47 288.2 L
270.904 288.2 L
271.338 288.2 L
271.772 288.2 L
272.206 288.2 L
272.64 288.2 L
273.074 288.2 L
273.508 288.2 L
273.942 288.2 L
274.376 288.2 L
274.81 288.2 L
275.244 288.2 L
275.678 288.2 L
276.112 288.2 L
276.546 288.2 L
276.98 288.2 L
277.414 288.2 L
277.848 288.2 L
278.282 288.2 L
278.716 288.2 L
279.15 288.2 L
279.584 288.2 L
280.018 288.2 L
280.452 288.2 L
280.886 288.2 L
281.32 288.2 L
281.754 288.2 L
282.188 288.2 L
282.622 288.2 L
283.056 288.2 L
283.49 288.2 L
283.924 288.2 L
284.358 288.2 L
284.792 288.2 L
285.226 288.2 L
285.66 288.2 L
286.094 288.2 L
286.528 288.2 L
286.962 288.2 L
287.396 288.2 L
287.83 288.2 L
288.264 288.2 L
288.698 288.2 L
289.132 288.2 L
289.566 288.2 L
290 288.2 L
290.434 288.2 L
290.868 288.2 L
291.302 288.2 L
291.736 288.2 L
292.17 288.2 L
292.604 288.2 L
293.038 288.2 L
293.472 288.2 L
293.906 288.2 L
294.34 288.2 L
294.774 288.2 L
295.208 288.2 L
295.642 288.2 L
296.076 288.2 L
296.51 288.2 L
296.944 288.2 L
297.378 288.2 L
297.812 288.2 L
298.246 288.2 L
298.68 288.2 L
299.114 288.2 L
299.548 288.2 L
299.982 288.2 L
300.416 288.2 L
300.85 288.2 L
301.284 288.2 L
301.718 288.2 L
302.152 288.2 L
302.586 288.2 L
303.02 288.2 L
303.454 288.2 L
303.888 288.2 L
304.322 288.2 L
304.756 288.2 L
305.19 288.2 L
305.624 288.2 L
306.058 288.2 L
306.492 288.2 L
306.926 288.2 L
307.36 288.2 L
307.794 288.2 L
308.228 288.2 L
308.662 288.2 L
309.096 288.2 L
309.53 288.2 L
309.964 288.2 L
310.398 288.2 L
310.832 288.2 L
311.266 288.2 L
311.7 288.2 L
312.134 288.2 L
312.568 288.2 L
313.002 288.2 L
313.436 288.2 L
313.87 288.2 L
314.304 288.2 L
314.738 288.2 L
315.172 288.2 L
315.606 288.2 L
316.04 288.2 L
316.474 288.2 L
316.908 288.2 L
317.342 288.2 L
317.776 288.2 L
318.21 288.2 L
318.644 288.2 L
319.078 288.2 L
319.512 288.2 L
319.946 288.2 L
320.38 288.2 L
320.814 288.2 L
321.248 288.2 L
321.682 288.2 L
322.116 288.2 L
322.55 288.2 L
322.984 288.2 L
323.418 288.2 L
323.852 288.2 L
324.286 288.2 L
324.72 288.2 L
325.154 288.2 L
325.588 288.2 L
326.022 288.2 L
326.456 288.2 L
326.89 288.2 L
327.324 288.2 L
327.758 288.2 L
328.192 288.2 L
328.626 288.2 L
329.06 288.2 L
329.494 288.2 L
329.928 288.2 L
330.362 288.2 L
330.796 288.2 L
331.23 288.2 L
331.664 288.2 L
332.098 288.2 L
332.532 288.2 L
332.966 288.2 L
333.4 288.2 L
333.834 288.2 L
334.268 288.2 L
334.702 288.2 L
335.136 288.2 L
335.57 288.2 L
336.004 288.2 L
336.438 288.2 L
336.872 288.2 L
337.306 288.2 L
337.74 288.2 L
338.174 288.2 L
338.608 288.2 L
339.042 288.2 L
339.476 288.2 L
339.91 288.2 L
340.344 288.2 L
340.778 288.2 L
341.212 288.2 L
341.646 288.2 L
342.08 288.2 L
342.514 288.2 L
342.948 288.2 L
343.382 288.2 L
343.816 288.2 L
344.25 288.2 L
344.684 288.2 L
345.118 288.2 L
345.552 288.2 L
345.986 288.2 L
346.42 288.2 L
346.854 288.2 L
347.288 288.2 L
347.722 288.2 L
348.156 288.2 L
348.59 288.2 L
349.024 288.2 L
349.458 288.2 L
349.892 288.2 L
350.326 288.2 L
350.76 288.2 L
351.194 288.2 L
351.628 288.2 L
352.062 288.2 L
352.496 288.2 L
352.93 288.2 L
353.364 288.2 L
353.798 288.2 L
354.232 288.2 L
354.666 288.2 L
355.1 288.2 L
355.534 288.2 L
355.968 288.2 L
356.402 288.2 L
356.836 288.2 L
357.27 288.2 L
357.704 288.2 L
358.138 288.2 L
358.572 288.2 L
359.006 288.2 L
359.44 288.2 L
359.874 288.2 L
360.308 288.2 L
360.742 288.2 L
361.176 288.2 L
361.61 288.2 L
362.044 288.2 L
362.478 288.2 L
362.912 288.2 L
363.346 288.2 L
363.78 288.2 L
364.214 288.2 L
364.648 288.2 L
365.082 288.2 L
365.516 288.2 L
365.95 288.2 L
366.384 288.2 L
366.818 288.2 L
367.252 288.2 L
367.686 288.2 L
368.12 288.2 L
368.554 288.2 L
368.988 288.2 L
369.422 288.2 L
369.856 288.2 L
370.29 288.2 L
370.724 288.2 L
371.158 288.2 L
371.592 288.2 L
372.026 288.2 L
372.46 288.2 L
372.894 288.2 L
373.328 288.2 L
373.762 288.2 L
374.196 288.2 L
374.63 288.2 L
375.064 288.2 L
375.498 288.2 L
375.932 288.2 L
376.366 288.2 L
376.8 288.2 L
377.234 288.2 L
377.668 288.2 L
378.102 288.2 L
378.536 288.2 L
378.97 288.2 L
379.404 288.2 L
379.838 288.2 L
380.272 288.2 L
380.706 288.2 L
381.14 288.2 L
381.574 288.2 L
382.008 288.2 L
382.442 288.2 L
382.876 288.2 L
383.31 288.2 L
383.744 288.2 L
384.178 288.2 L
384.612 288.2 L
385.046 288.2 L
385.48 288.2 L
385.914 288.2 L
386.348 288.2 L
386.782 288.2 L
387.216 288.2 L
387.65 288.2 L
388.084 288.2 L
388.518 288.2 L
388.952 288.2 L
389.386 288.2 L
389.82 288.2 L
390.254 288.2 L
390.688 288.2 L
391.122 288.2 L
391.556 288.2 L
391.99 288.2 L
392.424 288.2 L
392.858 288.2 L
393.292 288.2 L
393.726 288.2 L
394.16 288.2 L
394.594 288.2 L
395.028 288.2 L
395.462 288.2 L
395.896 288.2 L
396.33 288.2 L
396.764 288.2 L
397.198 288.2 L
397.632 288.2 L
398.066 288.2 L
398.5 288.2 L
398.934 288.2 L
399.368 288.2 L
399.802 288.2 L
400.236 288.2 L
400.67 288.2 L
401.104 288.2 L
401.538 288.2 L
401.972 288.2 L
402.406 288.2 L
402.84 288.2 L
403.274 288.2 L
403.708 288.2 L
404.142 288.2 L
404.576 288.2 L
405.01 288.2 L
405.444 288.2 L
405.878 288.2 L
406.312 288.2 L
406.746 288.2 L
407.18 288.2 L
407.614 288.2 L
408.048 288.2 L
408.482 288.2 L
408.916 288.2 L
409.35 288.2 L
409.784 288.2 L
410.218 288.2 L
410.652 288.2 L
411.086 288.2 L
411.52 288.2 L
411.954 288.2 L
412.388 288.2 L
412.822 288.2 L
413.256 288.2 L
413.69 288.2 L
414.124 288.2 L
414.558 288.2 L
414.992 288.2 L
415.426 288.2 L
415.86 288.2 L
416.294 288.2 L
416.728 288.2 L
417.162 288.2 L
417.596 288.2 L
418.03 288.2 L
418.464 288.2 L
418.898 288.2 L
419.332 288.2 L
419.766 288.2 L
420.2 288.2 L
420.634 288.2 L
421.068 288.2 L
421.502 288.2 L
421.936 288.2 L
422.37 288.2 L
422.804 288.2 L
423.238 288.2 L
423.672 288.2 L
424.106 288.2 L
424.54 288.2 L
424.974 288.2 L
425.408 288.2 L
425.842 288.2 L
426.276 288.2 L
426.71 288.2 L
427.144 288.2 L
427.578 288.2 L
428.012 288.2 L
428.446 288.2 L
428.88 288.2 L
429.314 288.2 L
429.748 288.2 L
430.182 288.2 L
430.616 288.2 L
431.05 288.2 L
431.484 288.2 L
431.918 288.2 L
432.352 288.2 L
432.786 288.2 L
433.22 288.2 L
433.654 288.2 L
434.088 288.2 L
434.522 288.2 L
434.956 288.2 L
435.39 288.2 L
435.824 288.2 L
436.258 288.2 L
436.692 288.2 L
437.126 288.2 L
437.56 288.2 L
437.994 288.2 L
438.428 288.2 L
438.862 288.2 L
439.296 288.2 L
439.73 288.2 L
440.164 288.2 L
440.598 288.2 L
441.032 288.2 L
441.466 288.2 L
441.9 288.2 L
442.334 288.2 L
442.768 288.2 L
443.202 288.2 L
443.636 288.2 L
444.07 288.2 L
444.504 288.2 L
444.938 288.2 L
445.372 288.2 L
445.806 288.2 L
446.24 288.2 L
446.674 288.2 L
447.108 288.2 L
447.542 288.2 L
447.976 288.2 L
448.41 288.2 L
448.844 288.2 L
449.278 288.2 L
449.712 288.2 L
450.146 288.2 L
450.58 288.2 L
451.014 288.2 L
451.448 288.2 L
451.882 288.2 L
452.316 288.2 L
452.75 288.2 L
453.184 288.2 L
453.618 288.2 L
454.052 288.2 L
454.486 288.2 L
454.92 288.2 L
455.354 288.2 L
455.788 288.2 L
456.222 288.2 L
456.656 288.2 L
457.09 288.2 L
457.524 288.2 L
457.958 288.2 L
458.392 288.2 L
458.826 288.2 L
459.26 288.2 L
459.694 288.2 L
460.128 288.2 L
460.562 288.2 L
460.996 288.2 L
461.43 288.2 L
461.864 288.2 L
462.298 288.2 L
462.732 288.2 L
463.166 288.2 L
463.6 288.2 L
464.034 288.2 L
464.468 288.2 L
464.902 288.2 L
465.336 288.2 L
465.77 288.2 L
466.204 288.2 L
466.638 288.2 L
467.072 288.2 L
467.506 288.2 L
467.94 288.2 L
468.374 288.2 L
468.808 288.2 L
469.242 288.2 L
469.676 288.2 L
470.11 288.2 L
470.544 288.2 L
470.978 288.2 L
471.412 288.2 L
471.846 288.2 L
472.28 288.2 L
472.714 288.2 L
473.148 288.2 L
473.582 288.2 L
474.016 288.2 L
474.45 288.2 L
474.884 288.2 L
475.318 288.2 L
475.752 288.2 L
476.186 288.2 L
476.62 288.2 L
477.054 288.2 L
477.488 288.2 L
477.922 288.2 L
478.356 288.2 L
478.79 288.2 L
479.224 288.2 L
479.658 288.2 L
480.092 288.2 L
480.526 288.2 L
480.96 288.2 L
481.394 288.2 L
481.828 288.2 L
482.262 288.2 L
482.696 288.2 L
483.13 288.2 L
483.564 288.2 L
483.998 288.2 L
484.432 288.2 L
484.866 288.2 L
485.3 288.2 L
485.734 288.2 L
486.168 288.2 L
486.602 288.2 L
487.036 288.2 L
487.47 288.2 L
487.904 288.2 L
488.338 288.2 L
488.772 288.2 L
489.206 288.2 L
489.64 288.2 L
490.074 288.2 L
490.508 288.2 L
490.942 288.2 L
491.376 288.2 L
491.81 288.2 L
492.244 288.2 L
492.678 288.2 L
493.112 288.2 L
493.546 288.2 L
493.98 288.2 L
494.414 288.2 L
494.848 288.2 L
495.282 288.2 L
495.716 288.2 L
496.15 288.2 L
496.584 288.2 L
497.018 288.2 L
497.452 288.2 L
497.886 288.2 L
498.32 288.2 L
498.754 288.2 L
499.188 288.2 L
499.622 288.2 L
500.056 288.2 L
500.49 288.2 L
500.924 288.2 L
501.358 288.2 L
501.792 288.2 L
502.226 288.2 L
502.66 288.2 L
503.094 288.2 L
503.528 288.2 L
503.962 288.2 L
504.396 288.2 L
504.83 288.2 L
505.264 288.2 L
505.698 288.2 L
506.132 288.2 L
506.566 288.2 L
507 288.2 L
S
GR
GS
1 GC
N
362 264 M
362 237 L
500 237 L
500 264 L
cp
f
GR
GS
[1 0 0 1 399 244.64151] CT
/Helvetica 9 F
GS
[1 0 0 1 0 0] CT
0 3.5 moveto 
1 -1 scale
(Linear model - residuals) t 
GR
GR
GS
[1 0 0 1 381 244.64151] CT
0 0 1 RC
N
2.667 0 M
2.667 1.473 1.473 2.667 0 2.667 C
-1.473 2.667 -2.667 1.473 -2.667 0 C
-2.667 -1.473 -1.473 -2.667 0 -2.667 C
1.473 -2.667 2.667 -1.473 2.667 0 C
cp
f
GR
GS
[1 0 0 1 399 256.35849] CT
/Helvetica 9 F
GS
[1 0 0 1 0 0] CT
0 3.5 moveto 
1 -1 scale
(Zero Line) t 
GR
GR
GS
1 0 0 RC
1 LJ
N
366 256.358 M
396 256.358 L
S
GR
GS
0.149 GC
10.0 ML
0.5 LW
N
362 264 M
362 237 L
500 237 L
500 264 L
cp
S
GR
%%Trailer
%%Pages: 1
%%EOF
