%!PS-Adobe-3.0 EPSF-3.0
%%Creator: (MATLAB, The Mathworks, Inc. Version 9.0.0.341360 \(R2016a\). Operating System: Mac OS X)
%%Title: /Users/deepak/Documents/MATLAB/matlabprojects/singleCalib_IH/source/dtzp.eps
%%CreationDate: 2016-11-26T23:09:40
%%Pages: (atend)
%%BoundingBox: 0 0 560 420
%%LanguageLevel: 3
%%EndComments
%%BeginProlog
%%BeginResource: procset (Apache XML Graphics Std ProcSet) 1.2 0
%%Version: 1.2 0
%%Copyright: (Copyright 2001-2003,2010 The Apache Software Foundation. License terms: http://www.apache.org/licenses/LICENSE-2.0)
/bd{bind def}bind def
/ld{load def}bd
/GR/grestore ld
/M/moveto ld
/LJ/setlinejoin ld
/C/curveto ld
/f/fill ld
/LW/setlinewidth ld
/GC/setgray ld
/t/show ld
/N/newpath ld
/CT/concat ld
/cp/closepath ld
/S/stroke ld
/L/lineto ld
/CC/setcmykcolor ld
/A/ashow ld
/GS/gsave ld
/RC/setrgbcolor ld
/RM/rmoveto ld
/ML/setmiterlimit ld
/re {4 2 roll M
1 index 0 rlineto
0 exch rlineto
neg 0 rlineto
cp } bd
/_ctm matrix def
/_tm matrix def
/BT { _ctm currentmatrix pop matrix _tm copy pop 0 0 moveto } bd
/ET { _ctm setmatrix } bd
/iTm { _ctm setmatrix _tm concat } bd
/Tm { _tm astore pop iTm 0 0 moveto } bd
/ux 0.0 def
/uy 0.0 def
/F {
  /Tp exch def
  /Tf exch def
  Tf findfont Tp scalefont setfont
  /cf Tf def  /cs Tp def
} bd
/ULS {currentpoint /uy exch def /ux exch def} bd
/ULE {
  /Tcx currentpoint pop def
  gsave
  newpath
  cf findfont cs scalefont dup
  /FontMatrix get 0 get /Ts exch def /FontInfo get dup
  /UnderlinePosition get Ts mul /To exch def
  /UnderlineThickness get Ts mul /Tt exch def
  ux uy To add moveto  Tcx uy To add lineto
  Tt setlinewidth stroke
  grestore
} bd
/OLE {
  /Tcx currentpoint pop def
  gsave
  newpath
  cf findfont cs scalefont dup
  /FontMatrix get 0 get /Ts exch def /FontInfo get dup
  /UnderlinePosition get Ts mul /To exch def
  /UnderlineThickness get Ts mul /Tt exch def
  ux uy To add cs add moveto Tcx uy To add cs add lineto
  Tt setlinewidth stroke
  grestore
} bd
/SOE {
  /Tcx currentpoint pop def
  gsave
  newpath
  cf findfont cs scalefont dup
  /FontMatrix get 0 get /Ts exch def /FontInfo get dup
  /UnderlinePosition get Ts mul /To exch def
  /UnderlineThickness get Ts mul /Tt exch def
  ux uy To add cs 10 mul 26 idiv add moveto Tcx uy To add cs 10 mul 26 idiv add lineto
  Tt setlinewidth stroke
  grestore
} bd
/QT {
/Y22 exch store
/X22 exch store
/Y21 exch store
/X21 exch store
currentpoint
/Y21 load 2 mul add 3 div exch
/X21 load 2 mul add 3 div exch
/X21 load 2 mul /X22 load add 3 div
/Y21 load 2 mul /Y22 load add 3 div
/X22 load /Y22 load curveto
} bd
/SSPD {
dup length /d exch dict def
{
/v exch def
/k exch def
currentpagedevice k known {
/cpdv currentpagedevice k get def
v cpdv ne {
/upd false def
/nullv v type /nulltype eq def
/nullcpdv cpdv type /nulltype eq def
nullv nullcpdv or
{
/upd true def
} {
/sametype v type cpdv type eq def
sametype {
v type /arraytype eq {
/vlen v length def
/cpdvlen cpdv length def
vlen cpdvlen eq {
0 1 vlen 1 sub {
/i exch def
/obj v i get def
/cpdobj cpdv i get def
obj cpdobj ne {
/upd true def
exit
} if
} for
} {
/upd true def
} ifelse
} {
v type /dicttype eq {
v {
/dv exch def
/dk exch def
/cpddv cpdv dk get def
dv cpddv ne {
/upd true def
exit
} if
} forall
} {
/upd true def
} ifelse
} ifelse
} if
} ifelse
upd true eq {
d k v put
} if
} if
} if
} forall
d length 0 gt {
d setpagedevice
} if
} bd
%%EndResource
%%BeginResource: procset (Apache XML Graphics EPS ProcSet) 1.0 0
%%Version: 1.0 0
%%Copyright: (Copyright 2002-2003 The Apache Software Foundation. License terms: http://www.apache.org/licenses/LICENSE-2.0)
/BeginEPSF { %def
/b4_Inc_state save def         % Save state for cleanup
/dict_count countdictstack def % Count objects on dict stack
/op_count count 1 sub def      % Count objects on operand stack
userdict begin                 % Push userdict on dict stack
/showpage { } def              % Redefine showpage, { } = null proc
0 setgray 0 setlinecap         % Prepare graphics state
1 setlinewidth 0 setlinejoin
10 setmiterlimit [ ] 0 setdash newpath
/languagelevel where           % If level not equal to 1 then
{pop languagelevel             % set strokeadjust and
1 ne                           % overprint to their defaults.
{false setstrokeadjust false setoverprint
} if
} if
} bd
/EndEPSF { %def
count op_count sub {pop} repeat            % Clean up stacks
countdictstack dict_count sub {end} repeat
b4_Inc_state restore
} bd
%%EndResource
%FOPBeginFontDict
%%IncludeResource: font Courier-Bold
%%IncludeResource: font Helvetica
%%IncludeResource: font Courier-BoldOblique
%%IncludeResource: font Courier-Oblique
%%IncludeResource: font Times-Roman
%%IncludeResource: font Helvetica-BoldOblique
%%IncludeResource: font Helvetica-Bold
%%IncludeResource: font Helvetica-Oblique
%%IncludeResource: font Times-BoldItalic
%%IncludeResource: font Courier
%%IncludeResource: font Times-Italic
%%IncludeResource: font Times-Bold
%%IncludeResource: font Symbol
%%IncludeResource: font ZapfDingbats
%FOPEndFontDict
%%BeginResource: encoding WinAnsiEncoding
/WinAnsiEncoding [
/.notdef /.notdef /.notdef /.notdef /.notdef
/.notdef /.notdef /.notdef /.notdef /.notdef
/.notdef /.notdef /.notdef /.notdef /.notdef
/.notdef /.notdef /.notdef /.notdef /.notdef
/.notdef /.notdef /.notdef /.notdef /.notdef
/.notdef /.notdef /.notdef /.notdef /.notdef
/.notdef /.notdef /space /exclam /quotedbl
/numbersign /dollar /percent /ampersand /quotesingle
/parenleft /parenright /asterisk /plus /comma
/hyphen /period /slash /zero /one
/two /three /four /five /six
/seven /eight /nine /colon /semicolon
/less /equal /greater /question /at
/A /B /C /D /E
/F /G /H /I /J
/K /L /M /N /O
/P /Q /R /S /T
/U /V /W /X /Y
/Z /bracketleft /backslash /bracketright /asciicircum
/underscore /quoteleft /a /b /c
/d /e /f /g /h
/i /j /k /l /m
/n /o /p /q /r
/s /t /u /v /w
/x /y /z /braceleft /bar
/braceright /asciitilde /bullet /Euro /bullet
/quotesinglbase /florin /quotedblbase /ellipsis /dagger
/daggerdbl /circumflex /perthousand /Scaron /guilsinglleft
/OE /bullet /Zcaron /bullet /bullet
/quoteleft /quoteright /quotedblleft /quotedblright /bullet
/endash /emdash /asciitilde /trademark /scaron
/guilsinglright /oe /bullet /zcaron /Ydieresis
/space /exclamdown /cent /sterling /currency
/yen /brokenbar /section /dieresis /copyright
/ordfeminine /guillemotleft /logicalnot /sfthyphen /registered
/macron /degree /plusminus /twosuperior /threesuperior
/acute /mu /paragraph /middot /cedilla
/onesuperior /ordmasculine /guillemotright /onequarter /onehalf
/threequarters /questiondown /Agrave /Aacute /Acircumflex
/Atilde /Adieresis /Aring /AE /Ccedilla
/Egrave /Eacute /Ecircumflex /Edieresis /Igrave
/Iacute /Icircumflex /Idieresis /Eth /Ntilde
/Ograve /Oacute /Ocircumflex /Otilde /Odieresis
/multiply /Oslash /Ugrave /Uacute /Ucircumflex
/Udieresis /Yacute /Thorn /germandbls /agrave
/aacute /acircumflex /atilde /adieresis /aring
/ae /ccedilla /egrave /eacute /ecircumflex
/edieresis /igrave /iacute /icircumflex /idieresis
/eth /ntilde /ograve /oacute /ocircumflex
/otilde /odieresis /divide /oslash /ugrave
/uacute /ucircumflex /udieresis /yacute /thorn
/ydieresis
] def
%%EndResource
%FOPBeginFontReencode
/Courier-Bold findfont
dup length dict begin
  {1 index /FID ne {def} {pop pop} ifelse} forall
  /Encoding WinAnsiEncoding def
  currentdict
end
/Courier-Bold exch definefont pop
/Helvetica findfont
dup length dict begin
  {1 index /FID ne {def} {pop pop} ifelse} forall
  /Encoding WinAnsiEncoding def
  currentdict
end
/Helvetica exch definefont pop
/Courier-BoldOblique findfont
dup length dict begin
  {1 index /FID ne {def} {pop pop} ifelse} forall
  /Encoding WinAnsiEncoding def
  currentdict
end
/Courier-BoldOblique exch definefont pop
/Courier-Oblique findfont
dup length dict begin
  {1 index /FID ne {def} {pop pop} ifelse} forall
  /Encoding WinAnsiEncoding def
  currentdict
end
/Courier-Oblique exch definefont pop
/Times-Roman findfont
dup length dict begin
  {1 index /FID ne {def} {pop pop} ifelse} forall
  /Encoding WinAnsiEncoding def
  currentdict
end
/Times-Roman exch definefont pop
/Helvetica-BoldOblique findfont
dup length dict begin
  {1 index /FID ne {def} {pop pop} ifelse} forall
  /Encoding WinAnsiEncoding def
  currentdict
end
/Helvetica-BoldOblique exch definefont pop
/Helvetica-Bold findfont
dup length dict begin
  {1 index /FID ne {def} {pop pop} ifelse} forall
  /Encoding WinAnsiEncoding def
  currentdict
end
/Helvetica-Bold exch definefont pop
/Helvetica-Oblique findfont
dup length dict begin
  {1 index /FID ne {def} {pop pop} ifelse} forall
  /Encoding WinAnsiEncoding def
  currentdict
end
/Helvetica-Oblique exch definefont pop
/Times-BoldItalic findfont
dup length dict begin
  {1 index /FID ne {def} {pop pop} ifelse} forall
  /Encoding WinAnsiEncoding def
  currentdict
end
/Times-BoldItalic exch definefont pop
/Courier findfont
dup length dict begin
  {1 index /FID ne {def} {pop pop} ifelse} forall
  /Encoding WinAnsiEncoding def
  currentdict
end
/Courier exch definefont pop
/Times-Italic findfont
dup length dict begin
  {1 index /FID ne {def} {pop pop} ifelse} forall
  /Encoding WinAnsiEncoding def
  currentdict
end
/Times-Italic exch definefont pop
/Times-Bold findfont
dup length dict begin
  {1 index /FID ne {def} {pop pop} ifelse} forall
  /Encoding WinAnsiEncoding def
  currentdict
end
/Times-Bold exch definefont pop
%FOPEndFontReencode
%%EndProlog
%%Page: 1 1
%%PageBoundingBox: 0 0 560 420
%%BeginPageSetup
[1 0 0 -1 0 420] CT
%%EndPageSetup
GS
1 GC
N
0 0 560 420 re
f
GR
GS
1 GC
N
0 0 560 420 re
f
GR
GS
1 GC
N
73 175 M
507 175 L
507 31 L
73 31 L
cp
f
GR
GS
0.873 GC
1 LJ
0.5 LW
N
73 175 M
73 31 L
S
GR
GS
0.873 GC
1 LJ
0.5 LW
N
116.4 175 M
116.4 31 L
S
GR
GS
0.873 GC
1 LJ
0.5 LW
N
159.8 175 M
159.8 31 L
S
GR
GS
0.873 GC
1 LJ
0.5 LW
N
203.2 175 M
203.2 31 L
S
GR
GS
0.873 GC
1 LJ
0.5 LW
N
246.6 175 M
246.6 31 L
S
GR
GS
0.873 GC
1 LJ
0.5 LW
N
290 175 M
290 31 L
S
GR
GS
0.873 GC
1 LJ
0.5 LW
N
333.4 175 M
333.4 31 L
S
GR
GS
0.873 GC
1 LJ
0.5 LW
N
376.8 175 M
376.8 31 L
S
GR
GS
0.873 GC
1 LJ
0.5 LW
N
420.2 175 M
420.2 31 L
S
GR
GS
0.873 GC
1 LJ
0.5 LW
N
463.6 175 M
463.6 31 L
S
GR
GS
0.873 GC
1 LJ
0.5 LW
N
507 175 M
507 31 L
S
GR
GS
0.873 GC
1 LJ
0.5 LW
N
507 175 M
73 175 L
S
GR
GS
0.873 GC
1 LJ
0.5 LW
N
507 151 M
73 151 L
S
GR
GS
0.873 GC
1 LJ
0.5 LW
N
507 127 M
73 127 L
S
GR
GS
0.873 GC
1 LJ
0.5 LW
N
507 103 M
73 103 L
S
GR
GS
0.873 GC
1 LJ
0.5 LW
N
507 79 M
73 79 L
S
GR
GS
0.873 GC
1 LJ
0.5 LW
N
507 55 M
73 55 L
S
GR
GS
0.873 GC
1 LJ
0.5 LW
N
507 31 M
73 31 L
S
GR
GS
0.149 GC
2 setlinecap
1 LJ
0.5 LW
N
73 175 M
507 175 L
S
GR
GS
0.149 GC
2 setlinecap
1 LJ
0.5 LW
N
73 31 M
507 31 L
S
GR
GS
0.149 GC
2 setlinecap
1 LJ
0.5 LW
N
73 175 M
73 170.66 L
S
GR
GS
0.149 GC
2 setlinecap
1 LJ
0.5 LW
N
116.4 175 M
116.4 170.66 L
S
GR
GS
0.149 GC
2 setlinecap
1 LJ
0.5 LW
N
159.8 175 M
159.8 170.66 L
S
GR
GS
0.149 GC
2 setlinecap
1 LJ
0.5 LW
N
203.2 175 M
203.2 170.66 L
S
GR
GS
0.149 GC
2 setlinecap
1 LJ
0.5 LW
N
246.6 175 M
246.6 170.66 L
S
GR
GS
0.149 GC
2 setlinecap
1 LJ
0.5 LW
N
290 175 M
290 170.66 L
S
GR
GS
0.149 GC
2 setlinecap
1 LJ
0.5 LW
N
333.4 175 M
333.4 170.66 L
S
GR
GS
0.149 GC
2 setlinecap
1 LJ
0.5 LW
N
376.8 175 M
376.8 170.66 L
S
GR
GS
0.149 GC
2 setlinecap
1 LJ
0.5 LW
N
420.2 175 M
420.2 170.66 L
S
GR
GS
0.149 GC
2 setlinecap
1 LJ
0.5 LW
N
463.6 175 M
463.6 170.66 L
S
GR
GS
0.149 GC
2 setlinecap
1 LJ
0.5 LW
N
507 175 M
507 170.66 L
S
GR
GS
0.149 GC
2 setlinecap
1 LJ
0.5 LW
N
73 31 M
73 35.34 L
S
GR
GS
0.149 GC
2 setlinecap
1 LJ
0.5 LW
N
116.4 31 M
116.4 35.34 L
S
GR
GS
0.149 GC
2 setlinecap
1 LJ
0.5 LW
N
159.8 31 M
159.8 35.34 L
S
GR
GS
0.149 GC
2 setlinecap
1 LJ
0.5 LW
N
203.2 31 M
203.2 35.34 L
S
GR
GS
0.149 GC
2 setlinecap
1 LJ
0.5 LW
N
246.6 31 M
246.6 35.34 L
S
GR
GS
0.149 GC
2 setlinecap
1 LJ
0.5 LW
N
290 31 M
290 35.34 L
S
GR
GS
0.149 GC
2 setlinecap
1 LJ
0.5 LW
N
333.4 31 M
333.4 35.34 L
S
GR
GS
0.149 GC
2 setlinecap
1 LJ
0.5 LW
N
376.8 31 M
376.8 35.34 L
S
GR
GS
0.149 GC
2 setlinecap
1 LJ
0.5 LW
N
420.2 31 M
420.2 35.34 L
S
GR
GS
0.149 GC
2 setlinecap
1 LJ
0.5 LW
N
463.6 31 M
463.6 35.34 L
S
GR
GS
0.149 GC
2 setlinecap
1 LJ
0.5 LW
N
507 31 M
507 35.34 L
S
GR
GS
[1 0 0 1 73 179] CT
0.149 GC
/Helvetica 10 F
GS
[1 0 0 1 0 0] CT
-3 10 moveto 
1 -1 scale
(0) t 
GR
GR
GS
[1 0 0 1 116.4 179] CT
0.149 GC
/Helvetica 10 F
GS
[1 0 0 1 0 0] CT
-6 10 moveto 
1 -1 scale
(10) t 
GR
GR
GS
[1 0 0 1 159.8 179] CT
0.149 GC
/Helvetica 10 F
GS
[1 0 0 1 0 0] CT
-6 10 moveto 
1 -1 scale
(20) t 
GR
GR
GS
[1 0 0 1 203.2 179] CT
0.149 GC
/Helvetica 10 F
GS
[1 0 0 1 0 0] CT
-6 10 moveto 
1 -1 scale
(30) t 
GR
GR
GS
[1 0 0 1 246.60001 179] CT
0.149 GC
/Helvetica 10 F
GS
[1 0 0 1 0 0] CT
-6 10 moveto 
1 -1 scale
(40) t 
GR
GR
GS
[1 0 0 1 290 179] CT
0.149 GC
/Helvetica 10 F
GS
[1 0 0 1 0 0] CT
-6 10 moveto 
1 -1 scale
(50) t 
GR
GR
GS
[1 0 0 1 333.39999 179] CT
0.149 GC
/Helvetica 10 F
GS
[1 0 0 1 0 0] CT
-6 10 moveto 
1 -1 scale
(60) t 
GR
GR
GS
[1 0 0 1 376.79999 179] CT
0.149 GC
/Helvetica 10 F
GS
[1 0 0 1 0 0] CT
-6 10 moveto 
1 -1 scale
(70) t 
GR
GR
GS
[1 0 0 1 420.20001 179] CT
0.149 GC
/Helvetica 10 F
GS
[1 0 0 1 0 0] CT
-6 10 moveto 
1 -1 scale
(80) t 
GR
GR
GS
[1 0 0 1 463.60001 179] CT
0.149 GC
/Helvetica 10 F
GS
[1 0 0 1 0 0] CT
-6 10 moveto 
1 -1 scale
(90) t 
GR
GR
GS
[1 0 0 1 507 179] CT
0.149 GC
/Helvetica 10 F
GS
[1 0 0 1 0 0] CT
-8.5 10 moveto 
1 -1 scale
(100) t 
GR
GR
GS
[1 0 0 1 290.00021 193] CT
0.149 GC
/Helvetica-Bold 12 F
GS
[1 0 0 1 0 0] CT
-78 12 moveto 
1 -1 scale
(Camera translation \(in mm\)) t 
GR
GR
GS
0.149 GC
2 setlinecap
1 LJ
0.5 LW
N
73 175 M
73 31 L
S
GR
GS
0.149 GC
2 setlinecap
1 LJ
0.5 LW
N
507 175 M
507 31 L
S
GR
GS
0.149 GC
2 setlinecap
1 LJ
0.5 LW
N
73 175 M
77.34 175 L
S
GR
GS
0.149 GC
2 setlinecap
1 LJ
0.5 LW
N
73 151 M
77.34 151 L
S
GR
GS
0.149 GC
2 setlinecap
1 LJ
0.5 LW
N
73 127 M
77.34 127 L
S
GR
GS
0.149 GC
2 setlinecap
1 LJ
0.5 LW
N
73 103 M
77.34 103 L
S
GR
GS
0.149 GC
2 setlinecap
1 LJ
0.5 LW
N
73 79 M
77.34 79 L
S
GR
GS
0.149 GC
2 setlinecap
1 LJ
0.5 LW
N
73 55 M
77.34 55 L
S
GR
GS
0.149 GC
2 setlinecap
1 LJ
0.5 LW
N
73 31 M
77.34 31 L
S
GR
GS
0.149 GC
2 setlinecap
1 LJ
0.5 LW
N
507 175 M
502.66 175 L
S
GR
GS
0.149 GC
2 setlinecap
1 LJ
0.5 LW
N
507 151 M
502.66 151 L
S
GR
GS
0.149 GC
2 setlinecap
1 LJ
0.5 LW
N
507 127 M
502.66 127 L
S
GR
GS
0.149 GC
2 setlinecap
1 LJ
0.5 LW
N
507 103 M
502.66 103 L
S
GR
GS
0.149 GC
2 setlinecap
1 LJ
0.5 LW
N
507 79 M
502.66 79 L
S
GR
GS
0.149 GC
2 setlinecap
1 LJ
0.5 LW
N
507 55 M
502.66 55 L
S
GR
GS
0.149 GC
2 setlinecap
1 LJ
0.5 LW
N
507 31 M
502.66 31 L
S
GR
GS
[1 0 0 1 69 175] CT
0.149 GC
/Helvetica 10 F
GS
[1 0 0 1 0 0] CT
-6 3.5 moveto 
1 -1 scale
(0) t 
GR
GR
GS
[1 0 0 1 69 151] CT
0.149 GC
/Helvetica 10 F
GS
[1 0 0 1 0 0] CT
-14 3.5 moveto 
1 -1 scale
(0.1) t 
GR
GR
GS
[1 0 0 1 69 127] CT
0.149 GC
/Helvetica 10 F
GS
[1 0 0 1 0 0] CT
-14 3.5 moveto 
1 -1 scale
(0.2) t 
GR
GR
GS
[1 0 0 1 69 103] CT
0.149 GC
/Helvetica 10 F
GS
[1 0 0 1 0 0] CT
-14 3.5 moveto 
1 -1 scale
(0.3) t 
GR
GR
GS
[1 0 0 1 69 79] CT
0.149 GC
/Helvetica 10 F
GS
[1 0 0 1 0 0] CT
-14 3.5 moveto 
1 -1 scale
(0.4) t 
GR
GR
GS
[1 0 0 1 69 55] CT
0.149 GC
/Helvetica 10 F
GS
[1 0 0 1 0 0] CT
-14 3.5 moveto 
1 -1 scale
(0.5) t 
GR
GR
GS
[1 0 0 1 69 30.99999] CT
0.149 GC
/Helvetica 10 F
GS
[1 0 0 1 0 0] CT
-14 3.5 moveto 
1 -1 scale
(0.6) t 
GR
GR
GS
[0 -1 1 0 52 102.99992] CT
0.149 GC
/Helvetica-Bold 12 F
GS
[1 0 0 1 0 0] CT
-56 -3 moveto 
1 -1 scale
(Depth error \(in mm\)) t 
GR
GR
GS
[1 0 0 1 73 175] CT
0 0 1 RC
N
2.667 0 M
2.667 1.473 1.473 2.667 0 2.667 C
-1.473 2.667 -2.667 1.473 -2.667 0 C
-2.667 -1.473 -1.473 -2.667 0 -2.667 C
1.473 -2.667 2.667 -1.473 2.667 0 C
cp
f
GR
GS
[1 0 0 1 77.34 173.76639] CT
0 0 1 RC
N
2.667 0 M
2.667 1.473 1.473 2.667 0 2.667 C
-1.473 2.667 -2.667 1.473 -2.667 0 C
-2.667 -1.473 -1.473 -2.667 0 -2.667 C
1.473 -2.667 2.667 -1.473 2.667 0 C
cp
f
GR
GS
[1 0 0 1 81.68 172.55042] CT
0 0 1 RC
N
2.667 0 M
2.667 1.473 1.473 2.667 0 2.667 C
-1.473 2.667 -2.667 1.473 -2.667 0 C
-2.667 -1.473 -1.473 -2.667 0 -2.667 C
1.473 -2.667 2.667 -1.473 2.667 0 C
cp
f
GR
GS
[1 0 0 1 86.02 171.24306] CT
0 0 1 RC
N
2.667 0 M
2.667 1.473 1.473 2.667 0 2.667 C
-1.473 2.667 -2.667 1.473 -2.667 0 C
-2.667 -1.473 -1.473 -2.667 0 -2.667 C
1.473 -2.667 2.667 -1.473 2.667 0 C
cp
f
GR
GS
[1 0 0 1 90.36 170.15907] CT
0 0 1 RC
N
2.667 0 M
2.667 1.473 1.473 2.667 0 2.667 C
-1.473 2.667 -2.667 1.473 -2.667 0 C
-2.667 -1.473 -1.473 -2.667 0 -2.667 C
1.473 -2.667 2.667 -1.473 2.667 0 C
cp
f
GR
GS
[1 0 0 1 94.7 168.76929] CT
0 0 1 RC
N
2.667 0 M
2.667 1.473 1.473 2.667 0 2.667 C
-1.473 2.667 -2.667 1.473 -2.667 0 C
-2.667 -1.473 -1.473 -2.667 0 -2.667 C
1.473 -2.667 2.667 -1.473 2.667 0 C
cp
f
GR
GS
[1 0 0 1 99.04 167.65506] CT
0 0 1 RC
N
2.667 0 M
2.667 1.473 1.473 2.667 0 2.667 C
-1.473 2.667 -2.667 1.473 -2.667 0 C
-2.667 -1.473 -1.473 -2.667 0 -2.667 C
1.473 -2.667 2.667 -1.473 2.667 0 C
cp
f
GR
GS
[1 0 0 1 103.38 166.53761] CT
0 0 1 RC
N
2.667 0 M
2.667 1.473 1.473 2.667 0 2.667 C
-1.473 2.667 -2.667 1.473 -2.667 0 C
-2.667 -1.473 -1.473 -2.667 0 -2.667 C
1.473 -2.667 2.667 -1.473 2.667 0 C
cp
f
GR
GS
[1 0 0 1 107.72 165.12323] CT
0 0 1 RC
N
2.667 0 M
2.667 1.473 1.473 2.667 0 2.667 C
-1.473 2.667 -2.667 1.473 -2.667 0 C
-2.667 -1.473 -1.473 -2.667 0 -2.667 C
1.473 -2.667 2.667 -1.473 2.667 0 C
cp
f
GR
GS
[1 0 0 1 112.06 164.03645] CT
0 0 1 RC
N
2.667 0 M
2.667 1.473 1.473 2.667 0 2.667 C
-1.473 2.667 -2.667 1.473 -2.667 0 C
-2.667 -1.473 -1.473 -2.667 0 -2.667 C
1.473 -2.667 2.667 -1.473 2.667 0 C
cp
f
GR
GS
[1 0 0 1 116.4 162.72153] CT
0 0 1 RC
N
2.667 0 M
2.667 1.473 1.473 2.667 0 2.667 C
-1.473 2.667 -2.667 1.473 -2.667 0 C
-2.667 -1.473 -1.473 -2.667 0 -2.667 C
1.473 -2.667 2.667 -1.473 2.667 0 C
cp
f
GR
GS
[1 0 0 1 120.74 161.13065] CT
0 0 1 RC
N
2.667 0 M
2.667 1.473 1.473 2.667 0 2.667 C
-1.473 2.667 -2.667 1.473 -2.667 0 C
-2.667 -1.473 -1.473 -2.667 0 -2.667 C
1.473 -2.667 2.667 -1.473 2.667 0 C
cp
f
GR
GS
[1 0 0 1 125.08 160.20409] CT
0 0 1 RC
N
2.667 0 M
2.667 1.473 1.473 2.667 0 2.667 C
-1.473 2.667 -2.667 1.473 -2.667 0 C
-2.667 -1.473 -1.473 -2.667 0 -2.667 C
1.473 -2.667 2.667 -1.473 2.667 0 C
cp
f
GR
GS
[1 0 0 1 129.42 159.40082] CT
0 0 1 RC
N
2.667 0 M
2.667 1.473 1.473 2.667 0 2.667 C
-1.473 2.667 -2.667 1.473 -2.667 0 C
-2.667 -1.473 -1.473 -2.667 0 -2.667 C
1.473 -2.667 2.667 -1.473 2.667 0 C
cp
f
GR
GS
[1 0 0 1 133.75999 158.1801] CT
0 0 1 RC
N
2.667 0 M
2.667 1.473 1.473 2.667 0 2.667 C
-1.473 2.667 -2.667 1.473 -2.667 0 C
-2.667 -1.473 -1.473 -2.667 0 -2.667 C
1.473 -2.667 2.667 -1.473 2.667 0 C
cp
f
GR
GS
[1 0 0 1 138.10001 156.57848] CT
0 0 1 RC
N
2.667 0 M
2.667 1.473 1.473 2.667 0 2.667 C
-1.473 2.667 -2.667 1.473 -2.667 0 C
-2.667 -1.473 -1.473 -2.667 0 -2.667 C
1.473 -2.667 2.667 -1.473 2.667 0 C
cp
f
GR
GS
[1 0 0 1 142.44 155.78348] CT
0 0 1 RC
N
2.667 0 M
2.667 1.473 1.473 2.667 0 2.667 C
-1.473 2.667 -2.667 1.473 -2.667 0 C
-2.667 -1.473 -1.473 -2.667 0 -2.667 C
1.473 -2.667 2.667 -1.473 2.667 0 C
cp
f
GR
GS
[1 0 0 1 146.78 153.65866] CT
0 0 1 RC
N
2.667 0 M
2.667 1.473 1.473 2.667 0 2.667 C
-1.473 2.667 -2.667 1.473 -2.667 0 C
-2.667 -1.473 -1.473 -2.667 0 -2.667 C
1.473 -2.667 2.667 -1.473 2.667 0 C
cp
f
GR
GS
[1 0 0 1 151.12 152.24596] CT
0 0 1 RC
N
2.667 0 M
2.667 1.473 1.473 2.667 0 2.667 C
-1.473 2.667 -2.667 1.473 -2.667 0 C
-2.667 -1.473 -1.473 -2.667 0 -2.667 C
1.473 -2.667 2.667 -1.473 2.667 0 C
cp
f
GR
GS
[1 0 0 1 155.46001 151.15195] CT
0 0 1 RC
N
2.667 0 M
2.667 1.473 1.473 2.667 0 2.667 C
-1.473 2.667 -2.667 1.473 -2.667 0 C
-2.667 -1.473 -1.473 -2.667 0 -2.667 C
1.473 -2.667 2.667 -1.473 2.667 0 C
cp
f
GR
GS
[1 0 0 1 159.8 150.30063] CT
0 0 1 RC
N
2.667 0 M
2.667 1.473 1.473 2.667 0 2.667 C
-1.473 2.667 -2.667 1.473 -2.667 0 C
-2.667 -1.473 -1.473 -2.667 0 -2.667 C
1.473 -2.667 2.667 -1.473 2.667 0 C
cp
f
GR
GS
[1 0 0 1 164.14 149.13637] CT
0 0 1 RC
N
2.667 0 M
2.667 1.473 1.473 2.667 0 2.667 C
-1.473 2.667 -2.667 1.473 -2.667 0 C
-2.667 -1.473 -1.473 -2.667 0 -2.667 C
1.473 -2.667 2.667 -1.473 2.667 0 C
cp
f
GR
GS
[1 0 0 1 168.48 149.43082] CT
0 0 1 RC
N
2.667 0 M
2.667 1.473 1.473 2.667 0 2.667 C
-1.473 2.667 -2.667 1.473 -2.667 0 C
-2.667 -1.473 -1.473 -2.667 0 -2.667 C
1.473 -2.667 2.667 -1.473 2.667 0 C
cp
f
GR
GS
[1 0 0 1 172.82001 147.40128] CT
0 0 1 RC
N
2.667 0 M
2.667 1.473 1.473 2.667 0 2.667 C
-1.473 2.667 -2.667 1.473 -2.667 0 C
-2.667 -1.473 -1.473 -2.667 0 -2.667 C
1.473 -2.667 2.667 -1.473 2.667 0 C
cp
f
GR
GS
[1 0 0 1 177.16 145.67822] CT
0 0 1 RC
N
2.667 0 M
2.667 1.473 1.473 2.667 0 2.667 C
-1.473 2.667 -2.667 1.473 -2.667 0 C
-2.667 -1.473 -1.473 -2.667 0 -2.667 C
1.473 -2.667 2.667 -1.473 2.667 0 C
cp
f
GR
GS
[1 0 0 1 181.5 143.62276] CT
0 0 1 RC
N
2.667 0 M
2.667 1.473 1.473 2.667 0 2.667 C
-1.473 2.667 -2.667 1.473 -2.667 0 C
-2.667 -1.473 -1.473 -2.667 0 -2.667 C
1.473 -2.667 2.667 -1.473 2.667 0 C
cp
f
GR
GS
[1 0 0 1 185.84 142.65877] CT
0 0 1 RC
N
2.667 0 M
2.667 1.473 1.473 2.667 0 2.667 C
-1.473 2.667 -2.667 1.473 -2.667 0 C
-2.667 -1.473 -1.473 -2.667 0 -2.667 C
1.473 -2.667 2.667 -1.473 2.667 0 C
cp
f
GR
GS
[1 0 0 1 190.17999 141.87703] CT
0 0 1 RC
N
2.667 0 M
2.667 1.473 1.473 2.667 0 2.667 C
-1.473 2.667 -2.667 1.473 -2.667 0 C
-2.667 -1.473 -1.473 -2.667 0 -2.667 C
1.473 -2.667 2.667 -1.473 2.667 0 C
cp
f
GR
GS
[1 0 0 1 194.52 139.90916] CT
0 0 1 RC
N
2.667 0 M
2.667 1.473 1.473 2.667 0 2.667 C
-1.473 2.667 -2.667 1.473 -2.667 0 C
-2.667 -1.473 -1.473 -2.667 0 -2.667 C
1.473 -2.667 2.667 -1.473 2.667 0 C
cp
f
GR
GS
[1 0 0 1 198.86 139.72249] CT
0 0 1 RC
N
2.667 0 M
2.667 1.473 1.473 2.667 0 2.667 C
-1.473 2.667 -2.667 1.473 -2.667 0 C
-2.667 -1.473 -1.473 -2.667 0 -2.667 C
1.473 -2.667 2.667 -1.473 2.667 0 C
cp
f
GR
GS
[1 0 0 1 203.2 139.08394] CT
0 0 1 RC
N
2.667 0 M
2.667 1.473 1.473 2.667 0 2.667 C
-1.473 2.667 -2.667 1.473 -2.667 0 C
-2.667 -1.473 -1.473 -2.667 0 -2.667 C
1.473 -2.667 2.667 -1.473 2.667 0 C
cp
f
GR
GS
[1 0 0 1 207.53999 136.98341] CT
0 0 1 RC
N
2.667 0 M
2.667 1.473 1.473 2.667 0 2.667 C
-1.473 2.667 -2.667 1.473 -2.667 0 C
-2.667 -1.473 -1.473 -2.667 0 -2.667 C
1.473 -2.667 2.667 -1.473 2.667 0 C
cp
f
GR
GS
[1 0 0 1 211.88 135.74876] CT
0 0 1 RC
N
2.667 0 M
2.667 1.473 1.473 2.667 0 2.667 C
-1.473 2.667 -2.667 1.473 -2.667 0 C
-2.667 -1.473 -1.473 -2.667 0 -2.667 C
1.473 -2.667 2.667 -1.473 2.667 0 C
cp
f
GR
GS
[1 0 0 1 216.22 134.40665] CT
0 0 1 RC
N
2.667 0 M
2.667 1.473 1.473 2.667 0 2.667 C
-1.473 2.667 -2.667 1.473 -2.667 0 C
-2.667 -1.473 -1.473 -2.667 0 -2.667 C
1.473 -2.667 2.667 -1.473 2.667 0 C
cp
f
GR
GS
[1 0 0 1 220.56 133.84001] CT
0 0 1 RC
N
2.667 0 M
2.667 1.473 1.473 2.667 0 2.667 C
-1.473 2.667 -2.667 1.473 -2.667 0 C
-2.667 -1.473 -1.473 -2.667 0 -2.667 C
1.473 -2.667 2.667 -1.473 2.667 0 C
cp
f
GR
GS
[1 0 0 1 224.89999 132.71025] CT
0 0 1 RC
N
2.667 0 M
2.667 1.473 1.473 2.667 0 2.667 C
-1.473 2.667 -2.667 1.473 -2.667 0 C
-2.667 -1.473 -1.473 -2.667 0 -2.667 C
1.473 -2.667 2.667 -1.473 2.667 0 C
cp
f
GR
GS
[1 0 0 1 229.24001 130.84351] CT
0 0 1 RC
N
2.667 0 M
2.667 1.473 1.473 2.667 0 2.667 C
-1.473 2.667 -2.667 1.473 -2.667 0 C
-2.667 -1.473 -1.473 -2.667 0 -2.667 C
1.473 -2.667 2.667 -1.473 2.667 0 C
cp
f
GR
GS
[1 0 0 1 233.58 129.77687] CT
0 0 1 RC
N
2.667 0 M
2.667 1.473 1.473 2.667 0 2.667 C
-1.473 2.667 -2.667 1.473 -2.667 0 C
-2.667 -1.473 -1.473 -2.667 0 -2.667 C
1.473 -2.667 2.667 -1.473 2.667 0 C
cp
f
GR
GS
[1 0 0 1 237.92 129.41615] CT
0 0 1 RC
N
2.667 0 M
2.667 1.473 1.473 2.667 0 2.667 C
-1.473 2.667 -2.667 1.473 -2.667 0 C
-2.667 -1.473 -1.473 -2.667 0 -2.667 C
1.473 -2.667 2.667 -1.473 2.667 0 C
cp
f
GR
GS
[1 0 0 1 242.25999 126.5444] CT
0 0 1 RC
N
2.667 0 M
2.667 1.473 1.473 2.667 0 2.667 C
-1.473 2.667 -2.667 1.473 -2.667 0 C
-2.667 -1.473 -1.473 -2.667 0 -2.667 C
1.473 -2.667 2.667 -1.473 2.667 0 C
cp
f
GR
GS
[1 0 0 1 246.60001 126.98106] CT
0 0 1 RC
N
2.667 0 M
2.667 1.473 1.473 2.667 0 2.667 C
-1.473 2.667 -2.667 1.473 -2.667 0 C
-2.667 -1.473 -1.473 -2.667 0 -2.667 C
1.473 -2.667 2.667 -1.473 2.667 0 C
cp
f
GR
GS
[1 0 0 1 250.94 123.87773] CT
0 0 1 RC
N
2.667 0 M
2.667 1.473 1.473 2.667 0 2.667 C
-1.473 2.667 -2.667 1.473 -2.667 0 C
-2.667 -1.473 -1.473 -2.667 0 -2.667 C
1.473 -2.667 2.667 -1.473 2.667 0 C
cp
f
GR
GS
[1 0 0 1 255.28 123.75162] CT
0 0 1 RC
N
2.667 0 M
2.667 1.473 1.473 2.667 0 2.667 C
-1.473 2.667 -2.667 1.473 -2.667 0 C
-2.667 -1.473 -1.473 -2.667 0 -2.667 C
1.473 -2.667 2.667 -1.473 2.667 0 C
cp
f
GR
GS
[1 0 0 1 259.62 122.86319] CT
0 0 1 RC
N
2.667 0 M
2.667 1.473 1.473 2.667 0 2.667 C
-1.473 2.667 -2.667 1.473 -2.667 0 C
-2.667 -1.473 -1.473 -2.667 0 -2.667 C
1.473 -2.667 2.667 -1.473 2.667 0 C
cp
f
GR
GS
[1 0 0 1 263.95999 120.98616] CT
0 0 1 RC
N
2.667 0 M
2.667 1.473 1.473 2.667 0 2.667 C
-1.473 2.667 -2.667 1.473 -2.667 0 C
-2.667 -1.473 -1.473 -2.667 0 -2.667 C
1.473 -2.667 2.667 -1.473 2.667 0 C
cp
f
GR
GS
[1 0 0 1 268.29999 118.77575] CT
0 0 1 RC
N
2.667 0 M
2.667 1.473 1.473 2.667 0 2.667 C
-1.473 2.667 -2.667 1.473 -2.667 0 C
-2.667 -1.473 -1.473 -2.667 0 -2.667 C
1.473 -2.667 2.667 -1.473 2.667 0 C
cp
f
GR
GS
[1 0 0 1 272.64001 117.44936] CT
0 0 1 RC
N
2.667 0 M
2.667 1.473 1.473 2.667 0 2.667 C
-1.473 2.667 -2.667 1.473 -2.667 0 C
-2.667 -1.473 -1.473 -2.667 0 -2.667 C
1.473 -2.667 2.667 -1.473 2.667 0 C
cp
f
GR
GS
[1 0 0 1 276.98001 118.46931] CT
0 0 1 RC
N
2.667 0 M
2.667 1.473 1.473 2.667 0 2.667 C
-1.473 2.667 -2.667 1.473 -2.667 0 C
-2.667 -1.473 -1.473 -2.667 0 -2.667 C
1.473 -2.667 2.667 -1.473 2.667 0 C
cp
f
GR
GS
[1 0 0 1 281.32001 118.60758] CT
0 0 1 RC
N
2.667 0 M
2.667 1.473 1.473 2.667 0 2.667 C
-1.473 2.667 -2.667 1.473 -2.667 0 C
-2.667 -1.473 -1.473 -2.667 0 -2.667 C
1.473 -2.667 2.667 -1.473 2.667 0 C
cp
f
GR
GS
[1 0 0 1 285.66 115.99629] CT
0 0 1 RC
N
2.667 0 M
2.667 1.473 1.473 2.667 0 2.667 C
-1.473 2.667 -2.667 1.473 -2.667 0 C
-2.667 -1.473 -1.473 -2.667 0 -2.667 C
1.473 -2.667 2.667 -1.473 2.667 0 C
cp
f
GR
GS
[1 0 0 1 290 113.56589] CT
0 0 1 RC
N
2.667 0 M
2.667 1.473 1.473 2.667 0 2.667 C
-1.473 2.667 -2.667 1.473 -2.667 0 C
-2.667 -1.473 -1.473 -2.667 0 -2.667 C
1.473 -2.667 2.667 -1.473 2.667 0 C
cp
f
GR
GS
[1 0 0 1 294.34 113.39391] CT
0 0 1 RC
N
2.667 0 M
2.667 1.473 1.473 2.667 0 2.667 C
-1.473 2.667 -2.667 1.473 -2.667 0 C
-2.667 -1.473 -1.473 -2.667 0 -2.667 C
1.473 -2.667 2.667 -1.473 2.667 0 C
cp
f
GR
GS
[1 0 0 1 298.67999 113.21291] CT
0 0 1 RC
N
2.667 0 M
2.667 1.473 1.473 2.667 0 2.667 C
-1.473 2.667 -2.667 1.473 -2.667 0 C
-2.667 -1.473 -1.473 -2.667 0 -2.667 C
1.473 -2.667 2.667 -1.473 2.667 0 C
cp
f
GR
GS
[1 0 0 1 303.01999 110.25353] CT
0 0 1 RC
N
2.667 0 M
2.667 1.473 1.473 2.667 0 2.667 C
-1.473 2.667 -2.667 1.473 -2.667 0 C
-2.667 -1.473 -1.473 -2.667 0 -2.667 C
1.473 -2.667 2.667 -1.473 2.667 0 C
cp
f
GR
GS
[1 0 0 1 307.35999 109.33326] CT
0 0 1 RC
N
2.667 0 M
2.667 1.473 1.473 2.667 0 2.667 C
-1.473 2.667 -2.667 1.473 -2.667 0 C
-2.667 -1.473 -1.473 -2.667 0 -2.667 C
1.473 -2.667 2.667 -1.473 2.667 0 C
cp
f
GR
GS
[1 0 0 1 311.70001 108.22929] CT
0 0 1 RC
N
2.667 0 M
2.667 1.473 1.473 2.667 0 2.667 C
-1.473 2.667 -2.667 1.473 -2.667 0 C
-2.667 -1.473 -1.473 -2.667 0 -2.667 C
1.473 -2.667 2.667 -1.473 2.667 0 C
cp
f
GR
GS
[1 0 0 1 316.04001 109.47577] CT
0 0 1 RC
N
2.667 0 M
2.667 1.473 1.473 2.667 0 2.667 C
-1.473 2.667 -2.667 1.473 -2.667 0 C
-2.667 -1.473 -1.473 -2.667 0 -2.667 C
1.473 -2.667 2.667 -1.473 2.667 0 C
cp
f
GR
GS
[1 0 0 1 320.38 104.95705] CT
0 0 1 RC
N
2.667 0 M
2.667 1.473 1.473 2.667 0 2.667 C
-1.473 2.667 -2.667 1.473 -2.667 0 C
-2.667 -1.473 -1.473 -2.667 0 -2.667 C
1.473 -2.667 2.667 -1.473 2.667 0 C
cp
f
GR
GS
[1 0 0 1 324.72 105.49933] CT
0 0 1 RC
N
2.667 0 M
2.667 1.473 1.473 2.667 0 2.667 C
-1.473 2.667 -2.667 1.473 -2.667 0 C
-2.667 -1.473 -1.473 -2.667 0 -2.667 C
1.473 -2.667 2.667 -1.473 2.667 0 C
cp
f
GR
GS
[1 0 0 1 329.06 103.95879] CT
0 0 1 RC
N
2.667 0 M
2.667 1.473 1.473 2.667 0 2.667 C
-1.473 2.667 -2.667 1.473 -2.667 0 C
-2.667 -1.473 -1.473 -2.667 0 -2.667 C
1.473 -2.667 2.667 -1.473 2.667 0 C
cp
f
GR
GS
[1 0 0 1 333.39999 102.84642] CT
0 0 1 RC
N
2.667 0 M
2.667 1.473 1.473 2.667 0 2.667 C
-1.473 2.667 -2.667 1.473 -2.667 0 C
-2.667 -1.473 -1.473 -2.667 0 -2.667 C
1.473 -2.667 2.667 -1.473 2.667 0 C
cp
f
GR
GS
[1 0 0 1 337.73999 101.5894] CT
0 0 1 RC
N
2.667 0 M
2.667 1.473 1.473 2.667 0 2.667 C
-1.473 2.667 -2.667 1.473 -2.667 0 C
-2.667 -1.473 -1.473 -2.667 0 -2.667 C
1.473 -2.667 2.667 -1.473 2.667 0 C
cp
f
GR
GS
[1 0 0 1 342.07999 98.49783] CT
0 0 1 RC
N
2.667 0 M
2.667 1.473 1.473 2.667 0 2.667 C
-1.473 2.667 -2.667 1.473 -2.667 0 C
-2.667 -1.473 -1.473 -2.667 0 -2.667 C
1.473 -2.667 2.667 -1.473 2.667 0 C
cp
f
GR
GS
[1 0 0 1 346.42001 98.94329] CT
0 0 1 RC
N
2.667 0 M
2.667 1.473 1.473 2.667 0 2.667 C
-1.473 2.667 -2.667 1.473 -2.667 0 C
-2.667 -1.473 -1.473 -2.667 0 -2.667 C
1.473 -2.667 2.667 -1.473 2.667 0 C
cp
f
GR
GS
[1 0 0 1 350.76001 95.35631] CT
0 0 1 RC
N
2.667 0 M
2.667 1.473 1.473 2.667 0 2.667 C
-1.473 2.667 -2.667 1.473 -2.667 0 C
-2.667 -1.473 -1.473 -2.667 0 -2.667 C
1.473 -2.667 2.667 -1.473 2.667 0 C
cp
f
GR
GS
[1 0 0 1 355.10001 94.1618] CT
0 0 1 RC
N
2.667 0 M
2.667 1.473 1.473 2.667 0 2.667 C
-1.473 2.667 -2.667 1.473 -2.667 0 C
-2.667 -1.473 -1.473 -2.667 0 -2.667 C
1.473 -2.667 2.667 -1.473 2.667 0 C
cp
f
GR
GS
[1 0 0 1 359.44 96.34948] CT
0 0 1 RC
N
2.667 0 M
2.667 1.473 1.473 2.667 0 2.667 C
-1.473 2.667 -2.667 1.473 -2.667 0 C
-2.667 -1.473 -1.473 -2.667 0 -2.667 C
1.473 -2.667 2.667 -1.473 2.667 0 C
cp
f
GR
GS
[1 0 0 1 363.78 93.76431] CT
0 0 1 RC
N
2.667 0 M
2.667 1.473 1.473 2.667 0 2.667 C
-1.473 2.667 -2.667 1.473 -2.667 0 C
-2.667 -1.473 -1.473 -2.667 0 -2.667 C
1.473 -2.667 2.667 -1.473 2.667 0 C
cp
f
GR
GS
[1 0 0 1 368.12 91.2168] CT
0 0 1 RC
N
2.667 0 M
2.667 1.473 1.473 2.667 0 2.667 C
-1.473 2.667 -2.667 1.473 -2.667 0 C
-2.667 -1.473 -1.473 -2.667 0 -2.667 C
1.473 -2.667 2.667 -1.473 2.667 0 C
cp
f
GR
GS
[1 0 0 1 372.45999 94.25371] CT
0 0 1 RC
N
2.667 0 M
2.667 1.473 1.473 2.667 0 2.667 C
-1.473 2.667 -2.667 1.473 -2.667 0 C
-2.667 -1.473 -1.473 -2.667 0 -2.667 C
1.473 -2.667 2.667 -1.473 2.667 0 C
cp
f
GR
GS
[1 0 0 1 376.79999 89.05037] CT
0 0 1 RC
N
2.667 0 M
2.667 1.473 1.473 2.667 0 2.667 C
-1.473 2.667 -2.667 1.473 -2.667 0 C
-2.667 -1.473 -1.473 -2.667 0 -2.667 C
1.473 -2.667 2.667 -1.473 2.667 0 C
cp
f
GR
GS
[1 0 0 1 381.14001 88.55508] CT
0 0 1 RC
N
2.667 0 M
2.667 1.473 1.473 2.667 0 2.667 C
-1.473 2.667 -2.667 1.473 -2.667 0 C
-2.667 -1.473 -1.473 -2.667 0 -2.667 C
1.473 -2.667 2.667 -1.473 2.667 0 C
cp
f
GR
GS
[1 0 0 1 385.48001 88.23067] CT
0 0 1 RC
N
2.667 0 M
2.667 1.473 1.473 2.667 0 2.667 C
-1.473 2.667 -2.667 1.473 -2.667 0 C
-2.667 -1.473 -1.473 -2.667 0 -2.667 C
1.473 -2.667 2.667 -1.473 2.667 0 C
cp
f
GR
GS
[1 0 0 1 389.82001 87.25121] CT
0 0 1 RC
N
2.667 0 M
2.667 1.473 1.473 2.667 0 2.667 C
-1.473 2.667 -2.667 1.473 -2.667 0 C
-2.667 -1.473 -1.473 -2.667 0 -2.667 C
1.473 -2.667 2.667 -1.473 2.667 0 C
cp
f
GR
GS
[1 0 0 1 394.16 89.52208] CT
0 0 1 RC
N
2.667 0 M
2.667 1.473 1.473 2.667 0 2.667 C
-1.473 2.667 -2.667 1.473 -2.667 0 C
-2.667 -1.473 -1.473 -2.667 0 -2.667 C
1.473 -2.667 2.667 -1.473 2.667 0 C
cp
f
GR
GS
[1 0 0 1 398.5 86.57406] CT
0 0 1 RC
N
2.667 0 M
2.667 1.473 1.473 2.667 0 2.667 C
-1.473 2.667 -2.667 1.473 -2.667 0 C
-2.667 -1.473 -1.473 -2.667 0 -2.667 C
1.473 -2.667 2.667 -1.473 2.667 0 C
cp
f
GR
GS
[1 0 0 1 402.84 86.88155] CT
0 0 1 RC
N
2.667 0 M
2.667 1.473 1.473 2.667 0 2.667 C
-1.473 2.667 -2.667 1.473 -2.667 0 C
-2.667 -1.473 -1.473 -2.667 0 -2.667 C
1.473 -2.667 2.667 -1.473 2.667 0 C
cp
f
GR
GS
[1 0 0 1 407.17999 83.3127] CT
0 0 1 RC
N
2.667 0 M
2.667 1.473 1.473 2.667 0 2.667 C
-1.473 2.667 -2.667 1.473 -2.667 0 C
-2.667 -1.473 -1.473 -2.667 0 -2.667 C
1.473 -2.667 2.667 -1.473 2.667 0 C
cp
f
GR
GS
[1 0 0 1 411.51999 80.41099] CT
0 0 1 RC
N
2.667 0 M
2.667 1.473 1.473 2.667 0 2.667 C
-1.473 2.667 -2.667 1.473 -2.667 0 C
-2.667 -1.473 -1.473 -2.667 0 -2.667 C
1.473 -2.667 2.667 -1.473 2.667 0 C
cp
f
GR
GS
[1 0 0 1 415.85999 81.56215] CT
0 0 1 RC
N
2.667 0 M
2.667 1.473 1.473 2.667 0 2.667 C
-1.473 2.667 -2.667 1.473 -2.667 0 C
-2.667 -1.473 -1.473 -2.667 0 -2.667 C
1.473 -2.667 2.667 -1.473 2.667 0 C
cp
f
GR
GS
[1 0 0 1 420.20001 78.63415] CT
0 0 1 RC
N
2.667 0 M
2.667 1.473 1.473 2.667 0 2.667 C
-1.473 2.667 -2.667 1.473 -2.667 0 C
-2.667 -1.473 -1.473 -2.667 0 -2.667 C
1.473 -2.667 2.667 -1.473 2.667 0 C
cp
f
GR
GS
[1 0 0 1 424.54001 78.95598] CT
0 0 1 RC
N
2.667 0 M
2.667 1.473 1.473 2.667 0 2.667 C
-1.473 2.667 -2.667 1.473 -2.667 0 C
-2.667 -1.473 -1.473 -2.667 0 -2.667 C
1.473 -2.667 2.667 -1.473 2.667 0 C
cp
f
GR
GS
[1 0 0 1 428.88 76.43324] CT
0 0 1 RC
N
2.667 0 M
2.667 1.473 1.473 2.667 0 2.667 C
-1.473 2.667 -2.667 1.473 -2.667 0 C
-2.667 -1.473 -1.473 -2.667 0 -2.667 C
1.473 -2.667 2.667 -1.473 2.667 0 C
cp
f
GR
GS
[1 0 0 1 433.22 75.22717] CT
0 0 1 RC
N
2.667 0 M
2.667 1.473 1.473 2.667 0 2.667 C
-1.473 2.667 -2.667 1.473 -2.667 0 C
-2.667 -1.473 -1.473 -2.667 0 -2.667 C
1.473 -2.667 2.667 -1.473 2.667 0 C
cp
f
GR
GS
[1 0 0 1 437.56 73.30491] CT
0 0 1 RC
N
2.667 0 M
2.667 1.473 1.473 2.667 0 2.667 C
-1.473 2.667 -2.667 1.473 -2.667 0 C
-2.667 -1.473 -1.473 -2.667 0 -2.667 C
1.473 -2.667 2.667 -1.473 2.667 0 C
cp
f
GR
GS
[1 0 0 1 441.89999 72.24077] CT
0 0 1 RC
N
2.667 0 M
2.667 1.473 1.473 2.667 0 2.667 C
-1.473 2.667 -2.667 1.473 -2.667 0 C
-2.667 -1.473 -1.473 -2.667 0 -2.667 C
1.473 -2.667 2.667 -1.473 2.667 0 C
cp
f
GR
GS
[1 0 0 1 446.23999 70.12019] CT
0 0 1 RC
N
2.667 0 M
2.667 1.473 1.473 2.667 0 2.667 C
-1.473 2.667 -2.667 1.473 -2.667 0 C
-2.667 -1.473 -1.473 -2.667 0 -2.667 C
1.473 -2.667 2.667 -1.473 2.667 0 C
cp
f
GR
GS
[1 0 0 1 450.57999 69.76559] CT
0 0 1 RC
N
2.667 0 M
2.667 1.473 1.473 2.667 0 2.667 C
-1.473 2.667 -2.667 1.473 -2.667 0 C
-2.667 -1.473 -1.473 -2.667 0 -2.667 C
1.473 -2.667 2.667 -1.473 2.667 0 C
cp
f
GR
GS
[1 0 0 1 454.92001 68.07632] CT
0 0 1 RC
N
2.667 0 M
2.667 1.473 1.473 2.667 0 2.667 C
-1.473 2.667 -2.667 1.473 -2.667 0 C
-2.667 -1.473 -1.473 -2.667 0 -2.667 C
1.473 -2.667 2.667 -1.473 2.667 0 C
cp
f
GR
GS
[1 0 0 1 459.26001 67.38155] CT
0 0 1 RC
N
2.667 0 M
2.667 1.473 1.473 2.667 0 2.667 C
-1.473 2.667 -2.667 1.473 -2.667 0 C
-2.667 -1.473 -1.473 -2.667 0 -2.667 C
1.473 -2.667 2.667 -1.473 2.667 0 C
cp
f
GR
GS
[1 0 0 1 463.60001 65.62032] CT
0 0 1 RC
N
2.667 0 M
2.667 1.473 1.473 2.667 0 2.667 C
-1.473 2.667 -2.667 1.473 -2.667 0 C
-2.667 -1.473 -1.473 -2.667 0 -2.667 C
1.473 -2.667 2.667 -1.473 2.667 0 C
cp
f
GR
GS
[1 0 0 1 467.94 66.10814] CT
0 0 1 RC
N
2.667 0 M
2.667 1.473 1.473 2.667 0 2.667 C
-1.473 2.667 -2.667 1.473 -2.667 0 C
-2.667 -1.473 -1.473 -2.667 0 -2.667 C
1.473 -2.667 2.667 -1.473 2.667 0 C
cp
f
GR
GS
[1 0 0 1 472.28 64.21484] CT
0 0 1 RC
N
2.667 0 M
2.667 1.473 1.473 2.667 0 2.667 C
-1.473 2.667 -2.667 1.473 -2.667 0 C
-2.667 -1.473 -1.473 -2.667 0 -2.667 C
1.473 -2.667 2.667 -1.473 2.667 0 C
cp
f
GR
GS
[1 0 0 1 476.62 63.53083] CT
0 0 1 RC
N
2.667 0 M
2.667 1.473 1.473 2.667 0 2.667 C
-1.473 2.667 -2.667 1.473 -2.667 0 C
-2.667 -1.473 -1.473 -2.667 0 -2.667 C
1.473 -2.667 2.667 -1.473 2.667 0 C
cp
f
GR
GS
[1 0 0 1 480.95999 61.48309] CT
0 0 1 RC
N
2.667 0 M
2.667 1.473 1.473 2.667 0 2.667 C
-1.473 2.667 -2.667 1.473 -2.667 0 C
-2.667 -1.473 -1.473 -2.667 0 -2.667 C
1.473 -2.667 2.667 -1.473 2.667 0 C
cp
f
GR
GS
[1 0 0 1 485.29999 61.46978] CT
0 0 1 RC
N
2.667 0 M
2.667 1.473 1.473 2.667 0 2.667 C
-1.473 2.667 -2.667 1.473 -2.667 0 C
-2.667 -1.473 -1.473 -2.667 0 -2.667 C
1.473 -2.667 2.667 -1.473 2.667 0 C
cp
f
GR
GS
[1 0 0 1 489.64001 60.91056] CT
0 0 1 RC
N
2.667 0 M
2.667 1.473 1.473 2.667 0 2.667 C
-1.473 2.667 -2.667 1.473 -2.667 0 C
-2.667 -1.473 -1.473 -2.667 0 -2.667 C
1.473 -2.667 2.667 -1.473 2.667 0 C
cp
f
GR
GS
[1 0 0 1 493.98001 57.01606] CT
0 0 1 RC
N
2.667 0 M
2.667 1.473 1.473 2.667 0 2.667 C
-1.473 2.667 -2.667 1.473 -2.667 0 C
-2.667 -1.473 -1.473 -2.667 0 -2.667 C
1.473 -2.667 2.667 -1.473 2.667 0 C
cp
f
GR
GS
[1 0 0 1 498.32001 60.36144] CT
0 0 1 RC
N
2.667 0 M
2.667 1.473 1.473 2.667 0 2.667 C
-1.473 2.667 -2.667 1.473 -2.667 0 C
-2.667 -1.473 -1.473 -2.667 0 -2.667 C
1.473 -2.667 2.667 -1.473 2.667 0 C
cp
f
GR
GS
[1 0 0 1 502.66 52.84326] CT
0 0 1 RC
N
2.667 0 M
2.667 1.473 1.473 2.667 0 2.667 C
-1.473 2.667 -2.667 1.473 -2.667 0 C
-2.667 -1.473 -1.473 -2.667 0 -2.667 C
1.473 -2.667 2.667 -1.473 2.667 0 C
cp
f
GR
GS
[1 0 0 1 507 59.32306] CT
0 0 1 RC
N
2.667 0 M
2.667 1.473 1.473 2.667 0 2.667 C
-1.473 2.667 -2.667 1.473 -2.667 0 C
-2.667 -1.473 -1.473 -2.667 0 -2.667 C
1.473 -2.667 2.667 -1.473 2.667 0 C
cp
f
GR
GS
1 0 0 RC
1 LJ
N
73 174.574 M
73.434 174.454 L
73.868 174.334 L
74.302 174.214 L
74.736 174.093 L
75.17 173.973 L
75.604 173.853 L
76.038 173.733 L
76.472 173.612 L
76.906 173.492 L
77.34 173.372 L
77.774 173.252 L
78.208 173.131 L
78.642 173.011 L
79.076 172.891 L
79.51 172.771 L
79.944 172.65 L
80.378 172.53 L
80.812 172.41 L
81.246 172.29 L
81.68 172.169 L
82.114 172.049 L
82.548 171.929 L
82.982 171.809 L
83.416 171.688 L
83.85 171.568 L
84.284 171.448 L
84.718 171.328 L
85.152 171.207 L
85.586 171.087 L
86.02 170.967 L
86.454 170.847 L
86.888 170.726 L
87.322 170.606 L
87.756 170.486 L
88.19 170.366 L
88.624 170.245 L
89.058 170.125 L
89.492 170.005 L
89.926 169.885 L
90.36 169.764 L
90.794 169.644 L
91.228 169.524 L
91.662 169.404 L
92.096 169.283 L
92.53 169.163 L
92.964 169.043 L
93.398 168.923 L
93.832 168.802 L
94.266 168.682 L
94.7 168.562 L
95.134 168.442 L
95.568 168.321 L
96.002 168.201 L
96.436 168.081 L
96.87 167.961 L
97.304 167.84 L
97.738 167.72 L
98.172 167.6 L
98.606 167.48 L
99.04 167.359 L
99.474 167.239 L
99.908 167.119 L
100.342 166.999 L
100.776 166.878 L
101.21 166.758 L
101.644 166.638 L
102.078 166.518 L
102.512 166.397 L
102.946 166.277 L
103.38 166.157 L
103.814 166.037 L
104.248 165.916 L
104.682 165.796 L
105.116 165.676 L
105.55 165.556 L
105.984 165.435 L
106.418 165.315 L
106.852 165.195 L
107.286 165.075 L
107.72 164.954 L
108.154 164.834 L
108.588 164.714 L
109.022 164.594 L
109.456 164.473 L
109.89 164.353 L
110.324 164.233 L
110.758 164.113 L
111.192 163.992 L
111.626 163.872 L
112.06 163.752 L
112.494 163.632 L
112.928 163.511 L
113.362 163.391 L
113.796 163.271 L
114.23 163.151 L
114.664 163.03 L
115.098 162.91 L
115.532 162.79 L
115.966 162.67 L
116.4 162.549 L
116.834 162.429 L
117.268 162.309 L
117.702 162.189 L
118.136 162.068 L
118.57 161.948 L
119.004 161.828 L
119.438 161.708 L
119.872 161.587 L
120.306 161.467 L
120.74 161.347 L
121.174 161.227 L
121.608 161.106 L
122.042 160.986 L
122.476 160.866 L
122.91 160.746 L
123.344 160.625 L
123.778 160.505 L
124.212 160.385 L
124.646 160.265 L
125.08 160.144 L
125.514 160.024 L
125.948 159.904 L
126.382 159.784 L
126.816 159.663 L
127.25 159.543 L
127.684 159.423 L
128.118 159.303 L
128.552 159.182 L
128.986 159.062 L
129.42 158.942 L
129.854 158.822 L
130.288 158.701 L
130.722 158.581 L
131.156 158.461 L
131.59 158.341 L
132.024 158.22 L
132.458 158.1 L
132.892 157.98 L
133.326 157.86 L
133.76 157.74 L
134.194 157.619 L
134.628 157.499 L
135.062 157.379 L
135.496 157.258 L
135.93 157.138 L
136.364 157.018 L
136.798 156.898 L
137.232 156.777 L
137.666 156.657 L
138.1 156.537 L
138.534 156.417 L
138.968 156.297 L
139.402 156.176 L
139.836 156.056 L
140.27 155.936 L
140.704 155.816 L
141.138 155.695 L
141.572 155.575 L
142.006 155.455 L
142.44 155.335 L
142.874 155.214 L
143.308 155.094 L
143.742 154.974 L
144.176 154.854 L
144.61 154.733 L
145.044 154.613 L
145.478 154.493 L
145.912 154.373 L
146.346 154.252 L
146.78 154.132 L
147.214 154.012 L
147.648 153.892 L
148.082 153.771 L
148.516 153.651 L
148.95 153.531 L
149.384 153.411 L
149.818 153.29 L
150.252 153.17 L
150.686 153.05 L
151.12 152.93 L
151.554 152.809 L
151.988 152.689 L
152.422 152.569 L
152.856 152.449 L
153.29 152.328 L
153.724 152.208 L
154.158 152.088 L
154.592 151.968 L
155.026 151.847 L
155.46 151.727 L
155.894 151.607 L
156.328 151.487 L
156.762 151.366 L
157.196 151.246 L
157.63 151.126 L
158.064 151.006 L
158.498 150.885 L
158.932 150.765 L
159.366 150.645 L
159.8 150.525 L
160.234 150.404 L
160.668 150.284 L
161.102 150.164 L
161.536 150.044 L
161.97 149.923 L
162.404 149.803 L
162.838 149.683 L
163.272 149.563 L
163.706 149.442 L
164.14 149.322 L
164.574 149.202 L
165.008 149.082 L
165.442 148.961 L
165.876 148.841 L
166.31 148.721 L
166.744 148.601 L
167.178 148.48 L
167.612 148.36 L
168.046 148.24 L
168.48 148.12 L
168.914 147.999 L
169.348 147.879 L
169.782 147.759 L
170.216 147.639 L
170.65 147.518 L
171.084 147.398 L
171.518 147.278 L
171.952 147.158 L
172.386 147.037 L
172.82 146.917 L
173.254 146.797 L
173.688 146.677 L
174.122 146.556 L
174.556 146.436 L
174.99 146.316 L
175.424 146.196 L
175.858 146.075 L
176.292 145.955 L
176.726 145.835 L
177.16 145.715 L
177.594 145.594 L
178.028 145.474 L
178.462 145.354 L
178.896 145.234 L
179.33 145.113 L
179.764 144.993 L
180.198 144.873 L
180.632 144.753 L
181.066 144.632 L
181.5 144.512 L
181.934 144.392 L
182.368 144.272 L
182.802 144.151 L
183.236 144.031 L
183.67 143.911 L
184.104 143.791 L
184.538 143.67 L
184.972 143.55 L
185.406 143.43 L
185.84 143.31 L
186.274 143.189 L
186.708 143.069 L
187.142 142.949 L
187.576 142.829 L
188.01 142.708 L
188.444 142.588 L
188.878 142.468 L
189.312 142.348 L
189.746 142.227 L
190.18 142.107 L
190.614 141.987 L
191.048 141.867 L
191.482 141.746 L
191.916 141.626 L
192.35 141.506 L
192.784 141.386 L
193.218 141.265 L
193.652 141.145 L
194.086 141.025 L
194.52 140.905 L
194.954 140.784 L
195.388 140.664 L
195.822 140.544 L
196.256 140.424 L
196.69 140.303 L
197.124 140.183 L
197.558 140.063 L
197.992 139.943 L
198.426 139.822 L
198.86 139.702 L
199.294 139.582 L
199.728 139.462 L
200.162 139.341 L
200.596 139.221 L
201.03 139.101 L
201.464 138.981 L
201.898 138.86 L
202.332 138.74 L
202.766 138.62 L
203.2 138.5 L
203.634 138.379 L
204.068 138.259 L
204.502 138.139 L
204.936 138.019 L
205.37 137.898 L
205.804 137.778 L
206.238 137.658 L
206.672 137.538 L
207.106 137.417 L
207.54 137.297 L
207.974 137.177 L
208.408 137.057 L
208.842 136.936 L
209.276 136.816 L
209.71 136.696 L
210.144 136.576 L
210.578 136.455 L
211.012 136.335 L
211.446 136.215 L
211.88 136.095 L
212.314 135.974 L
212.748 135.854 L
213.182 135.734 L
213.616 135.614 L
214.05 135.493 L
214.484 135.373 L
214.918 135.253 L
215.352 135.133 L
215.786 135.012 L
216.22 134.892 L
216.654 134.772 L
217.088 134.652 L
217.522 134.531 L
217.956 134.411 L
218.39 134.291 L
218.824 134.171 L
219.258 134.05 L
219.692 133.93 L
220.126 133.81 L
220.56 133.69 L
220.994 133.569 L
221.428 133.449 L
221.862 133.329 L
222.296 133.209 L
222.73 133.088 L
223.164 132.968 L
223.598 132.848 L
224.032 132.728 L
224.466 132.607 L
224.9 132.487 L
225.334 132.367 L
225.768 132.247 L
226.202 132.126 L
226.636 132.006 L
227.07 131.886 L
227.504 131.766 L
227.938 131.645 L
228.372 131.525 L
228.806 131.405 L
229.24 131.285 L
229.674 131.164 L
230.108 131.044 L
230.542 130.924 L
230.976 130.804 L
231.41 130.683 L
231.844 130.563 L
232.278 130.443 L
232.712 130.323 L
233.146 130.202 L
233.58 130.082 L
234.014 129.962 L
234.448 129.842 L
234.882 129.721 L
235.316 129.601 L
235.75 129.481 L
236.184 129.361 L
236.618 129.24 L
237.052 129.12 L
237.486 129 L
237.92 128.88 L
238.354 128.759 L
238.788 128.639 L
239.222 128.519 L
239.656 128.399 L
240.09 128.278 L
240.524 128.158 L
240.958 128.038 L
241.392 127.918 L
241.826 127.797 L
242.26 127.677 L
242.694 127.557 L
243.128 127.437 L
243.562 127.316 L
243.996 127.196 L
244.43 127.076 L
244.864 126.956 L
245.298 126.835 L
245.732 126.715 L
246.166 126.595 L
246.6 126.475 L
247.034 126.354 L
247.468 126.234 L
247.902 126.114 L
248.336 125.994 L
248.77 125.873 L
249.204 125.753 L
249.638 125.633 L
250.072 125.513 L
250.506 125.392 L
250.94 125.272 L
251.374 125.152 L
251.808 125.032 L
252.242 124.911 L
252.676 124.791 L
253.11 124.671 L
253.544 124.551 L
253.978 124.43 L
254.412 124.31 L
254.846 124.19 L
255.28 124.07 L
255.714 123.949 L
256.148 123.829 L
256.582 123.709 L
257.016 123.589 L
257.45 123.468 L
257.884 123.348 L
258.318 123.228 L
258.752 123.108 L
259.186 122.987 L
259.62 122.867 L
260.054 122.747 L
260.488 122.627 L
260.922 122.506 L
261.356 122.386 L
261.79 122.266 L
262.224 122.146 L
262.658 122.025 L
263.092 121.905 L
263.526 121.785 L
263.96 121.665 L
264.394 121.544 L
264.828 121.424 L
265.262 121.304 L
265.696 121.184 L
266.13 121.063 L
266.564 120.943 L
266.998 120.823 L
267.432 120.703 L
267.866 120.582 L
268.3 120.462 L
268.734 120.342 L
269.168 120.222 L
269.602 120.101 L
270.036 119.981 L
270.47 119.861 L
270.904 119.741 L
271.338 119.62 L
271.772 119.5 L
272.206 119.38 L
272.64 119.26 L
273.074 119.139 L
273.508 119.019 L
273.942 118.899 L
274.376 118.779 L
274.81 118.658 L
275.244 118.538 L
275.678 118.418 L
276.112 118.298 L
276.546 118.177 L
276.98 118.057 L
277.414 117.937 L
277.848 117.817 L
278.282 117.696 L
278.716 117.576 L
279.15 117.456 L
279.584 117.336 L
280.018 117.215 L
280.452 117.095 L
280.886 116.975 L
281.32 116.855 L
281.754 116.734 L
282.188 116.614 L
282.622 116.494 L
283.056 116.374 L
283.49 116.253 L
283.924 116.133 L
284.358 116.013 L
284.792 115.893 L
285.226 115.772 L
285.66 115.652 L
286.094 115.532 L
286.528 115.412 L
286.962 115.291 L
287.396 115.171 L
287.83 115.051 L
288.264 114.931 L
288.698 114.81 L
289.132 114.69 L
289.566 114.57 L
290 114.45 L
290.434 114.329 L
290.868 114.209 L
291.302 114.089 L
291.736 113.969 L
292.17 113.848 L
292.604 113.728 L
293.038 113.608 L
293.472 113.488 L
293.906 113.367 L
294.34 113.247 L
294.774 113.127 L
295.208 113.007 L
295.642 112.886 L
296.076 112.766 L
296.51 112.646 L
296.944 112.526 L
297.378 112.405 L
297.812 112.285 L
298.246 112.165 L
298.68 112.045 L
299.114 111.924 L
299.548 111.804 L
299.982 111.684 L
300.416 111.564 L
300.85 111.443 L
301.284 111.323 L
301.718 111.203 L
302.152 111.083 L
302.586 110.962 L
303.02 110.842 L
303.454 110.722 L
303.888 110.602 L
304.322 110.481 L
304.756 110.361 L
305.19 110.241 L
305.624 110.121 L
306.058 110 L
306.492 109.88 L
306.926 109.76 L
307.36 109.64 L
307.794 109.519 L
308.228 109.399 L
308.662 109.279 L
309.096 109.159 L
309.53 109.038 L
309.964 108.918 L
310.398 108.798 L
310.832 108.678 L
311.266 108.557 L
311.7 108.437 L
312.134 108.317 L
312.568 108.197 L
313.002 108.076 L
313.436 107.956 L
313.87 107.836 L
314.304 107.716 L
314.738 107.595 L
315.172 107.475 L
315.606 107.355 L
316.04 107.235 L
316.474 107.114 L
316.908 106.994 L
317.342 106.874 L
317.776 106.754 L
318.21 106.633 L
318.644 106.513 L
319.078 106.393 L
319.512 106.273 L
319.946 106.152 L
320.38 106.032 L
320.814 105.912 L
321.248 105.792 L
321.682 105.671 L
322.116 105.551 L
322.55 105.431 L
322.984 105.311 L
323.418 105.19 L
323.852 105.07 L
324.286 104.95 L
324.72 104.83 L
325.154 104.709 L
325.588 104.589 L
326.022 104.469 L
326.456 104.349 L
326.89 104.228 L
327.324 104.108 L
327.758 103.988 L
328.192 103.868 L
328.626 103.747 L
329.06 103.627 L
329.494 103.507 L
329.928 103.387 L
330.362 103.266 L
330.796 103.146 L
331.23 103.026 L
331.664 102.906 L
332.098 102.785 L
332.532 102.665 L
332.966 102.545 L
333.4 102.425 L
333.834 102.304 L
334.268 102.184 L
334.702 102.064 L
335.136 101.944 L
335.57 101.823 L
336.004 101.703 L
336.438 101.583 L
336.872 101.463 L
337.306 101.342 L
337.74 101.222 L
338.174 101.102 L
338.608 100.982 L
339.042 100.861 L
339.476 100.741 L
339.91 100.621 L
340.344 100.501 L
340.778 100.38 L
341.212 100.26 L
341.646 100.14 L
342.08 100.02 L
342.514 99.899 L
342.948 99.779 L
343.382 99.659 L
343.816 99.539 L
344.25 99.418 L
344.684 99.298 L
345.118 99.178 L
345.552 99.058 L
345.986 98.937 L
346.42 98.817 L
346.854 98.697 L
347.288 98.577 L
347.722 98.456 L
348.156 98.336 L
348.59 98.216 L
349.024 98.096 L
349.458 97.975 L
349.892 97.855 L
350.326 97.735 L
350.76 97.615 L
351.194 97.494 L
351.628 97.374 L
352.062 97.254 L
352.496 97.134 L
352.93 97.013 L
353.364 96.893 L
353.798 96.773 L
354.232 96.653 L
354.666 96.532 L
355.1 96.412 L
355.534 96.292 L
355.968 96.172 L
356.402 96.051 L
356.836 95.931 L
357.27 95.811 L
357.704 95.691 L
358.138 95.57 L
358.572 95.45 L
359.006 95.33 L
359.44 95.21 L
359.874 95.09 L
360.308 94.969 L
360.742 94.849 L
361.176 94.729 L
361.61 94.609 L
362.044 94.488 L
362.478 94.368 L
362.912 94.248 L
363.346 94.128 L
363.78 94.007 L
364.214 93.887 L
364.648 93.767 L
365.082 93.647 L
365.516 93.526 L
365.95 93.406 L
366.384 93.286 L
366.818 93.166 L
367.252 93.045 L
367.686 92.925 L
368.12 92.805 L
368.554 92.685 L
368.988 92.564 L
369.422 92.444 L
369.856 92.324 L
370.29 92.204 L
370.724 92.083 L
371.158 91.963 L
371.592 91.843 L
372.026 91.723 L
372.46 91.602 L
372.894 91.482 L
373.328 91.362 L
373.762 91.242 L
374.196 91.121 L
374.63 91.001 L
375.064 90.881 L
375.498 90.761 L
375.932 90.64 L
376.366 90.52 L
376.8 90.4 L
377.234 90.28 L
377.668 90.159 L
378.102 90.039 L
378.536 89.919 L
378.97 89.799 L
379.404 89.678 L
379.838 89.558 L
380.272 89.438 L
380.706 89.318 L
381.14 89.197 L
381.574 89.077 L
382.008 88.957 L
382.442 88.837 L
382.876 88.716 L
383.31 88.596 L
383.744 88.476 L
384.178 88.356 L
384.612 88.235 L
385.046 88.115 L
385.48 87.995 L
385.914 87.875 L
386.348 87.754 L
386.782 87.634 L
387.216 87.514 L
387.65 87.394 L
388.084 87.273 L
388.518 87.153 L
388.952 87.033 L
389.386 86.913 L
389.82 86.792 L
390.254 86.672 L
390.688 86.552 L
391.122 86.432 L
391.556 86.311 L
391.99 86.191 L
392.424 86.071 L
392.858 85.951 L
393.292 85.83 L
393.726 85.71 L
394.16 85.59 L
394.594 85.47 L
395.028 85.349 L
395.462 85.229 L
395.896 85.109 L
396.33 84.989 L
396.764 84.868 L
397.198 84.748 L
397.632 84.628 L
398.066 84.508 L
398.5 84.387 L
398.934 84.267 L
399.368 84.147 L
399.802 84.027 L
400.236 83.906 L
400.67 83.786 L
401.104 83.666 L
401.538 83.546 L
401.972 83.425 L
402.406 83.305 L
402.84 83.185 L
403.274 83.065 L
403.708 82.944 L
404.142 82.824 L
404.576 82.704 L
405.01 82.584 L
405.444 82.463 L
405.878 82.343 L
406.312 82.223 L
406.746 82.103 L
407.18 81.982 L
407.614 81.862 L
408.048 81.742 L
408.482 81.622 L
408.916 81.501 L
409.35 81.381 L
409.784 81.261 L
410.218 81.141 L
410.652 81.02 L
411.086 80.9 L
411.52 80.78 L
411.954 80.66 L
412.388 80.539 L
412.822 80.419 L
413.256 80.299 L
413.69 80.179 L
414.124 80.058 L
414.558 79.938 L
414.992 79.818 L
415.426 79.698 L
415.86 79.577 L
416.294 79.457 L
416.728 79.337 L
417.162 79.217 L
417.596 79.096 L
418.03 78.976 L
418.464 78.856 L
418.898 78.736 L
419.332 78.615 L
419.766 78.495 L
420.2 78.375 L
420.634 78.255 L
421.068 78.134 L
421.502 78.014 L
421.936 77.894 L
422.37 77.774 L
422.804 77.653 L
423.238 77.533 L
423.672 77.413 L
424.106 77.293 L
424.54 77.172 L
424.974 77.052 L
425.408 76.932 L
425.842 76.812 L
426.276 76.691 L
426.71 76.571 L
427.144 76.451 L
427.578 76.331 L
428.012 76.21 L
428.446 76.09 L
428.88 75.97 L
429.314 75.85 L
429.748 75.729 L
430.182 75.609 L
430.616 75.489 L
431.05 75.369 L
431.484 75.248 L
431.918 75.128 L
432.352 75.008 L
432.786 74.888 L
433.22 74.767 L
433.654 74.647 L
434.088 74.527 L
434.522 74.407 L
434.956 74.286 L
435.39 74.166 L
435.824 74.046 L
436.258 73.926 L
436.692 73.805 L
437.126 73.685 L
437.56 73.565 L
437.994 73.445 L
438.428 73.324 L
438.862 73.204 L
439.296 73.084 L
439.73 72.964 L
440.164 72.843 L
440.598 72.723 L
441.032 72.603 L
441.466 72.483 L
441.9 72.362 L
442.334 72.242 L
442.768 72.122 L
443.202 72.002 L
443.636 71.881 L
444.07 71.761 L
444.504 71.641 L
444.938 71.521 L
445.372 71.4 L
445.806 71.28 L
446.24 71.16 L
446.674 71.04 L
447.108 70.919 L
447.542 70.799 L
447.976 70.679 L
448.41 70.559 L
448.844 70.438 L
449.278 70.318 L
449.712 70.198 L
450.146 70.078 L
450.58 69.957 L
451.014 69.837 L
451.448 69.717 L
451.882 69.597 L
452.316 69.476 L
452.75 69.356 L
453.184 69.236 L
453.618 69.116 L
454.052 68.995 L
454.486 68.875 L
454.92 68.755 L
455.354 68.635 L
455.788 68.514 L
456.222 68.394 L
456.656 68.274 L
457.09 68.154 L
457.524 68.033 L
457.958 67.913 L
458.392 67.793 L
458.826 67.673 L
459.26 67.552 L
459.694 67.432 L
460.128 67.312 L
460.562 67.192 L
460.996 67.071 L
461.43 66.951 L
461.864 66.831 L
462.298 66.711 L
462.732 66.59 L
463.166 66.47 L
463.6 66.35 L
464.034 66.23 L
464.468 66.109 L
464.902 65.989 L
465.336 65.869 L
465.77 65.749 L
466.204 65.628 L
466.638 65.508 L
467.072 65.388 L
467.506 65.268 L
467.94 65.147 L
468.374 65.027 L
468.808 64.907 L
469.242 64.787 L
469.676 64.666 L
470.11 64.546 L
470.544 64.426 L
470.978 64.306 L
471.412 64.185 L
471.846 64.065 L
472.28 63.945 L
472.714 63.825 L
473.148 63.704 L
473.582 63.584 L
474.016 63.464 L
474.45 63.344 L
474.884 63.223 L
475.318 63.103 L
475.752 62.983 L
476.186 62.863 L
476.62 62.742 L
477.054 62.622 L
477.488 62.502 L
477.922 62.382 L
478.356 62.261 L
478.79 62.141 L
479.224 62.021 L
479.658 61.901 L
480.092 61.78 L
480.526 61.66 L
480.96 61.54 L
481.394 61.42 L
481.828 61.299 L
482.262 61.179 L
482.696 61.059 L
483.13 60.939 L
483.564 60.818 L
483.998 60.698 L
484.432 60.578 L
484.866 60.458 L
485.3 60.337 L
485.734 60.217 L
486.168 60.097 L
486.602 59.977 L
487.036 59.856 L
487.47 59.736 L
487.904 59.616 L
488.338 59.496 L
488.772 59.375 L
489.206 59.255 L
489.64 59.135 L
490.074 59.015 L
490.508 58.894 L
490.942 58.774 L
491.376 58.654 L
491.81 58.534 L
492.244 58.413 L
492.678 58.293 L
493.112 58.173 L
493.546 58.053 L
493.98 57.932 L
494.414 57.812 L
494.848 57.692 L
495.282 57.572 L
495.716 57.451 L
496.15 57.331 L
496.584 57.211 L
497.018 57.091 L
497.452 56.97 L
497.886 56.85 L
498.32 56.73 L
498.754 56.61 L
499.188 56.489 L
499.622 56.369 L
500.056 56.249 L
500.49 56.129 L
500.924 56.008 L
501.358 55.888 L
501.792 55.768 L
502.226 55.648 L
502.66 55.527 L
503.094 55.407 L
503.528 55.287 L
503.962 55.167 L
504.396 55.046 L
504.83 54.926 L
505.264 54.806 L
505.698 54.686 L
506.132 54.565 L
506.566 54.445 L
507 54.325 L
S
GR
GS
1 GC
N
79 62 M
79 36 L
173 36 L
173 62 L
cp
f
GR
GS
[1 0 0 1 116 43.35849] CT
/Helvetica 9 F
GS
[1 0 0 1 0 0] CT
0 3.5 moveto 
1 -1 scale
(Error data) t 
GR
GR
GS
[1 0 0 1 98 43.35849] CT
0 0 1 RC
N
2.667 0 M
2.667 1.473 1.473 2.667 0 2.667 C
-1.473 2.667 -2.667 1.473 -2.667 0 C
-2.667 -1.473 -1.473 -2.667 0 -2.667 C
1.473 -2.667 2.667 -1.473 2.667 0 C
cp
f
GR
GS
[1 0 0 1 116 54.64151] CT
/Helvetica 9 F
GS
[1 0 0 1 0 0] CT
0 3.5 moveto 
1 -1 scale
(Linear model) t 
GR
GR
GS
1 0 0 RC
1 LJ
N
83 54.642 M
113 54.642 L
S
GR
GS
0.149 GC
10.0 ML
0.5 LW
N
79 62 M
79 36 L
173 36 L
173 62 L
cp
S
GR
GS
1 GC
N
73 374 M
507 374 L
507 231 L
73 231 L
cp
f
GR
GS
0.873 GC
1 LJ
0.5 LW
N
73 374 M
73 231 L
S
GR
GS
0.873 GC
1 LJ
0.5 LW
N
116.4 374 M
116.4 231 L
S
GR
GS
0.873 GC
1 LJ
0.5 LW
N
159.8 374 M
159.8 231 L
S
GR
GS
0.873 GC
1 LJ
0.5 LW
N
203.2 374 M
203.2 231 L
S
GR
GS
0.873 GC
1 LJ
0.5 LW
N
246.6 374 M
246.6 231 L
S
GR
GS
0.873 GC
1 LJ
0.5 LW
N
290 374 M
290 231 L
S
GR
GS
0.873 GC
1 LJ
0.5 LW
N
333.4 374 M
333.4 231 L
S
GR
GS
0.873 GC
1 LJ
0.5 LW
N
376.8 374 M
376.8 231 L
S
GR
GS
0.873 GC
1 LJ
0.5 LW
N
420.2 374 M
420.2 231 L
S
GR
GS
0.873 GC
1 LJ
0.5 LW
N
463.6 374 M
463.6 231 L
S
GR
GS
0.873 GC
1 LJ
0.5 LW
N
507 374 M
507 231 L
S
GR
GS
0.873 GC
1 LJ
0.5 LW
N
507 374 M
73 374 L
S
GR
GS
0.873 GC
1 LJ
0.5 LW
N
507 345.4 M
73 345.4 L
S
GR
GS
0.873 GC
1 LJ
0.5 LW
N
507 316.8 M
73 316.8 L
S
GR
GS
0.873 GC
1 LJ
0.5 LW
N
507 288.2 M
73 288.2 L
S
GR
GS
0.873 GC
1 LJ
0.5 LW
N
507 259.6 M
73 259.6 L
S
GR
GS
0.873 GC
1 LJ
0.5 LW
N
507 231 M
73 231 L
S
GR
GS
0.149 GC
2 setlinecap
1 LJ
0.5 LW
N
73 374 M
507 374 L
S
GR
GS
0.149 GC
2 setlinecap
1 LJ
0.5 LW
N
73 231 M
507 231 L
S
GR
GS
0.149 GC
2 setlinecap
1 LJ
0.5 LW
N
73 374 M
73 369.66 L
S
GR
GS
0.149 GC
2 setlinecap
1 LJ
0.5 LW
N
116.4 374 M
116.4 369.66 L
S
GR
GS
0.149 GC
2 setlinecap
1 LJ
0.5 LW
N
159.8 374 M
159.8 369.66 L
S
GR
GS
0.149 GC
2 setlinecap
1 LJ
0.5 LW
N
203.2 374 M
203.2 369.66 L
S
GR
GS
0.149 GC
2 setlinecap
1 LJ
0.5 LW
N
246.6 374 M
246.6 369.66 L
S
GR
GS
0.149 GC
2 setlinecap
1 LJ
0.5 LW
N
290 374 M
290 369.66 L
S
GR
GS
0.149 GC
2 setlinecap
1 LJ
0.5 LW
N
333.4 374 M
333.4 369.66 L
S
GR
GS
0.149 GC
2 setlinecap
1 LJ
0.5 LW
N
376.8 374 M
376.8 369.66 L
S
GR
GS
0.149 GC
2 setlinecap
1 LJ
0.5 LW
N
420.2 374 M
420.2 369.66 L
S
GR
GS
0.149 GC
2 setlinecap
1 LJ
0.5 LW
N
463.6 374 M
463.6 369.66 L
S
GR
GS
0.149 GC
2 setlinecap
1 LJ
0.5 LW
N
507 374 M
507 369.66 L
S
GR
GS
0.149 GC
2 setlinecap
1 LJ
0.5 LW
N
73 231 M
73 235.34 L
S
GR
GS
0.149 GC
2 setlinecap
1 LJ
0.5 LW
N
116.4 231 M
116.4 235.34 L
S
GR
GS
0.149 GC
2 setlinecap
1 LJ
0.5 LW
N
159.8 231 M
159.8 235.34 L
S
GR
GS
0.149 GC
2 setlinecap
1 LJ
0.5 LW
N
203.2 231 M
203.2 235.34 L
S
GR
GS
0.149 GC
2 setlinecap
1 LJ
0.5 LW
N
246.6 231 M
246.6 235.34 L
S
GR
GS
0.149 GC
2 setlinecap
1 LJ
0.5 LW
N
290 231 M
290 235.34 L
S
GR
GS
0.149 GC
2 setlinecap
1 LJ
0.5 LW
N
333.4 231 M
333.4 235.34 L
S
GR
GS
0.149 GC
2 setlinecap
1 LJ
0.5 LW
N
376.8 231 M
376.8 235.34 L
S
GR
GS
0.149 GC
2 setlinecap
1 LJ
0.5 LW
N
420.2 231 M
420.2 235.34 L
S
GR
GS
0.149 GC
2 setlinecap
1 LJ
0.5 LW
N
463.6 231 M
463.6 235.34 L
S
GR
GS
0.149 GC
2 setlinecap
1 LJ
0.5 LW
N
507 231 M
507 235.34 L
S
GR
GS
[1 0 0 1 73 378] CT
0.149 GC
/Helvetica 10 F
GS
[1 0 0 1 0 0] CT
-3 10 moveto 
1 -1 scale
(0) t 
GR
GR
GS
[1 0 0 1 116.4 378] CT
0.149 GC
/Helvetica 10 F
GS
[1 0 0 1 0 0] CT
-6 10 moveto 
1 -1 scale
(10) t 
GR
GR
GS
[1 0 0 1 159.8 378] CT
0.149 GC
/Helvetica 10 F
GS
[1 0 0 1 0 0] CT
-6 10 moveto 
1 -1 scale
(20) t 
GR
GR
GS
[1 0 0 1 203.2 378] CT
0.149 GC
/Helvetica 10 F
GS
[1 0 0 1 0 0] CT
-6 10 moveto 
1 -1 scale
(30) t 
GR
GR
GS
[1 0 0 1 246.60001 378] CT
0.149 GC
/Helvetica 10 F
GS
[1 0 0 1 0 0] CT
-6 10 moveto 
1 -1 scale
(40) t 
GR
GR
GS
[1 0 0 1 290 378] CT
0.149 GC
/Helvetica 10 F
GS
[1 0 0 1 0 0] CT
-6 10 moveto 
1 -1 scale
(50) t 
GR
GR
GS
[1 0 0 1 333.39999 378] CT
0.149 GC
/Helvetica 10 F
GS
[1 0 0 1 0 0] CT
-6 10 moveto 
1 -1 scale
(60) t 
GR
GR
GS
[1 0 0 1 376.79999 378] CT
0.149 GC
/Helvetica 10 F
GS
[1 0 0 1 0 0] CT
-6 10 moveto 
1 -1 scale
(70) t 
GR
GR
GS
[1 0 0 1 420.20001 378] CT
0.149 GC
/Helvetica 10 F
GS
[1 0 0 1 0 0] CT
-6 10 moveto 
1 -1 scale
(80) t 
GR
GR
GS
[1 0 0 1 463.60001 378] CT
0.149 GC
/Helvetica 10 F
GS
[1 0 0 1 0 0] CT
-6 10 moveto 
1 -1 scale
(90) t 
GR
GR
GS
[1 0 0 1 507 378] CT
0.149 GC
/Helvetica 10 F
GS
[1 0 0 1 0 0] CT
-8.5 10 moveto 
1 -1 scale
(100) t 
GR
GR
GS
[1 0 0 1 290.00021 392] CT
0.149 GC
/Helvetica-Bold 12 F
GS
[1 0 0 1 0 0] CT
-78 12 moveto 
1 -1 scale
(Camera translation \(in mm\)) t 
GR
GR
GS
0.149 GC
2 setlinecap
1 LJ
0.5 LW
N
73 374 M
73 231 L
S
GR
GS
0.149 GC
2 setlinecap
1 LJ
0.5 LW
N
507 374 M
507 231 L
S
GR
GS
0.149 GC
2 setlinecap
1 LJ
0.5 LW
N
73 374 M
77.34 374 L
S
GR
GS
0.149 GC
2 setlinecap
1 LJ
0.5 LW
N
73 345.4 M
77.34 345.4 L
S
GR
GS
0.149 GC
2 setlinecap
1 LJ
0.5 LW
N
73 316.8 M
77.34 316.8 L
S
GR
GS
0.149 GC
2 setlinecap
1 LJ
0.5 LW
N
73 288.2 M
77.34 288.2 L
S
GR
GS
0.149 GC
2 setlinecap
1 LJ
0.5 LW
N
73 259.6 M
77.34 259.6 L
S
GR
GS
0.149 GC
2 setlinecap
1 LJ
0.5 LW
N
73 231 M
77.34 231 L
S
GR
GS
0.149 GC
2 setlinecap
1 LJ
0.5 LW
N
507 374 M
502.66 374 L
S
GR
GS
0.149 GC
2 setlinecap
1 LJ
0.5 LW
N
507 345.4 M
502.66 345.4 L
S
GR
GS
0.149 GC
2 setlinecap
1 LJ
0.5 LW
N
507 316.8 M
502.66 316.8 L
S
GR
GS
0.149 GC
2 setlinecap
1 LJ
0.5 LW
N
507 288.2 M
502.66 288.2 L
S
GR
GS
0.149 GC
2 setlinecap
1 LJ
0.5 LW
N
507 259.6 M
502.66 259.6 L
S
GR
GS
0.149 GC
2 setlinecap
1 LJ
0.5 LW
N
507 231 M
502.66 231 L
S
GR
GS
[1 0 0 1 69 374] CT
0.149 GC
/Helvetica 10 F
GS
[1 0 0 1 0 0] CT
-24 3.5 moveto 
1 -1 scale
(-0.03) t 
GR
GR
GS
[1 0 0 1 69 345.39999] CT
0.149 GC
/Helvetica 10 F
GS
[1 0 0 1 0 0] CT
-24 3.5 moveto 
1 -1 scale
(-0.02) t 
GR
GR
GS
[1 0 0 1 69 316.79999] CT
0.149 GC
/Helvetica 10 F
GS
[1 0 0 1 0 0] CT
-24 3.5 moveto 
1 -1 scale
(-0.01) t 
GR
GR
GS
[1 0 0 1 69 288.20001] CT
0.149 GC
/Helvetica 10 F
GS
[1 0 0 1 0 0] CT
-6 3.5 moveto 
1 -1 scale
(0) t 
GR
GR
GS
[1 0 0 1 69 259.60001] CT
0.149 GC
/Helvetica 10 F
GS
[1 0 0 1 0 0] CT
-20 3.5 moveto 
1 -1 scale
(0.01) t 
GR
GR
GS
[1 0 0 1 69 231] CT
0.149 GC
/Helvetica 10 F
GS
[1 0 0 1 0 0] CT
-20 3.5 moveto 
1 -1 scale
(0.02) t 
GR
GR
GS
[0 -1 1 0 42 302.49994] CT
0.149 GC
/Helvetica-Bold 12 F
GS
[1 0 0 1 0 0] CT
-56 -3 moveto 
1 -1 scale
(Depth error \(in mm\)) t 
GR
GR
GS
[1 0 0 1 73 293.27136] CT
0 0 1 RC
N
2.667 0 M
2.667 1.473 1.473 2.667 0 2.667 C
-1.473 2.667 -2.667 1.473 -2.667 0 C
-2.667 -1.473 -1.473 -2.667 0 -2.667 C
1.473 -2.667 2.667 -1.473 2.667 0 C
cp
f
GR
GS
[1 0 0 1 77.34 292.90067] CT
0 0 1 RC
N
2.667 0 M
2.667 1.473 1.473 2.667 0 2.667 C
-1.473 2.667 -2.667 1.473 -2.667 0 C
-2.667 -1.473 -1.473 -2.667 0 -2.667 C
1.473 -2.667 2.667 -1.473 2.667 0 C
cp
f
GR
GS
[1 0 0 1 81.68 292.73993] CT
0 0 1 RC
N
2.667 0 M
2.667 1.473 1.473 2.667 0 2.667 C
-1.473 2.667 -2.667 1.473 -2.667 0 C
-2.667 -1.473 -1.473 -2.667 0 -2.667 C
1.473 -2.667 2.667 -1.473 2.667 0 C
cp
f
GR
GS
[1 0 0 1 86.02 291.49036] CT
0 0 1 RC
N
2.667 0 M
2.667 1.473 1.473 2.667 0 2.667 C
-1.473 2.667 -2.667 1.473 -2.667 0 C
-2.667 -1.473 -1.473 -2.667 0 -2.667 C
1.473 -2.667 2.667 -1.473 2.667 0 C
cp
f
GR
GS
[1 0 0 1 90.36 292.9025] CT
0 0 1 RC
N
2.667 0 M
2.667 1.473 1.473 2.667 0 2.667 C
-1.473 2.667 -2.667 1.473 -2.667 0 C
-2.667 -1.473 -1.473 -2.667 0 -2.667 C
1.473 -2.667 2.667 -1.473 2.667 0 C
cp
f
GR
GS
[1 0 0 1 94.7 290.67065] CT
0 0 1 RC
N
2.667 0 M
2.667 1.473 1.473 2.667 0 2.667 C
-1.473 2.667 -2.667 1.473 -2.667 0 C
-2.667 -1.473 -1.473 -2.667 0 -2.667 C
1.473 -2.667 2.667 -1.473 2.667 0 C
cp
f
GR
GS
[1 0 0 1 99.04 291.7226] CT
0 0 1 RC
N
2.667 0 M
2.667 1.473 1.473 2.667 0 2.667 C
-1.473 2.667 -2.667 1.473 -2.667 0 C
-2.667 -1.473 -1.473 -2.667 0 -2.667 C
1.473 -2.667 2.667 -1.473 2.667 0 C
cp
f
GR
GS
[1 0 0 1 103.38 292.73611] CT
0 0 1 RC
N
2.667 0 M
2.667 1.473 1.473 2.667 0 2.667 C
-1.473 2.667 -2.667 1.473 -2.667 0 C
-2.667 -1.473 -1.473 -2.667 0 -2.667 C
1.473 -2.667 2.667 -1.473 2.667 0 C
cp
f
GR
GS
[1 0 0 1 107.72 290.21106] CT
0 0 1 RC
N
2.667 0 M
2.667 1.473 1.473 2.667 0 2.667 C
-1.473 2.667 -2.667 1.473 -2.667 0 C
-2.667 -1.473 -1.473 -2.667 0 -2.667 C
1.473 -2.667 2.667 -1.473 2.667 0 C
cp
f
GR
GS
[1 0 0 1 112.06 291.59009] CT
0 0 1 RC
N
2.667 0 M
2.667 1.473 1.473 2.667 0 2.667 C
-1.473 2.667 -2.667 1.473 -2.667 0 C
-2.667 -1.473 -1.473 -2.667 0 -2.667 C
1.473 -2.667 2.667 -1.473 2.667 0 C
cp
f
GR
GS
[1 0 0 1 116.4 290.25034] CT
0 0 1 RC
N
2.667 0 M
2.667 1.473 1.473 2.667 0 2.667 C
-1.473 2.667 -2.667 1.473 -2.667 0 C
-2.667 -1.473 -1.473 -2.667 0 -2.667 C
1.473 -2.667 2.667 -1.473 2.667 0 C
cp
f
GR
GS
[1 0 0 1 120.74 285.62207] CT
0 0 1 RC
N
2.667 0 M
2.667 1.473 1.473 2.667 0 2.667 C
-1.473 2.667 -2.667 1.473 -2.667 0 C
-2.667 -1.473 -1.473 -2.667 0 -2.667 C
1.473 -2.667 2.667 -1.473 2.667 0 C
cp
f
GR
GS
[1 0 0 1 125.08 288.91025] CT
0 0 1 RC
N
2.667 0 M
2.667 1.473 1.473 2.667 0 2.667 C
-1.473 2.667 -2.667 1.473 -2.667 0 C
-2.667 -1.473 -1.473 -2.667 0 -2.667 C
1.473 -2.667 2.667 -1.473 2.667 0 C
cp
f
GR
GS
[1 0 0 1 129.42 293.66763] CT
0 0 1 RC
N
2.667 0 M
2.667 1.473 1.473 2.667 0 2.667 C
-1.473 2.667 -2.667 1.473 -2.667 0 C
-2.667 -1.473 -1.473 -2.667 0 -2.667 C
1.473 -2.667 2.667 -1.473 2.667 0 C
cp
f
GR
GS
[1 0 0 1 133.75999 293.45053] CT
0 0 1 RC
N
2.667 0 M
2.667 1.473 1.473 2.667 0 2.667 C
-1.473 2.667 -2.667 1.473 -2.667 0 C
-2.667 -1.473 -1.473 -2.667 0 -2.667 C
1.473 -2.667 2.667 -1.473 2.667 0 C
cp
f
GR
GS
[1 0 0 1 138.10001 288.69421] CT
0 0 1 RC
N
2.667 0 M
2.667 1.473 1.473 2.667 0 2.667 C
-1.473 2.667 -2.667 1.473 -2.667 0 C
-2.667 -1.473 -1.473 -2.667 0 -2.667 C
1.473 -2.667 2.667 -1.473 2.667 0 C
cp
f
GR
GS
[1 0 0 1 142.44 293.55032] CT
0 0 1 RC
N
2.667 0 M
2.667 1.473 1.473 2.667 0 2.667 C
-1.473 2.667 -2.667 1.473 -2.667 0 C
-2.667 -1.473 -1.473 -2.667 0 -2.667 C
1.473 -2.667 2.667 -1.473 2.667 0 C
cp
f
GR
GS
[1 0 0 1 146.78 282.55914] CT
0 0 1 RC
N
2.667 0 M
2.667 1.473 1.473 2.667 0 2.667 C
-1.473 2.667 -2.667 1.473 -2.667 0 C
-2.667 -1.473 -1.473 -2.667 0 -2.667 C
1.473 -2.667 2.667 -1.473 2.667 0 C
cp
f
GR
GS
[1 0 0 1 151.12 280.05432] CT
0 0 1 RC
N
2.667 0 M
2.667 1.473 1.473 2.667 0 2.667 C
-1.473 2.667 -2.667 1.473 -2.667 0 C
-2.667 -1.473 -1.473 -2.667 0 -2.667 C
1.473 -2.667 2.667 -1.473 2.667 0 C
cp
f
GR
GS
[1 0 0 1 155.46001 281.34698] CT
0 0 1 RC
N
2.667 0 M
2.667 1.473 1.473 2.667 0 2.667 C
-1.473 2.667 -2.667 1.473 -2.667 0 C
-2.667 -1.473 -1.473 -2.667 0 -2.667 C
1.473 -2.667 2.667 -1.473 2.667 0 C
cp
f
GR
GS
[1 0 0 1 159.8 285.53186] CT
0 0 1 RC
N
2.667 0 M
2.667 1.473 1.473 2.667 0 2.667 C
-1.473 2.667 -2.667 1.473 -2.667 0 C
-2.667 -1.473 -1.473 -2.667 0 -2.667 C
1.473 -2.667 2.667 -1.473 2.667 0 C
cp
f
GR
GS
[1 0 0 1 164.14 285.98746] CT
0 0 1 RC
N
2.667 0 M
2.667 1.473 1.473 2.667 0 2.667 C
-1.473 2.667 -2.667 1.473 -2.667 0 C
-2.667 -1.473 -1.473 -2.667 0 -2.667 C
1.473 -2.667 2.667 -1.473 2.667 0 C
cp
f
GR
GS
[1 0 0 1 168.48 303.82614] CT
0 0 1 RC
N
2.667 0 M
2.667 1.473 1.473 2.667 0 2.667 C
-1.473 2.667 -2.667 1.473 -2.667 0 C
-2.667 -1.473 -1.473 -2.667 0 -2.667 C
1.473 -2.667 2.667 -1.473 2.667 0 C
cp
f
GR
GS
[1 0 0 1 172.82001 293.97052] CT
0 0 1 RC
N
2.667 0 M
2.667 1.473 1.473 2.667 0 2.667 C
-1.473 2.667 -2.667 1.473 -2.667 0 C
-2.667 -1.473 -1.473 -2.667 0 -2.667 C
1.473 -2.667 2.667 -1.473 2.667 0 C
cp
f
GR
GS
[1 0 0 1 177.16 287.76712] CT
0 0 1 RC
N
2.667 0 M
2.667 1.473 1.473 2.667 0 2.667 C
-1.473 2.667 -2.667 1.473 -2.667 0 C
-2.667 -1.473 -1.473 -2.667 0 -2.667 C
1.473 -2.667 2.667 -1.473 2.667 0 C
cp
f
GR
GS
[1 0 0 1 181.5 277.60248] CT
0 0 1 RC
N
2.667 0 M
2.667 1.473 1.473 2.667 0 2.667 C
-1.473 2.667 -2.667 1.473 -2.667 0 C
-2.667 -1.473 -1.473 -2.667 0 -2.667 C
1.473 -2.667 2.667 -1.473 2.667 0 C
cp
f
GR
GS
[1 0 0 1 185.84 280.44482] CT
0 0 1 RC
N
2.667 0 M
2.667 1.473 1.473 2.667 0 2.667 C
-1.473 2.667 -2.667 1.473 -2.667 0 C
-2.667 -1.473 -1.473 -2.667 0 -2.667 C
1.473 -2.667 2.667 -1.473 2.667 0 C
cp
f
GR
GS
[1 0 0 1 190.17999 285.45877] CT
0 0 1 RC
N
2.667 0 M
2.667 1.473 1.473 2.667 0 2.667 C
-1.473 2.667 -2.667 1.473 -2.667 0 C
-2.667 -1.473 -1.473 -2.667 0 -2.667 C
1.473 -2.667 2.667 -1.473 2.667 0 C
cp
f
GR
GS
[1 0 0 1 194.52 276.33817] CT
0 0 1 RC
N
2.667 0 M
2.667 1.473 1.473 2.667 0 2.667 C
-1.473 2.667 -2.667 1.473 -2.667 0 C
-2.667 -1.473 -1.473 -2.667 0 -2.667 C
1.473 -2.667 2.667 -1.473 2.667 0 C
cp
f
GR
GS
[1 0 0 1 198.86 288.44333] CT
0 0 1 RC
N
2.667 0 M
2.667 1.473 1.473 2.667 0 2.667 C
-1.473 2.667 -2.667 1.473 -2.667 0 C
-2.667 -1.473 -1.473 -2.667 0 -2.667 C
1.473 -2.667 2.667 -1.473 2.667 0 C
cp
f
GR
GS
[1 0 0 1 203.2 295.1637] CT
0 0 1 RC
N
2.667 0 M
2.667 1.473 1.473 2.667 0 2.667 C
-1.473 2.667 -2.667 1.473 -2.667 0 C
-2.667 -1.473 -1.473 -2.667 0 -2.667 C
1.473 -2.667 2.667 -1.473 2.667 0 C
cp
f
GR
GS
[1 0 0 1 207.53999 284.46213] CT
0 0 1 RC
N
2.667 0 M
2.667 1.473 1.473 2.667 0 2.667 C
-1.473 2.667 -2.667 1.473 -2.667 0 C
-2.667 -1.473 -1.473 -2.667 0 -2.667 C
1.473 -2.667 2.667 -1.473 2.667 0 C
cp
f
GR
GS
[1 0 0 1 211.88 284.07895] CT
0 0 1 RC
N
2.667 0 M
2.667 1.473 1.473 2.667 0 2.667 C
-1.473 2.667 -2.667 1.473 -2.667 0 C
-2.667 -1.473 -1.473 -2.667 0 -2.667 C
1.473 -2.667 2.667 -1.473 2.667 0 C
cp
f
GR
GS
[1 0 0 1 216.22 282.41516] CT
0 0 1 RC
N
2.667 0 M
2.667 1.473 1.473 2.667 0 2.667 C
-1.473 2.667 -2.667 1.473 -2.667 0 C
-2.667 -1.473 -1.473 -2.667 0 -2.667 C
1.473 -2.667 2.667 -1.473 2.667 0 C
cp
f
GR
GS
[1 0 0 1 220.56 289.99249] CT
0 0 1 RC
N
2.667 0 M
2.667 1.473 1.473 2.667 0 2.667 C
-1.473 2.667 -2.667 1.473 -2.667 0 C
-2.667 -1.473 -1.473 -2.667 0 -2.667 C
1.473 -2.667 2.667 -1.473 2.667 0 C
cp
f
GR
GS
[1 0 0 1 224.89999 290.85919] CT
0 0 1 RC
N
2.667 0 M
2.667 1.473 1.473 2.667 0 2.667 C
-1.473 2.667 -2.667 1.473 -2.667 0 C
-2.667 -1.473 -1.473 -2.667 0 -2.667 C
1.473 -2.667 2.667 -1.473 2.667 0 C
cp
f
GR
GS
[1 0 0 1 229.24001 282.94354] CT
0 0 1 RC
N
2.667 0 M
2.667 1.473 1.473 2.667 0 2.667 C
-1.473 2.667 -2.667 1.473 -2.667 0 C
-2.667 -1.473 -1.473 -2.667 0 -2.667 C
1.473 -2.667 2.667 -1.473 2.667 0 C
cp
f
GR
GS
[1 0 0 1 233.58 284.56265] CT
0 0 1 RC
N
2.667 0 M
2.667 1.473 1.473 2.667 0 2.667 C
-1.473 2.667 -2.667 1.473 -2.667 0 C
-2.667 -1.473 -1.473 -2.667 0 -2.667 C
1.473 -2.667 2.667 -1.473 2.667 0 C
cp
f
GR
GS
[1 0 0 1 237.92 294.59372] CT
0 0 1 RC
N
2.667 0 M
2.667 1.473 1.473 2.667 0 2.667 C
-1.473 2.667 -2.667 1.473 -2.667 0 C
-2.667 -1.473 -1.473 -2.667 0 -2.667 C
1.473 -2.667 2.667 -1.473 2.667 0 C
cp
f
GR
GS
[1 0 0 1 242.25999 274.70172] CT
0 0 1 RC
N
2.667 0 M
2.667 1.473 1.473 2.667 0 2.667 C
-1.473 2.667 -2.667 1.473 -2.667 0 C
-2.667 -1.473 -1.473 -2.667 0 -2.667 C
1.473 -2.667 2.667 -1.473 2.667 0 C
cp
f
GR
GS
[1 0 0 1 246.60001 294.23505] CT
0 0 1 RC
N
2.667 0 M
2.667 1.473 1.473 2.667 0 2.667 C
-1.473 2.667 -2.667 1.473 -2.667 0 C
-2.667 -1.473 -1.473 -2.667 0 -2.667 C
1.473 -2.667 2.667 -1.473 2.667 0 C
cp
f
GR
GS
[1 0 0 1 250.94 271.58347] CT
0 0 1 RC
N
2.667 0 M
2.667 1.473 1.473 2.667 0 2.667 C
-1.473 2.667 -2.667 1.473 -2.667 0 C
-2.667 -1.473 -1.473 -2.667 0 -2.667 C
1.473 -2.667 2.667 -1.473 2.667 0 C
cp
f
GR
GS
[1 0 0 1 255.28 284.41034] CT
0 0 1 RC
N
2.667 0 M
2.667 1.473 1.473 2.667 0 2.667 C
-1.473 2.667 -2.667 1.473 -2.667 0 C
-2.667 -1.473 -1.473 -2.667 0 -2.667 C
1.473 -2.667 2.667 -1.473 2.667 0 C
cp
f
GR
GS
[1 0 0 1 259.62 288.15295] CT
0 0 1 RC
N
2.667 0 M
2.667 1.473 1.473 2.667 0 2.667 C
-1.473 2.667 -2.667 1.473 -2.667 0 C
-2.667 -1.473 -1.473 -2.667 0 -2.667 C
1.473 -2.667 2.667 -1.473 2.667 0 C
cp
f
GR
GS
[1 0 0 1 263.95999 280.11475] CT
0 0 1 RC
N
2.667 0 M
2.667 1.473 1.473 2.667 0 2.667 C
-1.473 2.667 -2.667 1.473 -2.667 0 C
-2.667 -1.473 -1.473 -2.667 0 -2.667 C
1.473 -2.667 2.667 -1.473 2.667 0 C
cp
f
GR
GS
[1 0 0 1 268.29999 268.10382] CT
0 0 1 RC
N
2.667 0 M
2.667 1.473 1.473 2.667 0 2.667 C
-1.473 2.667 -2.667 1.473 -2.667 0 C
-2.667 -1.473 -1.473 -2.667 0 -2.667 C
1.473 -2.667 2.667 -1.473 2.667 0 C
cp
f
GR
GS
[1 0 0 1 272.64001 266.62738] CT
0 0 1 RC
N
2.667 0 M
2.667 1.473 1.473 2.667 0 2.667 C
-1.473 2.667 -2.667 1.473 -2.667 0 C
-2.667 -1.473 -1.473 -2.667 0 -2.667 C
1.473 -2.667 2.667 -1.473 2.667 0 C
cp
f
GR
GS
[1 0 0 1 276.98001 293.11142] CT
0 0 1 RC
N
2.667 0 M
2.667 1.473 1.473 2.667 0 2.667 C
-1.473 2.667 -2.667 1.473 -2.667 0 C
-2.667 -1.473 -1.473 -2.667 0 -2.667 C
1.473 -2.667 2.667 -1.473 2.667 0 C
cp
f
GR
GS
[1 0 0 1 281.32001 309.08899] CT
0 0 1 RC
N
2.667 0 M
2.667 1.473 1.473 2.667 0 2.667 C
-1.473 2.667 -2.667 1.473 -2.667 0 C
-2.667 -1.473 -1.473 -2.667 0 -2.667 C
1.473 -2.667 2.667 -1.473 2.667 0 C
cp
f
GR
GS
[1 0 0 1 285.66 292.30087] CT
0 0 1 RC
N
2.667 0 M
2.667 1.473 1.473 2.667 0 2.667 C
-1.473 2.667 -2.667 1.473 -2.667 0 C
-2.667 -1.473 -1.473 -2.667 0 -2.667 C
1.473 -2.667 2.667 -1.473 2.667 0 C
cp
f
GR
GS
[1 0 0 1 290 277.6683] CT
0 0 1 RC
N
2.667 0 M
2.667 1.473 1.473 2.667 0 2.667 C
-1.473 2.667 -2.667 1.473 -2.667 0 C
-2.667 -1.473 -1.473 -2.667 0 -2.667 C
1.473 -2.667 2.667 -1.473 2.667 0 C
cp
f
GR
GS
[1 0 0 1 294.34 289.94855] CT
0 0 1 RC
N
2.667 0 M
2.667 1.473 1.473 2.667 0 2.667 C
-1.473 2.667 -2.667 1.473 -2.667 0 C
-2.667 -1.473 -1.473 -2.667 0 -2.667 C
1.473 -2.667 2.667 -1.473 2.667 0 C
cp
f
GR
GS
[1 0 0 1 298.67999 302.12143] CT
0 0 1 RC
N
2.667 0 M
2.667 1.473 1.473 2.667 0 2.667 C
-1.473 2.667 -2.667 1.473 -2.667 0 C
-2.667 -1.473 -1.473 -2.667 0 -2.667 C
1.473 -2.667 2.667 -1.473 2.667 0 C
cp
f
GR
GS
[1 0 0 1 303.01999 281.18524] CT
0 0 1 RC
N
2.667 0 M
2.667 1.473 1.473 2.667 0 2.667 C
-1.473 2.667 -2.667 1.473 -2.667 0 C
-2.667 -1.473 -1.473 -2.667 0 -2.667 C
1.473 -2.667 2.667 -1.473 2.667 0 C
cp
f
GR
GS
[1 0 0 1 307.35999 284.54837] CT
0 0 1 RC
N
2.667 0 M
2.667 1.473 1.473 2.667 0 2.667 C
-1.473 2.667 -2.667 1.473 -2.667 0 C
-2.667 -1.473 -1.473 -2.667 0 -2.667 C
1.473 -2.667 2.667 -1.473 2.667 0 C
cp
f
GR
GS
[1 0 0 1 311.70001 285.72247] CT
0 0 1 RC
N
2.667 0 M
2.667 1.473 1.473 2.667 0 2.667 C
-1.473 2.667 -2.667 1.473 -2.667 0 C
-2.667 -1.473 -1.473 -2.667 0 -2.667 C
1.473 -2.667 2.667 -1.473 2.667 0 C
cp
f
GR
GS
[1 0 0 1 316.04001 314.90601] CT
0 0 1 RC
N
2.667 0 M
2.667 1.473 1.473 2.667 0 2.667 C
-1.473 2.667 -2.667 1.473 -2.667 0 C
-2.667 -1.473 -1.473 -2.667 0 -2.667 C
1.473 -2.667 2.667 -1.473 2.667 0 C
cp
f
GR
GS
[1 0 0 1 320.38 275.3877] CT
0 0 1 RC
N
2.667 0 M
2.667 1.473 1.473 2.667 0 2.667 C
-1.473 2.667 -2.667 1.473 -2.667 0 C
-2.667 -1.473 -1.473 -2.667 0 -2.667 C
1.473 -2.667 2.667 -1.473 2.667 0 C
cp
f
GR
GS
[1 0 0 1 324.72 296.17969] CT
0 0 1 RC
N
2.667 0 M
2.667 1.473 1.473 2.667 0 2.667 C
-1.473 2.667 -2.667 1.473 -2.667 0 C
-2.667 -1.473 -1.473 -2.667 0 -2.667 C
1.473 -2.667 2.667 -1.473 2.667 0 C
cp
f
GR
GS
[1 0 0 1 329.06 292.15118] CT
0 0 1 RC
N
2.667 0 M
2.667 1.473 1.473 2.667 0 2.667 C
-1.473 2.667 -2.667 1.473 -2.667 0 C
-2.667 -1.473 -1.473 -2.667 0 -2.667 C
1.473 -2.667 2.667 -1.473 2.667 0 C
cp
f
GR
GS
[1 0 0 1 333.39999 293.22522] CT
0 0 1 RC
N
2.667 0 M
2.667 1.473 1.473 2.667 0 2.667 C
-1.473 2.667 -2.667 1.473 -2.667 0 C
-2.667 -1.473 -1.473 -2.667 0 -2.667 C
1.473 -2.667 2.667 -1.473 2.667 0 C
cp
f
GR
GS
[1 0 0 1 337.73999 292.5755] CT
0 0 1 RC
N
2.667 0 M
2.667 1.473 1.473 2.667 0 2.667 C
-1.473 2.667 -2.667 1.473 -2.667 0 C
-2.667 -1.473 -1.473 -2.667 0 -2.667 C
1.473 -2.667 2.667 -1.473 2.667 0 C
cp
f
GR
GS
[1 0 0 1 342.07999 270.064] CT
0 0 1 RC
N
2.667 0 M
2.667 1.473 1.473 2.667 0 2.667 C
-1.473 2.667 -2.667 1.473 -2.667 0 C
-2.667 -1.473 -1.473 -2.667 0 -2.667 C
1.473 -2.667 2.667 -1.473 2.667 0 C
cp
f
GR
GS
[1 0 0 1 346.42001 289.70215] CT
0 0 1 RC
N
2.667 0 M
2.667 1.473 1.473 2.667 0 2.667 C
-1.473 2.667 -2.667 1.473 -2.667 0 C
-2.667 -1.473 -1.473 -2.667 0 -2.667 C
1.473 -2.667 2.667 -1.473 2.667 0 C
cp
f
GR
GS
[1 0 0 1 350.76001 261.28708] CT
0 0 1 RC
N
2.667 0 M
2.667 1.473 1.473 2.667 0 2.667 C
-1.473 2.667 -2.667 1.473 -2.667 0 C
-2.667 -1.473 -1.473 -2.667 0 -2.667 C
1.473 -2.667 2.667 -1.473 2.667 0 C
cp
f
GR
GS
[1 0 0 1 355.10001 261.38223] CT
0 0 1 RC
N
2.667 0 M
2.667 1.473 1.473 2.667 0 2.667 C
-1.473 2.667 -2.667 1.473 -2.667 0 C
-2.667 -1.473 -1.473 -2.667 0 -2.667 C
1.473 -2.667 2.667 -1.473 2.667 0 C
cp
f
GR
GS
[1 0 0 1 359.44 301.7818] CT
0 0 1 RC
N
2.667 0 M
2.667 1.473 1.473 2.667 0 2.667 C
-1.473 2.667 -2.667 1.473 -2.667 0 C
-2.667 -1.473 -1.473 -2.667 0 -2.667 C
1.473 -2.667 2.667 -1.473 2.667 0 C
cp
f
GR
GS
[1 0 0 1 363.78 285.30502] CT
0 0 1 RC
N
2.667 0 M
2.667 1.473 1.473 2.667 0 2.667 C
-1.473 2.667 -2.667 1.473 -2.667 0 C
-2.667 -1.473 -1.473 -2.667 0 -2.667 C
1.473 -2.667 2.667 -1.473 2.667 0 C
cp
f
GR
GS
[1 0 0 1 368.12 269.27689] CT
0 0 1 RC
N
2.667 0 M
2.667 1.473 1.473 2.667 0 2.667 C
-1.473 2.667 -2.667 1.473 -2.667 0 C
-2.667 -1.473 -1.473 -2.667 0 -2.667 C
1.473 -2.667 2.667 -1.473 2.667 0 C
cp
f
GR
GS
[1 0 0 1 372.45999 319.79642] CT
0 0 1 RC
N
2.667 0 M
2.667 1.473 1.473 2.667 0 2.667 C
-1.473 2.667 -2.667 1.473 -2.667 0 C
-2.667 -1.473 -1.473 -2.667 0 -2.667 C
1.473 -2.667 2.667 -1.473 2.667 0 C
cp
f
GR
GS
[1 0 0 1 376.79999 272.11969] CT
0 0 1 RC
N
2.667 0 M
2.667 1.473 1.473 2.667 0 2.667 C
-1.473 2.667 -2.667 1.473 -2.667 0 C
-2.667 -1.473 -1.473 -2.667 0 -2.667 C
1.473 -2.667 2.667 -1.473 2.667 0 C
cp
f
GR
GS
[1 0 0 1 381.14001 280.54721] CT
0 0 1 RC
N
2.667 0 M
2.667 1.473 1.473 2.667 0 2.667 C
-1.473 2.667 -2.667 1.473 -2.667 0 C
-2.667 -1.473 -1.473 -2.667 0 -2.667 C
1.473 -2.667 2.667 -1.473 2.667 0 C
cp
f
GR
GS
[1 0 0 1 385.48001 291.01102] CT
0 0 1 RC
N
2.667 0 M
2.667 1.473 1.473 2.667 0 2.667 C
-1.473 2.667 -2.667 1.473 -2.667 0 C
-2.667 -1.473 -1.473 -2.667 0 -2.667 C
1.473 -2.667 2.667 -1.473 2.667 0 C
cp
f
GR
GS
[1 0 0 1 389.82001 293.66885] CT
0 0 1 RC
N
2.667 0 M
2.667 1.473 1.473 2.667 0 2.667 C
-1.473 2.667 -2.667 1.473 -2.667 0 C
-2.667 -1.473 -1.473 -2.667 0 -2.667 C
1.473 -2.667 2.667 -1.473 2.667 0 C
cp
f
GR
GS
[1 0 0 1 394.16 335.05991] CT
0 0 1 RC
N
2.667 0 M
2.667 1.473 1.473 2.667 0 2.667 C
-1.473 2.667 -2.667 1.473 -2.667 0 C
-2.667 -1.473 -1.473 -2.667 0 -2.667 C
1.473 -2.667 2.667 -1.473 2.667 0 C
cp
f
GR
GS
[1 0 0 1 398.5 314.259] CT
0 0 1 RC
N
2.667 0 M
2.667 1.473 1.473 2.667 0 2.667 C
-1.473 2.667 -2.667 1.473 -2.667 0 C
-2.667 -1.473 -1.473 -2.667 0 -2.667 C
1.473 -2.667 2.667 -1.473 2.667 0 C
cp
f
GR
GS
[1 0 0 1 402.84 332.25299] CT
0 0 1 RC
N
2.667 0 M
2.667 1.473 1.473 2.667 0 2.667 C
-1.473 2.667 -2.667 1.473 -2.667 0 C
-2.667 -1.473 -1.473 -2.667 0 -2.667 C
1.473 -2.667 2.667 -1.473 2.667 0 C
cp
f
GR
GS
[1 0 0 1 407.17999 304.05392] CT
0 0 1 RC
N
2.667 0 M
2.667 1.473 1.473 2.667 0 2.667 C
-1.473 2.667 -2.667 1.473 -2.667 0 C
-2.667 -1.473 -1.473 -2.667 0 -2.667 C
1.473 -2.667 2.667 -1.473 2.667 0 C
cp
f
GR
GS
[1 0 0 1 411.51999 283.80499] CT
0 0 1 RC
N
2.667 0 M
2.667 1.473 1.473 2.667 0 2.667 C
-1.473 2.667 -2.667 1.473 -2.667 0 C
-2.667 -1.473 -1.473 -2.667 0 -2.667 C
1.473 -2.667 2.667 -1.473 2.667 0 C
cp
f
GR
GS
[1 0 0 1 415.85999 311.85269] CT
0 0 1 RC
N
2.667 0 M
2.667 1.473 1.473 2.667 0 2.667 C
-1.473 2.667 -2.667 1.473 -2.667 0 C
-2.667 -1.473 -1.473 -2.667 0 -2.667 C
1.473 -2.667 2.667 -1.473 2.667 0 C
cp
f
GR
GS
[1 0 0 1 420.20001 291.29041] CT
0 0 1 RC
N
2.667 0 M
2.667 1.473 1.473 2.667 0 2.667 C
-1.473 2.667 -2.667 1.473 -2.667 0 C
-2.667 -1.473 -1.473 -2.667 0 -2.667 C
1.473 -2.667 2.667 -1.473 2.667 0 C
cp
f
GR
GS
[1 0 0 1 424.54001 309.4552] CT
0 0 1 RC
N
2.667 0 M
2.667 1.473 1.473 2.667 0 2.667 C
-1.473 2.667 -2.667 1.473 -2.667 0 C
-2.667 -1.473 -1.473 -2.667 0 -2.667 C
1.473 -2.667 2.667 -1.473 2.667 0 C
cp
f
GR
GS
[1 0 0 1 428.88 293.72229] CT
0 0 1 RC
N
2.667 0 M
2.667 1.473 1.473 2.667 0 2.667 C
-1.473 2.667 -2.667 1.473 -2.667 0 C
-2.667 -1.473 -1.473 -2.667 0 -2.667 C
1.473 -2.667 2.667 -1.473 2.667 0 C
cp
f
GR
GS
[1 0 0 1 433.22 293.67978] CT
0 0 1 RC
N
2.667 0 M
2.667 1.473 1.473 2.667 0 2.667 C
-1.473 2.667 -2.667 1.473 -2.667 0 C
-2.667 -1.473 -1.473 -2.667 0 -2.667 C
1.473 -2.667 2.667 -1.473 2.667 0 C
cp
f
GR
GS
[1 0 0 1 437.56 285.10257] CT
0 0 1 RC
N
2.667 0 M
2.667 1.473 1.473 2.667 0 2.667 C
-1.473 2.667 -2.667 1.473 -2.667 0 C
-2.667 -1.473 -1.473 -2.667 0 -2.667 C
1.473 -2.667 2.667 -1.473 2.667 0 C
cp
f
GR
GS
[1 0 0 1 441.89999 286.75128] CT
0 0 1 RC
N
2.667 0 M
2.667 1.473 1.473 2.667 0 2.667 C
-1.473 2.667 -2.667 1.473 -2.667 0 C
-2.667 -1.473 -1.473 -2.667 0 -2.667 C
1.473 -2.667 2.667 -1.473 2.667 0 C
cp
f
GR
GS
[1 0 0 1 446.23999 275.81073] CT
0 0 1 RC
N
2.667 0 M
2.667 1.473 1.473 2.667 0 2.667 C
-1.473 2.667 -2.667 1.473 -2.667 0 C
-2.667 -1.473 -1.473 -2.667 0 -2.667 C
1.473 -2.667 2.667 -1.473 2.667 0 C
cp
f
GR
GS
[1 0 0 1 450.57999 285.91492] CT
0 0 1 RC
N
2.667 0 M
2.667 1.473 1.473 2.667 0 2.667 C
-1.473 2.667 -2.667 1.473 -2.667 0 C
-2.667 -1.473 -1.473 -2.667 0 -2.667 C
1.473 -2.667 2.667 -1.473 2.667 0 C
cp
f
GR
GS
[1 0 0 1 454.92001 280.11414] CT
0 0 1 RC
N
2.667 0 M
2.667 1.473 1.473 2.667 0 2.667 C
-1.473 2.667 -2.667 1.473 -2.667 0 C
-2.667 -1.473 -1.473 -2.667 0 -2.667 C
1.473 -2.667 2.667 -1.473 2.667 0 C
cp
f
GR
GS
[1 0 0 1 459.26001 286.16461] CT
0 0 1 RC
N
2.667 0 M
2.667 1.473 1.473 2.667 0 2.667 C
-1.473 2.667 -2.667 1.473 -2.667 0 C
-2.667 -1.473 -1.473 -2.667 0 -2.667 C
1.473 -2.667 2.667 -1.473 2.667 0 C
cp
f
GR
GS
[1 0 0 1 463.60001 279.50623] CT
0 0 1 RC
N
2.667 0 M
2.667 1.473 1.473 2.667 0 2.667 C
-1.473 2.667 -2.667 1.473 -2.667 0 C
-2.667 -1.473 -1.473 -2.667 0 -2.667 C
1.473 -2.667 2.667 -1.473 2.667 0 C
cp
f
GR
GS
[1 0 0 1 467.94 299.6492] CT
0 0 1 RC
N
2.667 0 M
2.667 1.473 1.473 2.667 0 2.667 C
-1.473 2.667 -2.667 1.473 -2.667 0 C
-2.667 -1.473 -1.473 -2.667 0 -2.667 C
1.473 -2.667 2.667 -1.473 2.667 0 C
cp
f
GR
GS
[1 0 0 1 472.28 291.41708] CT
0 0 1 RC
N
2.667 0 M
2.667 1.473 1.473 2.667 0 2.667 C
-1.473 2.667 -2.667 1.473 -2.667 0 C
-2.667 -1.473 -1.473 -2.667 0 -2.667 C
1.473 -2.667 2.667 -1.473 2.667 0 C
cp
f
GR
GS
[1 0 0 1 476.62 297.5957] CT
0 0 1 RC
N
2.667 0 M
2.667 1.473 1.473 2.667 0 2.667 C
-1.473 2.667 -2.667 1.473 -2.667 0 C
-2.667 -1.473 -1.473 -2.667 0 -2.667 C
1.473 -2.667 2.667 -1.473 2.667 0 C
cp
f
GR
GS
[1 0 0 1 480.95999 287.52316] CT
0 0 1 RC
N
2.667 0 M
2.667 1.473 1.473 2.667 0 2.667 C
-1.473 2.667 -2.667 1.473 -2.667 0 C
-2.667 -1.473 -1.473 -2.667 0 -2.667 C
1.473 -2.667 2.667 -1.473 2.667 0 C
cp
f
GR
GS
[1 0 0 1 485.29999 301.69431] CT
0 0 1 RC
N
2.667 0 M
2.667 1.473 1.473 2.667 0 2.667 C
-1.473 2.667 -2.667 1.473 -2.667 0 C
-2.667 -1.473 -1.473 -2.667 0 -2.667 C
1.473 -2.667 2.667 -1.473 2.667 0 C
cp
f
GR
GS
[1 0 0 1 489.64001 309.36011] CT
0 0 1 RC
N
2.667 0 M
2.667 1.473 1.473 2.667 0 2.667 C
-1.473 2.667 -2.667 1.473 -2.667 0 C
-2.667 -1.473 -1.473 -2.667 0 -2.667 C
1.473 -2.667 2.667 -1.473 2.667 0 C
cp
f
GR
GS
[1 0 0 1 493.98001 277.28033] CT
0 0 1 RC
N
2.667 0 M
2.667 1.473 1.473 2.667 0 2.667 C
-1.473 2.667 -2.667 1.473 -2.667 0 C
-2.667 -1.473 -1.473 -2.667 0 -2.667 C
1.473 -2.667 2.667 -1.473 2.667 0 C
cp
f
GR
GS
[1 0 0 1 498.32001 331.47592] CT
0 0 1 RC
N
2.667 0 M
2.667 1.473 1.473 2.667 0 2.667 C
-1.473 2.667 -2.667 1.473 -2.667 0 C
-2.667 -1.473 -1.473 -2.667 0 -2.667 C
1.473 -2.667 2.667 -1.473 2.667 0 C
cp
f
GR
GS
[1 0 0 1 502.66 256.21393] CT
0 0 1 RC
N
2.667 0 M
2.667 1.473 1.473 2.667 0 2.667 C
-1.473 2.667 -2.667 1.473 -2.667 0 C
-2.667 -1.473 -1.473 -2.667 0 -2.667 C
1.473 -2.667 2.667 -1.473 2.667 0 C
cp
f
GR
GS
[1 0 0 1 507 347.76123] CT
0 0 1 RC
N
2.667 0 M
2.667 1.473 1.473 2.667 0 2.667 C
-1.473 2.667 -2.667 1.473 -2.667 0 C
-2.667 -1.473 -1.473 -2.667 0 -2.667 C
1.473 -2.667 2.667 -1.473 2.667 0 C
cp
f
GR
GS
1 0 0 RC
1 LJ
N
73 288.2 M
73.434 288.2 L
73.868 288.2 L
74.302 288.2 L
74.736 288.2 L
75.17 288.2 L
75.604 288.2 L
76.038 288.2 L
76.472 288.2 L
76.906 288.2 L
77.34 288.2 L
77.774 288.2 L
78.208 288.2 L
78.642 288.2 L
79.076 288.2 L
79.51 288.2 L
79.944 288.2 L
80.378 288.2 L
80.812 288.2 L
81.246 288.2 L
81.68 288.2 L
82.114 288.2 L
82.548 288.2 L
82.982 288.2 L
83.416 288.2 L
83.85 288.2 L
84.284 288.2 L
84.718 288.2 L
85.152 288.2 L
85.586 288.2 L
86.02 288.2 L
86.454 288.2 L
86.888 288.2 L
87.322 288.2 L
87.756 288.2 L
88.19 288.2 L
88.624 288.2 L
89.058 288.2 L
89.492 288.2 L
89.926 288.2 L
90.36 288.2 L
90.794 288.2 L
91.228 288.2 L
91.662 288.2 L
92.096 288.2 L
92.53 288.2 L
92.964 288.2 L
93.398 288.2 L
93.832 288.2 L
94.266 288.2 L
94.7 288.2 L
95.134 288.2 L
95.568 288.2 L
96.002 288.2 L
96.436 288.2 L
96.87 288.2 L
97.304 288.2 L
97.738 288.2 L
98.172 288.2 L
98.606 288.2 L
99.04 288.2 L
99.474 288.2 L
99.908 288.2 L
100.342 288.2 L
100.776 288.2 L
101.21 288.2 L
101.644 288.2 L
102.078 288.2 L
102.512 288.2 L
102.946 288.2 L
103.38 288.2 L
103.814 288.2 L
104.248 288.2 L
104.682 288.2 L
105.116 288.2 L
105.55 288.2 L
105.984 288.2 L
106.418 288.2 L
106.852 288.2 L
107.286 288.2 L
107.72 288.2 L
108.154 288.2 L
108.588 288.2 L
109.022 288.2 L
109.456 288.2 L
109.89 288.2 L
110.324 288.2 L
110.758 288.2 L
111.192 288.2 L
111.626 288.2 L
112.06 288.2 L
112.494 288.2 L
112.928 288.2 L
113.362 288.2 L
113.796 288.2 L
114.23 288.2 L
114.664 288.2 L
115.098 288.2 L
115.532 288.2 L
115.966 288.2 L
116.4 288.2 L
116.834 288.2 L
117.268 288.2 L
117.702 288.2 L
118.136 288.2 L
118.57 288.2 L
119.004 288.2 L
119.438 288.2 L
119.872 288.2 L
120.306 288.2 L
120.74 288.2 L
121.174 288.2 L
121.608 288.2 L
122.042 288.2 L
122.476 288.2 L
122.91 288.2 L
123.344 288.2 L
123.778 288.2 L
124.212 288.2 L
124.646 288.2 L
125.08 288.2 L
125.514 288.2 L
125.948 288.2 L
126.382 288.2 L
126.816 288.2 L
127.25 288.2 L
127.684 288.2 L
128.118 288.2 L
128.552 288.2 L
128.986 288.2 L
129.42 288.2 L
129.854 288.2 L
130.288 288.2 L
130.722 288.2 L
131.156 288.2 L
131.59 288.2 L
132.024 288.2 L
132.458 288.2 L
132.892 288.2 L
133.326 288.2 L
133.76 288.2 L
134.194 288.2 L
134.628 288.2 L
135.062 288.2 L
135.496 288.2 L
135.93 288.2 L
136.364 288.2 L
136.798 288.2 L
137.232 288.2 L
137.666 288.2 L
138.1 288.2 L
138.534 288.2 L
138.968 288.2 L
139.402 288.2 L
139.836 288.2 L
140.27 288.2 L
140.704 288.2 L
141.138 288.2 L
141.572 288.2 L
142.006 288.2 L
142.44 288.2 L
142.874 288.2 L
143.308 288.2 L
143.742 288.2 L
144.176 288.2 L
144.61 288.2 L
145.044 288.2 L
145.478 288.2 L
145.912 288.2 L
146.346 288.2 L
146.78 288.2 L
147.214 288.2 L
147.648 288.2 L
148.082 288.2 L
148.516 288.2 L
148.95 288.2 L
149.384 288.2 L
149.818 288.2 L
150.252 288.2 L
150.686 288.2 L
151.12 288.2 L
151.554 288.2 L
151.988 288.2 L
152.422 288.2 L
152.856 288.2 L
153.29 288.2 L
153.724 288.2 L
154.158 288.2 L
154.592 288.2 L
155.026 288.2 L
155.46 288.2 L
155.894 288.2 L
156.328 288.2 L
156.762 288.2 L
157.196 288.2 L
157.63 288.2 L
158.064 288.2 L
158.498 288.2 L
158.932 288.2 L
159.366 288.2 L
159.8 288.2 L
160.234 288.2 L
160.668 288.2 L
161.102 288.2 L
161.536 288.2 L
161.97 288.2 L
162.404 288.2 L
162.838 288.2 L
163.272 288.2 L
163.706 288.2 L
164.14 288.2 L
164.574 288.2 L
165.008 288.2 L
165.442 288.2 L
165.876 288.2 L
166.31 288.2 L
166.744 288.2 L
167.178 288.2 L
167.612 288.2 L
168.046 288.2 L
168.48 288.2 L
168.914 288.2 L
169.348 288.2 L
169.782 288.2 L
170.216 288.2 L
170.65 288.2 L
171.084 288.2 L
171.518 288.2 L
171.952 288.2 L
172.386 288.2 L
172.82 288.2 L
173.254 288.2 L
173.688 288.2 L
174.122 288.2 L
174.556 288.2 L
174.99 288.2 L
175.424 288.2 L
175.858 288.2 L
176.292 288.2 L
176.726 288.2 L
177.16 288.2 L
177.594 288.2 L
178.028 288.2 L
178.462 288.2 L
178.896 288.2 L
179.33 288.2 L
179.764 288.2 L
180.198 288.2 L
180.632 288.2 L
181.066 288.2 L
181.5 288.2 L
181.934 288.2 L
182.368 288.2 L
182.802 288.2 L
183.236 288.2 L
183.67 288.2 L
184.104 288.2 L
184.538 288.2 L
184.972 288.2 L
185.406 288.2 L
185.84 288.2 L
186.274 288.2 L
186.708 288.2 L
187.142 288.2 L
187.576 288.2 L
188.01 288.2 L
188.444 288.2 L
188.878 288.2 L
189.312 288.2 L
189.746 288.2 L
190.18 288.2 L
190.614 288.2 L
191.048 288.2 L
191.482 288.2 L
191.916 288.2 L
192.35 288.2 L
192.784 288.2 L
193.218 288.2 L
193.652 288.2 L
194.086 288.2 L
194.52 288.2 L
194.954 288.2 L
195.388 288.2 L
195.822 288.2 L
196.256 288.2 L
196.69 288.2 L
197.124 288.2 L
197.558 288.2 L
197.992 288.2 L
198.426 288.2 L
198.86 288.2 L
199.294 288.2 L
199.728 288.2 L
200.162 288.2 L
200.596 288.2 L
201.03 288.2 L
201.464 288.2 L
201.898 288.2 L
202.332 288.2 L
202.766 288.2 L
203.2 288.2 L
203.634 288.2 L
204.068 288.2 L
204.502 288.2 L
204.936 288.2 L
205.37 288.2 L
205.804 288.2 L
206.238 288.2 L
206.672 288.2 L
207.106 288.2 L
207.54 288.2 L
207.974 288.2 L
208.408 288.2 L
208.842 288.2 L
209.276 288.2 L
209.71 288.2 L
210.144 288.2 L
210.578 288.2 L
211.012 288.2 L
211.446 288.2 L
211.88 288.2 L
212.314 288.2 L
212.748 288.2 L
213.182 288.2 L
213.616 288.2 L
214.05 288.2 L
214.484 288.2 L
214.918 288.2 L
215.352 288.2 L
215.786 288.2 L
216.22 288.2 L
216.654 288.2 L
217.088 288.2 L
217.522 288.2 L
217.956 288.2 L
218.39 288.2 L
218.824 288.2 L
219.258 288.2 L
219.692 288.2 L
220.126 288.2 L
220.56 288.2 L
220.994 288.2 L
221.428 288.2 L
221.862 288.2 L
222.296 288.2 L
222.73 288.2 L
223.164 288.2 L
223.598 288.2 L
224.032 288.2 L
224.466 288.2 L
224.9 288.2 L
225.334 288.2 L
225.768 288.2 L
226.202 288.2 L
226.636 288.2 L
227.07 288.2 L
227.504 288.2 L
227.938 288.2 L
228.372 288.2 L
228.806 288.2 L
229.24 288.2 L
229.674 288.2 L
230.108 288.2 L
230.542 288.2 L
230.976 288.2 L
231.41 288.2 L
231.844 288.2 L
232.278 288.2 L
232.712 288.2 L
233.146 288.2 L
233.58 288.2 L
234.014 288.2 L
234.448 288.2 L
234.882 288.2 L
235.316 288.2 L
235.75 288.2 L
236.184 288.2 L
236.618 288.2 L
237.052 288.2 L
237.486 288.2 L
237.92 288.2 L
238.354 288.2 L
238.788 288.2 L
239.222 288.2 L
239.656 288.2 L
240.09 288.2 L
240.524 288.2 L
240.958 288.2 L
241.392 288.2 L
241.826 288.2 L
242.26 288.2 L
242.694 288.2 L
243.128 288.2 L
243.562 288.2 L
243.996 288.2 L
244.43 288.2 L
244.864 288.2 L
245.298 288.2 L
245.732 288.2 L
246.166 288.2 L
246.6 288.2 L
247.034 288.2 L
247.468 288.2 L
247.902 288.2 L
248.336 288.2 L
248.77 288.2 L
249.204 288.2 L
249.638 288.2 L
250.072 288.2 L
250.506 288.2 L
250.94 288.2 L
251.374 288.2 L
251.808 288.2 L
252.242 288.2 L
252.676 288.2 L
253.11 288.2 L
253.544 288.2 L
253.978 288.2 L
254.412 288.2 L
254.846 288.2 L
255.28 288.2 L
255.714 288.2 L
256.148 288.2 L
256.582 288.2 L
257.016 288.2 L
257.45 288.2 L
257.884 288.2 L
258.318 288.2 L
258.752 288.2 L
259.186 288.2 L
259.62 288.2 L
260.054 288.2 L
260.488 288.2 L
260.922 288.2 L
261.356 288.2 L
261.79 288.2 L
262.224 288.2 L
262.658 288.2 L
263.092 288.2 L
263.526 288.2 L
263.96 288.2 L
264.394 288.2 L
264.828 288.2 L
265.262 288.2 L
265.696 288.2 L
266.13 288.2 L
266.564 288.2 L
266.998 288.2 L
267.432 288.2 L
267.866 288.2 L
268.3 288.2 L
268.734 288.2 L
269.168 288.2 L
269.602 288.2 L
270.036 288.2 L
270.47 288.2 L
270.904 288.2 L
271.338 288.2 L
271.772 288.2 L
272.206 288.2 L
272.64 288.2 L
273.074 288.2 L
273.508 288.2 L
273.942 288.2 L
274.376 288.2 L
274.81 288.2 L
275.244 288.2 L
275.678 288.2 L
276.112 288.2 L
276.546 288.2 L
276.98 288.2 L
277.414 288.2 L
277.848 288.2 L
278.282 288.2 L
278.716 288.2 L
279.15 288.2 L
279.584 288.2 L
280.018 288.2 L
280.452 288.2 L
280.886 288.2 L
281.32 288.2 L
281.754 288.2 L
282.188 288.2 L
282.622 288.2 L
283.056 288.2 L
283.49 288.2 L
283.924 288.2 L
284.358 288.2 L
284.792 288.2 L
285.226 288.2 L
285.66 288.2 L
286.094 288.2 L
286.528 288.2 L
286.962 288.2 L
287.396 288.2 L
287.83 288.2 L
288.264 288.2 L
288.698 288.2 L
289.132 288.2 L
289.566 288.2 L
290 288.2 L
290.434 288.2 L
290.868 288.2 L
291.302 288.2 L
291.736 288.2 L
292.17 288.2 L
292.604 288.2 L
293.038 288.2 L
293.472 288.2 L
293.906 288.2 L
294.34 288.2 L
294.774 288.2 L
295.208 288.2 L
295.642 288.2 L
296.076 288.2 L
296.51 288.2 L
296.944 288.2 L
297.378 288.2 L
297.812 288.2 L
298.246 288.2 L
298.68 288.2 L
299.114 288.2 L
299.548 288.2 L
299.982 288.2 L
300.416 288.2 L
300.85 288.2 L
301.284 288.2 L
301.718 288.2 L
302.152 288.2 L
302.586 288.2 L
303.02 288.2 L
303.454 288.2 L
303.888 288.2 L
304.322 288.2 L
304.756 288.2 L
305.19 288.2 L
305.624 288.2 L
306.058 288.2 L
306.492 288.2 L
306.926 288.2 L
307.36 288.2 L
307.794 288.2 L
308.228 288.2 L
308.662 288.2 L
309.096 288.2 L
309.53 288.2 L
309.964 288.2 L
310.398 288.2 L
310.832 288.2 L
311.266 288.2 L
311.7 288.2 L
312.134 288.2 L
312.568 288.2 L
313.002 288.2 L
313.436 288.2 L
313.87 288.2 L
314.304 288.2 L
314.738 288.2 L
315.172 288.2 L
315.606 288.2 L
316.04 288.2 L
316.474 288.2 L
316.908 288.2 L
317.342 288.2 L
317.776 288.2 L
318.21 288.2 L
318.644 288.2 L
319.078 288.2 L
319.512 288.2 L
319.946 288.2 L
320.38 288.2 L
320.814 288.2 L
321.248 288.2 L
321.682 288.2 L
322.116 288.2 L
322.55 288.2 L
322.984 288.2 L
323.418 288.2 L
323.852 288.2 L
324.286 288.2 L
324.72 288.2 L
325.154 288.2 L
325.588 288.2 L
326.022 288.2 L
326.456 288.2 L
326.89 288.2 L
327.324 288.2 L
327.758 288.2 L
328.192 288.2 L
328.626 288.2 L
329.06 288.2 L
329.494 288.2 L
329.928 288.2 L
330.362 288.2 L
330.796 288.2 L
331.23 288.2 L
331.664 288.2 L
332.098 288.2 L
332.532 288.2 L
332.966 288.2 L
333.4 288.2 L
333.834 288.2 L
334.268 288.2 L
334.702 288.2 L
335.136 288.2 L
335.57 288.2 L
336.004 288.2 L
336.438 288.2 L
336.872 288.2 L
337.306 288.2 L
337.74 288.2 L
338.174 288.2 L
338.608 288.2 L
339.042 288.2 L
339.476 288.2 L
339.91 288.2 L
340.344 288.2 L
340.778 288.2 L
341.212 288.2 L
341.646 288.2 L
342.08 288.2 L
342.514 288.2 L
342.948 288.2 L
343.382 288.2 L
343.816 288.2 L
344.25 288.2 L
344.684 288.2 L
345.118 288.2 L
345.552 288.2 L
345.986 288.2 L
346.42 288.2 L
346.854 288.2 L
347.288 288.2 L
347.722 288.2 L
348.156 288.2 L
348.59 288.2 L
349.024 288.2 L
349.458 288.2 L
349.892 288.2 L
350.326 288.2 L
350.76 288.2 L
351.194 288.2 L
351.628 288.2 L
352.062 288.2 L
352.496 288.2 L
352.93 288.2 L
353.364 288.2 L
353.798 288.2 L
354.232 288.2 L
354.666 288.2 L
355.1 288.2 L
355.534 288.2 L
355.968 288.2 L
356.402 288.2 L
356.836 288.2 L
357.27 288.2 L
357.704 288.2 L
358.138 288.2 L
358.572 288.2 L
359.006 288.2 L
359.44 288.2 L
359.874 288.2 L
360.308 288.2 L
360.742 288.2 L
361.176 288.2 L
361.61 288.2 L
362.044 288.2 L
362.478 288.2 L
362.912 288.2 L
363.346 288.2 L
363.78 288.2 L
364.214 288.2 L
364.648 288.2 L
365.082 288.2 L
365.516 288.2 L
365.95 288.2 L
366.384 288.2 L
366.818 288.2 L
367.252 288.2 L
367.686 288.2 L
368.12 288.2 L
368.554 288.2 L
368.988 288.2 L
369.422 288.2 L
369.856 288.2 L
370.29 288.2 L
370.724 288.2 L
371.158 288.2 L
371.592 288.2 L
372.026 288.2 L
372.46 288.2 L
372.894 288.2 L
373.328 288.2 L
373.762 288.2 L
374.196 288.2 L
374.63 288.2 L
375.064 288.2 L
375.498 288.2 L
375.932 288.2 L
376.366 288.2 L
376.8 288.2 L
377.234 288.2 L
377.668 288.2 L
378.102 288.2 L
378.536 288.2 L
378.97 288.2 L
379.404 288.2 L
379.838 288.2 L
380.272 288.2 L
380.706 288.2 L
381.14 288.2 L
381.574 288.2 L
382.008 288.2 L
382.442 288.2 L
382.876 288.2 L
383.31 288.2 L
383.744 288.2 L
384.178 288.2 L
384.612 288.2 L
385.046 288.2 L
385.48 288.2 L
385.914 288.2 L
386.348 288.2 L
386.782 288.2 L
387.216 288.2 L
387.65 288.2 L
388.084 288.2 L
388.518 288.2 L
388.952 288.2 L
389.386 288.2 L
389.82 288.2 L
390.254 288.2 L
390.688 288.2 L
391.122 288.2 L
391.556 288.2 L
391.99 288.2 L
392.424 288.2 L
392.858 288.2 L
393.292 288.2 L
393.726 288.2 L
394.16 288.2 L
394.594 288.2 L
395.028 288.2 L
395.462 288.2 L
395.896 288.2 L
396.33 288.2 L
396.764 288.2 L
397.198 288.2 L
397.632 288.2 L
398.066 288.2 L
398.5 288.2 L
398.934 288.2 L
399.368 288.2 L
399.802 288.2 L
400.236 288.2 L
400.67 288.2 L
401.104 288.2 L
401.538 288.2 L
401.972 288.2 L
402.406 288.2 L
402.84 288.2 L
403.274 288.2 L
403.708 288.2 L
404.142 288.2 L
404.576 288.2 L
405.01 288.2 L
405.444 288.2 L
405.878 288.2 L
406.312 288.2 L
406.746 288.2 L
407.18 288.2 L
407.614 288.2 L
408.048 288.2 L
408.482 288.2 L
408.916 288.2 L
409.35 288.2 L
409.784 288.2 L
410.218 288.2 L
410.652 288.2 L
411.086 288.2 L
411.52 288.2 L
411.954 288.2 L
412.388 288.2 L
412.822 288.2 L
413.256 288.2 L
413.69 288.2 L
414.124 288.2 L
414.558 288.2 L
414.992 288.2 L
415.426 288.2 L
415.86 288.2 L
416.294 288.2 L
416.728 288.2 L
417.162 288.2 L
417.596 288.2 L
418.03 288.2 L
418.464 288.2 L
418.898 288.2 L
419.332 288.2 L
419.766 288.2 L
420.2 288.2 L
420.634 288.2 L
421.068 288.2 L
421.502 288.2 L
421.936 288.2 L
422.37 288.2 L
422.804 288.2 L
423.238 288.2 L
423.672 288.2 L
424.106 288.2 L
424.54 288.2 L
424.974 288.2 L
425.408 288.2 L
425.842 288.2 L
426.276 288.2 L
426.71 288.2 L
427.144 288.2 L
427.578 288.2 L
428.012 288.2 L
428.446 288.2 L
428.88 288.2 L
429.314 288.2 L
429.748 288.2 L
430.182 288.2 L
430.616 288.2 L
431.05 288.2 L
431.484 288.2 L
431.918 288.2 L
432.352 288.2 L
432.786 288.2 L
433.22 288.2 L
433.654 288.2 L
434.088 288.2 L
434.522 288.2 L
434.956 288.2 L
435.39 288.2 L
435.824 288.2 L
436.258 288.2 L
436.692 288.2 L
437.126 288.2 L
437.56 288.2 L
437.994 288.2 L
438.428 288.2 L
438.862 288.2 L
439.296 288.2 L
439.73 288.2 L
440.164 288.2 L
440.598 288.2 L
441.032 288.2 L
441.466 288.2 L
441.9 288.2 L
442.334 288.2 L
442.768 288.2 L
443.202 288.2 L
443.636 288.2 L
444.07 288.2 L
444.504 288.2 L
444.938 288.2 L
445.372 288.2 L
445.806 288.2 L
446.24 288.2 L
446.674 288.2 L
447.108 288.2 L
447.542 288.2 L
447.976 288.2 L
448.41 288.2 L
448.844 288.2 L
449.278 288.2 L
449.712 288.2 L
450.146 288.2 L
450.58 288.2 L
451.014 288.2 L
451.448 288.2 L
451.882 288.2 L
452.316 288.2 L
452.75 288.2 L
453.184 288.2 L
453.618 288.2 L
454.052 288.2 L
454.486 288.2 L
454.92 288.2 L
455.354 288.2 L
455.788 288.2 L
456.222 288.2 L
456.656 288.2 L
457.09 288.2 L
457.524 288.2 L
457.958 288.2 L
458.392 288.2 L
458.826 288.2 L
459.26 288.2 L
459.694 288.2 L
460.128 288.2 L
460.562 288.2 L
460.996 288.2 L
461.43 288.2 L
461.864 288.2 L
462.298 288.2 L
462.732 288.2 L
463.166 288.2 L
463.6 288.2 L
464.034 288.2 L
464.468 288.2 L
464.902 288.2 L
465.336 288.2 L
465.77 288.2 L
466.204 288.2 L
466.638 288.2 L
467.072 288.2 L
467.506 288.2 L
467.94 288.2 L
468.374 288.2 L
468.808 288.2 L
469.242 288.2 L
469.676 288.2 L
470.11 288.2 L
470.544 288.2 L
470.978 288.2 L
471.412 288.2 L
471.846 288.2 L
472.28 288.2 L
472.714 288.2 L
473.148 288.2 L
473.582 288.2 L
474.016 288.2 L
474.45 288.2 L
474.884 288.2 L
475.318 288.2 L
475.752 288.2 L
476.186 288.2 L
476.62 288.2 L
477.054 288.2 L
477.488 288.2 L
477.922 288.2 L
478.356 288.2 L
478.79 288.2 L
479.224 288.2 L
479.658 288.2 L
480.092 288.2 L
480.526 288.2 L
480.96 288.2 L
481.394 288.2 L
481.828 288.2 L
482.262 288.2 L
482.696 288.2 L
483.13 288.2 L
483.564 288.2 L
483.998 288.2 L
484.432 288.2 L
484.866 288.2 L
485.3 288.2 L
485.734 288.2 L
486.168 288.2 L
486.602 288.2 L
487.036 288.2 L
487.47 288.2 L
487.904 288.2 L
488.338 288.2 L
488.772 288.2 L
489.206 288.2 L
489.64 288.2 L
490.074 288.2 L
490.508 288.2 L
490.942 288.2 L
491.376 288.2 L
491.81 288.2 L
492.244 288.2 L
492.678 288.2 L
493.112 288.2 L
493.546 288.2 L
493.98 288.2 L
494.414 288.2 L
494.848 288.2 L
495.282 288.2 L
495.716 288.2 L
496.15 288.2 L
496.584 288.2 L
497.018 288.2 L
497.452 288.2 L
497.886 288.2 L
498.32 288.2 L
498.754 288.2 L
499.188 288.2 L
499.622 288.2 L
500.056 288.2 L
500.49 288.2 L
500.924 288.2 L
501.358 288.2 L
501.792 288.2 L
502.226 288.2 L
502.66 288.2 L
503.094 288.2 L
503.528 288.2 L
503.962 288.2 L
504.396 288.2 L
504.83 288.2 L
505.264 288.2 L
505.698 288.2 L
506.132 288.2 L
506.566 288.2 L
507 288.2 L
S
GR
GS
1 GC
N
80 264 M
80 237 L
218 237 L
218 264 L
cp
f
GR
GS
[1 0 0 1 117 244.64151] CT
/Helvetica 9 F
GS
[1 0 0 1 0 0] CT
0 3.5 moveto 
1 -1 scale
(Linear model - residuals) t 
GR
GR
GS
[1 0 0 1 99 244.64151] CT
0 0 1 RC
N
2.667 0 M
2.667 1.473 1.473 2.667 0 2.667 C
-1.473 2.667 -2.667 1.473 -2.667 0 C
-2.667 -1.473 -1.473 -2.667 0 -2.667 C
1.473 -2.667 2.667 -1.473 2.667 0 C
cp
f
GR
GS
[1 0 0 1 117 256.35849] CT
/Helvetica 9 F
GS
[1 0 0 1 0 0] CT
0 3.5 moveto 
1 -1 scale
(Zero Line) t 
GR
GR
GS
1 0 0 RC
1 LJ
N
84 256.358 M
114 256.358 L
S
GR
GS
0.149 GC
10.0 ML
0.5 LW
N
80 264 M
80 237 L
218 237 L
218 264 L
cp
S
GR
%%Trailer
%%Pages: 1
%%EOF
