%!PS-Adobe-3.0 EPSF-3.0
%%Creator: (MATLAB, The Mathworks, Inc. Version 9.0.0.341360 \(R2016a\). Operating System: Mac OS X)
%%Title: /Users/deepak/Documents/MATLAB/matlabprojects/singleCalib_IH/source/wrxn.eps
%%CreationDate: 2016-11-26T22:39:39
%%Pages: (atend)
%%BoundingBox: 0 0 560 420
%%LanguageLevel: 3
%%EndComments
%%BeginProlog
%%BeginResource: procset (Apache XML Graphics Std ProcSet) 1.2 0
%%Version: 1.2 0
%%Copyright: (Copyright 2001-2003,2010 The Apache Software Foundation. License terms: http://www.apache.org/licenses/LICENSE-2.0)
/bd{bind def}bind def
/ld{load def}bd
/GR/grestore ld
/M/moveto ld
/LJ/setlinejoin ld
/C/curveto ld
/f/fill ld
/LW/setlinewidth ld
/GC/setgray ld
/t/show ld
/N/newpath ld
/CT/concat ld
/cp/closepath ld
/S/stroke ld
/L/lineto ld
/CC/setcmykcolor ld
/A/ashow ld
/GS/gsave ld
/RC/setrgbcolor ld
/RM/rmoveto ld
/ML/setmiterlimit ld
/re {4 2 roll M
1 index 0 rlineto
0 exch rlineto
neg 0 rlineto
cp } bd
/_ctm matrix def
/_tm matrix def
/BT { _ctm currentmatrix pop matrix _tm copy pop 0 0 moveto } bd
/ET { _ctm setmatrix } bd
/iTm { _ctm setmatrix _tm concat } bd
/Tm { _tm astore pop iTm 0 0 moveto } bd
/ux 0.0 def
/uy 0.0 def
/F {
  /Tp exch def
  /Tf exch def
  Tf findfont Tp scalefont setfont
  /cf Tf def  /cs Tp def
} bd
/ULS {currentpoint /uy exch def /ux exch def} bd
/ULE {
  /Tcx currentpoint pop def
  gsave
  newpath
  cf findfont cs scalefont dup
  /FontMatrix get 0 get /Ts exch def /FontInfo get dup
  /UnderlinePosition get Ts mul /To exch def
  /UnderlineThickness get Ts mul /Tt exch def
  ux uy To add moveto  Tcx uy To add lineto
  Tt setlinewidth stroke
  grestore
} bd
/OLE {
  /Tcx currentpoint pop def
  gsave
  newpath
  cf findfont cs scalefont dup
  /FontMatrix get 0 get /Ts exch def /FontInfo get dup
  /UnderlinePosition get Ts mul /To exch def
  /UnderlineThickness get Ts mul /Tt exch def
  ux uy To add cs add moveto Tcx uy To add cs add lineto
  Tt setlinewidth stroke
  grestore
} bd
/SOE {
  /Tcx currentpoint pop def
  gsave
  newpath
  cf findfont cs scalefont dup
  /FontMatrix get 0 get /Ts exch def /FontInfo get dup
  /UnderlinePosition get Ts mul /To exch def
  /UnderlineThickness get Ts mul /Tt exch def
  ux uy To add cs 10 mul 26 idiv add moveto Tcx uy To add cs 10 mul 26 idiv add lineto
  Tt setlinewidth stroke
  grestore
} bd
/QT {
/Y22 exch store
/X22 exch store
/Y21 exch store
/X21 exch store
currentpoint
/Y21 load 2 mul add 3 div exch
/X21 load 2 mul add 3 div exch
/X21 load 2 mul /X22 load add 3 div
/Y21 load 2 mul /Y22 load add 3 div
/X22 load /Y22 load curveto
} bd
/SSPD {
dup length /d exch dict def
{
/v exch def
/k exch def
currentpagedevice k known {
/cpdv currentpagedevice k get def
v cpdv ne {
/upd false def
/nullv v type /nulltype eq def
/nullcpdv cpdv type /nulltype eq def
nullv nullcpdv or
{
/upd true def
} {
/sametype v type cpdv type eq def
sametype {
v type /arraytype eq {
/vlen v length def
/cpdvlen cpdv length def
vlen cpdvlen eq {
0 1 vlen 1 sub {
/i exch def
/obj v i get def
/cpdobj cpdv i get def
obj cpdobj ne {
/upd true def
exit
} if
} for
} {
/upd true def
} ifelse
} {
v type /dicttype eq {
v {
/dv exch def
/dk exch def
/cpddv cpdv dk get def
dv cpddv ne {
/upd true def
exit
} if
} forall
} {
/upd true def
} ifelse
} ifelse
} if
} ifelse
upd true eq {
d k v put
} if
} if
} if
} forall
d length 0 gt {
d setpagedevice
} if
} bd
%%EndResource
%%BeginResource: procset (Apache XML Graphics EPS ProcSet) 1.0 0
%%Version: 1.0 0
%%Copyright: (Copyright 2002-2003 The Apache Software Foundation. License terms: http://www.apache.org/licenses/LICENSE-2.0)
/BeginEPSF { %def
/b4_Inc_state save def         % Save state for cleanup
/dict_count countdictstack def % Count objects on dict stack
/op_count count 1 sub def      % Count objects on operand stack
userdict begin                 % Push userdict on dict stack
/showpage { } def              % Redefine showpage, { } = null proc
0 setgray 0 setlinecap         % Prepare graphics state
1 setlinewidth 0 setlinejoin
10 setmiterlimit [ ] 0 setdash newpath
/languagelevel where           % If level not equal to 1 then
{pop languagelevel             % set strokeadjust and
1 ne                           % overprint to their defaults.
{false setstrokeadjust false setoverprint
} if
} if
} bd
/EndEPSF { %def
count op_count sub {pop} repeat            % Clean up stacks
countdictstack dict_count sub {end} repeat
b4_Inc_state restore
} bd
%%EndResource
%FOPBeginFontDict
%%IncludeResource: font Courier-Bold
%%IncludeResource: font Helvetica
%%IncludeResource: font Courier-BoldOblique
%%IncludeResource: font Courier-Oblique
%%IncludeResource: font Times-Roman
%%IncludeResource: font Helvetica-BoldOblique
%%IncludeResource: font Helvetica-Bold
%%IncludeResource: font Helvetica-Oblique
%%IncludeResource: font Times-BoldItalic
%%IncludeResource: font Courier
%%IncludeResource: font Times-Italic
%%IncludeResource: font Times-Bold
%%IncludeResource: font Symbol
%%IncludeResource: font ZapfDingbats
%FOPEndFontDict
%%BeginResource: encoding WinAnsiEncoding
/WinAnsiEncoding [
/.notdef /.notdef /.notdef /.notdef /.notdef
/.notdef /.notdef /.notdef /.notdef /.notdef
/.notdef /.notdef /.notdef /.notdef /.notdef
/.notdef /.notdef /.notdef /.notdef /.notdef
/.notdef /.notdef /.notdef /.notdef /.notdef
/.notdef /.notdef /.notdef /.notdef /.notdef
/.notdef /.notdef /space /exclam /quotedbl
/numbersign /dollar /percent /ampersand /quotesingle
/parenleft /parenright /asterisk /plus /comma
/hyphen /period /slash /zero /one
/two /three /four /five /six
/seven /eight /nine /colon /semicolon
/less /equal /greater /question /at
/A /B /C /D /E
/F /G /H /I /J
/K /L /M /N /O
/P /Q /R /S /T
/U /V /W /X /Y
/Z /bracketleft /backslash /bracketright /asciicircum
/underscore /quoteleft /a /b /c
/d /e /f /g /h
/i /j /k /l /m
/n /o /p /q /r
/s /t /u /v /w
/x /y /z /braceleft /bar
/braceright /asciitilde /bullet /Euro /bullet
/quotesinglbase /florin /quotedblbase /ellipsis /dagger
/daggerdbl /circumflex /perthousand /Scaron /guilsinglleft
/OE /bullet /Zcaron /bullet /bullet
/quoteleft /quoteright /quotedblleft /quotedblright /bullet
/endash /emdash /asciitilde /trademark /scaron
/guilsinglright /oe /bullet /zcaron /Ydieresis
/space /exclamdown /cent /sterling /currency
/yen /brokenbar /section /dieresis /copyright
/ordfeminine /guillemotleft /logicalnot /sfthyphen /registered
/macron /degree /plusminus /twosuperior /threesuperior
/acute /mu /paragraph /middot /cedilla
/onesuperior /ordmasculine /guillemotright /onequarter /onehalf
/threequarters /questiondown /Agrave /Aacute /Acircumflex
/Atilde /Adieresis /Aring /AE /Ccedilla
/Egrave /Eacute /Ecircumflex /Edieresis /Igrave
/Iacute /Icircumflex /Idieresis /Eth /Ntilde
/Ograve /Oacute /Ocircumflex /Otilde /Odieresis
/multiply /Oslash /Ugrave /Uacute /Ucircumflex
/Udieresis /Yacute /Thorn /germandbls /agrave
/aacute /acircumflex /atilde /adieresis /aring
/ae /ccedilla /egrave /eacute /ecircumflex
/edieresis /igrave /iacute /icircumflex /idieresis
/eth /ntilde /ograve /oacute /ocircumflex
/otilde /odieresis /divide /oslash /ugrave
/uacute /ucircumflex /udieresis /yacute /thorn
/ydieresis
] def
%%EndResource
%FOPBeginFontReencode
/Courier-Bold findfont
dup length dict begin
  {1 index /FID ne {def} {pop pop} ifelse} forall
  /Encoding WinAnsiEncoding def
  currentdict
end
/Courier-Bold exch definefont pop
/Helvetica findfont
dup length dict begin
  {1 index /FID ne {def} {pop pop} ifelse} forall
  /Encoding WinAnsiEncoding def
  currentdict
end
/Helvetica exch definefont pop
/Courier-BoldOblique findfont
dup length dict begin
  {1 index /FID ne {def} {pop pop} ifelse} forall
  /Encoding WinAnsiEncoding def
  currentdict
end
/Courier-BoldOblique exch definefont pop
/Courier-Oblique findfont
dup length dict begin
  {1 index /FID ne {def} {pop pop} ifelse} forall
  /Encoding WinAnsiEncoding def
  currentdict
end
/Courier-Oblique exch definefont pop
/Times-Roman findfont
dup length dict begin
  {1 index /FID ne {def} {pop pop} ifelse} forall
  /Encoding WinAnsiEncoding def
  currentdict
end
/Times-Roman exch definefont pop
/Helvetica-BoldOblique findfont
dup length dict begin
  {1 index /FID ne {def} {pop pop} ifelse} forall
  /Encoding WinAnsiEncoding def
  currentdict
end
/Helvetica-BoldOblique exch definefont pop
/Helvetica-Bold findfont
dup length dict begin
  {1 index /FID ne {def} {pop pop} ifelse} forall
  /Encoding WinAnsiEncoding def
  currentdict
end
/Helvetica-Bold exch definefont pop
/Helvetica-Oblique findfont
dup length dict begin
  {1 index /FID ne {def} {pop pop} ifelse} forall
  /Encoding WinAnsiEncoding def
  currentdict
end
/Helvetica-Oblique exch definefont pop
/Times-BoldItalic findfont
dup length dict begin
  {1 index /FID ne {def} {pop pop} ifelse} forall
  /Encoding WinAnsiEncoding def
  currentdict
end
/Times-BoldItalic exch definefont pop
/Courier findfont
dup length dict begin
  {1 index /FID ne {def} {pop pop} ifelse} forall
  /Encoding WinAnsiEncoding def
  currentdict
end
/Courier exch definefont pop
/Times-Italic findfont
dup length dict begin
  {1 index /FID ne {def} {pop pop} ifelse} forall
  /Encoding WinAnsiEncoding def
  currentdict
end
/Times-Italic exch definefont pop
/Times-Bold findfont
dup length dict begin
  {1 index /FID ne {def} {pop pop} ifelse} forall
  /Encoding WinAnsiEncoding def
  currentdict
end
/Times-Bold exch definefont pop
%FOPEndFontReencode
%%EndProlog
%%Page: 1 1
%%PageBoundingBox: 0 0 560 420
%%BeginPageSetup
[1 0 0 -1 0 420] CT
%%EndPageSetup
GS
1 GC
N
0 0 560 420 re
f
GR
GS
1 GC
N
0 0 560 420 re
f
GR
GS
1 GC
N
73 175 M
507 175 L
507 31 L
73 31 L
cp
f
GR
GS
0.873 GC
1 LJ
0.5 LW
N
73 175 M
73 31 L
S
GR
GS
0.873 GC
1 LJ
0.5 LW
N
159.8 175 M
159.8 31 L
S
GR
GS
0.873 GC
1 LJ
0.5 LW
N
246.6 175 M
246.6 31 L
S
GR
GS
0.873 GC
1 LJ
0.5 LW
N
333.4 175 M
333.4 31 L
S
GR
GS
0.873 GC
1 LJ
0.5 LW
N
420.2 175 M
420.2 31 L
S
GR
GS
0.873 GC
1 LJ
0.5 LW
N
507 175 M
507 31 L
S
GR
GS
0.873 GC
1 LJ
0.5 LW
N
507 175 M
73 175 L
S
GR
GS
0.873 GC
1 LJ
0.5 LW
N
507 151 M
73 151 L
S
GR
GS
0.873 GC
1 LJ
0.5 LW
N
507 127 M
73 127 L
S
GR
GS
0.873 GC
1 LJ
0.5 LW
N
507 103 M
73 103 L
S
GR
GS
0.873 GC
1 LJ
0.5 LW
N
507 79 M
73 79 L
S
GR
GS
0.873 GC
1 LJ
0.5 LW
N
507 55 M
73 55 L
S
GR
GS
0.873 GC
1 LJ
0.5 LW
N
507 31 M
73 31 L
S
GR
GS
0.149 GC
2 setlinecap
1 LJ
0.5 LW
N
73 175 M
507 175 L
S
GR
GS
0.149 GC
2 setlinecap
1 LJ
0.5 LW
N
73 31 M
507 31 L
S
GR
GS
0.149 GC
2 setlinecap
1 LJ
0.5 LW
N
73 175 M
73 170.66 L
S
GR
GS
0.149 GC
2 setlinecap
1 LJ
0.5 LW
N
159.8 175 M
159.8 170.66 L
S
GR
GS
0.149 GC
2 setlinecap
1 LJ
0.5 LW
N
246.6 175 M
246.6 170.66 L
S
GR
GS
0.149 GC
2 setlinecap
1 LJ
0.5 LW
N
333.4 175 M
333.4 170.66 L
S
GR
GS
0.149 GC
2 setlinecap
1 LJ
0.5 LW
N
420.2 175 M
420.2 170.66 L
S
GR
GS
0.149 GC
2 setlinecap
1 LJ
0.5 LW
N
507 175 M
507 170.66 L
S
GR
GS
0.149 GC
2 setlinecap
1 LJ
0.5 LW
N
73 31 M
73 35.34 L
S
GR
GS
0.149 GC
2 setlinecap
1 LJ
0.5 LW
N
159.8 31 M
159.8 35.34 L
S
GR
GS
0.149 GC
2 setlinecap
1 LJ
0.5 LW
N
246.6 31 M
246.6 35.34 L
S
GR
GS
0.149 GC
2 setlinecap
1 LJ
0.5 LW
N
333.4 31 M
333.4 35.34 L
S
GR
GS
0.149 GC
2 setlinecap
1 LJ
0.5 LW
N
420.2 31 M
420.2 35.34 L
S
GR
GS
0.149 GC
2 setlinecap
1 LJ
0.5 LW
N
507 31 M
507 35.34 L
S
GR
GS
[1 0 0 1 73 179] CT
0.149 GC
/Helvetica 10 F
GS
[1 0 0 1 0 0] CT
-8 10 moveto 
1 -1 scale
(-25) t 
GR
GR
GS
[1 0 0 1 159.8 179] CT
0.149 GC
/Helvetica 10 F
GS
[1 0 0 1 0 0] CT
-8 10 moveto 
1 -1 scale
(-20) t 
GR
GR
GS
[1 0 0 1 246.60001 179] CT
0.149 GC
/Helvetica 10 F
GS
[1 0 0 1 0 0] CT
-8 10 moveto 
1 -1 scale
(-15) t 
GR
GR
GS
[1 0 0 1 333.39999 179] CT
0.149 GC
/Helvetica 10 F
GS
[1 0 0 1 0 0] CT
-8 10 moveto 
1 -1 scale
(-10) t 
GR
GR
GS
[1 0 0 1 420.20001 179] CT
0.149 GC
/Helvetica 10 F
GS
[1 0 0 1 0 0] CT
-5 10 moveto 
1 -1 scale
(-5) t 
GR
GR
GS
[1 0 0 1 507 179] CT
0.149 GC
/Helvetica 10 F
GS
[1 0 0 1 0 0] CT
-3 10 moveto 
1 -1 scale
(0) t 
GR
GR
GS
[1 0 0 1 290.00021 193] CT
0.149 GC
/Helvetica-Bold 12 F
GS
[1 0 0 1 0 0] CT
-82 12 moveto 
1 -1 scale
(Camera rotation \(in degrees\)) t 
GR
GR
GS
0.149 GC
2 setlinecap
1 LJ
0.5 LW
N
73 175 M
73 31 L
S
GR
GS
0.149 GC
2 setlinecap
1 LJ
0.5 LW
N
507 175 M
507 31 L
S
GR
GS
0.149 GC
2 setlinecap
1 LJ
0.5 LW
N
73 175 M
77.34 175 L
S
GR
GS
0.149 GC
2 setlinecap
1 LJ
0.5 LW
N
73 151 M
77.34 151 L
S
GR
GS
0.149 GC
2 setlinecap
1 LJ
0.5 LW
N
73 127 M
77.34 127 L
S
GR
GS
0.149 GC
2 setlinecap
1 LJ
0.5 LW
N
73 103 M
77.34 103 L
S
GR
GS
0.149 GC
2 setlinecap
1 LJ
0.5 LW
N
73 79 M
77.34 79 L
S
GR
GS
0.149 GC
2 setlinecap
1 LJ
0.5 LW
N
73 55 M
77.34 55 L
S
GR
GS
0.149 GC
2 setlinecap
1 LJ
0.5 LW
N
73 31 M
77.34 31 L
S
GR
GS
0.149 GC
2 setlinecap
1 LJ
0.5 LW
N
507 175 M
502.66 175 L
S
GR
GS
0.149 GC
2 setlinecap
1 LJ
0.5 LW
N
507 151 M
502.66 151 L
S
GR
GS
0.149 GC
2 setlinecap
1 LJ
0.5 LW
N
507 127 M
502.66 127 L
S
GR
GS
0.149 GC
2 setlinecap
1 LJ
0.5 LW
N
507 103 M
502.66 103 L
S
GR
GS
0.149 GC
2 setlinecap
1 LJ
0.5 LW
N
507 79 M
502.66 79 L
S
GR
GS
0.149 GC
2 setlinecap
1 LJ
0.5 LW
N
507 55 M
502.66 55 L
S
GR
GS
0.149 GC
2 setlinecap
1 LJ
0.5 LW
N
507 31 M
502.66 31 L
S
GR
GS
[1 0 0 1 68.99999 175] CT
0.149 GC
/Helvetica 10 F
GS
[1 0 0 1 0 0] CT
-6 3.5 moveto 
1 -1 scale
(0) t 
GR
GR
GS
[1 0 0 1 68.99999 151] CT
0.149 GC
/Helvetica 10 F
GS
[1 0 0 1 0 0] CT
-6 3.5 moveto 
1 -1 scale
(5) t 
GR
GR
GS
[1 0 0 1 68.99999 127] CT
0.149 GC
/Helvetica 10 F
GS
[1 0 0 1 0 0] CT
-12 3.5 moveto 
1 -1 scale
(10) t 
GR
GR
GS
[1 0 0 1 68.99999 103] CT
0.149 GC
/Helvetica 10 F
GS
[1 0 0 1 0 0] CT
-12 3.5 moveto 
1 -1 scale
(15) t 
GR
GR
GS
[1 0 0 1 68.99999 79] CT
0.149 GC
/Helvetica 10 F
GS
[1 0 0 1 0 0] CT
-12 3.5 moveto 
1 -1 scale
(20) t 
GR
GR
GS
[1 0 0 1 68.99999 55] CT
0.149 GC
/Helvetica 10 F
GS
[1 0 0 1 0 0] CT
-12 3.5 moveto 
1 -1 scale
(25) t 
GR
GR
GS
[1 0 0 1 68.99999 31] CT
0.149 GC
/Helvetica 10 F
GS
[1 0 0 1 0 0] CT
-12 3.5 moveto 
1 -1 scale
(30) t 
GR
GR
GS
[0 -1 1 0 53.99998 102.99993] CT
0.149 GC
/Helvetica-Bold 12 F
GS
[1 0 0 1 0 0] CT
-55.5 -3 moveto 
1 -1 scale
(Width error \(in mm\)) t 
GR
GR
GS
[1 0 0 1 73 47.04983] CT
0 0 1 RC
N
2.667 0 M
2.667 1.473 1.473 2.667 0 2.667 C
-1.473 2.667 -2.667 1.473 -2.667 0 C
-2.667 -1.473 -1.473 -2.667 0 -2.667 C
1.473 -2.667 2.667 -1.473 2.667 0 C
cp
f
GR
GS
[1 0 0 1 90.36 55.33635] CT
0 0 1 RC
N
2.667 0 M
2.667 1.473 1.473 2.667 0 2.667 C
-1.473 2.667 -2.667 1.473 -2.667 0 C
-2.667 -1.473 -1.473 -2.667 0 -2.667 C
1.473 -2.667 2.667 -1.473 2.667 0 C
cp
f
GR
GS
[1 0 0 1 107.72 71.29047] CT
0 0 1 RC
N
2.667 0 M
2.667 1.473 1.473 2.667 0 2.667 C
-1.473 2.667 -2.667 1.473 -2.667 0 C
-2.667 -1.473 -1.473 -2.667 0 -2.667 C
1.473 -2.667 2.667 -1.473 2.667 0 C
cp
f
GR
GS
[1 0 0 1 125.08 77.67016] CT
0 0 1 RC
N
2.667 0 M
2.667 1.473 1.473 2.667 0 2.667 C
-1.473 2.667 -2.667 1.473 -2.667 0 C
-2.667 -1.473 -1.473 -2.667 0 -2.667 C
1.473 -2.667 2.667 -1.473 2.667 0 C
cp
f
GR
GS
[1 0 0 1 142.44 86.71223] CT
0 0 1 RC
N
2.667 0 M
2.667 1.473 1.473 2.667 0 2.667 C
-1.473 2.667 -2.667 1.473 -2.667 0 C
-2.667 -1.473 -1.473 -2.667 0 -2.667 C
1.473 -2.667 2.667 -1.473 2.667 0 C
cp
f
GR
GS
[1 0 0 1 159.8 93.09463] CT
0 0 1 RC
N
2.667 0 M
2.667 1.473 1.473 2.667 0 2.667 C
-1.473 2.667 -2.667 1.473 -2.667 0 C
-2.667 -1.473 -1.473 -2.667 0 -2.667 C
1.473 -2.667 2.667 -1.473 2.667 0 C
cp
f
GR
GS
[1 0 0 1 177.16 103.49648] CT
0 0 1 RC
N
2.667 0 M
2.667 1.473 1.473 2.667 0 2.667 C
-1.473 2.667 -2.667 1.473 -2.667 0 C
-2.667 -1.473 -1.473 -2.667 0 -2.667 C
1.473 -2.667 2.667 -1.473 2.667 0 C
cp
f
GR
GS
[1 0 0 1 194.52 109.45264] CT
0 0 1 RC
N
2.667 0 M
2.667 1.473 1.473 2.667 0 2.667 C
-1.473 2.667 -2.667 1.473 -2.667 0 C
-2.667 -1.473 -1.473 -2.667 0 -2.667 C
1.473 -2.667 2.667 -1.473 2.667 0 C
cp
f
GR
GS
[1 0 0 1 211.88 116.84421] CT
0 0 1 RC
N
2.667 0 M
2.667 1.473 1.473 2.667 0 2.667 C
-1.473 2.667 -2.667 1.473 -2.667 0 C
-2.667 -1.473 -1.473 -2.667 0 -2.667 C
1.473 -2.667 2.667 -1.473 2.667 0 C
cp
f
GR
GS
[1 0 0 1 229.24001 120.19884] CT
0 0 1 RC
N
2.667 0 M
2.667 1.473 1.473 2.667 0 2.667 C
-1.473 2.667 -2.667 1.473 -2.667 0 C
-2.667 -1.473 -1.473 -2.667 0 -2.667 C
1.473 -2.667 2.667 -1.473 2.667 0 C
cp
f
GR
GS
[1 0 0 1 246.60001 125.15137] CT
0 0 1 RC
N
2.667 0 M
2.667 1.473 1.473 2.667 0 2.667 C
-1.473 2.667 -2.667 1.473 -2.667 0 C
-2.667 -1.473 -1.473 -2.667 0 -2.667 C
1.473 -2.667 2.667 -1.473 2.667 0 C
cp
f
GR
GS
[1 0 0 1 263.95999 130.28897] CT
0 0 1 RC
N
2.667 0 M
2.667 1.473 1.473 2.667 0 2.667 C
-1.473 2.667 -2.667 1.473 -2.667 0 C
-2.667 -1.473 -1.473 -2.667 0 -2.667 C
1.473 -2.667 2.667 -1.473 2.667 0 C
cp
f
GR
GS
[1 0 0 1 281.32001 134.42836] CT
0 0 1 RC
N
2.667 0 M
2.667 1.473 1.473 2.667 0 2.667 C
-1.473 2.667 -2.667 1.473 -2.667 0 C
-2.667 -1.473 -1.473 -2.667 0 -2.667 C
1.473 -2.667 2.667 -1.473 2.667 0 C
cp
f
GR
GS
[1 0 0 1 298.67999 139.10744] CT
0 0 1 RC
N
2.667 0 M
2.667 1.473 1.473 2.667 0 2.667 C
-1.473 2.667 -2.667 1.473 -2.667 0 C
-2.667 -1.473 -1.473 -2.667 0 -2.667 C
1.473 -2.667 2.667 -1.473 2.667 0 C
cp
f
GR
GS
[1 0 0 1 316.04001 143.06918] CT
0 0 1 RC
N
2.667 0 M
2.667 1.473 1.473 2.667 0 2.667 C
-1.473 2.667 -2.667 1.473 -2.667 0 C
-2.667 -1.473 -1.473 -2.667 0 -2.667 C
1.473 -2.667 2.667 -1.473 2.667 0 C
cp
f
GR
GS
[1 0 0 1 333.39999 147.94765] CT
0 0 1 RC
N
2.667 0 M
2.667 1.473 1.473 2.667 0 2.667 C
-1.473 2.667 -2.667 1.473 -2.667 0 C
-2.667 -1.473 -1.473 -2.667 0 -2.667 C
1.473 -2.667 2.667 -1.473 2.667 0 C
cp
f
GR
GS
[1 0 0 1 350.76001 150.59215] CT
0 0 1 RC
N
2.667 0 M
2.667 1.473 1.473 2.667 0 2.667 C
-1.473 2.667 -2.667 1.473 -2.667 0 C
-2.667 -1.473 -1.473 -2.667 0 -2.667 C
1.473 -2.667 2.667 -1.473 2.667 0 C
cp
f
GR
GS
[1 0 0 1 368.12 153.77972] CT
0 0 1 RC
N
2.667 0 M
2.667 1.473 1.473 2.667 0 2.667 C
-1.473 2.667 -2.667 1.473 -2.667 0 C
-2.667 -1.473 -1.473 -2.667 0 -2.667 C
1.473 -2.667 2.667 -1.473 2.667 0 C
cp
f
GR
GS
[1 0 0 1 385.48001 156.96489] CT
0 0 1 RC
N
2.667 0 M
2.667 1.473 1.473 2.667 0 2.667 C
-1.473 2.667 -2.667 1.473 -2.667 0 C
-2.667 -1.473 -1.473 -2.667 0 -2.667 C
1.473 -2.667 2.667 -1.473 2.667 0 C
cp
f
GR
GS
[1 0 0 1 402.84 160.4317] CT
0 0 1 RC
N
2.667 0 M
2.667 1.473 1.473 2.667 0 2.667 C
-1.473 2.667 -2.667 1.473 -2.667 0 C
-2.667 -1.473 -1.473 -2.667 0 -2.667 C
1.473 -2.667 2.667 -1.473 2.667 0 C
cp
f
GR
GS
[1 0 0 1 420.20001 162.9129] CT
0 0 1 RC
N
2.667 0 M
2.667 1.473 1.473 2.667 0 2.667 C
-1.473 2.667 -2.667 1.473 -2.667 0 C
-2.667 -1.473 -1.473 -2.667 0 -2.667 C
1.473 -2.667 2.667 -1.473 2.667 0 C
cp
f
GR
GS
[1 0 0 1 437.56 165.63295] CT
0 0 1 RC
N
2.667 0 M
2.667 1.473 1.473 2.667 0 2.667 C
-1.473 2.667 -2.667 1.473 -2.667 0 C
-2.667 -1.473 -1.473 -2.667 0 -2.667 C
1.473 -2.667 2.667 -1.473 2.667 0 C
cp
f
GR
GS
[1 0 0 1 454.92001 168.50253] CT
0 0 1 RC
N
2.667 0 M
2.667 1.473 1.473 2.667 0 2.667 C
-1.473 2.667 -2.667 1.473 -2.667 0 C
-2.667 -1.473 -1.473 -2.667 0 -2.667 C
1.473 -2.667 2.667 -1.473 2.667 0 C
cp
f
GR
GS
[1 0 0 1 472.28 170.63876] CT
0 0 1 RC
N
2.667 0 M
2.667 1.473 1.473 2.667 0 2.667 C
-1.473 2.667 -2.667 1.473 -2.667 0 C
-2.667 -1.473 -1.473 -2.667 0 -2.667 C
1.473 -2.667 2.667 -1.473 2.667 0 C
cp
f
GR
GS
[1 0 0 1 489.64001 172.85863] CT
0 0 1 RC
N
2.667 0 M
2.667 1.473 1.473 2.667 0 2.667 C
-1.473 2.667 -2.667 1.473 -2.667 0 C
-2.667 -1.473 -1.473 -2.667 0 -2.667 C
1.473 -2.667 2.667 -1.473 2.667 0 C
cp
f
GR
GS
[1 0 0 1 507 175] CT
0 0 1 RC
N
2.667 0 M
2.667 1.473 1.473 2.667 0 2.667 C
-1.473 2.667 -2.667 1.473 -2.667 0 C
-2.667 -1.473 -1.473 -2.667 0 -2.667 C
1.473 -2.667 2.667 -1.473 2.667 0 C
cp
f
GR
GS
1 0 0 RC
1 LJ
N
73 56.725 M
73.434 56.929 L
73.868 57.133 L
74.302 57.338 L
74.736 57.542 L
75.17 57.746 L
75.604 57.949 L
76.038 58.153 L
76.472 58.356 L
76.906 58.559 L
77.34 58.762 L
77.774 58.965 L
78.208 59.167 L
78.642 59.37 L
79.076 59.572 L
79.51 59.774 L
79.944 59.976 L
80.378 60.178 L
80.812 60.379 L
81.246 60.581 L
81.68 60.782 L
82.114 60.983 L
82.548 61.184 L
82.982 61.384 L
83.416 61.585 L
83.85 61.785 L
84.284 61.985 L
84.718 62.185 L
85.152 62.385 L
85.586 62.585 L
86.02 62.784 L
86.454 62.983 L
86.888 63.182 L
87.322 63.381 L
87.756 63.58 L
88.19 63.779 L
88.624 63.977 L
89.058 64.175 L
89.492 64.373 L
89.926 64.571 L
90.36 64.769 L
90.794 64.966 L
91.228 65.164 L
91.662 65.361 L
92.096 65.558 L
92.53 65.754 L
92.964 65.951 L
93.398 66.147 L
93.832 66.344 L
94.266 66.54 L
94.7 66.736 L
95.134 66.931 L
95.568 67.127 L
96.002 67.322 L
96.436 67.517 L
96.87 67.713 L
97.304 67.907 L
97.738 68.102 L
98.172 68.297 L
98.606 68.491 L
99.04 68.685 L
99.474 68.879 L
99.908 69.073 L
100.342 69.266 L
100.776 69.46 L
101.21 69.653 L
101.644 69.846 L
102.078 70.039 L
102.512 70.232 L
102.946 70.424 L
103.38 70.617 L
103.814 70.809 L
104.248 71.001 L
104.682 71.193 L
105.116 71.384 L
105.55 71.576 L
105.984 71.767 L
106.418 71.958 L
106.852 72.149 L
107.286 72.34 L
107.72 72.531 L
108.154 72.721 L
108.588 72.911 L
109.022 73.101 L
109.456 73.291 L
109.89 73.481 L
110.324 73.671 L
110.758 73.86 L
111.192 74.049 L
111.626 74.238 L
112.06 74.427 L
112.494 74.616 L
112.928 74.804 L
113.362 74.992 L
113.796 75.181 L
114.23 75.369 L
114.664 75.556 L
115.098 75.744 L
115.532 75.931 L
115.966 76.119 L
116.4 76.306 L
116.834 76.493 L
117.268 76.679 L
117.702 76.866 L
118.136 77.052 L
118.57 77.238 L
119.004 77.424 L
119.438 77.61 L
119.872 77.796 L
120.306 77.981 L
120.74 78.167 L
121.174 78.352 L
121.608 78.537 L
122.042 78.722 L
122.476 78.906 L
122.91 79.091 L
123.344 79.275 L
123.778 79.459 L
124.212 79.643 L
124.646 79.827 L
125.08 80.01 L
125.514 80.194 L
125.948 80.377 L
126.382 80.56 L
126.816 80.743 L
127.25 80.925 L
127.684 81.108 L
128.118 81.29 L
128.552 81.472 L
128.986 81.654 L
129.42 81.836 L
129.854 82.018 L
130.288 82.199 L
130.722 82.38 L
131.156 82.561 L
131.59 82.742 L
132.024 82.923 L
132.458 83.104 L
132.892 83.284 L
133.326 83.464 L
133.76 83.644 L
134.194 83.824 L
134.628 84.004 L
135.062 84.183 L
135.496 84.363 L
135.93 84.542 L
136.364 84.721 L
136.798 84.899 L
137.232 85.078 L
137.666 85.256 L
138.1 85.435 L
138.534 85.613 L
138.968 85.791 L
139.402 85.968 L
139.836 86.146 L
140.27 86.323 L
140.704 86.501 L
141.138 86.678 L
141.572 86.854 L
142.006 87.031 L
142.44 87.208 L
142.874 87.384 L
143.308 87.56 L
143.742 87.736 L
144.176 87.912 L
144.61 88.087 L
145.044 88.263 L
145.478 88.438 L
145.912 88.613 L
146.346 88.788 L
146.78 88.963 L
147.214 89.137 L
147.648 89.312 L
148.082 89.486 L
148.516 89.66 L
148.95 89.834 L
149.384 90.008 L
149.818 90.181 L
150.252 90.354 L
150.686 90.527 L
151.12 90.7 L
151.554 90.873 L
151.988 91.046 L
152.422 91.218 L
152.856 91.391 L
153.29 91.563 L
153.724 91.735 L
154.158 91.906 L
154.592 92.078 L
155.026 92.249 L
155.46 92.42 L
155.894 92.591 L
156.328 92.762 L
156.762 92.933 L
157.196 93.103 L
157.63 93.274 L
158.064 93.444 L
158.498 93.614 L
158.932 93.784 L
159.366 93.953 L
159.8 94.123 L
160.234 94.292 L
160.668 94.461 L
161.102 94.63 L
161.536 94.799 L
161.97 94.967 L
162.404 95.136 L
162.838 95.304 L
163.272 95.472 L
163.706 95.64 L
164.14 95.807 L
164.574 95.975 L
165.008 96.142 L
165.442 96.309 L
165.876 96.476 L
166.31 96.643 L
166.744 96.81 L
167.178 96.976 L
167.612 97.142 L
168.046 97.308 L
168.48 97.474 L
168.914 97.64 L
169.348 97.806 L
169.782 97.971 L
170.216 98.136 L
170.65 98.301 L
171.084 98.466 L
171.518 98.631 L
171.952 98.795 L
172.386 98.96 L
172.82 99.124 L
173.254 99.288 L
173.688 99.452 L
174.122 99.615 L
174.556 99.779 L
174.99 99.942 L
175.424 100.105 L
175.858 100.268 L
176.292 100.431 L
176.726 100.593 L
177.16 100.756 L
177.594 100.918 L
178.028 101.08 L
178.462 101.242 L
178.896 101.403 L
179.33 101.565 L
179.764 101.726 L
180.198 101.887 L
180.632 102.048 L
181.066 102.209 L
181.5 102.37 L
181.934 102.53 L
182.368 102.69 L
182.802 102.85 L
183.236 103.01 L
183.67 103.17 L
184.104 103.33 L
184.538 103.489 L
184.972 103.648 L
185.406 103.807 L
185.84 103.966 L
186.274 104.125 L
186.708 104.283 L
187.142 104.442 L
187.576 104.6 L
188.01 104.758 L
188.444 104.915 L
188.878 105.073 L
189.312 105.231 L
189.746 105.388 L
190.18 105.545 L
190.614 105.702 L
191.048 105.859 L
191.482 106.015 L
191.916 106.171 L
192.35 106.328 L
192.784 106.484 L
193.218 106.64 L
193.652 106.795 L
194.086 106.951 L
194.52 107.106 L
194.954 107.261 L
195.388 107.416 L
195.822 107.571 L
196.256 107.726 L
196.69 107.88 L
197.124 108.034 L
197.558 108.188 L
197.992 108.342 L
198.426 108.496 L
198.86 108.65 L
199.294 108.803 L
199.728 108.956 L
200.162 109.109 L
200.596 109.262 L
201.03 109.415 L
201.464 109.567 L
201.898 109.72 L
202.332 109.872 L
202.766 110.024 L
203.2 110.175 L
203.634 110.327 L
204.068 110.479 L
204.502 110.63 L
204.936 110.781 L
205.37 110.932 L
205.804 111.083 L
206.238 111.233 L
206.672 111.383 L
207.106 111.534 L
207.54 111.684 L
207.974 111.834 L
208.408 111.983 L
208.842 112.133 L
209.276 112.282 L
209.71 112.431 L
210.144 112.58 L
210.578 112.729 L
211.012 112.878 L
211.446 113.026 L
211.88 113.174 L
212.314 113.322 L
212.748 113.47 L
213.182 113.618 L
213.616 113.766 L
214.05 113.913 L
214.484 114.06 L
214.918 114.207 L
215.352 114.354 L
215.786 114.501 L
216.22 114.647 L
216.654 114.794 L
217.088 114.94 L
217.522 115.086 L
217.956 115.232 L
218.39 115.377 L
218.824 115.523 L
219.258 115.668 L
219.692 115.813 L
220.126 115.958 L
220.56 116.103 L
220.994 116.247 L
221.428 116.392 L
221.862 116.536 L
222.296 116.68 L
222.73 116.824 L
223.164 116.967 L
223.598 117.111 L
224.032 117.254 L
224.466 117.397 L
224.9 117.54 L
225.334 117.683 L
225.768 117.826 L
226.202 117.968 L
226.636 118.11 L
227.07 118.253 L
227.504 118.394 L
227.938 118.536 L
228.372 118.678 L
228.806 118.819 L
229.24 118.96 L
229.674 119.101 L
230.108 119.242 L
230.542 119.383 L
230.976 119.523 L
231.41 119.664 L
231.844 119.804 L
232.278 119.944 L
232.712 120.084 L
233.146 120.223 L
233.58 120.363 L
234.014 120.502 L
234.448 120.641 L
234.882 120.78 L
235.316 120.919 L
235.75 121.057 L
236.184 121.196 L
236.618 121.334 L
237.052 121.472 L
237.486 121.61 L
237.92 121.748 L
238.354 121.885 L
238.788 122.022 L
239.222 122.16 L
239.656 122.296 L
240.09 122.433 L
240.524 122.57 L
240.958 122.706 L
241.392 122.843 L
241.826 122.979 L
242.26 123.115 L
242.694 123.25 L
243.128 123.386 L
243.562 123.521 L
243.996 123.657 L
244.43 123.792 L
244.864 123.926 L
245.298 124.061 L
245.732 124.196 L
246.166 124.33 L
246.6 124.464 L
247.034 124.598 L
247.468 124.732 L
247.902 124.866 L
248.336 124.999 L
248.77 125.132 L
249.204 125.265 L
249.638 125.398 L
250.072 125.531 L
250.506 125.664 L
250.94 125.796 L
251.374 125.928 L
251.808 126.06 L
252.242 126.192 L
252.676 126.324 L
253.11 126.455 L
253.544 126.587 L
253.978 126.718 L
254.412 126.849 L
254.846 126.979 L
255.28 127.11 L
255.714 127.241 L
256.148 127.371 L
256.582 127.501 L
257.016 127.631 L
257.45 127.761 L
257.884 127.89 L
258.318 128.02 L
258.752 128.149 L
259.186 128.278 L
259.62 128.407 L
260.054 128.535 L
260.488 128.664 L
260.922 128.792 L
261.356 128.92 L
261.79 129.048 L
262.224 129.176 L
262.658 129.304 L
263.092 129.431 L
263.526 129.558 L
263.96 129.686 L
264.394 129.813 L
264.828 129.939 L
265.262 130.066 L
265.696 130.192 L
266.13 130.318 L
266.564 130.444 L
266.998 130.57 L
267.432 130.696 L
267.866 130.822 L
268.3 130.947 L
268.734 131.072 L
269.168 131.197 L
269.602 131.322 L
270.036 131.446 L
270.47 131.571 L
270.904 131.695 L
271.338 131.819 L
271.772 131.943 L
272.206 132.067 L
272.64 132.19 L
273.074 132.314 L
273.508 132.437 L
273.942 132.56 L
274.376 132.683 L
274.81 132.806 L
275.244 132.928 L
275.678 133.051 L
276.112 133.173 L
276.546 133.295 L
276.98 133.416 L
277.414 133.538 L
277.848 133.66 L
278.282 133.781 L
278.716 133.902 L
279.15 134.023 L
279.584 134.144 L
280.018 134.264 L
280.452 134.385 L
280.886 134.505 L
281.32 134.625 L
281.754 134.745 L
282.188 134.864 L
282.622 134.984 L
283.056 135.103 L
283.49 135.222 L
283.924 135.341 L
284.358 135.46 L
284.792 135.579 L
285.226 135.697 L
285.66 135.815 L
286.094 135.934 L
286.528 136.052 L
286.962 136.169 L
287.396 136.287 L
287.83 136.404 L
288.264 136.521 L
288.698 136.638 L
289.132 136.755 L
289.566 136.872 L
290 136.989 L
290.434 137.105 L
290.868 137.221 L
291.302 137.337 L
291.736 137.453 L
292.17 137.568 L
292.604 137.684 L
293.038 137.799 L
293.472 137.914 L
293.906 138.029 L
294.34 138.144 L
294.774 138.259 L
295.208 138.373 L
295.642 138.487 L
296.076 138.601 L
296.51 138.715 L
296.944 138.829 L
297.378 138.942 L
297.812 139.056 L
298.246 139.169 L
298.68 139.282 L
299.114 139.395 L
299.548 139.507 L
299.982 139.62 L
300.416 139.732 L
300.85 139.844 L
301.284 139.956 L
301.718 140.068 L
302.152 140.179 L
302.586 140.291 L
303.02 140.402 L
303.454 140.513 L
303.888 140.624 L
304.322 140.734 L
304.756 140.845 L
305.19 140.955 L
305.624 141.065 L
306.058 141.175 L
306.492 141.285 L
306.926 141.395 L
307.36 141.504 L
307.794 141.614 L
308.228 141.723 L
308.662 141.832 L
309.096 141.94 L
309.53 142.049 L
309.964 142.157 L
310.398 142.266 L
310.832 142.374 L
311.266 142.482 L
311.7 142.589 L
312.134 142.697 L
312.568 142.804 L
313.002 142.911 L
313.436 143.018 L
313.87 143.125 L
314.304 143.232 L
314.738 143.338 L
315.172 143.444 L
315.606 143.55 L
316.04 143.656 L
316.474 143.762 L
316.908 143.868 L
317.342 143.973 L
317.776 144.078 L
318.21 144.183 L
318.644 144.288 L
319.078 144.393 L
319.512 144.497 L
319.946 144.602 L
320.38 144.706 L
320.814 144.81 L
321.248 144.914 L
321.682 145.017 L
322.116 145.121 L
322.55 145.224 L
322.984 145.327 L
323.418 145.43 L
323.852 145.533 L
324.286 145.635 L
324.72 145.738 L
325.154 145.84 L
325.588 145.942 L
326.022 146.044 L
326.456 146.146 L
326.89 146.247 L
327.324 146.349 L
327.758 146.45 L
328.192 146.551 L
328.626 146.652 L
329.06 146.752 L
329.494 146.853 L
329.928 146.953 L
330.362 147.053 L
330.796 147.153 L
331.23 147.253 L
331.664 147.352 L
332.098 147.452 L
332.532 147.551 L
332.966 147.65 L
333.4 147.749 L
333.834 147.847 L
334.268 147.946 L
334.702 148.044 L
335.136 148.143 L
335.57 148.24 L
336.004 148.338 L
336.438 148.436 L
336.872 148.533 L
337.306 148.631 L
337.74 148.728 L
338.174 148.825 L
338.608 148.921 L
339.042 149.018 L
339.476 149.114 L
339.91 149.211 L
340.344 149.307 L
340.778 149.403 L
341.212 149.498 L
341.646 149.594 L
342.08 149.689 L
342.514 149.784 L
342.948 149.879 L
343.382 149.974 L
343.816 150.069 L
344.25 150.163 L
344.684 150.257 L
345.118 150.352 L
345.552 150.446 L
345.986 150.539 L
346.42 150.633 L
346.854 150.726 L
347.288 150.819 L
347.722 150.913 L
348.156 151.005 L
348.59 151.098 L
349.024 151.191 L
349.458 151.283 L
349.892 151.375 L
350.326 151.467 L
350.76 151.559 L
351.194 151.651 L
351.628 151.742 L
352.062 151.833 L
352.496 151.924 L
352.93 152.015 L
353.364 152.106 L
353.798 152.197 L
354.232 152.287 L
354.666 152.377 L
355.1 152.467 L
355.534 152.557 L
355.968 152.647 L
356.402 152.736 L
356.836 152.826 L
357.27 152.915 L
357.704 153.004 L
358.138 153.093 L
358.572 153.181 L
359.006 153.27 L
359.44 153.358 L
359.874 153.446 L
360.308 153.534 L
360.742 153.622 L
361.176 153.71 L
361.61 153.797 L
362.044 153.884 L
362.478 153.971 L
362.912 154.058 L
363.346 154.145 L
363.78 154.231 L
364.214 154.318 L
364.648 154.404 L
365.082 154.49 L
365.516 154.576 L
365.95 154.661 L
366.384 154.747 L
366.818 154.832 L
367.252 154.917 L
367.686 155.002 L
368.12 155.087 L
368.554 155.171 L
368.988 155.256 L
369.422 155.34 L
369.856 155.424 L
370.29 155.508 L
370.724 155.592 L
371.158 155.675 L
371.592 155.758 L
372.026 155.842 L
372.46 155.925 L
372.894 156.007 L
373.328 156.09 L
373.762 156.173 L
374.196 156.255 L
374.63 156.337 L
375.064 156.419 L
375.498 156.501 L
375.932 156.582 L
376.366 156.664 L
376.8 156.745 L
377.234 156.826 L
377.668 156.907 L
378.102 156.987 L
378.536 157.068 L
378.97 157.148 L
379.404 157.229 L
379.838 157.309 L
380.272 157.388 L
380.706 157.468 L
381.14 157.547 L
381.574 157.627 L
382.008 157.706 L
382.442 157.785 L
382.876 157.864 L
383.31 157.942 L
383.744 158.021 L
384.178 158.099 L
384.612 158.177 L
385.046 158.255 L
385.48 158.332 L
385.914 158.41 L
386.348 158.487 L
386.782 158.564 L
387.216 158.641 L
387.65 158.718 L
388.084 158.795 L
388.518 158.871 L
388.952 158.948 L
389.386 159.024 L
389.82 159.1 L
390.254 159.175 L
390.688 159.251 L
391.122 159.326 L
391.556 159.402 L
391.99 159.477 L
392.424 159.552 L
392.858 159.626 L
393.292 159.701 L
393.726 159.775 L
394.16 159.849 L
394.594 159.923 L
395.028 159.997 L
395.462 160.071 L
395.896 160.144 L
396.33 160.218 L
396.764 160.291 L
397.198 160.364 L
397.632 160.436 L
398.066 160.509 L
398.5 160.581 L
398.934 160.654 L
399.368 160.726 L
399.802 160.798 L
400.236 160.869 L
400.67 160.941 L
401.104 161.012 L
401.538 161.083 L
401.972 161.154 L
402.406 161.225 L
402.84 161.296 L
403.274 161.366 L
403.708 161.436 L
404.142 161.507 L
404.576 161.577 L
405.01 161.646 L
405.444 161.716 L
405.878 161.785 L
406.312 161.855 L
406.746 161.924 L
407.18 161.992 L
407.614 162.061 L
408.048 162.13 L
408.482 162.198 L
408.916 162.266 L
409.35 162.334 L
409.784 162.402 L
410.218 162.47 L
410.652 162.537 L
411.086 162.604 L
411.52 162.672 L
411.954 162.738 L
412.388 162.805 L
412.822 162.872 L
413.256 162.938 L
413.69 163.004 L
414.124 163.07 L
414.558 163.136 L
414.992 163.202 L
415.426 163.268 L
415.86 163.333 L
416.294 163.398 L
416.728 163.463 L
417.162 163.528 L
417.596 163.593 L
418.03 163.657 L
418.464 163.721 L
418.898 163.785 L
419.332 163.849 L
419.766 163.913 L
420.2 163.977 L
420.634 164.04 L
421.068 164.103 L
421.502 164.166 L
421.936 164.229 L
422.37 164.292 L
422.804 164.355 L
423.238 164.417 L
423.672 164.479 L
424.106 164.541 L
424.54 164.603 L
424.974 164.665 L
425.408 164.726 L
425.842 164.787 L
426.276 164.848 L
426.71 164.909 L
427.144 164.97 L
427.578 165.031 L
428.012 165.091 L
428.446 165.151 L
428.88 165.211 L
429.314 165.271 L
429.748 165.331 L
430.182 165.391 L
430.616 165.45 L
431.05 165.509 L
431.484 165.568 L
431.918 165.627 L
432.352 165.686 L
432.786 165.744 L
433.22 165.802 L
433.654 165.86 L
434.088 165.918 L
434.522 165.976 L
434.956 166.034 L
435.39 166.091 L
435.824 166.148 L
436.258 166.205 L
436.692 166.262 L
437.126 166.319 L
437.56 166.376 L
437.994 166.432 L
438.428 166.488 L
438.862 166.544 L
439.296 166.6 L
439.73 166.656 L
440.164 166.711 L
440.598 166.766 L
441.032 166.821 L
441.466 166.876 L
441.9 166.931 L
442.334 166.986 L
442.768 167.04 L
443.202 167.094 L
443.636 167.148 L
444.07 167.202 L
444.504 167.256 L
444.938 167.31 L
445.372 167.363 L
445.806 167.416 L
446.24 167.469 L
446.674 167.522 L
447.108 167.575 L
447.542 167.627 L
447.976 167.679 L
448.41 167.731 L
448.844 167.783 L
449.278 167.835 L
449.712 167.887 L
450.146 167.938 L
450.58 167.989 L
451.014 168.04 L
451.448 168.091 L
451.882 168.142 L
452.316 168.193 L
452.75 168.243 L
453.184 168.293 L
453.618 168.343 L
454.052 168.393 L
454.486 168.443 L
454.92 168.492 L
455.354 168.541 L
455.788 168.59 L
456.222 168.639 L
456.656 168.688 L
457.09 168.737 L
457.524 168.785 L
457.958 168.833 L
458.392 168.882 L
458.826 168.929 L
459.26 168.977 L
459.694 169.025 L
460.128 169.072 L
460.562 169.119 L
460.996 169.166 L
461.43 169.213 L
461.864 169.26 L
462.298 169.306 L
462.732 169.352 L
463.166 169.399 L
463.6 169.444 L
464.034 169.49 L
464.468 169.536 L
464.902 169.581 L
465.336 169.626 L
465.77 169.672 L
466.204 169.716 L
466.638 169.761 L
467.072 169.806 L
467.506 169.85 L
467.94 169.894 L
468.374 169.938 L
468.808 169.982 L
469.242 170.026 L
469.676 170.069 L
470.11 170.112 L
470.544 170.156 L
470.978 170.199 L
471.412 170.241 L
471.846 170.284 L
472.28 170.326 L
472.714 170.369 L
473.148 170.411 L
473.582 170.453 L
474.016 170.494 L
474.45 170.536 L
474.884 170.577 L
475.318 170.618 L
475.752 170.659 L
476.186 170.7 L
476.62 170.741 L
477.054 170.781 L
477.488 170.822 L
477.922 170.862 L
478.356 170.902 L
478.79 170.941 L
479.224 170.981 L
479.658 171.02 L
480.092 171.06 L
480.526 171.099 L
480.96 171.138 L
481.394 171.176 L
481.828 171.215 L
482.262 171.253 L
482.696 171.291 L
483.13 171.329 L
483.564 171.367 L
483.998 171.405 L
484.432 171.442 L
484.866 171.48 L
485.3 171.517 L
485.734 171.554 L
486.168 171.59 L
486.602 171.627 L
487.036 171.663 L
487.47 171.7 L
487.904 171.736 L
488.338 171.772 L
488.772 171.807 L
489.206 171.843 L
489.64 171.878 L
490.074 171.913 L
490.508 171.948 L
490.942 171.983 L
491.376 172.018 L
491.81 172.052 L
492.244 172.087 L
492.678 172.121 L
493.112 172.155 L
493.546 172.189 L
493.98 172.222 L
494.414 172.256 L
494.848 172.289 L
495.282 172.322 L
495.716 172.355 L
496.15 172.388 L
496.584 172.42 L
497.018 172.452 L
497.452 172.485 L
497.886 172.517 L
498.32 172.548 L
498.754 172.58 L
499.188 172.612 L
499.622 172.643 L
500.056 172.674 L
500.49 172.705 L
500.924 172.736 L
501.358 172.766 L
501.792 172.797 L
502.226 172.827 L
502.66 172.857 L
503.094 172.887 L
503.528 172.917 L
503.962 172.946 L
504.396 172.976 L
504.83 173.005 L
505.264 173.034 L
505.698 173.063 L
506.132 173.091 L
506.566 173.12 L
507 173.148 L
S
GR
GS
1 GC
N
386 63 M
386 37 L
499 37 L
499 63 L
cp
f
GR
GS
[1 0 0 1 423 44.35849] CT
/Helvetica 9 F
GS
[1 0 0 1 0 0] CT
0 3.5 moveto 
1 -1 scale
(Error data) t 
GR
GR
GS
[1 0 0 1 405 44.35849] CT
0 0 1 RC
N
2.667 0 M
2.667 1.473 1.473 2.667 0 2.667 C
-1.473 2.667 -2.667 1.473 -2.667 0 C
-2.667 -1.473 -1.473 -2.667 0 -2.667 C
1.473 -2.667 2.667 -1.473 2.667 0 C
cp
f
GR
GS
[1 0 0 1 423 55.64151] CT
/Helvetica 9 F
GS
[1 0 0 1 0 0] CT
0 3.5 moveto 
1 -1 scale
(Polynomial model) t 
GR
GR
GS
1 0 0 RC
1 LJ
N
390 55.642 M
420 55.642 L
S
GR
GS
0.149 GC
10.0 ML
0.5 LW
N
386 63 M
386 37 L
499 37 L
499 63 L
cp
S
GR
GS
1 GC
N
73 374 M
507 374 L
507 231 L
73 231 L
cp
f
GR
GS
0.873 GC
1 LJ
0.5 LW
N
73 374 M
73 231 L
S
GR
GS
0.873 GC
1 LJ
0.5 LW
N
159.8 374 M
159.8 231 L
S
GR
GS
0.873 GC
1 LJ
0.5 LW
N
246.6 374 M
246.6 231 L
S
GR
GS
0.873 GC
1 LJ
0.5 LW
N
333.4 374 M
333.4 231 L
S
GR
GS
0.873 GC
1 LJ
0.5 LW
N
420.2 374 M
420.2 231 L
S
GR
GS
0.873 GC
1 LJ
0.5 LW
N
507 374 M
507 231 L
S
GR
GS
0.873 GC
1 LJ
0.5 LW
N
507 374 M
73 374 L
S
GR
GS
0.873 GC
1 LJ
0.5 LW
N
507 338.25 M
73 338.25 L
S
GR
GS
0.873 GC
1 LJ
0.5 LW
N
507 302.5 M
73 302.5 L
S
GR
GS
0.873 GC
1 LJ
0.5 LW
N
507 266.75 M
73 266.75 L
S
GR
GS
0.873 GC
1 LJ
0.5 LW
N
507 231 M
73 231 L
S
GR
GS
0.149 GC
2 setlinecap
1 LJ
0.5 LW
N
73 374 M
507 374 L
S
GR
GS
0.149 GC
2 setlinecap
1 LJ
0.5 LW
N
73 231 M
507 231 L
S
GR
GS
0.149 GC
2 setlinecap
1 LJ
0.5 LW
N
73 374 M
73 369.66 L
S
GR
GS
0.149 GC
2 setlinecap
1 LJ
0.5 LW
N
159.8 374 M
159.8 369.66 L
S
GR
GS
0.149 GC
2 setlinecap
1 LJ
0.5 LW
N
246.6 374 M
246.6 369.66 L
S
GR
GS
0.149 GC
2 setlinecap
1 LJ
0.5 LW
N
333.4 374 M
333.4 369.66 L
S
GR
GS
0.149 GC
2 setlinecap
1 LJ
0.5 LW
N
420.2 374 M
420.2 369.66 L
S
GR
GS
0.149 GC
2 setlinecap
1 LJ
0.5 LW
N
507 374 M
507 369.66 L
S
GR
GS
0.149 GC
2 setlinecap
1 LJ
0.5 LW
N
73 231 M
73 235.34 L
S
GR
GS
0.149 GC
2 setlinecap
1 LJ
0.5 LW
N
159.8 231 M
159.8 235.34 L
S
GR
GS
0.149 GC
2 setlinecap
1 LJ
0.5 LW
N
246.6 231 M
246.6 235.34 L
S
GR
GS
0.149 GC
2 setlinecap
1 LJ
0.5 LW
N
333.4 231 M
333.4 235.34 L
S
GR
GS
0.149 GC
2 setlinecap
1 LJ
0.5 LW
N
420.2 231 M
420.2 235.34 L
S
GR
GS
0.149 GC
2 setlinecap
1 LJ
0.5 LW
N
507 231 M
507 235.34 L
S
GR
GS
[1 0 0 1 73 378] CT
0.149 GC
/Helvetica 10 F
GS
[1 0 0 1 0 0] CT
-8 10 moveto 
1 -1 scale
(-25) t 
GR
GR
GS
[1 0 0 1 159.8 378] CT
0.149 GC
/Helvetica 10 F
GS
[1 0 0 1 0 0] CT
-8 10 moveto 
1 -1 scale
(-20) t 
GR
GR
GS
[1 0 0 1 246.60001 378] CT
0.149 GC
/Helvetica 10 F
GS
[1 0 0 1 0 0] CT
-8 10 moveto 
1 -1 scale
(-15) t 
GR
GR
GS
[1 0 0 1 333.39999 378] CT
0.149 GC
/Helvetica 10 F
GS
[1 0 0 1 0 0] CT
-8 10 moveto 
1 -1 scale
(-10) t 
GR
GR
GS
[1 0 0 1 420.20001 378] CT
0.149 GC
/Helvetica 10 F
GS
[1 0 0 1 0 0] CT
-5 10 moveto 
1 -1 scale
(-5) t 
GR
GR
GS
[1 0 0 1 507 378] CT
0.149 GC
/Helvetica 10 F
GS
[1 0 0 1 0 0] CT
-3 10 moveto 
1 -1 scale
(0) t 
GR
GR
GS
[1 0 0 1 290.00021 392] CT
0.149 GC
/Helvetica-Bold 12 F
GS
[1 0 0 1 0 0] CT
-82 12 moveto 
1 -1 scale
(Camera rotation \(in degrees\)) t 
GR
GR
GS
0.149 GC
2 setlinecap
1 LJ
0.5 LW
N
73 374 M
73 231 L
S
GR
GS
0.149 GC
2 setlinecap
1 LJ
0.5 LW
N
507 374 M
507 231 L
S
GR
GS
0.149 GC
2 setlinecap
1 LJ
0.5 LW
N
73 374 M
77.34 374 L
S
GR
GS
0.149 GC
2 setlinecap
1 LJ
0.5 LW
N
73 338.25 M
77.34 338.25 L
S
GR
GS
0.149 GC
2 setlinecap
1 LJ
0.5 LW
N
73 302.5 M
77.34 302.5 L
S
GR
GS
0.149 GC
2 setlinecap
1 LJ
0.5 LW
N
73 266.75 M
77.34 266.75 L
S
GR
GS
0.149 GC
2 setlinecap
1 LJ
0.5 LW
N
73 231 M
77.34 231 L
S
GR
GS
0.149 GC
2 setlinecap
1 LJ
0.5 LW
N
507 374 M
502.66 374 L
S
GR
GS
0.149 GC
2 setlinecap
1 LJ
0.5 LW
N
507 338.25 M
502.66 338.25 L
S
GR
GS
0.149 GC
2 setlinecap
1 LJ
0.5 LW
N
507 302.5 M
502.66 302.5 L
S
GR
GS
0.149 GC
2 setlinecap
1 LJ
0.5 LW
N
507 266.75 M
502.66 266.75 L
S
GR
GS
0.149 GC
2 setlinecap
1 LJ
0.5 LW
N
507 231 M
502.66 231 L
S
GR
GS
[1 0 0 1 68.99999 374] CT
0.149 GC
/Helvetica 10 F
GS
[1 0 0 1 0 0] CT
-10 3.5 moveto 
1 -1 scale
(-1) t 
GR
GR
GS
[1 0 0 1 68.99999 338.25] CT
0.149 GC
/Helvetica 10 F
GS
[1 0 0 1 0 0] CT
-6 3.5 moveto 
1 -1 scale
(0) t 
GR
GR
GS
[1 0 0 1 68.99999 302.5] CT
0.149 GC
/Helvetica 10 F
GS
[1 0 0 1 0 0] CT
-6 3.5 moveto 
1 -1 scale
(1) t 
GR
GR
GS
[1 0 0 1 68.99999 266.75] CT
0.149 GC
/Helvetica 10 F
GS
[1 0 0 1 0 0] CT
-6 3.5 moveto 
1 -1 scale
(2) t 
GR
GR
GS
[1 0 0 1 68.99999 231] CT
0.149 GC
/Helvetica 10 F
GS
[1 0 0 1 0 0] CT
-6 3.5 moveto 
1 -1 scale
(3) t 
GR
GR
GS
[0 -1 1 0 55.99999 302.49994] CT
0.149 GC
/Helvetica-Bold 12 F
GS
[1 0 0 1 0 0] CT
-55.5 -3 moveto 
1 -1 scale
(Width error \(in mm\)) t 
GR
GR
GS
[1 0 0 1 73 266.19342] CT
0 0 1 RC
N
2.667 0 M
2.667 1.473 1.473 2.667 0 2.667 C
-1.473 2.667 -2.667 1.473 -2.667 0 C
-2.667 -1.473 -1.473 -2.667 0 -2.667 C
1.473 -2.667 2.667 -1.473 2.667 0 C
cp
f
GR
GS
[1 0 0 1 90.36 267.99847] CT
0 0 1 RC
N
2.667 0 M
2.667 1.473 1.473 2.667 0 2.667 C
-1.473 2.667 -2.667 1.473 -2.667 0 C
-2.667 -1.473 -1.473 -2.667 0 -2.667 C
1.473 -2.667 2.667 -1.473 2.667 0 C
cp
f
GR
GS
[1 0 0 1 107.72 329.01352] CT
0 0 1 RC
N
2.667 0 M
2.667 1.473 1.473 2.667 0 2.667 C
-1.473 2.667 -2.667 1.473 -2.667 0 C
-2.667 -1.473 -1.473 -2.667 0 -2.667 C
1.473 -2.667 2.667 -1.473 2.667 0 C
cp
f
GR
GS
[1 0 0 1 125.08 320.82123] CT
0 0 1 RC
N
2.667 0 M
2.667 1.473 1.473 2.667 0 2.667 C
-1.473 2.667 -2.667 1.473 -2.667 0 C
-2.667 -1.473 -1.473 -2.667 0 -2.667 C
1.473 -2.667 2.667 -1.473 2.667 0 C
cp
f
GR
GS
[1 0 0 1 142.44 334.56052] CT
0 0 1 RC
N
2.667 0 M
2.667 1.473 1.473 2.667 0 2.667 C
-1.473 2.667 -2.667 1.473 -2.667 0 C
-2.667 -1.473 -1.473 -2.667 0 -2.667 C
1.473 -2.667 2.667 -1.473 2.667 0 C
cp
f
GR
GS
[1 0 0 1 159.8 330.59305] CT
0 0 1 RC
N
2.667 0 M
2.667 1.473 1.473 2.667 0 2.667 C
-1.473 2.667 -2.667 1.473 -2.667 0 C
-2.667 -1.473 -1.473 -2.667 0 -2.667 C
1.473 -2.667 2.667 -1.473 2.667 0 C
cp
f
GR
GS
[1 0 0 1 177.16 358.66458] CT
0 0 1 RC
N
2.667 0 M
2.667 1.473 1.473 2.667 0 2.667 C
-1.473 2.667 -2.667 1.473 -2.667 0 C
-2.667 -1.473 -1.473 -2.667 0 -2.667 C
1.473 -2.667 2.667 -1.473 2.667 0 C
cp
f
GR
GS
[1 0 0 1 194.52 355.72714] CT
0 0 1 RC
N
2.667 0 M
2.667 1.473 1.473 2.667 0 2.667 C
-1.473 2.667 -2.667 1.473 -2.667 0 C
-2.667 -1.473 -1.473 -2.667 0 -2.667 C
1.473 -2.667 2.667 -1.473 2.667 0 C
cp
f
GR
GS
[1 0 0 1 211.88 365.58286] CT
0 0 1 RC
N
2.667 0 M
2.667 1.473 1.473 2.667 0 2.667 C
-1.473 2.667 -2.667 1.473 -2.667 0 C
-2.667 -1.473 -1.473 -2.667 0 -2.667 C
1.473 -2.667 2.667 -1.473 2.667 0 C
cp
f
GR
GS
[1 0 0 1 229.24001 347.47412] CT
0 0 1 RC
N
2.667 0 M
2.667 1.473 1.473 2.667 0 2.667 C
-1.473 2.667 -2.667 1.473 -2.667 0 C
-2.667 -1.473 -1.473 -2.667 0 -2.667 C
1.473 -2.667 2.667 -1.473 2.667 0 C
cp
f
GR
GS
[1 0 0 1 246.60001 343.36877] CT
0 0 1 RC
N
2.667 0 M
2.667 1.473 1.473 2.667 0 2.667 C
-1.473 2.667 -2.667 1.473 -2.667 0 C
-2.667 -1.473 -1.473 -2.667 0 -2.667 C
1.473 -2.667 2.667 -1.473 2.667 0 C
cp
f
GR
GS
[1 0 0 1 263.95999 342.74396] CT
0 0 1 RC
N
2.667 0 M
2.667 1.473 1.473 2.667 0 2.667 C
-1.473 2.667 -2.667 1.473 -2.667 0 C
-2.667 -1.473 -1.473 -2.667 0 -2.667 C
1.473 -2.667 2.667 -1.473 2.667 0 C
cp
f
GR
GS
[1 0 0 1 281.32001 336.78699] CT
0 0 1 RC
N
2.667 0 M
2.667 1.473 1.473 2.667 0 2.667 C
-1.473 2.667 -2.667 1.473 -2.667 0 C
-2.667 -1.473 -1.473 -2.667 0 -2.667 C
1.473 -2.667 2.667 -1.473 2.667 0 C
cp
f
GR
GS
[1 0 0 1 298.67999 336.9519] CT
0 0 1 RC
N
2.667 0 M
2.667 1.473 1.473 2.667 0 2.667 C
-1.473 2.667 -2.667 1.473 -2.667 0 C
-2.667 -1.473 -1.473 -2.667 0 -2.667 C
1.473 -2.667 2.667 -1.473 2.667 0 C
cp
f
GR
GS
[1 0 0 1 316.04001 333.87656] CT
0 0 1 RC
N
2.667 0 M
2.667 1.473 1.473 2.667 0 2.667 C
-1.473 2.667 -2.667 1.473 -2.667 0 C
-2.667 -1.473 -1.473 -2.667 0 -2.667 C
1.473 -2.667 2.667 -1.473 2.667 0 C
cp
f
GR
GS
[1 0 0 1 333.39999 339.73105] CT
0 0 1 RC
N
2.667 0 M
2.667 1.473 1.473 2.667 0 2.667 C
-1.473 2.667 -2.667 1.473 -2.667 0 C
-2.667 -1.473 -1.473 -2.667 0 -2.667 C
1.473 -2.667 2.667 -1.473 2.667 0 C
cp
f
GR
GS
[1 0 0 1 350.76001 331.0495] CT
0 0 1 RC
N
2.667 0 M
2.667 1.473 1.473 2.667 0 2.667 C
-1.473 2.667 -2.667 1.473 -2.667 0 C
-2.667 -1.473 -1.473 -2.667 0 -2.667 C
1.473 -2.667 2.667 -1.473 2.667 0 C
cp
f
GR
GS
[1 0 0 1 368.12 328.51505] CT
0 0 1 RC
N
2.667 0 M
2.667 1.473 1.473 2.667 0 2.667 C
-1.473 2.667 -2.667 1.473 -2.667 0 C
-2.667 -1.473 -1.473 -2.667 0 -2.667 C
1.473 -2.667 2.667 -1.473 2.667 0 C
cp
f
GR
GS
[1 0 0 1 385.48001 328.065] CT
0 0 1 RC
N
2.667 0 M
2.667 1.473 1.473 2.667 0 2.667 C
-1.473 2.667 -2.667 1.473 -2.667 0 C
-2.667 -1.473 -1.473 -2.667 0 -2.667 C
1.473 -2.667 2.667 -1.473 2.667 0 C
cp
f
GR
GS
[1 0 0 1 402.84 331.815] CT
0 0 1 RC
N
2.667 0 M
2.667 1.473 1.473 2.667 0 2.667 C
-1.473 2.667 -2.667 1.473 -2.667 0 C
-2.667 -1.473 -1.473 -2.667 0 -2.667 C
1.473 -2.667 2.667 -1.473 2.667 0 C
cp
f
GR
GS
[1 0 0 1 420.20001 330.32645] CT
0 0 1 RC
N
2.667 0 M
2.667 1.473 1.473 2.667 0 2.667 C
-1.473 2.667 -2.667 1.473 -2.667 0 C
-2.667 -1.473 -1.473 -2.667 0 -2.667 C
1.473 -2.667 2.667 -1.473 2.667 0 C
cp
f
GR
GS
[1 0 0 1 437.56 332.71915] CT
0 0 1 RC
N
2.667 0 M
2.667 1.473 1.473 2.667 0 2.667 C
-1.473 2.667 -2.667 1.473 -2.667 0 C
-2.667 -1.473 -1.473 -2.667 0 -2.667 C
1.473 -2.667 2.667 -1.473 2.667 0 C
cp
f
GR
GS
[1 0 0 1 454.92001 338.32788] CT
0 0 1 RC
N
2.667 0 M
2.667 1.473 1.473 2.667 0 2.667 C
-1.473 2.667 -2.667 1.473 -2.667 0 C
-2.667 -1.473 -1.473 -2.667 0 -2.667 C
1.473 -2.667 2.667 -1.473 2.667 0 C
cp
f
GR
GS
[1 0 0 1 472.28 340.57703] CT
0 0 1 RC
N
2.667 0 M
2.667 1.473 1.473 2.667 0 2.667 C
-1.473 2.667 -2.667 1.473 -2.667 0 C
-2.667 -1.473 -1.473 -2.667 0 -2.667 C
1.473 -2.667 2.667 -1.473 2.667 0 C
cp
f
GR
GS
[1 0 0 1 489.64001 345.55139] CT
0 0 1 RC
N
2.667 0 M
2.667 1.473 1.473 2.667 0 2.667 C
-1.473 2.667 -2.667 1.473 -2.667 0 C
-2.667 -1.473 -1.473 -2.667 0 -2.667 C
1.473 -2.667 2.667 -1.473 2.667 0 C
cp
f
GR
GS
[1 0 0 1 507 352.04346] CT
0 0 1 RC
N
2.667 0 M
2.667 1.473 1.473 2.667 0 2.667 C
-1.473 2.667 -2.667 1.473 -2.667 0 C
-2.667 -1.473 -1.473 -2.667 0 -2.667 C
1.473 -2.667 2.667 -1.473 2.667 0 C
cp
f
GR
GS
1 0 0 RC
1 LJ
N
73 338.25 M
73.434 338.25 L
73.868 338.25 L
74.302 338.25 L
74.736 338.25 L
75.17 338.25 L
75.604 338.25 L
76.038 338.25 L
76.472 338.25 L
76.906 338.25 L
77.34 338.25 L
77.774 338.25 L
78.208 338.25 L
78.642 338.25 L
79.076 338.25 L
79.51 338.25 L
79.944 338.25 L
80.378 338.25 L
80.812 338.25 L
81.246 338.25 L
81.68 338.25 L
82.114 338.25 L
82.548 338.25 L
82.982 338.25 L
83.416 338.25 L
83.85 338.25 L
84.284 338.25 L
84.718 338.25 L
85.152 338.25 L
85.586 338.25 L
86.02 338.25 L
86.454 338.25 L
86.888 338.25 L
87.322 338.25 L
87.756 338.25 L
88.19 338.25 L
88.624 338.25 L
89.058 338.25 L
89.492 338.25 L
89.926 338.25 L
90.36 338.25 L
90.794 338.25 L
91.228 338.25 L
91.662 338.25 L
92.096 338.25 L
92.53 338.25 L
92.964 338.25 L
93.398 338.25 L
93.832 338.25 L
94.266 338.25 L
94.7 338.25 L
95.134 338.25 L
95.568 338.25 L
96.002 338.25 L
96.436 338.25 L
96.87 338.25 L
97.304 338.25 L
97.738 338.25 L
98.172 338.25 L
98.606 338.25 L
99.04 338.25 L
99.474 338.25 L
99.908 338.25 L
100.342 338.25 L
100.776 338.25 L
101.21 338.25 L
101.644 338.25 L
102.078 338.25 L
102.512 338.25 L
102.946 338.25 L
103.38 338.25 L
103.814 338.25 L
104.248 338.25 L
104.682 338.25 L
105.116 338.25 L
105.55 338.25 L
105.984 338.25 L
106.418 338.25 L
106.852 338.25 L
107.286 338.25 L
107.72 338.25 L
108.154 338.25 L
108.588 338.25 L
109.022 338.25 L
109.456 338.25 L
109.89 338.25 L
110.324 338.25 L
110.758 338.25 L
111.192 338.25 L
111.626 338.25 L
112.06 338.25 L
112.494 338.25 L
112.928 338.25 L
113.362 338.25 L
113.796 338.25 L
114.23 338.25 L
114.664 338.25 L
115.098 338.25 L
115.532 338.25 L
115.966 338.25 L
116.4 338.25 L
116.834 338.25 L
117.268 338.25 L
117.702 338.25 L
118.136 338.25 L
118.57 338.25 L
119.004 338.25 L
119.438 338.25 L
119.872 338.25 L
120.306 338.25 L
120.74 338.25 L
121.174 338.25 L
121.608 338.25 L
122.042 338.25 L
122.476 338.25 L
122.91 338.25 L
123.344 338.25 L
123.778 338.25 L
124.212 338.25 L
124.646 338.25 L
125.08 338.25 L
125.514 338.25 L
125.948 338.25 L
126.382 338.25 L
126.816 338.25 L
127.25 338.25 L
127.684 338.25 L
128.118 338.25 L
128.552 338.25 L
128.986 338.25 L
129.42 338.25 L
129.854 338.25 L
130.288 338.25 L
130.722 338.25 L
131.156 338.25 L
131.59 338.25 L
132.024 338.25 L
132.458 338.25 L
132.892 338.25 L
133.326 338.25 L
133.76 338.25 L
134.194 338.25 L
134.628 338.25 L
135.062 338.25 L
135.496 338.25 L
135.93 338.25 L
136.364 338.25 L
136.798 338.25 L
137.232 338.25 L
137.666 338.25 L
138.1 338.25 L
138.534 338.25 L
138.968 338.25 L
139.402 338.25 L
139.836 338.25 L
140.27 338.25 L
140.704 338.25 L
141.138 338.25 L
141.572 338.25 L
142.006 338.25 L
142.44 338.25 L
142.874 338.25 L
143.308 338.25 L
143.742 338.25 L
144.176 338.25 L
144.61 338.25 L
145.044 338.25 L
145.478 338.25 L
145.912 338.25 L
146.346 338.25 L
146.78 338.25 L
147.214 338.25 L
147.648 338.25 L
148.082 338.25 L
148.516 338.25 L
148.95 338.25 L
149.384 338.25 L
149.818 338.25 L
150.252 338.25 L
150.686 338.25 L
151.12 338.25 L
151.554 338.25 L
151.988 338.25 L
152.422 338.25 L
152.856 338.25 L
153.29 338.25 L
153.724 338.25 L
154.158 338.25 L
154.592 338.25 L
155.026 338.25 L
155.46 338.25 L
155.894 338.25 L
156.328 338.25 L
156.762 338.25 L
157.196 338.25 L
157.63 338.25 L
158.064 338.25 L
158.498 338.25 L
158.932 338.25 L
159.366 338.25 L
159.8 338.25 L
160.234 338.25 L
160.668 338.25 L
161.102 338.25 L
161.536 338.25 L
161.97 338.25 L
162.404 338.25 L
162.838 338.25 L
163.272 338.25 L
163.706 338.25 L
164.14 338.25 L
164.574 338.25 L
165.008 338.25 L
165.442 338.25 L
165.876 338.25 L
166.31 338.25 L
166.744 338.25 L
167.178 338.25 L
167.612 338.25 L
168.046 338.25 L
168.48 338.25 L
168.914 338.25 L
169.348 338.25 L
169.782 338.25 L
170.216 338.25 L
170.65 338.25 L
171.084 338.25 L
171.518 338.25 L
171.952 338.25 L
172.386 338.25 L
172.82 338.25 L
173.254 338.25 L
173.688 338.25 L
174.122 338.25 L
174.556 338.25 L
174.99 338.25 L
175.424 338.25 L
175.858 338.25 L
176.292 338.25 L
176.726 338.25 L
177.16 338.25 L
177.594 338.25 L
178.028 338.25 L
178.462 338.25 L
178.896 338.25 L
179.33 338.25 L
179.764 338.25 L
180.198 338.25 L
180.632 338.25 L
181.066 338.25 L
181.5 338.25 L
181.934 338.25 L
182.368 338.25 L
182.802 338.25 L
183.236 338.25 L
183.67 338.25 L
184.104 338.25 L
184.538 338.25 L
184.972 338.25 L
185.406 338.25 L
185.84 338.25 L
186.274 338.25 L
186.708 338.25 L
187.142 338.25 L
187.576 338.25 L
188.01 338.25 L
188.444 338.25 L
188.878 338.25 L
189.312 338.25 L
189.746 338.25 L
190.18 338.25 L
190.614 338.25 L
191.048 338.25 L
191.482 338.25 L
191.916 338.25 L
192.35 338.25 L
192.784 338.25 L
193.218 338.25 L
193.652 338.25 L
194.086 338.25 L
194.52 338.25 L
194.954 338.25 L
195.388 338.25 L
195.822 338.25 L
196.256 338.25 L
196.69 338.25 L
197.124 338.25 L
197.558 338.25 L
197.992 338.25 L
198.426 338.25 L
198.86 338.25 L
199.294 338.25 L
199.728 338.25 L
200.162 338.25 L
200.596 338.25 L
201.03 338.25 L
201.464 338.25 L
201.898 338.25 L
202.332 338.25 L
202.766 338.25 L
203.2 338.25 L
203.634 338.25 L
204.068 338.25 L
204.502 338.25 L
204.936 338.25 L
205.37 338.25 L
205.804 338.25 L
206.238 338.25 L
206.672 338.25 L
207.106 338.25 L
207.54 338.25 L
207.974 338.25 L
208.408 338.25 L
208.842 338.25 L
209.276 338.25 L
209.71 338.25 L
210.144 338.25 L
210.578 338.25 L
211.012 338.25 L
211.446 338.25 L
211.88 338.25 L
212.314 338.25 L
212.748 338.25 L
213.182 338.25 L
213.616 338.25 L
214.05 338.25 L
214.484 338.25 L
214.918 338.25 L
215.352 338.25 L
215.786 338.25 L
216.22 338.25 L
216.654 338.25 L
217.088 338.25 L
217.522 338.25 L
217.956 338.25 L
218.39 338.25 L
218.824 338.25 L
219.258 338.25 L
219.692 338.25 L
220.126 338.25 L
220.56 338.25 L
220.994 338.25 L
221.428 338.25 L
221.862 338.25 L
222.296 338.25 L
222.73 338.25 L
223.164 338.25 L
223.598 338.25 L
224.032 338.25 L
224.466 338.25 L
224.9 338.25 L
225.334 338.25 L
225.768 338.25 L
226.202 338.25 L
226.636 338.25 L
227.07 338.25 L
227.504 338.25 L
227.938 338.25 L
228.372 338.25 L
228.806 338.25 L
229.24 338.25 L
229.674 338.25 L
230.108 338.25 L
230.542 338.25 L
230.976 338.25 L
231.41 338.25 L
231.844 338.25 L
232.278 338.25 L
232.712 338.25 L
233.146 338.25 L
233.58 338.25 L
234.014 338.25 L
234.448 338.25 L
234.882 338.25 L
235.316 338.25 L
235.75 338.25 L
236.184 338.25 L
236.618 338.25 L
237.052 338.25 L
237.486 338.25 L
237.92 338.25 L
238.354 338.25 L
238.788 338.25 L
239.222 338.25 L
239.656 338.25 L
240.09 338.25 L
240.524 338.25 L
240.958 338.25 L
241.392 338.25 L
241.826 338.25 L
242.26 338.25 L
242.694 338.25 L
243.128 338.25 L
243.562 338.25 L
243.996 338.25 L
244.43 338.25 L
244.864 338.25 L
245.298 338.25 L
245.732 338.25 L
246.166 338.25 L
246.6 338.25 L
247.034 338.25 L
247.468 338.25 L
247.902 338.25 L
248.336 338.25 L
248.77 338.25 L
249.204 338.25 L
249.638 338.25 L
250.072 338.25 L
250.506 338.25 L
250.94 338.25 L
251.374 338.25 L
251.808 338.25 L
252.242 338.25 L
252.676 338.25 L
253.11 338.25 L
253.544 338.25 L
253.978 338.25 L
254.412 338.25 L
254.846 338.25 L
255.28 338.25 L
255.714 338.25 L
256.148 338.25 L
256.582 338.25 L
257.016 338.25 L
257.45 338.25 L
257.884 338.25 L
258.318 338.25 L
258.752 338.25 L
259.186 338.25 L
259.62 338.25 L
260.054 338.25 L
260.488 338.25 L
260.922 338.25 L
261.356 338.25 L
261.79 338.25 L
262.224 338.25 L
262.658 338.25 L
263.092 338.25 L
263.526 338.25 L
263.96 338.25 L
264.394 338.25 L
264.828 338.25 L
265.262 338.25 L
265.696 338.25 L
266.13 338.25 L
266.564 338.25 L
266.998 338.25 L
267.432 338.25 L
267.866 338.25 L
268.3 338.25 L
268.734 338.25 L
269.168 338.25 L
269.602 338.25 L
270.036 338.25 L
270.47 338.25 L
270.904 338.25 L
271.338 338.25 L
271.772 338.25 L
272.206 338.25 L
272.64 338.25 L
273.074 338.25 L
273.508 338.25 L
273.942 338.25 L
274.376 338.25 L
274.81 338.25 L
275.244 338.25 L
275.678 338.25 L
276.112 338.25 L
276.546 338.25 L
276.98 338.25 L
277.414 338.25 L
277.848 338.25 L
278.282 338.25 L
278.716 338.25 L
279.15 338.25 L
279.584 338.25 L
280.018 338.25 L
280.452 338.25 L
280.886 338.25 L
281.32 338.25 L
281.754 338.25 L
282.188 338.25 L
282.622 338.25 L
283.056 338.25 L
283.49 338.25 L
283.924 338.25 L
284.358 338.25 L
284.792 338.25 L
285.226 338.25 L
285.66 338.25 L
286.094 338.25 L
286.528 338.25 L
286.962 338.25 L
287.396 338.25 L
287.83 338.25 L
288.264 338.25 L
288.698 338.25 L
289.132 338.25 L
289.566 338.25 L
290 338.25 L
290.434 338.25 L
290.868 338.25 L
291.302 338.25 L
291.736 338.25 L
292.17 338.25 L
292.604 338.25 L
293.038 338.25 L
293.472 338.25 L
293.906 338.25 L
294.34 338.25 L
294.774 338.25 L
295.208 338.25 L
295.642 338.25 L
296.076 338.25 L
296.51 338.25 L
296.944 338.25 L
297.378 338.25 L
297.812 338.25 L
298.246 338.25 L
298.68 338.25 L
299.114 338.25 L
299.548 338.25 L
299.982 338.25 L
300.416 338.25 L
300.85 338.25 L
301.284 338.25 L
301.718 338.25 L
302.152 338.25 L
302.586 338.25 L
303.02 338.25 L
303.454 338.25 L
303.888 338.25 L
304.322 338.25 L
304.756 338.25 L
305.19 338.25 L
305.624 338.25 L
306.058 338.25 L
306.492 338.25 L
306.926 338.25 L
307.36 338.25 L
307.794 338.25 L
308.228 338.25 L
308.662 338.25 L
309.096 338.25 L
309.53 338.25 L
309.964 338.25 L
310.398 338.25 L
310.832 338.25 L
311.266 338.25 L
311.7 338.25 L
312.134 338.25 L
312.568 338.25 L
313.002 338.25 L
313.436 338.25 L
313.87 338.25 L
314.304 338.25 L
314.738 338.25 L
315.172 338.25 L
315.606 338.25 L
316.04 338.25 L
316.474 338.25 L
316.908 338.25 L
317.342 338.25 L
317.776 338.25 L
318.21 338.25 L
318.644 338.25 L
319.078 338.25 L
319.512 338.25 L
319.946 338.25 L
320.38 338.25 L
320.814 338.25 L
321.248 338.25 L
321.682 338.25 L
322.116 338.25 L
322.55 338.25 L
322.984 338.25 L
323.418 338.25 L
323.852 338.25 L
324.286 338.25 L
324.72 338.25 L
325.154 338.25 L
325.588 338.25 L
326.022 338.25 L
326.456 338.25 L
326.89 338.25 L
327.324 338.25 L
327.758 338.25 L
328.192 338.25 L
328.626 338.25 L
329.06 338.25 L
329.494 338.25 L
329.928 338.25 L
330.362 338.25 L
330.796 338.25 L
331.23 338.25 L
331.664 338.25 L
332.098 338.25 L
332.532 338.25 L
332.966 338.25 L
333.4 338.25 L
333.834 338.25 L
334.268 338.25 L
334.702 338.25 L
335.136 338.25 L
335.57 338.25 L
336.004 338.25 L
336.438 338.25 L
336.872 338.25 L
337.306 338.25 L
337.74 338.25 L
338.174 338.25 L
338.608 338.25 L
339.042 338.25 L
339.476 338.25 L
339.91 338.25 L
340.344 338.25 L
340.778 338.25 L
341.212 338.25 L
341.646 338.25 L
342.08 338.25 L
342.514 338.25 L
342.948 338.25 L
343.382 338.25 L
343.816 338.25 L
344.25 338.25 L
344.684 338.25 L
345.118 338.25 L
345.552 338.25 L
345.986 338.25 L
346.42 338.25 L
346.854 338.25 L
347.288 338.25 L
347.722 338.25 L
348.156 338.25 L
348.59 338.25 L
349.024 338.25 L
349.458 338.25 L
349.892 338.25 L
350.326 338.25 L
350.76 338.25 L
351.194 338.25 L
351.628 338.25 L
352.062 338.25 L
352.496 338.25 L
352.93 338.25 L
353.364 338.25 L
353.798 338.25 L
354.232 338.25 L
354.666 338.25 L
355.1 338.25 L
355.534 338.25 L
355.968 338.25 L
356.402 338.25 L
356.836 338.25 L
357.27 338.25 L
357.704 338.25 L
358.138 338.25 L
358.572 338.25 L
359.006 338.25 L
359.44 338.25 L
359.874 338.25 L
360.308 338.25 L
360.742 338.25 L
361.176 338.25 L
361.61 338.25 L
362.044 338.25 L
362.478 338.25 L
362.912 338.25 L
363.346 338.25 L
363.78 338.25 L
364.214 338.25 L
364.648 338.25 L
365.082 338.25 L
365.516 338.25 L
365.95 338.25 L
366.384 338.25 L
366.818 338.25 L
367.252 338.25 L
367.686 338.25 L
368.12 338.25 L
368.554 338.25 L
368.988 338.25 L
369.422 338.25 L
369.856 338.25 L
370.29 338.25 L
370.724 338.25 L
371.158 338.25 L
371.592 338.25 L
372.026 338.25 L
372.46 338.25 L
372.894 338.25 L
373.328 338.25 L
373.762 338.25 L
374.196 338.25 L
374.63 338.25 L
375.064 338.25 L
375.498 338.25 L
375.932 338.25 L
376.366 338.25 L
376.8 338.25 L
377.234 338.25 L
377.668 338.25 L
378.102 338.25 L
378.536 338.25 L
378.97 338.25 L
379.404 338.25 L
379.838 338.25 L
380.272 338.25 L
380.706 338.25 L
381.14 338.25 L
381.574 338.25 L
382.008 338.25 L
382.442 338.25 L
382.876 338.25 L
383.31 338.25 L
383.744 338.25 L
384.178 338.25 L
384.612 338.25 L
385.046 338.25 L
385.48 338.25 L
385.914 338.25 L
386.348 338.25 L
386.782 338.25 L
387.216 338.25 L
387.65 338.25 L
388.084 338.25 L
388.518 338.25 L
388.952 338.25 L
389.386 338.25 L
389.82 338.25 L
390.254 338.25 L
390.688 338.25 L
391.122 338.25 L
391.556 338.25 L
391.99 338.25 L
392.424 338.25 L
392.858 338.25 L
393.292 338.25 L
393.726 338.25 L
394.16 338.25 L
394.594 338.25 L
395.028 338.25 L
395.462 338.25 L
395.896 338.25 L
396.33 338.25 L
396.764 338.25 L
397.198 338.25 L
397.632 338.25 L
398.066 338.25 L
398.5 338.25 L
398.934 338.25 L
399.368 338.25 L
399.802 338.25 L
400.236 338.25 L
400.67 338.25 L
401.104 338.25 L
401.538 338.25 L
401.972 338.25 L
402.406 338.25 L
402.84 338.25 L
403.274 338.25 L
403.708 338.25 L
404.142 338.25 L
404.576 338.25 L
405.01 338.25 L
405.444 338.25 L
405.878 338.25 L
406.312 338.25 L
406.746 338.25 L
407.18 338.25 L
407.614 338.25 L
408.048 338.25 L
408.482 338.25 L
408.916 338.25 L
409.35 338.25 L
409.784 338.25 L
410.218 338.25 L
410.652 338.25 L
411.086 338.25 L
411.52 338.25 L
411.954 338.25 L
412.388 338.25 L
412.822 338.25 L
413.256 338.25 L
413.69 338.25 L
414.124 338.25 L
414.558 338.25 L
414.992 338.25 L
415.426 338.25 L
415.86 338.25 L
416.294 338.25 L
416.728 338.25 L
417.162 338.25 L
417.596 338.25 L
418.03 338.25 L
418.464 338.25 L
418.898 338.25 L
419.332 338.25 L
419.766 338.25 L
420.2 338.25 L
420.634 338.25 L
421.068 338.25 L
421.502 338.25 L
421.936 338.25 L
422.37 338.25 L
422.804 338.25 L
423.238 338.25 L
423.672 338.25 L
424.106 338.25 L
424.54 338.25 L
424.974 338.25 L
425.408 338.25 L
425.842 338.25 L
426.276 338.25 L
426.71 338.25 L
427.144 338.25 L
427.578 338.25 L
428.012 338.25 L
428.446 338.25 L
428.88 338.25 L
429.314 338.25 L
429.748 338.25 L
430.182 338.25 L
430.616 338.25 L
431.05 338.25 L
431.484 338.25 L
431.918 338.25 L
432.352 338.25 L
432.786 338.25 L
433.22 338.25 L
433.654 338.25 L
434.088 338.25 L
434.522 338.25 L
434.956 338.25 L
435.39 338.25 L
435.824 338.25 L
436.258 338.25 L
436.692 338.25 L
437.126 338.25 L
437.56 338.25 L
437.994 338.25 L
438.428 338.25 L
438.862 338.25 L
439.296 338.25 L
439.73 338.25 L
440.164 338.25 L
440.598 338.25 L
441.032 338.25 L
441.466 338.25 L
441.9 338.25 L
442.334 338.25 L
442.768 338.25 L
443.202 338.25 L
443.636 338.25 L
444.07 338.25 L
444.504 338.25 L
444.938 338.25 L
445.372 338.25 L
445.806 338.25 L
446.24 338.25 L
446.674 338.25 L
447.108 338.25 L
447.542 338.25 L
447.976 338.25 L
448.41 338.25 L
448.844 338.25 L
449.278 338.25 L
449.712 338.25 L
450.146 338.25 L
450.58 338.25 L
451.014 338.25 L
451.448 338.25 L
451.882 338.25 L
452.316 338.25 L
452.75 338.25 L
453.184 338.25 L
453.618 338.25 L
454.052 338.25 L
454.486 338.25 L
454.92 338.25 L
455.354 338.25 L
455.788 338.25 L
456.222 338.25 L
456.656 338.25 L
457.09 338.25 L
457.524 338.25 L
457.958 338.25 L
458.392 338.25 L
458.826 338.25 L
459.26 338.25 L
459.694 338.25 L
460.128 338.25 L
460.562 338.25 L
460.996 338.25 L
461.43 338.25 L
461.864 338.25 L
462.298 338.25 L
462.732 338.25 L
463.166 338.25 L
463.6 338.25 L
464.034 338.25 L
464.468 338.25 L
464.902 338.25 L
465.336 338.25 L
465.77 338.25 L
466.204 338.25 L
466.638 338.25 L
467.072 338.25 L
467.506 338.25 L
467.94 338.25 L
468.374 338.25 L
468.808 338.25 L
469.242 338.25 L
469.676 338.25 L
470.11 338.25 L
470.544 338.25 L
470.978 338.25 L
471.412 338.25 L
471.846 338.25 L
472.28 338.25 L
472.714 338.25 L
473.148 338.25 L
473.582 338.25 L
474.016 338.25 L
474.45 338.25 L
474.884 338.25 L
475.318 338.25 L
475.752 338.25 L
476.186 338.25 L
476.62 338.25 L
477.054 338.25 L
477.488 338.25 L
477.922 338.25 L
478.356 338.25 L
478.79 338.25 L
479.224 338.25 L
479.658 338.25 L
480.092 338.25 L
480.526 338.25 L
480.96 338.25 L
481.394 338.25 L
481.828 338.25 L
482.262 338.25 L
482.696 338.25 L
483.13 338.25 L
483.564 338.25 L
483.998 338.25 L
484.432 338.25 L
484.866 338.25 L
485.3 338.25 L
485.734 338.25 L
486.168 338.25 L
486.602 338.25 L
487.036 338.25 L
487.47 338.25 L
487.904 338.25 L
488.338 338.25 L
488.772 338.25 L
489.206 338.25 L
489.64 338.25 L
490.074 338.25 L
490.508 338.25 L
490.942 338.25 L
491.376 338.25 L
491.81 338.25 L
492.244 338.25 L
492.678 338.25 L
493.112 338.25 L
493.546 338.25 L
493.98 338.25 L
494.414 338.25 L
494.848 338.25 L
495.282 338.25 L
495.716 338.25 L
496.15 338.25 L
496.584 338.25 L
497.018 338.25 L
497.452 338.25 L
497.886 338.25 L
498.32 338.25 L
498.754 338.25 L
499.188 338.25 L
499.622 338.25 L
500.056 338.25 L
500.49 338.25 L
500.924 338.25 L
501.358 338.25 L
501.792 338.25 L
502.226 338.25 L
502.66 338.25 L
503.094 338.25 L
503.528 338.25 L
503.962 338.25 L
504.396 338.25 L
504.83 338.25 L
505.264 338.25 L
505.698 338.25 L
506.132 338.25 L
506.566 338.25 L
507 338.25 L
S
GR
GS
1 GC
N
342 263 M
342 237 L
500 237 L
500 263 L
cp
f
GR
GS
[1 0 0 1 379 244.35849] CT
/Helvetica 9 F
GS
[1 0 0 1 0 0] CT
0 3.5 moveto 
1 -1 scale
(Polynomial model - residuals) t 
GR
GR
GS
[1 0 0 1 361 244.35849] CT
0 0 1 RC
N
2.667 0 M
2.667 1.473 1.473 2.667 0 2.667 C
-1.473 2.667 -2.667 1.473 -2.667 0 C
-2.667 -1.473 -1.473 -2.667 0 -2.667 C
1.473 -2.667 2.667 -1.473 2.667 0 C
cp
f
GR
GS
[1 0 0 1 379 255.64151] CT
/Helvetica 9 F
GS
[1 0 0 1 0 0] CT
0 3.5 moveto 
1 -1 scale
(Zero Line) t 
GR
GR
GS
1 0 0 RC
1 LJ
N
346 255.642 M
376 255.642 L
S
GR
GS
0.149 GC
10.0 ML
0.5 LW
N
342 263 M
342 237 L
500 237 L
500 263 L
cp
S
GR
%%Trailer
%%Pages: 1
%%EOF
