%!PS-Adobe-3.0 EPSF-3.0
%%Creator: (MATLAB, The Mathworks, Inc. Version 9.0.0.341360 \(R2016a\). Operating System: Mac OS X)
%%Title: /Users/deepak/Documents/MATLAB/matlabprojects/singleCalib_IH/source/wryn.eps
%%CreationDate: 2016-11-26T22:38:20
%%Pages: (atend)
%%BoundingBox: 0 0 560 420
%%LanguageLevel: 3
%%EndComments
%%BeginProlog
%%BeginResource: procset (Apache XML Graphics Std ProcSet) 1.2 0
%%Version: 1.2 0
%%Copyright: (Copyright 2001-2003,2010 The Apache Software Foundation. License terms: http://www.apache.org/licenses/LICENSE-2.0)
/bd{bind def}bind def
/ld{load def}bd
/GR/grestore ld
/M/moveto ld
/LJ/setlinejoin ld
/C/curveto ld
/f/fill ld
/LW/setlinewidth ld
/GC/setgray ld
/t/show ld
/N/newpath ld
/CT/concat ld
/cp/closepath ld
/S/stroke ld
/L/lineto ld
/CC/setcmykcolor ld
/A/ashow ld
/GS/gsave ld
/RC/setrgbcolor ld
/RM/rmoveto ld
/ML/setmiterlimit ld
/re {4 2 roll M
1 index 0 rlineto
0 exch rlineto
neg 0 rlineto
cp } bd
/_ctm matrix def
/_tm matrix def
/BT { _ctm currentmatrix pop matrix _tm copy pop 0 0 moveto } bd
/ET { _ctm setmatrix } bd
/iTm { _ctm setmatrix _tm concat } bd
/Tm { _tm astore pop iTm 0 0 moveto } bd
/ux 0.0 def
/uy 0.0 def
/F {
  /Tp exch def
  /Tf exch def
  Tf findfont Tp scalefont setfont
  /cf Tf def  /cs Tp def
} bd
/ULS {currentpoint /uy exch def /ux exch def} bd
/ULE {
  /Tcx currentpoint pop def
  gsave
  newpath
  cf findfont cs scalefont dup
  /FontMatrix get 0 get /Ts exch def /FontInfo get dup
  /UnderlinePosition get Ts mul /To exch def
  /UnderlineThickness get Ts mul /Tt exch def
  ux uy To add moveto  Tcx uy To add lineto
  Tt setlinewidth stroke
  grestore
} bd
/OLE {
  /Tcx currentpoint pop def
  gsave
  newpath
  cf findfont cs scalefont dup
  /FontMatrix get 0 get /Ts exch def /FontInfo get dup
  /UnderlinePosition get Ts mul /To exch def
  /UnderlineThickness get Ts mul /Tt exch def
  ux uy To add cs add moveto Tcx uy To add cs add lineto
  Tt setlinewidth stroke
  grestore
} bd
/SOE {
  /Tcx currentpoint pop def
  gsave
  newpath
  cf findfont cs scalefont dup
  /FontMatrix get 0 get /Ts exch def /FontInfo get dup
  /UnderlinePosition get Ts mul /To exch def
  /UnderlineThickness get Ts mul /Tt exch def
  ux uy To add cs 10 mul 26 idiv add moveto Tcx uy To add cs 10 mul 26 idiv add lineto
  Tt setlinewidth stroke
  grestore
} bd
/QT {
/Y22 exch store
/X22 exch store
/Y21 exch store
/X21 exch store
currentpoint
/Y21 load 2 mul add 3 div exch
/X21 load 2 mul add 3 div exch
/X21 load 2 mul /X22 load add 3 div
/Y21 load 2 mul /Y22 load add 3 div
/X22 load /Y22 load curveto
} bd
/SSPD {
dup length /d exch dict def
{
/v exch def
/k exch def
currentpagedevice k known {
/cpdv currentpagedevice k get def
v cpdv ne {
/upd false def
/nullv v type /nulltype eq def
/nullcpdv cpdv type /nulltype eq def
nullv nullcpdv or
{
/upd true def
} {
/sametype v type cpdv type eq def
sametype {
v type /arraytype eq {
/vlen v length def
/cpdvlen cpdv length def
vlen cpdvlen eq {
0 1 vlen 1 sub {
/i exch def
/obj v i get def
/cpdobj cpdv i get def
obj cpdobj ne {
/upd true def
exit
} if
} for
} {
/upd true def
} ifelse
} {
v type /dicttype eq {
v {
/dv exch def
/dk exch def
/cpddv cpdv dk get def
dv cpddv ne {
/upd true def
exit
} if
} forall
} {
/upd true def
} ifelse
} ifelse
} if
} ifelse
upd true eq {
d k v put
} if
} if
} if
} forall
d length 0 gt {
d setpagedevice
} if
} bd
%%EndResource
%%BeginResource: procset (Apache XML Graphics EPS ProcSet) 1.0 0
%%Version: 1.0 0
%%Copyright: (Copyright 2002-2003 The Apache Software Foundation. License terms: http://www.apache.org/licenses/LICENSE-2.0)
/BeginEPSF { %def
/b4_Inc_state save def         % Save state for cleanup
/dict_count countdictstack def % Count objects on dict stack
/op_count count 1 sub def      % Count objects on operand stack
userdict begin                 % Push userdict on dict stack
/showpage { } def              % Redefine showpage, { } = null proc
0 setgray 0 setlinecap         % Prepare graphics state
1 setlinewidth 0 setlinejoin
10 setmiterlimit [ ] 0 setdash newpath
/languagelevel where           % If level not equal to 1 then
{pop languagelevel             % set strokeadjust and
1 ne                           % overprint to their defaults.
{false setstrokeadjust false setoverprint
} if
} if
} bd
/EndEPSF { %def
count op_count sub {pop} repeat            % Clean up stacks
countdictstack dict_count sub {end} repeat
b4_Inc_state restore
} bd
%%EndResource
%FOPBeginFontDict
%%IncludeResource: font Courier-Bold
%%IncludeResource: font Helvetica
%%IncludeResource: font Courier-BoldOblique
%%IncludeResource: font Courier-Oblique
%%IncludeResource: font Times-Roman
%%IncludeResource: font Helvetica-BoldOblique
%%IncludeResource: font Helvetica-Bold
%%IncludeResource: font Helvetica-Oblique
%%IncludeResource: font Times-BoldItalic
%%IncludeResource: font Courier
%%IncludeResource: font Times-Italic
%%IncludeResource: font Times-Bold
%%IncludeResource: font Symbol
%%IncludeResource: font ZapfDingbats
%FOPEndFontDict
%%BeginResource: encoding WinAnsiEncoding
/WinAnsiEncoding [
/.notdef /.notdef /.notdef /.notdef /.notdef
/.notdef /.notdef /.notdef /.notdef /.notdef
/.notdef /.notdef /.notdef /.notdef /.notdef
/.notdef /.notdef /.notdef /.notdef /.notdef
/.notdef /.notdef /.notdef /.notdef /.notdef
/.notdef /.notdef /.notdef /.notdef /.notdef
/.notdef /.notdef /space /exclam /quotedbl
/numbersign /dollar /percent /ampersand /quotesingle
/parenleft /parenright /asterisk /plus /comma
/hyphen /period /slash /zero /one
/two /three /four /five /six
/seven /eight /nine /colon /semicolon
/less /equal /greater /question /at
/A /B /C /D /E
/F /G /H /I /J
/K /L /M /N /O
/P /Q /R /S /T
/U /V /W /X /Y
/Z /bracketleft /backslash /bracketright /asciicircum
/underscore /quoteleft /a /b /c
/d /e /f /g /h
/i /j /k /l /m
/n /o /p /q /r
/s /t /u /v /w
/x /y /z /braceleft /bar
/braceright /asciitilde /bullet /Euro /bullet
/quotesinglbase /florin /quotedblbase /ellipsis /dagger
/daggerdbl /circumflex /perthousand /Scaron /guilsinglleft
/OE /bullet /Zcaron /bullet /bullet
/quoteleft /quoteright /quotedblleft /quotedblright /bullet
/endash /emdash /asciitilde /trademark /scaron
/guilsinglright /oe /bullet /zcaron /Ydieresis
/space /exclamdown /cent /sterling /currency
/yen /brokenbar /section /dieresis /copyright
/ordfeminine /guillemotleft /logicalnot /sfthyphen /registered
/macron /degree /plusminus /twosuperior /threesuperior
/acute /mu /paragraph /middot /cedilla
/onesuperior /ordmasculine /guillemotright /onequarter /onehalf
/threequarters /questiondown /Agrave /Aacute /Acircumflex
/Atilde /Adieresis /Aring /AE /Ccedilla
/Egrave /Eacute /Ecircumflex /Edieresis /Igrave
/Iacute /Icircumflex /Idieresis /Eth /Ntilde
/Ograve /Oacute /Ocircumflex /Otilde /Odieresis
/multiply /Oslash /Ugrave /Uacute /Ucircumflex
/Udieresis /Yacute /Thorn /germandbls /agrave
/aacute /acircumflex /atilde /adieresis /aring
/ae /ccedilla /egrave /eacute /ecircumflex
/edieresis /igrave /iacute /icircumflex /idieresis
/eth /ntilde /ograve /oacute /ocircumflex
/otilde /odieresis /divide /oslash /ugrave
/uacute /ucircumflex /udieresis /yacute /thorn
/ydieresis
] def
%%EndResource
%FOPBeginFontReencode
/Courier-Bold findfont
dup length dict begin
  {1 index /FID ne {def} {pop pop} ifelse} forall
  /Encoding WinAnsiEncoding def
  currentdict
end
/Courier-Bold exch definefont pop
/Helvetica findfont
dup length dict begin
  {1 index /FID ne {def} {pop pop} ifelse} forall
  /Encoding WinAnsiEncoding def
  currentdict
end
/Helvetica exch definefont pop
/Courier-BoldOblique findfont
dup length dict begin
  {1 index /FID ne {def} {pop pop} ifelse} forall
  /Encoding WinAnsiEncoding def
  currentdict
end
/Courier-BoldOblique exch definefont pop
/Courier-Oblique findfont
dup length dict begin
  {1 index /FID ne {def} {pop pop} ifelse} forall
  /Encoding WinAnsiEncoding def
  currentdict
end
/Courier-Oblique exch definefont pop
/Times-Roman findfont
dup length dict begin
  {1 index /FID ne {def} {pop pop} ifelse} forall
  /Encoding WinAnsiEncoding def
  currentdict
end
/Times-Roman exch definefont pop
/Helvetica-BoldOblique findfont
dup length dict begin
  {1 index /FID ne {def} {pop pop} ifelse} forall
  /Encoding WinAnsiEncoding def
  currentdict
end
/Helvetica-BoldOblique exch definefont pop
/Helvetica-Bold findfont
dup length dict begin
  {1 index /FID ne {def} {pop pop} ifelse} forall
  /Encoding WinAnsiEncoding def
  currentdict
end
/Helvetica-Bold exch definefont pop
/Helvetica-Oblique findfont
dup length dict begin
  {1 index /FID ne {def} {pop pop} ifelse} forall
  /Encoding WinAnsiEncoding def
  currentdict
end
/Helvetica-Oblique exch definefont pop
/Times-BoldItalic findfont
dup length dict begin
  {1 index /FID ne {def} {pop pop} ifelse} forall
  /Encoding WinAnsiEncoding def
  currentdict
end
/Times-BoldItalic exch definefont pop
/Courier findfont
dup length dict begin
  {1 index /FID ne {def} {pop pop} ifelse} forall
  /Encoding WinAnsiEncoding def
  currentdict
end
/Courier exch definefont pop
/Times-Italic findfont
dup length dict begin
  {1 index /FID ne {def} {pop pop} ifelse} forall
  /Encoding WinAnsiEncoding def
  currentdict
end
/Times-Italic exch definefont pop
/Times-Bold findfont
dup length dict begin
  {1 index /FID ne {def} {pop pop} ifelse} forall
  /Encoding WinAnsiEncoding def
  currentdict
end
/Times-Bold exch definefont pop
%FOPEndFontReencode
%%EndProlog
%%Page: 1 1
%%PageBoundingBox: 0 0 560 420
%%BeginPageSetup
[1 0 0 -1 0 420] CT
%%EndPageSetup
GS
1 GC
N
0 0 560 420 re
f
GR
GS
1 GC
N
0 0 560 420 re
f
GR
GS
1 GC
N
73 175 M
507 175 L
507 31 L
73 31 L
cp
f
GR
GS
0.873 GC
1 LJ
0.5 LW
N
73 175 M
73 31 L
S
GR
GS
0.873 GC
1 LJ
0.5 LW
N
127.25 175 M
127.25 31 L
S
GR
GS
0.873 GC
1 LJ
0.5 LW
N
181.5 175 M
181.5 31 L
S
GR
GS
0.873 GC
1 LJ
0.5 LW
N
235.75 175 M
235.75 31 L
S
GR
GS
0.873 GC
1 LJ
0.5 LW
N
290 175 M
290 31 L
S
GR
GS
0.873 GC
1 LJ
0.5 LW
N
344.25 175 M
344.25 31 L
S
GR
GS
0.873 GC
1 LJ
0.5 LW
N
398.5 175 M
398.5 31 L
S
GR
GS
0.873 GC
1 LJ
0.5 LW
N
452.75 175 M
452.75 31 L
S
GR
GS
0.873 GC
1 LJ
0.5 LW
N
507 175 M
507 31 L
S
GR
GS
0.873 GC
1 LJ
0.5 LW
N
507 175 M
73 175 L
S
GR
GS
0.873 GC
1 LJ
0.5 LW
N
507 139 M
73 139 L
S
GR
GS
0.873 GC
1 LJ
0.5 LW
N
507 103 M
73 103 L
S
GR
GS
0.873 GC
1 LJ
0.5 LW
N
507 67 M
73 67 L
S
GR
GS
0.873 GC
1 LJ
0.5 LW
N
507 31 M
73 31 L
S
GR
GS
0.149 GC
2 setlinecap
1 LJ
0.5 LW
N
73 175 M
507 175 L
S
GR
GS
0.149 GC
2 setlinecap
1 LJ
0.5 LW
N
73 31 M
507 31 L
S
GR
GS
0.149 GC
2 setlinecap
1 LJ
0.5 LW
N
73 175 M
73 170.66 L
S
GR
GS
0.149 GC
2 setlinecap
1 LJ
0.5 LW
N
127.25 175 M
127.25 170.66 L
S
GR
GS
0.149 GC
2 setlinecap
1 LJ
0.5 LW
N
181.5 175 M
181.5 170.66 L
S
GR
GS
0.149 GC
2 setlinecap
1 LJ
0.5 LW
N
235.75 175 M
235.75 170.66 L
S
GR
GS
0.149 GC
2 setlinecap
1 LJ
0.5 LW
N
290 175 M
290 170.66 L
S
GR
GS
0.149 GC
2 setlinecap
1 LJ
0.5 LW
N
344.25 175 M
344.25 170.66 L
S
GR
GS
0.149 GC
2 setlinecap
1 LJ
0.5 LW
N
398.5 175 M
398.5 170.66 L
S
GR
GS
0.149 GC
2 setlinecap
1 LJ
0.5 LW
N
452.75 175 M
452.75 170.66 L
S
GR
GS
0.149 GC
2 setlinecap
1 LJ
0.5 LW
N
507 175 M
507 170.66 L
S
GR
GS
0.149 GC
2 setlinecap
1 LJ
0.5 LW
N
73 31 M
73 35.34 L
S
GR
GS
0.149 GC
2 setlinecap
1 LJ
0.5 LW
N
127.25 31 M
127.25 35.34 L
S
GR
GS
0.149 GC
2 setlinecap
1 LJ
0.5 LW
N
181.5 31 M
181.5 35.34 L
S
GR
GS
0.149 GC
2 setlinecap
1 LJ
0.5 LW
N
235.75 31 M
235.75 35.34 L
S
GR
GS
0.149 GC
2 setlinecap
1 LJ
0.5 LW
N
290 31 M
290 35.34 L
S
GR
GS
0.149 GC
2 setlinecap
1 LJ
0.5 LW
N
344.25 31 M
344.25 35.34 L
S
GR
GS
0.149 GC
2 setlinecap
1 LJ
0.5 LW
N
398.5 31 M
398.5 35.34 L
S
GR
GS
0.149 GC
2 setlinecap
1 LJ
0.5 LW
N
452.75 31 M
452.75 35.34 L
S
GR
GS
0.149 GC
2 setlinecap
1 LJ
0.5 LW
N
507 31 M
507 35.34 L
S
GR
GS
[1 0 0 1 73 179] CT
0.149 GC
/Helvetica 10 F
GS
[1 0 0 1 0 0] CT
-8 10 moveto 
1 -1 scale
(-40) t 
GR
GR
GS
[1 0 0 1 127.25 179] CT
0.149 GC
/Helvetica 10 F
GS
[1 0 0 1 0 0] CT
-8 10 moveto 
1 -1 scale
(-35) t 
GR
GR
GS
[1 0 0 1 181.5 179] CT
0.149 GC
/Helvetica 10 F
GS
[1 0 0 1 0 0] CT
-8 10 moveto 
1 -1 scale
(-30) t 
GR
GR
GS
[1 0 0 1 235.75 179] CT
0.149 GC
/Helvetica 10 F
GS
[1 0 0 1 0 0] CT
-8 10 moveto 
1 -1 scale
(-25) t 
GR
GR
GS
[1 0 0 1 290 179] CT
0.149 GC
/Helvetica 10 F
GS
[1 0 0 1 0 0] CT
-8 10 moveto 
1 -1 scale
(-20) t 
GR
GR
GS
[1 0 0 1 344.25 179] CT
0.149 GC
/Helvetica 10 F
GS
[1 0 0 1 0 0] CT
-8 10 moveto 
1 -1 scale
(-15) t 
GR
GR
GS
[1 0 0 1 398.5 179] CT
0.149 GC
/Helvetica 10 F
GS
[1 0 0 1 0 0] CT
-8 10 moveto 
1 -1 scale
(-10) t 
GR
GR
GS
[1 0 0 1 452.75 179] CT
0.149 GC
/Helvetica 10 F
GS
[1 0 0 1 0 0] CT
-5 10 moveto 
1 -1 scale
(-5) t 
GR
GR
GS
[1 0 0 1 507 179] CT
0.149 GC
/Helvetica 10 F
GS
[1 0 0 1 0 0] CT
-3 10 moveto 
1 -1 scale
(0) t 
GR
GR
GS
[1 0 0 1 290.00021 193] CT
0.149 GC
/Helvetica-Bold 12 F
GS
[1 0 0 1 0 0] CT
-82 12 moveto 
1 -1 scale
(Camera rotation \(in degrees\)) t 
GR
GR
GS
0.149 GC
2 setlinecap
1 LJ
0.5 LW
N
73 175 M
73 31 L
S
GR
GS
0.149 GC
2 setlinecap
1 LJ
0.5 LW
N
507 175 M
507 31 L
S
GR
GS
0.149 GC
2 setlinecap
1 LJ
0.5 LW
N
73 175 M
77.34 175 L
S
GR
GS
0.149 GC
2 setlinecap
1 LJ
0.5 LW
N
73 139 M
77.34 139 L
S
GR
GS
0.149 GC
2 setlinecap
1 LJ
0.5 LW
N
73 103 M
77.34 103 L
S
GR
GS
0.149 GC
2 setlinecap
1 LJ
0.5 LW
N
73 67 M
77.34 67 L
S
GR
GS
0.149 GC
2 setlinecap
1 LJ
0.5 LW
N
73 31 M
77.34 31 L
S
GR
GS
0.149 GC
2 setlinecap
1 LJ
0.5 LW
N
507 175 M
502.66 175 L
S
GR
GS
0.149 GC
2 setlinecap
1 LJ
0.5 LW
N
507 139 M
502.66 139 L
S
GR
GS
0.149 GC
2 setlinecap
1 LJ
0.5 LW
N
507 103 M
502.66 103 L
S
GR
GS
0.149 GC
2 setlinecap
1 LJ
0.5 LW
N
507 67 M
502.66 67 L
S
GR
GS
0.149 GC
2 setlinecap
1 LJ
0.5 LW
N
507 31 M
502.66 31 L
S
GR
GS
[1 0 0 1 69 175] CT
0.149 GC
/Helvetica 10 F
GS
[1 0 0 1 0 0] CT
-6 3.5 moveto 
1 -1 scale
(0) t 
GR
GR
GS
[1 0 0 1 69 139] CT
0.149 GC
/Helvetica 10 F
GS
[1 0 0 1 0 0] CT
-6 3.5 moveto 
1 -1 scale
(5) t 
GR
GR
GS
[1 0 0 1 69 103] CT
0.149 GC
/Helvetica 10 F
GS
[1 0 0 1 0 0] CT
-12 3.5 moveto 
1 -1 scale
(10) t 
GR
GR
GS
[1 0 0 1 69 67] CT
0.149 GC
/Helvetica 10 F
GS
[1 0 0 1 0 0] CT
-12 3.5 moveto 
1 -1 scale
(15) t 
GR
GR
GS
[1 0 0 1 69 31] CT
0.149 GC
/Helvetica 10 F
GS
[1 0 0 1 0 0] CT
-12 3.5 moveto 
1 -1 scale
(20) t 
GR
GR
GS
[0 -1 1 0 54 102.99993] CT
0.149 GC
/Helvetica-Bold 12 F
GS
[1 0 0 1 0 0] CT
-55.5 -3 moveto 
1 -1 scale
(Width error \(in mm\)) t 
GR
GR
GS
[1 0 0 1 73 48.46807] CT
0 0 1 RC
N
2.667 0 M
2.667 1.473 1.473 2.667 0 2.667 C
-1.473 2.667 -2.667 1.473 -2.667 0 C
-2.667 -1.473 -1.473 -2.667 0 -2.667 C
1.473 -2.667 2.667 -1.473 2.667 0 C
cp
f
GR
GS
[1 0 0 1 83.85 62.01054] CT
0 0 1 RC
N
2.667 0 M
2.667 1.473 1.473 2.667 0 2.667 C
-1.473 2.667 -2.667 1.473 -2.667 0 C
-2.667 -1.473 -1.473 -2.667 0 -2.667 C
1.473 -2.667 2.667 -1.473 2.667 0 C
cp
f
GR
GS
[1 0 0 1 94.7 67.94373] CT
0 0 1 RC
N
2.667 0 M
2.667 1.473 1.473 2.667 0 2.667 C
-1.473 2.667 -2.667 1.473 -2.667 0 C
-2.667 -1.473 -1.473 -2.667 0 -2.667 C
1.473 -2.667 2.667 -1.473 2.667 0 C
cp
f
GR
GS
[1 0 0 1 105.55 81.27876] CT
0 0 1 RC
N
2.667 0 M
2.667 1.473 1.473 2.667 0 2.667 C
-1.473 2.667 -2.667 1.473 -2.667 0 C
-2.667 -1.473 -1.473 -2.667 0 -2.667 C
1.473 -2.667 2.667 -1.473 2.667 0 C
cp
f
GR
GS
[1 0 0 1 116.4 87.22813] CT
0 0 1 RC
N
2.667 0 M
2.667 1.473 1.473 2.667 0 2.667 C
-1.473 2.667 -2.667 1.473 -2.667 0 C
-2.667 -1.473 -1.473 -2.667 0 -2.667 C
1.473 -2.667 2.667 -1.473 2.667 0 C
cp
f
GR
GS
[1 0 0 1 127.25 97.23064] CT
0 0 1 RC
N
2.667 0 M
2.667 1.473 1.473 2.667 0 2.667 C
-1.473 2.667 -2.667 1.473 -2.667 0 C
-2.667 -1.473 -1.473 -2.667 0 -2.667 C
1.473 -2.667 2.667 -1.473 2.667 0 C
cp
f
GR
GS
[1 0 0 1 138.10001 100.59792] CT
0 0 1 RC
N
2.667 0 M
2.667 1.473 1.473 2.667 0 2.667 C
-1.473 2.667 -2.667 1.473 -2.667 0 C
-2.667 -1.473 -1.473 -2.667 0 -2.667 C
1.473 -2.667 2.667 -1.473 2.667 0 C
cp
f
GR
GS
[1 0 0 1 148.95 109.01049] CT
0 0 1 RC
N
2.667 0 M
2.667 1.473 1.473 2.667 0 2.667 C
-1.473 2.667 -2.667 1.473 -2.667 0 C
-2.667 -1.473 -1.473 -2.667 0 -2.667 C
1.473 -2.667 2.667 -1.473 2.667 0 C
cp
f
GR
GS
[1 0 0 1 159.8 113.59931] CT
0 0 1 RC
N
2.667 0 M
2.667 1.473 1.473 2.667 0 2.667 C
-1.473 2.667 -2.667 1.473 -2.667 0 C
-2.667 -1.473 -1.473 -2.667 0 -2.667 C
1.473 -2.667 2.667 -1.473 2.667 0 C
cp
f
GR
GS
[1 0 0 1 170.64999 117.57465] CT
0 0 1 RC
N
2.667 0 M
2.667 1.473 1.473 2.667 0 2.667 C
-1.473 2.667 -2.667 1.473 -2.667 0 C
-2.667 -1.473 -1.473 -2.667 0 -2.667 C
1.473 -2.667 2.667 -1.473 2.667 0 C
cp
f
GR
GS
[1 0 0 1 181.5 125.06573] CT
0 0 1 RC
N
2.667 0 M
2.667 1.473 1.473 2.667 0 2.667 C
-1.473 2.667 -2.667 1.473 -2.667 0 C
-2.667 -1.473 -1.473 -2.667 0 -2.667 C
1.473 -2.667 2.667 -1.473 2.667 0 C
cp
f
GR
GS
[1 0 0 1 192.35001 126.18378] CT
0 0 1 RC
N
2.667 0 M
2.667 1.473 1.473 2.667 0 2.667 C
-1.473 2.667 -2.667 1.473 -2.667 0 C
-2.667 -1.473 -1.473 -2.667 0 -2.667 C
1.473 -2.667 2.667 -1.473 2.667 0 C
cp
f
GR
GS
[1 0 0 1 203.2 131.46753] CT
0 0 1 RC
N
2.667 0 M
2.667 1.473 1.473 2.667 0 2.667 C
-1.473 2.667 -2.667 1.473 -2.667 0 C
-2.667 -1.473 -1.473 -2.667 0 -2.667 C
1.473 -2.667 2.667 -1.473 2.667 0 C
cp
f
GR
GS
[1 0 0 1 214.05 136.48151] CT
0 0 1 RC
N
2.667 0 M
2.667 1.473 1.473 2.667 0 2.667 C
-1.473 2.667 -2.667 1.473 -2.667 0 C
-2.667 -1.473 -1.473 -2.667 0 -2.667 C
1.473 -2.667 2.667 -1.473 2.667 0 C
cp
f
GR
GS
[1 0 0 1 224.89999 138.31998] CT
0 0 1 RC
N
2.667 0 M
2.667 1.473 1.473 2.667 0 2.667 C
-1.473 2.667 -2.667 1.473 -2.667 0 C
-2.667 -1.473 -1.473 -2.667 0 -2.667 C
1.473 -2.667 2.667 -1.473 2.667 0 C
cp
f
GR
GS
[1 0 0 1 235.75 142.13689] CT
0 0 1 RC
N
2.667 0 M
2.667 1.473 1.473 2.667 0 2.667 C
-1.473 2.667 -2.667 1.473 -2.667 0 C
-2.667 -1.473 -1.473 -2.667 0 -2.667 C
1.473 -2.667 2.667 -1.473 2.667 0 C
cp
f
GR
GS
[1 0 0 1 246.60001 142.94113] CT
0 0 1 RC
N
2.667 0 M
2.667 1.473 1.473 2.667 0 2.667 C
-1.473 2.667 -2.667 1.473 -2.667 0 C
-2.667 -1.473 -1.473 -2.667 0 -2.667 C
1.473 -2.667 2.667 -1.473 2.667 0 C
cp
f
GR
GS
[1 0 0 1 257.45001 146.13753] CT
0 0 1 RC
N
2.667 0 M
2.667 1.473 1.473 2.667 0 2.667 C
-1.473 2.667 -2.667 1.473 -2.667 0 C
-2.667 -1.473 -1.473 -2.667 0 -2.667 C
1.473 -2.667 2.667 -1.473 2.667 0 C
cp
f
GR
GS
[1 0 0 1 268.29999 149.41966] CT
0 0 1 RC
N
2.667 0 M
2.667 1.473 1.473 2.667 0 2.667 C
-1.473 2.667 -2.667 1.473 -2.667 0 C
-2.667 -1.473 -1.473 -2.667 0 -2.667 C
1.473 -2.667 2.667 -1.473 2.667 0 C
cp
f
GR
GS
[1 0 0 1 279.14999 151.73512] CT
0 0 1 RC
N
2.667 0 M
2.667 1.473 1.473 2.667 0 2.667 C
-1.473 2.667 -2.667 1.473 -2.667 0 C
-2.667 -1.473 -1.473 -2.667 0 -2.667 C
1.473 -2.667 2.667 -1.473 2.667 0 C
cp
f
GR
GS
[1 0 0 1 290 151.88467] CT
0 0 1 RC
N
2.667 0 M
2.667 1.473 1.473 2.667 0 2.667 C
-1.473 2.667 -2.667 1.473 -2.667 0 C
-2.667 -1.473 -1.473 -2.667 0 -2.667 C
1.473 -2.667 2.667 -1.473 2.667 0 C
cp
f
GR
GS
[1 0 0 1 300.85001 155.17198] CT
0 0 1 RC
N
2.667 0 M
2.667 1.473 1.473 2.667 0 2.667 C
-1.473 2.667 -2.667 1.473 -2.667 0 C
-2.667 -1.473 -1.473 -2.667 0 -2.667 C
1.473 -2.667 2.667 -1.473 2.667 0 C
cp
f
GR
GS
[1 0 0 1 311.70001 157.63777] CT
0 0 1 RC
N
2.667 0 M
2.667 1.473 1.473 2.667 0 2.667 C
-1.473 2.667 -2.667 1.473 -2.667 0 C
-2.667 -1.473 -1.473 -2.667 0 -2.667 C
1.473 -2.667 2.667 -1.473 2.667 0 C
cp
f
GR
GS
[1 0 0 1 322.54999 157.51784] CT
0 0 1 RC
N
2.667 0 M
2.667 1.473 1.473 2.667 0 2.667 C
-1.473 2.667 -2.667 1.473 -2.667 0 C
-2.667 -1.473 -1.473 -2.667 0 -2.667 C
1.473 -2.667 2.667 -1.473 2.667 0 C
cp
f
GR
GS
[1 0 0 1 333.39999 159.43631] CT
0 0 1 RC
N
2.667 0 M
2.667 1.473 1.473 2.667 0 2.667 C
-1.473 2.667 -2.667 1.473 -2.667 0 C
-2.667 -1.473 -1.473 -2.667 0 -2.667 C
1.473 -2.667 2.667 -1.473 2.667 0 C
cp
f
GR
GS
[1 0 0 1 344.25 160.72331] CT
0 0 1 RC
N
2.667 0 M
2.667 1.473 1.473 2.667 0 2.667 C
-1.473 2.667 -2.667 1.473 -2.667 0 C
-2.667 -1.473 -1.473 -2.667 0 -2.667 C
1.473 -2.667 2.667 -1.473 2.667 0 C
cp
f
GR
GS
[1 0 0 1 355.10001 162.13434] CT
0 0 1 RC
N
2.667 0 M
2.667 1.473 1.473 2.667 0 2.667 C
-1.473 2.667 -2.667 1.473 -2.667 0 C
-2.667 -1.473 -1.473 -2.667 0 -2.667 C
1.473 -2.667 2.667 -1.473 2.667 0 C
cp
f
GR
GS
[1 0 0 1 365.95001 163.49104] CT
0 0 1 RC
N
2.667 0 M
2.667 1.473 1.473 2.667 0 2.667 C
-1.473 2.667 -2.667 1.473 -2.667 0 C
-2.667 -1.473 -1.473 -2.667 0 -2.667 C
1.473 -2.667 2.667 -1.473 2.667 0 C
cp
f
GR
GS
[1 0 0 1 376.79999 164.88145] CT
0 0 1 RC
N
2.667 0 M
2.667 1.473 1.473 2.667 0 2.667 C
-1.473 2.667 -2.667 1.473 -2.667 0 C
-2.667 -1.473 -1.473 -2.667 0 -2.667 C
1.473 -2.667 2.667 -1.473 2.667 0 C
cp
f
GR
GS
[1 0 0 1 387.64999 166.1263] CT
0 0 1 RC
N
2.667 0 M
2.667 1.473 1.473 2.667 0 2.667 C
-1.473 2.667 -2.667 1.473 -2.667 0 C
-2.667 -1.473 -1.473 -2.667 0 -2.667 C
1.473 -2.667 2.667 -1.473 2.667 0 C
cp
f
GR
GS
[1 0 0 1 398.5 167.04076] CT
0 0 1 RC
N
2.667 0 M
2.667 1.473 1.473 2.667 0 2.667 C
-1.473 2.667 -2.667 1.473 -2.667 0 C
-2.667 -1.473 -1.473 -2.667 0 -2.667 C
1.473 -2.667 2.667 -1.473 2.667 0 C
cp
f
GR
GS
[1 0 0 1 409.35001 167.61316] CT
0 0 1 RC
N
2.667 0 M
2.667 1.473 1.473 2.667 0 2.667 C
-1.473 2.667 -2.667 1.473 -2.667 0 C
-2.667 -1.473 -1.473 -2.667 0 -2.667 C
1.473 -2.667 2.667 -1.473 2.667 0 C
cp
f
GR
GS
[1 0 0 1 420.20001 168.31686] CT
0 0 1 RC
N
2.667 0 M
2.667 1.473 1.473 2.667 0 2.667 C
-1.473 2.667 -2.667 1.473 -2.667 0 C
-2.667 -1.473 -1.473 -2.667 0 -2.667 C
1.473 -2.667 2.667 -1.473 2.667 0 C
cp
f
GR
GS
[1 0 0 1 431.04999 169.28867] CT
0 0 1 RC
N
2.667 0 M
2.667 1.473 1.473 2.667 0 2.667 C
-1.473 2.667 -2.667 1.473 -2.667 0 C
-2.667 -1.473 -1.473 -2.667 0 -2.667 C
1.473 -2.667 2.667 -1.473 2.667 0 C
cp
f
GR
GS
[1 0 0 1 441.89999 170.18379] CT
0 0 1 RC
N
2.667 0 M
2.667 1.473 1.473 2.667 0 2.667 C
-1.473 2.667 -2.667 1.473 -2.667 0 C
-2.667 -1.473 -1.473 -2.667 0 -2.667 C
1.473 -2.667 2.667 -1.473 2.667 0 C
cp
f
GR
GS
[1 0 0 1 452.75 171.0074] CT
0 0 1 RC
N
2.667 0 M
2.667 1.473 1.473 2.667 0 2.667 C
-1.473 2.667 -2.667 1.473 -2.667 0 C
-2.667 -1.473 -1.473 -2.667 0 -2.667 C
1.473 -2.667 2.667 -1.473 2.667 0 C
cp
f
GR
GS
[1 0 0 1 463.60001 171.61714] CT
0 0 1 RC
N
2.667 0 M
2.667 1.473 1.473 2.667 0 2.667 C
-1.473 2.667 -2.667 1.473 -2.667 0 C
-2.667 -1.473 -1.473 -2.667 0 -2.667 C
1.473 -2.667 2.667 -1.473 2.667 0 C
cp
f
GR
GS
[1 0 0 1 474.45001 172.42792] CT
0 0 1 RC
N
2.667 0 M
2.667 1.473 1.473 2.667 0 2.667 C
-1.473 2.667 -2.667 1.473 -2.667 0 C
-2.667 -1.473 -1.473 -2.667 0 -2.667 C
1.473 -2.667 2.667 -1.473 2.667 0 C
cp
f
GR
GS
[1 0 0 1 485.29999 173.27255] CT
0 0 1 RC
N
2.667 0 M
2.667 1.473 1.473 2.667 0 2.667 C
-1.473 2.667 -2.667 1.473 -2.667 0 C
-2.667 -1.473 -1.473 -2.667 0 -2.667 C
1.473 -2.667 2.667 -1.473 2.667 0 C
cp
f
GR
GS
[1 0 0 1 496.14999 174.11946] CT
0 0 1 RC
N
2.667 0 M
2.667 1.473 1.473 2.667 0 2.667 C
-1.473 2.667 -2.667 1.473 -2.667 0 C
-2.667 -1.473 -1.473 -2.667 0 -2.667 C
1.473 -2.667 2.667 -1.473 2.667 0 C
cp
f
GR
GS
[1 0 0 1 507 175] CT
0 0 1 RC
N
2.667 0 M
2.667 1.473 1.473 2.667 0 2.667 C
-1.473 2.667 -2.667 1.473 -2.667 0 C
-2.667 -1.473 -1.473 -2.667 0 -2.667 C
1.473 -2.667 2.667 -1.473 2.667 0 C
cp
f
GR
GS
1 0 0 RC
1 LJ
N
73 73.149 M
73.434 73.37 L
73.868 73.591 L
74.302 73.812 L
74.736 74.033 L
75.17 74.253 L
75.604 74.473 L
76.038 74.692 L
76.472 74.912 L
76.906 75.131 L
77.34 75.35 L
77.774 75.569 L
78.208 75.787 L
78.642 76.005 L
79.076 76.223 L
79.51 76.441 L
79.944 76.658 L
80.378 76.876 L
80.812 77.093 L
81.246 77.309 L
81.68 77.526 L
82.114 77.742 L
82.548 77.958 L
82.982 78.174 L
83.416 78.389 L
83.85 78.604 L
84.284 78.819 L
84.718 79.034 L
85.152 79.248 L
85.586 79.463 L
86.02 79.677 L
86.454 79.89 L
86.888 80.104 L
87.322 80.317 L
87.756 80.53 L
88.19 80.743 L
88.624 80.955 L
89.058 81.167 L
89.492 81.379 L
89.926 81.591 L
90.36 81.803 L
90.794 82.014 L
91.228 82.225 L
91.662 82.436 L
92.096 82.646 L
92.53 82.856 L
92.964 83.066 L
93.398 83.276 L
93.832 83.486 L
94.266 83.695 L
94.7 83.904 L
95.134 84.112 L
95.568 84.321 L
96.002 84.529 L
96.436 84.737 L
96.87 84.945 L
97.304 85.152 L
97.738 85.36 L
98.172 85.567 L
98.606 85.773 L
99.04 85.98 L
99.474 86.186 L
99.908 86.392 L
100.342 86.598 L
100.776 86.804 L
101.21 87.009 L
101.644 87.214 L
102.078 87.419 L
102.512 87.623 L
102.946 87.827 L
103.38 88.031 L
103.814 88.235 L
104.248 88.439 L
104.682 88.642 L
105.116 88.845 L
105.55 89.048 L
105.984 89.25 L
106.418 89.452 L
106.852 89.655 L
107.286 89.856 L
107.72 90.058 L
108.154 90.259 L
108.588 90.46 L
109.022 90.661 L
109.456 90.861 L
109.89 91.062 L
110.324 91.262 L
110.758 91.462 L
111.192 91.661 L
111.626 91.86 L
112.06 92.059 L
112.494 92.258 L
112.928 92.457 L
113.362 92.655 L
113.796 92.853 L
114.23 93.051 L
114.664 93.248 L
115.098 93.446 L
115.532 93.643 L
115.966 93.84 L
116.4 94.036 L
116.834 94.232 L
117.268 94.428 L
117.702 94.624 L
118.136 94.82 L
118.57 95.015 L
119.004 95.21 L
119.438 95.405 L
119.872 95.6 L
120.306 95.794 L
120.74 95.988 L
121.174 96.182 L
121.608 96.375 L
122.042 96.569 L
122.476 96.762 L
122.91 96.955 L
123.344 97.147 L
123.778 97.339 L
124.212 97.531 L
124.646 97.723 L
125.08 97.915 L
125.514 98.106 L
125.948 98.297 L
126.382 98.488 L
126.816 98.679 L
127.25 98.869 L
127.684 99.059 L
128.118 99.249 L
128.552 99.439 L
128.986 99.628 L
129.42 99.817 L
129.854 100.006 L
130.288 100.194 L
130.722 100.383 L
131.156 100.571 L
131.59 100.759 L
132.024 100.946 L
132.458 101.134 L
132.892 101.321 L
133.326 101.508 L
133.76 101.694 L
134.194 101.88 L
134.628 102.067 L
135.062 102.252 L
135.496 102.438 L
135.93 102.623 L
136.364 102.808 L
136.798 102.993 L
137.232 103.178 L
137.666 103.362 L
138.1 103.546 L
138.534 103.73 L
138.968 103.914 L
139.402 104.097 L
139.836 104.28 L
140.27 104.463 L
140.704 104.646 L
141.138 104.828 L
141.572 105.01 L
142.006 105.192 L
142.44 105.374 L
142.874 105.555 L
143.308 105.736 L
143.742 105.917 L
144.176 106.098 L
144.61 106.278 L
145.044 106.458 L
145.478 106.638 L
145.912 106.818 L
146.346 106.997 L
146.78 107.176 L
147.214 107.355 L
147.648 107.534 L
148.082 107.712 L
148.516 107.89 L
148.95 108.068 L
149.384 108.246 L
149.818 108.423 L
150.252 108.6 L
150.686 108.777 L
151.12 108.954 L
151.554 109.13 L
151.988 109.307 L
152.422 109.482 L
152.856 109.658 L
153.29 109.833 L
153.724 110.009 L
154.158 110.184 L
154.592 110.358 L
155.026 110.533 L
155.46 110.707 L
155.894 110.881 L
156.328 111.054 L
156.762 111.228 L
157.196 111.401 L
157.63 111.574 L
158.064 111.746 L
158.498 111.919 L
158.932 112.091 L
159.366 112.263 L
159.8 112.435 L
160.234 112.606 L
160.668 112.777 L
161.102 112.948 L
161.536 113.119 L
161.97 113.289 L
162.404 113.459 L
162.838 113.629 L
163.272 113.799 L
163.706 113.968 L
164.14 114.138 L
164.574 114.307 L
165.008 114.475 L
165.442 114.644 L
165.876 114.812 L
166.31 114.98 L
166.744 115.147 L
167.178 115.315 L
167.612 115.482 L
168.046 115.649 L
168.48 115.816 L
168.914 115.982 L
169.348 116.148 L
169.782 116.314 L
170.216 116.48 L
170.65 116.645 L
171.084 116.811 L
171.518 116.976 L
171.952 117.14 L
172.386 117.305 L
172.82 117.469 L
173.254 117.633 L
173.688 117.797 L
174.122 117.96 L
174.556 118.123 L
174.99 118.286 L
175.424 118.449 L
175.858 118.611 L
176.292 118.774 L
176.726 118.936 L
177.16 119.097 L
177.594 119.259 L
178.028 119.42 L
178.462 119.581 L
178.896 119.742 L
179.33 119.902 L
179.764 120.062 L
180.198 120.222 L
180.632 120.382 L
181.066 120.542 L
181.5 120.701 L
181.934 120.86 L
182.368 121.018 L
182.802 121.177 L
183.236 121.335 L
183.67 121.493 L
184.104 121.651 L
184.538 121.808 L
184.972 121.966 L
185.406 122.123 L
185.84 122.279 L
186.274 122.436 L
186.708 122.592 L
187.142 122.748 L
187.576 122.904 L
188.01 123.059 L
188.444 123.215 L
188.878 123.369 L
189.312 123.524 L
189.746 123.679 L
190.18 123.833 L
190.614 123.987 L
191.048 124.141 L
191.482 124.294 L
191.916 124.448 L
192.35 124.601 L
192.784 124.753 L
193.218 124.906 L
193.652 125.058 L
194.086 125.21 L
194.52 125.362 L
194.954 125.513 L
195.388 125.665 L
195.822 125.816 L
196.256 125.966 L
196.69 126.117 L
197.124 126.267 L
197.558 126.417 L
197.992 126.567 L
198.426 126.716 L
198.86 126.866 L
199.294 127.015 L
199.728 127.164 L
200.162 127.312 L
200.596 127.46 L
201.03 127.608 L
201.464 127.756 L
201.898 127.904 L
202.332 128.051 L
202.766 128.198 L
203.2 128.345 L
203.634 128.491 L
204.068 128.638 L
204.502 128.784 L
204.936 128.929 L
205.37 129.075 L
205.804 129.22 L
206.238 129.365 L
206.672 129.51 L
207.106 129.655 L
207.54 129.799 L
207.974 129.943 L
208.408 130.087 L
208.842 130.23 L
209.276 130.374 L
209.71 130.517 L
210.144 130.659 L
210.578 130.802 L
211.012 130.944 L
211.446 131.086 L
211.88 131.228 L
212.314 131.37 L
212.748 131.511 L
213.182 131.652 L
213.616 131.793 L
214.05 131.934 L
214.484 132.074 L
214.918 132.214 L
215.352 132.354 L
215.786 132.493 L
216.22 132.633 L
216.654 132.772 L
217.088 132.91 L
217.522 133.049 L
217.956 133.187 L
218.39 133.325 L
218.824 133.463 L
219.258 133.601 L
219.692 133.738 L
220.126 133.875 L
220.56 134.012 L
220.994 134.149 L
221.428 134.285 L
221.862 134.421 L
222.296 134.557 L
222.73 134.693 L
223.164 134.828 L
223.598 134.963 L
224.032 135.098 L
224.466 135.232 L
224.9 135.367 L
225.334 135.501 L
225.768 135.635 L
226.202 135.768 L
226.636 135.902 L
227.07 136.035 L
227.504 136.168 L
227.938 136.3 L
228.372 136.432 L
228.806 136.565 L
229.24 136.696 L
229.674 136.828 L
230.108 136.959 L
230.542 137.091 L
230.976 137.221 L
231.41 137.352 L
231.844 137.482 L
232.278 137.612 L
232.712 137.742 L
233.146 137.872 L
233.58 138.001 L
234.014 138.13 L
234.448 138.259 L
234.882 138.388 L
235.316 138.516 L
235.75 138.644 L
236.184 138.772 L
236.618 138.9 L
237.052 139.027 L
237.486 139.154 L
237.92 139.281 L
238.354 139.408 L
238.788 139.534 L
239.222 139.66 L
239.656 139.786 L
240.09 139.912 L
240.524 140.037 L
240.958 140.162 L
241.392 140.287 L
241.826 140.412 L
242.26 140.536 L
242.694 140.661 L
243.128 140.784 L
243.562 140.908 L
243.996 141.031 L
244.43 141.155 L
244.864 141.277 L
245.298 141.4 L
245.732 141.523 L
246.166 141.645 L
246.6 141.767 L
247.034 141.888 L
247.468 142.01 L
247.902 142.131 L
248.336 142.252 L
248.77 142.372 L
249.204 142.493 L
249.638 142.613 L
250.072 142.733 L
250.506 142.852 L
250.94 142.972 L
251.374 143.091 L
251.808 143.21 L
252.242 143.329 L
252.676 143.447 L
253.11 143.565 L
253.544 143.683 L
253.978 143.801 L
254.412 143.918 L
254.846 144.035 L
255.28 144.152 L
255.714 144.269 L
256.148 144.385 L
256.582 144.502 L
257.016 144.618 L
257.45 144.733 L
257.884 144.849 L
258.318 144.964 L
258.752 145.079 L
259.186 145.193 L
259.62 145.308 L
260.054 145.422 L
260.488 145.536 L
260.922 145.65 L
261.356 145.763 L
261.79 145.876 L
262.224 145.989 L
262.658 146.102 L
263.092 146.214 L
263.526 146.327 L
263.96 146.439 L
264.394 146.55 L
264.828 146.662 L
265.262 146.773 L
265.696 146.884 L
266.13 146.995 L
266.564 147.105 L
266.998 147.215 L
267.432 147.325 L
267.866 147.435 L
268.3 147.544 L
268.734 147.654 L
269.168 147.763 L
269.602 147.871 L
270.036 147.98 L
270.47 148.088 L
270.904 148.196 L
271.338 148.304 L
271.772 148.411 L
272.206 148.518 L
272.64 148.625 L
273.074 148.732 L
273.508 148.838 L
273.942 148.945 L
274.376 149.051 L
274.81 149.156 L
275.244 149.262 L
275.678 149.367 L
276.112 149.472 L
276.546 149.577 L
276.98 149.681 L
277.414 149.786 L
277.848 149.89 L
278.282 149.993 L
278.716 150.097 L
279.15 150.2 L
279.584 150.303 L
280.018 150.406 L
280.452 150.508 L
280.886 150.61 L
281.32 150.712 L
281.754 150.814 L
282.188 150.916 L
282.622 151.017 L
283.056 151.118 L
283.49 151.219 L
283.924 151.319 L
284.358 151.419 L
284.792 151.519 L
285.226 151.619 L
285.66 151.719 L
286.094 151.818 L
286.528 151.917 L
286.962 152.016 L
287.396 152.114 L
287.83 152.212 L
288.264 152.31 L
288.698 152.408 L
289.132 152.506 L
289.566 152.603 L
290 152.7 L
290.434 152.797 L
290.868 152.893 L
291.302 152.99 L
291.736 153.086 L
292.17 153.181 L
292.604 153.277 L
293.038 153.372 L
293.472 153.467 L
293.906 153.562 L
294.34 153.657 L
294.774 153.751 L
295.208 153.845 L
295.642 153.939 L
296.076 154.032 L
296.51 154.125 L
296.944 154.218 L
297.378 154.311 L
297.812 154.404 L
298.246 154.496 L
298.68 154.588 L
299.114 154.68 L
299.548 154.771 L
299.982 154.863 L
300.416 154.954 L
300.85 155.045 L
301.284 155.135 L
301.718 155.225 L
302.152 155.316 L
302.586 155.405 L
303.02 155.495 L
303.454 155.584 L
303.888 155.673 L
304.322 155.762 L
304.756 155.851 L
305.19 155.939 L
305.624 156.027 L
306.058 156.115 L
306.492 156.202 L
306.926 156.29 L
307.36 156.377 L
307.794 156.464 L
308.228 156.55 L
308.662 156.636 L
309.096 156.722 L
309.53 156.808 L
309.964 156.894 L
310.398 156.979 L
310.832 157.064 L
311.266 157.149 L
311.7 157.234 L
312.134 157.318 L
312.568 157.402 L
313.002 157.486 L
313.436 157.569 L
313.87 157.653 L
314.304 157.736 L
314.738 157.819 L
315.172 157.901 L
315.606 157.984 L
316.04 158.066 L
316.474 158.148 L
316.908 158.229 L
317.342 158.311 L
317.776 158.392 L
318.21 158.472 L
318.644 158.553 L
319.078 158.633 L
319.512 158.713 L
319.946 158.793 L
320.38 158.873 L
320.814 158.952 L
321.248 159.031 L
321.682 159.11 L
322.116 159.189 L
322.55 159.267 L
322.984 159.345 L
323.418 159.423 L
323.852 159.501 L
324.286 159.578 L
324.72 159.655 L
325.154 159.732 L
325.588 159.809 L
326.022 159.885 L
326.456 159.961 L
326.89 160.037 L
327.324 160.113 L
327.758 160.188 L
328.192 160.263 L
328.626 160.338 L
329.06 160.413 L
329.494 160.487 L
329.928 160.561 L
330.362 160.635 L
330.796 160.709 L
331.23 160.782 L
331.664 160.855 L
332.098 160.928 L
332.532 161.001 L
332.966 161.073 L
333.4 161.145 L
333.834 161.217 L
334.268 161.289 L
334.702 161.36 L
335.136 161.431 L
335.57 161.502 L
336.004 161.573 L
336.438 161.643 L
336.872 161.713 L
337.306 161.783 L
337.74 161.853 L
338.174 161.922 L
338.608 161.991 L
339.042 162.06 L
339.476 162.129 L
339.91 162.197 L
340.344 162.265 L
340.778 162.333 L
341.212 162.401 L
341.646 162.468 L
342.08 162.536 L
342.514 162.603 L
342.948 162.669 L
343.382 162.736 L
343.816 162.802 L
344.25 162.868 L
344.684 162.933 L
345.118 162.999 L
345.552 163.064 L
345.986 163.129 L
346.42 163.193 L
346.854 163.258 L
347.288 163.322 L
347.722 163.386 L
348.156 163.45 L
348.59 163.513 L
349.024 163.576 L
349.458 163.639 L
349.892 163.702 L
350.326 163.764 L
350.76 163.827 L
351.194 163.888 L
351.628 163.95 L
352.062 164.012 L
352.496 164.073 L
352.93 164.134 L
353.364 164.194 L
353.798 164.255 L
354.232 164.315 L
354.666 164.375 L
355.1 164.435 L
355.534 164.494 L
355.968 164.553 L
356.402 164.612 L
356.836 164.671 L
357.27 164.729 L
357.704 164.788 L
358.138 164.846 L
358.572 164.903 L
359.006 164.961 L
359.44 165.018 L
359.874 165.075 L
360.308 165.132 L
360.742 165.188 L
361.176 165.244 L
361.61 165.3 L
362.044 165.356 L
362.478 165.411 L
362.912 165.467 L
363.346 165.521 L
363.78 165.576 L
364.214 165.631 L
364.648 165.685 L
365.082 165.739 L
365.516 165.793 L
365.95 165.846 L
366.384 165.899 L
366.818 165.952 L
367.252 166.005 L
367.686 166.057 L
368.12 166.11 L
368.554 166.162 L
368.988 166.213 L
369.422 166.265 L
369.856 166.316 L
370.29 166.367 L
370.724 166.418 L
371.158 166.468 L
371.592 166.519 L
372.026 166.569 L
372.46 166.618 L
372.894 166.668 L
373.328 166.717 L
373.762 166.766 L
374.196 166.815 L
374.63 166.863 L
375.064 166.911 L
375.498 166.959 L
375.932 167.007 L
376.366 167.055 L
376.8 167.102 L
377.234 167.149 L
377.668 167.196 L
378.102 167.242 L
378.536 167.288 L
378.97 167.335 L
379.404 167.38 L
379.838 167.426 L
380.272 167.471 L
380.706 167.516 L
381.14 167.561 L
381.574 167.605 L
382.008 167.65 L
382.442 167.694 L
382.876 167.737 L
383.31 167.781 L
383.744 167.824 L
384.178 167.867 L
384.612 167.91 L
385.046 167.952 L
385.48 167.995 L
385.914 168.037 L
386.348 168.079 L
386.782 168.12 L
387.216 168.161 L
387.65 168.202 L
388.084 168.243 L
388.518 168.284 L
388.952 168.324 L
389.386 168.364 L
389.82 168.404 L
390.254 168.443 L
390.688 168.483 L
391.122 168.522 L
391.556 168.56 L
391.99 168.599 L
392.424 168.637 L
392.858 168.675 L
393.292 168.713 L
393.726 168.751 L
394.16 168.788 L
394.594 168.825 L
395.028 168.862 L
395.462 168.898 L
395.896 168.935 L
396.33 168.971 L
396.764 169.007 L
397.198 169.042 L
397.632 169.077 L
398.066 169.112 L
398.5 169.147 L
398.934 169.182 L
399.368 169.216 L
399.802 169.25 L
400.236 169.284 L
400.67 169.318 L
401.104 169.351 L
401.538 169.384 L
401.972 169.417 L
402.406 169.449 L
402.84 169.482 L
403.274 169.514 L
403.708 169.546 L
404.142 169.577 L
404.576 169.608 L
405.01 169.64 L
405.444 169.67 L
405.878 169.701 L
406.312 169.731 L
406.746 169.761 L
407.18 169.791 L
407.614 169.821 L
408.048 169.85 L
408.482 169.879 L
408.916 169.908 L
409.35 169.937 L
409.784 169.965 L
410.218 169.993 L
410.652 170.021 L
411.086 170.048 L
411.52 170.076 L
411.954 170.103 L
412.388 170.13 L
412.822 170.156 L
413.256 170.183 L
413.69 170.209 L
414.124 170.235 L
414.558 170.26 L
414.992 170.286 L
415.426 170.311 L
415.86 170.336 L
416.294 170.36 L
416.728 170.385 L
417.162 170.409 L
417.596 170.432 L
418.03 170.456 L
418.464 170.479 L
418.898 170.503 L
419.332 170.525 L
419.766 170.548 L
420.2 170.57 L
420.634 170.593 L
421.068 170.614 L
421.502 170.636 L
421.936 170.657 L
422.37 170.679 L
422.804 170.699 L
423.238 170.72 L
423.672 170.74 L
424.106 170.761 L
424.54 170.78 L
424.974 170.8 L
425.408 170.819 L
425.842 170.839 L
426.276 170.857 L
426.71 170.876 L
427.144 170.894 L
427.578 170.913 L
428.012 170.93 L
428.446 170.948 L
428.88 170.966 L
429.314 170.983 L
429.748 171 L
430.182 171.016 L
430.616 171.033 L
431.05 171.049 L
431.484 171.065 L
431.918 171.08 L
432.352 171.096 L
432.786 171.111 L
433.22 171.126 L
433.654 171.14 L
434.088 171.155 L
434.522 171.169 L
434.956 171.183 L
435.39 171.197 L
435.824 171.21 L
436.258 171.223 L
436.692 171.236 L
437.126 171.249 L
437.56 171.261 L
437.994 171.273 L
438.428 171.285 L
438.862 171.297 L
439.296 171.308 L
439.73 171.319 L
440.164 171.33 L
440.598 171.341 L
441.032 171.351 L
441.466 171.362 L
441.9 171.372 L
442.334 171.381 L
442.768 171.391 L
443.202 171.4 L
443.636 171.409 L
444.07 171.417 L
444.504 171.426 L
444.938 171.434 L
445.372 171.442 L
445.806 171.45 L
446.24 171.457 L
446.674 171.464 L
447.108 171.471 L
447.542 171.478 L
447.976 171.484 L
448.41 171.491 L
448.844 171.497 L
449.278 171.502 L
449.712 171.508 L
450.146 171.513 L
450.58 171.518 L
451.014 171.522 L
451.448 171.527 L
451.882 171.531 L
452.316 171.535 L
452.75 171.539 L
453.184 171.542 L
453.618 171.545 L
454.052 171.548 L
454.486 171.551 L
454.92 171.554 L
455.354 171.556 L
455.788 171.558 L
456.222 171.559 L
456.656 171.561 L
457.09 171.562 L
457.524 171.563 L
457.958 171.564 L
458.392 171.564 L
458.826 171.565 L
459.26 171.565 L
459.694 171.564 L
460.128 171.564 L
460.562 171.563 L
460.996 171.562 L
461.43 171.561 L
461.864 171.559 L
462.298 171.557 L
462.732 171.555 L
463.166 171.553 L
463.6 171.551 L
464.034 171.548 L
464.468 171.545 L
464.902 171.542 L
465.336 171.538 L
465.77 171.534 L
466.204 171.53 L
466.638 171.526 L
467.072 171.521 L
467.506 171.517 L
467.94 171.512 L
468.374 171.506 L
468.808 171.501 L
469.242 171.495 L
469.676 171.489 L
470.11 171.483 L
470.544 171.476 L
470.978 171.47 L
471.412 171.463 L
471.846 171.455 L
472.28 171.448 L
472.714 171.44 L
473.148 171.432 L
473.582 171.424 L
474.016 171.416 L
474.45 171.407 L
474.884 171.398 L
475.318 171.389 L
475.752 171.379 L
476.186 171.369 L
476.62 171.359 L
477.054 171.349 L
477.488 171.339 L
477.922 171.328 L
478.356 171.317 L
478.79 171.306 L
479.224 171.294 L
479.658 171.283 L
480.092 171.271 L
480.526 171.258 L
480.96 171.246 L
481.394 171.233 L
481.828 171.22 L
482.262 171.207 L
482.696 171.193 L
483.13 171.18 L
483.564 171.166 L
483.998 171.152 L
484.432 171.137 L
484.866 171.122 L
485.3 171.107 L
485.734 171.092 L
486.168 171.077 L
486.602 171.061 L
487.036 171.045 L
487.47 171.029 L
487.904 171.012 L
488.338 170.996 L
488.772 170.979 L
489.206 170.962 L
489.64 170.944 L
490.074 170.927 L
490.508 170.909 L
490.942 170.89 L
491.376 170.872 L
491.81 170.853 L
492.244 170.834 L
492.678 170.815 L
493.112 170.796 L
493.546 170.776 L
493.98 170.756 L
494.414 170.736 L
494.848 170.715 L
495.282 170.695 L
495.716 170.674 L
496.15 170.653 L
496.584 170.631 L
497.018 170.61 L
497.452 170.588 L
497.886 170.565 L
498.32 170.543 L
498.754 170.52 L
499.188 170.497 L
499.622 170.474 L
500.056 170.451 L
500.49 170.427 L
500.924 170.403 L
501.358 170.379 L
501.792 170.355 L
502.226 170.33 L
502.66 170.305 L
503.094 170.28 L
503.528 170.255 L
503.962 170.229 L
504.396 170.203 L
504.83 170.177 L
505.264 170.15 L
505.698 170.124 L
506.132 170.097 L
506.566 170.07 L
507 170.042 L
S
GR
GS
1 GC
N
386 64 M
386 38 L
499 38 L
499 64 L
cp
f
GR
GS
[1 0 0 1 423 45.35849] CT
/Helvetica 9 F
GS
[1 0 0 1 0 0] CT
0 3.5 moveto 
1 -1 scale
(Error data) t 
GR
GR
GS
[1 0 0 1 405 45.35849] CT
0 0 1 RC
N
2.667 0 M
2.667 1.473 1.473 2.667 0 2.667 C
-1.473 2.667 -2.667 1.473 -2.667 0 C
-2.667 -1.473 -1.473 -2.667 0 -2.667 C
1.473 -2.667 2.667 -1.473 2.667 0 C
cp
f
GR
GS
[1 0 0 1 423 56.64151] CT
/Helvetica 9 F
GS
[1 0 0 1 0 0] CT
0 3.5 moveto 
1 -1 scale
(Polynomial model) t 
GR
GR
GS
1 0 0 RC
1 LJ
N
390 56.642 M
420 56.642 L
S
GR
GS
0.149 GC
10.0 ML
0.5 LW
N
386 64 M
386 38 L
499 38 L
499 64 L
cp
S
GR
GS
1 GC
N
73 374 M
507 374 L
507 231 L
73 231 L
cp
f
GR
GS
0.873 GC
1 LJ
0.5 LW
N
73 374 M
73 231 L
S
GR
GS
0.873 GC
1 LJ
0.5 LW
N
127.25 374 M
127.25 231 L
S
GR
GS
0.873 GC
1 LJ
0.5 LW
N
181.5 374 M
181.5 231 L
S
GR
GS
0.873 GC
1 LJ
0.5 LW
N
235.75 374 M
235.75 231 L
S
GR
GS
0.873 GC
1 LJ
0.5 LW
N
290 374 M
290 231 L
S
GR
GS
0.873 GC
1 LJ
0.5 LW
N
344.25 374 M
344.25 231 L
S
GR
GS
0.873 GC
1 LJ
0.5 LW
N
398.5 374 M
398.5 231 L
S
GR
GS
0.873 GC
1 LJ
0.5 LW
N
452.75 374 M
452.75 231 L
S
GR
GS
0.873 GC
1 LJ
0.5 LW
N
507 374 M
507 231 L
S
GR
GS
0.873 GC
1 LJ
0.5 LW
N
507 374 M
73 374 L
S
GR
GS
0.873 GC
1 LJ
0.5 LW
N
507 345.4 M
73 345.4 L
S
GR
GS
0.873 GC
1 LJ
0.5 LW
N
507 316.8 M
73 316.8 L
S
GR
GS
0.873 GC
1 LJ
0.5 LW
N
507 288.2 M
73 288.2 L
S
GR
GS
0.873 GC
1 LJ
0.5 LW
N
507 259.6 M
73 259.6 L
S
GR
GS
0.873 GC
1 LJ
0.5 LW
N
507 231 M
73 231 L
S
GR
GS
0.149 GC
2 setlinecap
1 LJ
0.5 LW
N
73 374 M
507 374 L
S
GR
GS
0.149 GC
2 setlinecap
1 LJ
0.5 LW
N
73 231 M
507 231 L
S
GR
GS
0.149 GC
2 setlinecap
1 LJ
0.5 LW
N
73 374 M
73 369.66 L
S
GR
GS
0.149 GC
2 setlinecap
1 LJ
0.5 LW
N
127.25 374 M
127.25 369.66 L
S
GR
GS
0.149 GC
2 setlinecap
1 LJ
0.5 LW
N
181.5 374 M
181.5 369.66 L
S
GR
GS
0.149 GC
2 setlinecap
1 LJ
0.5 LW
N
235.75 374 M
235.75 369.66 L
S
GR
GS
0.149 GC
2 setlinecap
1 LJ
0.5 LW
N
290 374 M
290 369.66 L
S
GR
GS
0.149 GC
2 setlinecap
1 LJ
0.5 LW
N
344.25 374 M
344.25 369.66 L
S
GR
GS
0.149 GC
2 setlinecap
1 LJ
0.5 LW
N
398.5 374 M
398.5 369.66 L
S
GR
GS
0.149 GC
2 setlinecap
1 LJ
0.5 LW
N
452.75 374 M
452.75 369.66 L
S
GR
GS
0.149 GC
2 setlinecap
1 LJ
0.5 LW
N
507 374 M
507 369.66 L
S
GR
GS
0.149 GC
2 setlinecap
1 LJ
0.5 LW
N
73 231 M
73 235.34 L
S
GR
GS
0.149 GC
2 setlinecap
1 LJ
0.5 LW
N
127.25 231 M
127.25 235.34 L
S
GR
GS
0.149 GC
2 setlinecap
1 LJ
0.5 LW
N
181.5 231 M
181.5 235.34 L
S
GR
GS
0.149 GC
2 setlinecap
1 LJ
0.5 LW
N
235.75 231 M
235.75 235.34 L
S
GR
GS
0.149 GC
2 setlinecap
1 LJ
0.5 LW
N
290 231 M
290 235.34 L
S
GR
GS
0.149 GC
2 setlinecap
1 LJ
0.5 LW
N
344.25 231 M
344.25 235.34 L
S
GR
GS
0.149 GC
2 setlinecap
1 LJ
0.5 LW
N
398.5 231 M
398.5 235.34 L
S
GR
GS
0.149 GC
2 setlinecap
1 LJ
0.5 LW
N
452.75 231 M
452.75 235.34 L
S
GR
GS
0.149 GC
2 setlinecap
1 LJ
0.5 LW
N
507 231 M
507 235.34 L
S
GR
GS
[1 0 0 1 73 378] CT
0.149 GC
/Helvetica 10 F
GS
[1 0 0 1 0 0] CT
-8 10 moveto 
1 -1 scale
(-40) t 
GR
GR
GS
[1 0 0 1 127.25 378] CT
0.149 GC
/Helvetica 10 F
GS
[1 0 0 1 0 0] CT
-8 10 moveto 
1 -1 scale
(-35) t 
GR
GR
GS
[1 0 0 1 181.5 378] CT
0.149 GC
/Helvetica 10 F
GS
[1 0 0 1 0 0] CT
-8 10 moveto 
1 -1 scale
(-30) t 
GR
GR
GS
[1 0 0 1 235.75 378] CT
0.149 GC
/Helvetica 10 F
GS
[1 0 0 1 0 0] CT
-8 10 moveto 
1 -1 scale
(-25) t 
GR
GR
GS
[1 0 0 1 290 378] CT
0.149 GC
/Helvetica 10 F
GS
[1 0 0 1 0 0] CT
-8 10 moveto 
1 -1 scale
(-20) t 
GR
GR
GS
[1 0 0 1 344.25 378] CT
0.149 GC
/Helvetica 10 F
GS
[1 0 0 1 0 0] CT
-8 10 moveto 
1 -1 scale
(-15) t 
GR
GR
GS
[1 0 0 1 398.5 378] CT
0.149 GC
/Helvetica 10 F
GS
[1 0 0 1 0 0] CT
-8 10 moveto 
1 -1 scale
(-10) t 
GR
GR
GS
[1 0 0 1 452.75 378] CT
0.149 GC
/Helvetica 10 F
GS
[1 0 0 1 0 0] CT
-5 10 moveto 
1 -1 scale
(-5) t 
GR
GR
GS
[1 0 0 1 507 378] CT
0.149 GC
/Helvetica 10 F
GS
[1 0 0 1 0 0] CT
-3 10 moveto 
1 -1 scale
(0) t 
GR
GR
GS
[1 0 0 1 290.00021 392] CT
0.149 GC
/Helvetica-Bold 12 F
GS
[1 0 0 1 0 0] CT
-82 12 moveto 
1 -1 scale
(Camera rotation \(in degrees\)) t 
GR
GR
GS
0.149 GC
2 setlinecap
1 LJ
0.5 LW
N
73 374 M
73 231 L
S
GR
GS
0.149 GC
2 setlinecap
1 LJ
0.5 LW
N
507 374 M
507 231 L
S
GR
GS
0.149 GC
2 setlinecap
1 LJ
0.5 LW
N
73 374 M
77.34 374 L
S
GR
GS
0.149 GC
2 setlinecap
1 LJ
0.5 LW
N
73 345.4 M
77.34 345.4 L
S
GR
GS
0.149 GC
2 setlinecap
1 LJ
0.5 LW
N
73 316.8 M
77.34 316.8 L
S
GR
GS
0.149 GC
2 setlinecap
1 LJ
0.5 LW
N
73 288.2 M
77.34 288.2 L
S
GR
GS
0.149 GC
2 setlinecap
1 LJ
0.5 LW
N
73 259.6 M
77.34 259.6 L
S
GR
GS
0.149 GC
2 setlinecap
1 LJ
0.5 LW
N
73 231 M
77.34 231 L
S
GR
GS
0.149 GC
2 setlinecap
1 LJ
0.5 LW
N
507 374 M
502.66 374 L
S
GR
GS
0.149 GC
2 setlinecap
1 LJ
0.5 LW
N
507 345.4 M
502.66 345.4 L
S
GR
GS
0.149 GC
2 setlinecap
1 LJ
0.5 LW
N
507 316.8 M
502.66 316.8 L
S
GR
GS
0.149 GC
2 setlinecap
1 LJ
0.5 LW
N
507 288.2 M
502.66 288.2 L
S
GR
GS
0.149 GC
2 setlinecap
1 LJ
0.5 LW
N
507 259.6 M
502.66 259.6 L
S
GR
GS
0.149 GC
2 setlinecap
1 LJ
0.5 LW
N
507 231 M
502.66 231 L
S
GR
GS
[1 0 0 1 69 374] CT
0.149 GC
/Helvetica 10 F
GS
[1 0 0 1 0 0] CT
-10 3.5 moveto 
1 -1 scale
(-1) t 
GR
GR
GS
[1 0 0 1 69 345.39999] CT
0.149 GC
/Helvetica 10 F
GS
[1 0 0 1 0 0] CT
-6 3.5 moveto 
1 -1 scale
(0) t 
GR
GR
GS
[1 0 0 1 69 316.79999] CT
0.149 GC
/Helvetica 10 F
GS
[1 0 0 1 0 0] CT
-6 3.5 moveto 
1 -1 scale
(1) t 
GR
GR
GS
[1 0 0 1 69 288.20001] CT
0.149 GC
/Helvetica 10 F
GS
[1 0 0 1 0 0] CT
-6 3.5 moveto 
1 -1 scale
(2) t 
GR
GR
GS
[1 0 0 1 69 259.60001] CT
0.149 GC
/Helvetica 10 F
GS
[1 0 0 1 0 0] CT
-6 3.5 moveto 
1 -1 scale
(3) t 
GR
GR
GS
[1 0 0 1 69 231] CT
0.149 GC
/Helvetica 10 F
GS
[1 0 0 1 0 0] CT
-6 3.5 moveto 
1 -1 scale
(4) t 
GR
GR
GS
[0 -1 1 0 55.99998 302.49994] CT
0.149 GC
/Helvetica-Bold 12 F
GS
[1 0 0 1 0 0] CT
-55.5 -3 moveto 
1 -1 scale
(Width error \(in mm\)) t 
GR
GR
GS
[1 0 0 1 73 247.36078] CT
0 0 1 RC
N
2.667 0 M
2.667 1.473 1.473 2.667 0 2.667 C
-1.473 2.667 -2.667 1.473 -2.667 0 C
-2.667 -1.473 -1.473 -2.667 0 -2.667 C
1.473 -2.667 2.667 -1.473 2.667 0 C
cp
f
GR
GS
[1 0 0 1 83.85 279.48602] CT
0 0 1 RC
N
2.667 0 M
2.667 1.473 1.473 2.667 0 2.667 C
-1.473 2.667 -2.667 1.473 -2.667 0 C
-2.667 -1.473 -1.473 -2.667 0 -2.667 C
1.473 -2.667 2.667 -1.473 2.667 0 C
cp
f
GR
GS
[1 0 0 1 94.7 282.00333] CT
0 0 1 RC
N
2.667 0 M
2.667 1.473 1.473 2.667 0 2.667 C
-1.473 2.667 -2.667 1.473 -2.667 0 C
-2.667 -1.473 -1.473 -2.667 0 -2.667 C
1.473 -2.667 2.667 -1.473 2.667 0 C
cp
f
GR
GS
[1 0 0 1 105.55 314.54007] CT
0 0 1 RC
N
2.667 0 M
2.667 1.473 1.473 2.667 0 2.667 C
-1.473 2.667 -2.667 1.473 -2.667 0 C
-2.667 -1.473 -1.473 -2.667 0 -2.667 C
1.473 -2.667 2.667 -1.473 2.667 0 C
cp
f
GR
GS
[1 0 0 1 116.4 318.35718] CT
0 0 1 RC
N
2.667 0 M
2.667 1.473 1.473 2.667 0 2.667 C
-1.473 2.667 -2.667 1.473 -2.667 0 C
-2.667 -1.473 -1.473 -2.667 0 -2.667 C
1.473 -2.667 2.667 -1.473 2.667 0 C
cp
f
GR
GS
[1 0 0 1 127.25 338.89203] CT
0 0 1 RC
N
2.667 0 M
2.667 1.473 1.473 2.667 0 2.667 C
-1.473 2.667 -2.667 1.473 -2.667 0 C
-2.667 -1.473 -1.473 -2.667 0 -2.667 C
1.473 -2.667 2.667 -1.473 2.667 0 C
cp
f
GR
GS
[1 0 0 1 138.10001 333.68796] CT
0 0 1 RC
N
2.667 0 M
2.667 1.473 1.473 2.667 0 2.667 C
-1.473 2.667 -2.667 1.473 -2.667 0 C
-2.667 -1.473 -1.473 -2.667 0 -2.667 C
1.473 -2.667 2.667 -1.473 2.667 0 C
cp
f
GR
GS
[1 0 0 1 148.95 349.14273] CT
0 0 1 RC
N
2.667 0 M
2.667 1.473 1.473 2.667 0 2.667 C
-1.473 2.667 -2.667 1.473 -2.667 0 C
-2.667 -1.473 -1.473 -2.667 0 -2.667 C
1.473 -2.667 2.667 -1.473 2.667 0 C
cp
f
GR
GS
[1 0 0 1 159.8 350.02646] CT
0 0 1 RC
N
2.667 0 M
2.667 1.473 1.473 2.667 0 2.667 C
-1.473 2.667 -2.667 1.473 -2.667 0 C
-2.667 -1.473 -1.473 -2.667 0 -2.667 C
1.473 -2.667 2.667 -1.473 2.667 0 C
cp
f
GR
GS
[1 0 0 1 170.64999 349.09109] CT
0 0 1 RC
N
2.667 0 M
2.667 1.473 1.473 2.667 0 2.667 C
-1.473 2.667 -2.667 1.473 -2.667 0 C
-2.667 -1.473 -1.473 -2.667 0 -2.667 C
1.473 -2.667 2.667 -1.473 2.667 0 C
cp
f
GR
GS
[1 0 0 1 181.5 362.7388] CT
0 0 1 RC
N
2.667 0 M
2.667 1.473 1.473 2.667 0 2.667 C
-1.473 2.667 -2.667 1.473 -2.667 0 C
-2.667 -1.473 -1.473 -2.667 0 -2.667 C
1.473 -2.667 2.667 -1.473 2.667 0 C
cp
f
GR
GS
[1 0 0 1 192.35001 351.68909] CT
0 0 1 RC
N
2.667 0 M
2.667 1.473 1.473 2.667 0 2.667 C
-1.473 2.667 -2.667 1.473 -2.667 0 C
-2.667 -1.473 -1.473 -2.667 0 -2.667 C
1.473 -2.667 2.667 -1.473 2.667 0 C
cp
f
GR
GS
[1 0 0 1 203.2 357.80432] CT
0 0 1 RC
N
2.667 0 M
2.667 1.473 1.473 2.667 0 2.667 C
-1.473 2.667 -2.667 1.473 -2.667 0 C
-2.667 -1.473 -1.473 -2.667 0 -2.667 C
1.473 -2.667 2.667 -1.473 2.667 0 C
cp
f
GR
GS
[1 0 0 1 214.05 363.4657] CT
0 0 1 RC
N
2.667 0 M
2.667 1.473 1.473 2.667 0 2.667 C
-1.473 2.667 -2.667 1.473 -2.667 0 C
-2.667 -1.473 -1.473 -2.667 0 -2.667 C
1.473 -2.667 2.667 -1.473 2.667 0 C
cp
f
GR
GS
[1 0 0 1 224.89999 357.13101] CT
0 0 1 RC
N
2.667 0 M
2.667 1.473 1.473 2.667 0 2.667 C
-1.473 2.667 -2.667 1.473 -2.667 0 C
-2.667 -1.473 -1.473 -2.667 0 -2.667 C
1.473 -2.667 2.667 -1.473 2.667 0 C
cp
f
GR
GS
[1 0 0 1 235.75 359.27289] CT
0 0 1 RC
N
2.667 0 M
2.667 1.473 1.473 2.667 0 2.667 C
-1.473 2.667 -2.667 1.473 -2.667 0 C
-2.667 -1.473 -1.473 -2.667 0 -2.667 C
1.473 -2.667 2.667 -1.473 2.667 0 C
cp
f
GR
GS
[1 0 0 1 246.60001 350.06555] CT
0 0 1 RC
N
2.667 0 M
2.667 1.473 1.473 2.667 0 2.667 C
-1.473 2.667 -2.667 1.473 -2.667 0 C
-2.667 -1.473 -1.473 -2.667 0 -2.667 C
1.473 -2.667 2.667 -1.473 2.667 0 C
cp
f
GR
GS
[1 0 0 1 257.45001 350.97818] CT
0 0 1 RC
N
2.667 0 M
2.667 1.473 1.473 2.667 0 2.667 C
-1.473 2.667 -2.667 1.473 -2.667 0 C
-2.667 -1.473 -1.473 -2.667 0 -2.667 C
1.473 -2.667 2.667 -1.473 2.667 0 C
cp
f
GR
GS
[1 0 0 1 268.29999 352.84909] CT
0 0 1 RC
N
2.667 0 M
2.667 1.473 1.473 2.667 0 2.667 C
-1.473 2.667 -2.667 1.473 -2.667 0 C
-2.667 -1.473 -1.473 -2.667 0 -2.667 C
1.473 -2.667 2.667 -1.473 2.667 0 C
cp
f
GR
GS
[1 0 0 1 279.14999 351.49796] CT
0 0 1 RC
N
2.667 0 M
2.667 1.473 1.473 2.667 0 2.667 C
-1.473 2.667 -2.667 1.473 -2.667 0 C
-2.667 -1.473 -1.473 -2.667 0 -2.667 C
1.473 -2.667 2.667 -1.473 2.667 0 C
cp
f
GR
GS
[1 0 0 1 290 342.16113] CT
0 0 1 RC
N
2.667 0 M
2.667 1.473 1.473 2.667 0 2.667 C
-1.473 2.667 -2.667 1.473 -2.667 0 C
-2.667 -1.473 -1.473 -2.667 0 -2.667 C
1.473 -2.667 2.667 -1.473 2.667 0 C
cp
f
GR
GS
[1 0 0 1 300.85001 345.90591] CT
0 0 1 RC
N
2.667 0 M
2.667 1.473 1.473 2.667 0 2.667 C
-1.473 2.667 -2.667 1.473 -2.667 0 C
-2.667 -1.473 -1.473 -2.667 0 -2.667 C
1.473 -2.667 2.667 -1.473 2.667 0 C
cp
f
GR
GS
[1 0 0 1 311.70001 347.00519] CT
0 0 1 RC
N
2.667 0 M
2.667 1.473 1.473 2.667 0 2.667 C
-1.473 2.667 -2.667 1.473 -2.667 0 C
-2.667 -1.473 -1.473 -2.667 0 -2.667 C
1.473 -2.667 2.667 -1.473 2.667 0 C
cp
f
GR
GS
[1 0 0 1 322.54999 338.4512] CT
0 0 1 RC
N
2.667 0 M
2.667 1.473 1.473 2.667 0 2.667 C
-1.473 2.667 -2.667 1.473 -2.667 0 C
-2.667 -1.473 -1.473 -2.667 0 -2.667 C
1.473 -2.667 2.667 -1.473 2.667 0 C
cp
f
GR
GS
[1 0 0 1 333.39999 338.61197] CT
0 0 1 RC
N
2.667 0 M
2.667 1.473 1.473 2.667 0 2.667 C
-1.473 2.667 -2.667 1.473 -2.667 0 C
-2.667 -1.473 -1.473 -2.667 0 -2.667 C
1.473 -2.667 2.667 -1.473 2.667 0 C
cp
f
GR
GS
[1 0 0 1 344.25 336.88214] CT
0 0 1 RC
N
2.667 0 M
2.667 1.473 1.473 2.667 0 2.667 C
-1.473 2.667 -2.667 1.473 -2.667 0 C
-2.667 -1.473 -1.473 -2.667 0 -2.667 C
1.473 -2.667 2.667 -1.473 2.667 0 C
cp
f
GR
GS
[1 0 0 1 355.10001 336.26276] CT
0 0 1 RC
N
2.667 0 M
2.667 1.473 1.473 2.667 0 2.667 C
-1.473 2.667 -2.667 1.473 -2.667 0 C
-2.667 -1.473 -1.473 -2.667 0 -2.667 C
1.473 -2.667 2.667 -1.473 2.667 0 C
cp
f
GR
GS
[1 0 0 1 365.95001 336.04535] CT
0 0 1 RC
N
2.667 0 M
2.667 1.473 1.473 2.667 0 2.667 C
-1.473 2.667 -2.667 1.473 -2.667 0 C
-2.667 -1.473 -1.473 -2.667 0 -2.667 C
1.473 -2.667 2.667 -1.473 2.667 0 C
cp
f
GR
GS
[1 0 0 1 376.79999 336.57959] CT
0 0 1 RC
N
2.667 0 M
2.667 1.473 1.473 2.667 0 2.667 C
-1.473 2.667 -2.667 1.473 -2.667 0 C
-2.667 -1.473 -1.473 -2.667 0 -2.667 C
1.473 -2.667 2.667 -1.473 2.667 0 C
cp
f
GR
GS
[1 0 0 1 387.64999 337.15335] CT
0 0 1 RC
N
2.667 0 M
2.667 1.473 1.473 2.667 0 2.667 C
-1.473 2.667 -2.667 1.473 -2.667 0 C
-2.667 -1.473 -1.473 -2.667 0 -2.667 C
1.473 -2.667 2.667 -1.473 2.667 0 C
cp
f
GR
GS
[1 0 0 1 398.5 337.03253] CT
0 0 1 RC
N
2.667 0 M
2.667 1.473 1.473 2.667 0 2.667 C
-1.473 2.667 -2.667 1.473 -2.667 0 C
-2.667 -1.473 -1.473 -2.667 0 -2.667 C
1.473 -2.667 2.667 -1.473 2.667 0 C
cp
f
GR
GS
[1 0 0 1 409.35001 336.17075] CT
0 0 1 RC
N
2.667 0 M
2.667 1.473 1.473 2.667 0 2.667 C
-1.473 2.667 -2.667 1.473 -2.667 0 C
-2.667 -1.473 -1.473 -2.667 0 -2.667 C
1.473 -2.667 2.667 -1.473 2.667 0 C
cp
f
GR
GS
[1 0 0 1 420.20001 336.44833] CT
0 0 1 RC
N
2.667 0 M
2.667 1.473 1.473 2.667 0 2.667 C
-1.473 2.667 -2.667 1.473 -2.667 0 C
-2.667 -1.473 -1.473 -2.667 0 -2.667 C
1.473 -2.667 2.667 -1.473 2.667 0 C
cp
f
GR
GS
[1 0 0 1 431.04999 338.4086] CT
0 0 1 RC
N
2.667 0 M
2.667 1.473 1.473 2.667 0 2.667 C
-1.473 2.667 -2.667 1.473 -2.667 0 C
-2.667 -1.473 -1.473 -2.667 0 -2.667 C
1.473 -2.667 2.667 -1.473 2.667 0 C
cp
f
GR
GS
[1 0 0 1 441.89999 340.68201] CT
0 0 1 RC
N
2.667 0 M
2.667 1.473 1.473 2.667 0 2.667 C
-1.473 2.667 -2.667 1.473 -2.667 0 C
-2.667 -1.473 -1.473 -2.667 0 -2.667 C
1.473 -2.667 2.667 -1.473 2.667 0 C
cp
f
GR
GS
[1 0 0 1 452.75 343.28918] CT
0 0 1 RC
N
2.667 0 M
2.667 1.473 1.473 2.667 0 2.667 C
-1.473 2.667 -2.667 1.473 -2.667 0 C
-2.667 -1.473 -1.473 -2.667 0 -2.667 C
1.473 -2.667 2.667 -1.473 2.667 0 C
cp
f
GR
GS
[1 0 0 1 463.60001 345.66455] CT
0 0 1 RC
N
2.667 0 M
2.667 1.473 1.473 2.667 0 2.667 C
-1.473 2.667 -2.667 1.473 -2.667 0 C
-2.667 -1.473 -1.473 -2.667 0 -2.667 C
1.473 -2.667 2.667 -1.473 2.667 0 C
cp
f
GR
GS
[1 0 0 1 474.45001 349.45624] CT
0 0 1 RC
N
2.667 0 M
2.667 1.473 1.473 2.667 0 2.667 C
-1.473 2.667 -2.667 1.473 -2.667 0 C
-2.667 -1.473 -1.473 -2.667 0 -2.667 C
1.473 -2.667 2.667 -1.473 2.667 0 C
cp
f
GR
GS
[1 0 0 1 485.29999 354.00021] CT
0 0 1 RC
N
2.667 0 M
2.667 1.473 1.473 2.667 0 2.667 C
-1.473 2.667 -2.667 1.473 -2.667 0 C
-2.667 -1.473 -1.473 -2.667 0 -2.667 C
1.473 -2.667 2.667 -1.473 2.667 0 C
cp
f
GR
GS
[1 0 0 1 496.14999 359.17093] CT
0 0 1 RC
N
2.667 0 M
2.667 1.473 1.473 2.667 0 2.667 C
-1.473 2.667 -2.667 1.473 -2.667 0 C
-2.667 -1.473 -1.473 -2.667 0 -2.667 C
1.473 -2.667 2.667 -1.473 2.667 0 C
cp
f
GR
GS
[1 0 0 1 507 365.09302] CT
0 0 1 RC
N
2.667 0 M
2.667 1.473 1.473 2.667 0 2.667 C
-1.473 2.667 -2.667 1.473 -2.667 0 C
-2.667 -1.473 -1.473 -2.667 0 -2.667 C
1.473 -2.667 2.667 -1.473 2.667 0 C
cp
f
GR
GS
1 0 0 RC
1 LJ
N
73 345.4 M
73.434 345.4 L
73.868 345.4 L
74.302 345.4 L
74.736 345.4 L
75.17 345.4 L
75.604 345.4 L
76.038 345.4 L
76.472 345.4 L
76.906 345.4 L
77.34 345.4 L
77.774 345.4 L
78.208 345.4 L
78.642 345.4 L
79.076 345.4 L
79.51 345.4 L
79.944 345.4 L
80.378 345.4 L
80.812 345.4 L
81.246 345.4 L
81.68 345.4 L
82.114 345.4 L
82.548 345.4 L
82.982 345.4 L
83.416 345.4 L
83.85 345.4 L
84.284 345.4 L
84.718 345.4 L
85.152 345.4 L
85.586 345.4 L
86.02 345.4 L
86.454 345.4 L
86.888 345.4 L
87.322 345.4 L
87.756 345.4 L
88.19 345.4 L
88.624 345.4 L
89.058 345.4 L
89.492 345.4 L
89.926 345.4 L
90.36 345.4 L
90.794 345.4 L
91.228 345.4 L
91.662 345.4 L
92.096 345.4 L
92.53 345.4 L
92.964 345.4 L
93.398 345.4 L
93.832 345.4 L
94.266 345.4 L
94.7 345.4 L
95.134 345.4 L
95.568 345.4 L
96.002 345.4 L
96.436 345.4 L
96.87 345.4 L
97.304 345.4 L
97.738 345.4 L
98.172 345.4 L
98.606 345.4 L
99.04 345.4 L
99.474 345.4 L
99.908 345.4 L
100.342 345.4 L
100.776 345.4 L
101.21 345.4 L
101.644 345.4 L
102.078 345.4 L
102.512 345.4 L
102.946 345.4 L
103.38 345.4 L
103.814 345.4 L
104.248 345.4 L
104.682 345.4 L
105.116 345.4 L
105.55 345.4 L
105.984 345.4 L
106.418 345.4 L
106.852 345.4 L
107.286 345.4 L
107.72 345.4 L
108.154 345.4 L
108.588 345.4 L
109.022 345.4 L
109.456 345.4 L
109.89 345.4 L
110.324 345.4 L
110.758 345.4 L
111.192 345.4 L
111.626 345.4 L
112.06 345.4 L
112.494 345.4 L
112.928 345.4 L
113.362 345.4 L
113.796 345.4 L
114.23 345.4 L
114.664 345.4 L
115.098 345.4 L
115.532 345.4 L
115.966 345.4 L
116.4 345.4 L
116.834 345.4 L
117.268 345.4 L
117.702 345.4 L
118.136 345.4 L
118.57 345.4 L
119.004 345.4 L
119.438 345.4 L
119.872 345.4 L
120.306 345.4 L
120.74 345.4 L
121.174 345.4 L
121.608 345.4 L
122.042 345.4 L
122.476 345.4 L
122.91 345.4 L
123.344 345.4 L
123.778 345.4 L
124.212 345.4 L
124.646 345.4 L
125.08 345.4 L
125.514 345.4 L
125.948 345.4 L
126.382 345.4 L
126.816 345.4 L
127.25 345.4 L
127.684 345.4 L
128.118 345.4 L
128.552 345.4 L
128.986 345.4 L
129.42 345.4 L
129.854 345.4 L
130.288 345.4 L
130.722 345.4 L
131.156 345.4 L
131.59 345.4 L
132.024 345.4 L
132.458 345.4 L
132.892 345.4 L
133.326 345.4 L
133.76 345.4 L
134.194 345.4 L
134.628 345.4 L
135.062 345.4 L
135.496 345.4 L
135.93 345.4 L
136.364 345.4 L
136.798 345.4 L
137.232 345.4 L
137.666 345.4 L
138.1 345.4 L
138.534 345.4 L
138.968 345.4 L
139.402 345.4 L
139.836 345.4 L
140.27 345.4 L
140.704 345.4 L
141.138 345.4 L
141.572 345.4 L
142.006 345.4 L
142.44 345.4 L
142.874 345.4 L
143.308 345.4 L
143.742 345.4 L
144.176 345.4 L
144.61 345.4 L
145.044 345.4 L
145.478 345.4 L
145.912 345.4 L
146.346 345.4 L
146.78 345.4 L
147.214 345.4 L
147.648 345.4 L
148.082 345.4 L
148.516 345.4 L
148.95 345.4 L
149.384 345.4 L
149.818 345.4 L
150.252 345.4 L
150.686 345.4 L
151.12 345.4 L
151.554 345.4 L
151.988 345.4 L
152.422 345.4 L
152.856 345.4 L
153.29 345.4 L
153.724 345.4 L
154.158 345.4 L
154.592 345.4 L
155.026 345.4 L
155.46 345.4 L
155.894 345.4 L
156.328 345.4 L
156.762 345.4 L
157.196 345.4 L
157.63 345.4 L
158.064 345.4 L
158.498 345.4 L
158.932 345.4 L
159.366 345.4 L
159.8 345.4 L
160.234 345.4 L
160.668 345.4 L
161.102 345.4 L
161.536 345.4 L
161.97 345.4 L
162.404 345.4 L
162.838 345.4 L
163.272 345.4 L
163.706 345.4 L
164.14 345.4 L
164.574 345.4 L
165.008 345.4 L
165.442 345.4 L
165.876 345.4 L
166.31 345.4 L
166.744 345.4 L
167.178 345.4 L
167.612 345.4 L
168.046 345.4 L
168.48 345.4 L
168.914 345.4 L
169.348 345.4 L
169.782 345.4 L
170.216 345.4 L
170.65 345.4 L
171.084 345.4 L
171.518 345.4 L
171.952 345.4 L
172.386 345.4 L
172.82 345.4 L
173.254 345.4 L
173.688 345.4 L
174.122 345.4 L
174.556 345.4 L
174.99 345.4 L
175.424 345.4 L
175.858 345.4 L
176.292 345.4 L
176.726 345.4 L
177.16 345.4 L
177.594 345.4 L
178.028 345.4 L
178.462 345.4 L
178.896 345.4 L
179.33 345.4 L
179.764 345.4 L
180.198 345.4 L
180.632 345.4 L
181.066 345.4 L
181.5 345.4 L
181.934 345.4 L
182.368 345.4 L
182.802 345.4 L
183.236 345.4 L
183.67 345.4 L
184.104 345.4 L
184.538 345.4 L
184.972 345.4 L
185.406 345.4 L
185.84 345.4 L
186.274 345.4 L
186.708 345.4 L
187.142 345.4 L
187.576 345.4 L
188.01 345.4 L
188.444 345.4 L
188.878 345.4 L
189.312 345.4 L
189.746 345.4 L
190.18 345.4 L
190.614 345.4 L
191.048 345.4 L
191.482 345.4 L
191.916 345.4 L
192.35 345.4 L
192.784 345.4 L
193.218 345.4 L
193.652 345.4 L
194.086 345.4 L
194.52 345.4 L
194.954 345.4 L
195.388 345.4 L
195.822 345.4 L
196.256 345.4 L
196.69 345.4 L
197.124 345.4 L
197.558 345.4 L
197.992 345.4 L
198.426 345.4 L
198.86 345.4 L
199.294 345.4 L
199.728 345.4 L
200.162 345.4 L
200.596 345.4 L
201.03 345.4 L
201.464 345.4 L
201.898 345.4 L
202.332 345.4 L
202.766 345.4 L
203.2 345.4 L
203.634 345.4 L
204.068 345.4 L
204.502 345.4 L
204.936 345.4 L
205.37 345.4 L
205.804 345.4 L
206.238 345.4 L
206.672 345.4 L
207.106 345.4 L
207.54 345.4 L
207.974 345.4 L
208.408 345.4 L
208.842 345.4 L
209.276 345.4 L
209.71 345.4 L
210.144 345.4 L
210.578 345.4 L
211.012 345.4 L
211.446 345.4 L
211.88 345.4 L
212.314 345.4 L
212.748 345.4 L
213.182 345.4 L
213.616 345.4 L
214.05 345.4 L
214.484 345.4 L
214.918 345.4 L
215.352 345.4 L
215.786 345.4 L
216.22 345.4 L
216.654 345.4 L
217.088 345.4 L
217.522 345.4 L
217.956 345.4 L
218.39 345.4 L
218.824 345.4 L
219.258 345.4 L
219.692 345.4 L
220.126 345.4 L
220.56 345.4 L
220.994 345.4 L
221.428 345.4 L
221.862 345.4 L
222.296 345.4 L
222.73 345.4 L
223.164 345.4 L
223.598 345.4 L
224.032 345.4 L
224.466 345.4 L
224.9 345.4 L
225.334 345.4 L
225.768 345.4 L
226.202 345.4 L
226.636 345.4 L
227.07 345.4 L
227.504 345.4 L
227.938 345.4 L
228.372 345.4 L
228.806 345.4 L
229.24 345.4 L
229.674 345.4 L
230.108 345.4 L
230.542 345.4 L
230.976 345.4 L
231.41 345.4 L
231.844 345.4 L
232.278 345.4 L
232.712 345.4 L
233.146 345.4 L
233.58 345.4 L
234.014 345.4 L
234.448 345.4 L
234.882 345.4 L
235.316 345.4 L
235.75 345.4 L
236.184 345.4 L
236.618 345.4 L
237.052 345.4 L
237.486 345.4 L
237.92 345.4 L
238.354 345.4 L
238.788 345.4 L
239.222 345.4 L
239.656 345.4 L
240.09 345.4 L
240.524 345.4 L
240.958 345.4 L
241.392 345.4 L
241.826 345.4 L
242.26 345.4 L
242.694 345.4 L
243.128 345.4 L
243.562 345.4 L
243.996 345.4 L
244.43 345.4 L
244.864 345.4 L
245.298 345.4 L
245.732 345.4 L
246.166 345.4 L
246.6 345.4 L
247.034 345.4 L
247.468 345.4 L
247.902 345.4 L
248.336 345.4 L
248.77 345.4 L
249.204 345.4 L
249.638 345.4 L
250.072 345.4 L
250.506 345.4 L
250.94 345.4 L
251.374 345.4 L
251.808 345.4 L
252.242 345.4 L
252.676 345.4 L
253.11 345.4 L
253.544 345.4 L
253.978 345.4 L
254.412 345.4 L
254.846 345.4 L
255.28 345.4 L
255.714 345.4 L
256.148 345.4 L
256.582 345.4 L
257.016 345.4 L
257.45 345.4 L
257.884 345.4 L
258.318 345.4 L
258.752 345.4 L
259.186 345.4 L
259.62 345.4 L
260.054 345.4 L
260.488 345.4 L
260.922 345.4 L
261.356 345.4 L
261.79 345.4 L
262.224 345.4 L
262.658 345.4 L
263.092 345.4 L
263.526 345.4 L
263.96 345.4 L
264.394 345.4 L
264.828 345.4 L
265.262 345.4 L
265.696 345.4 L
266.13 345.4 L
266.564 345.4 L
266.998 345.4 L
267.432 345.4 L
267.866 345.4 L
268.3 345.4 L
268.734 345.4 L
269.168 345.4 L
269.602 345.4 L
270.036 345.4 L
270.47 345.4 L
270.904 345.4 L
271.338 345.4 L
271.772 345.4 L
272.206 345.4 L
272.64 345.4 L
273.074 345.4 L
273.508 345.4 L
273.942 345.4 L
274.376 345.4 L
274.81 345.4 L
275.244 345.4 L
275.678 345.4 L
276.112 345.4 L
276.546 345.4 L
276.98 345.4 L
277.414 345.4 L
277.848 345.4 L
278.282 345.4 L
278.716 345.4 L
279.15 345.4 L
279.584 345.4 L
280.018 345.4 L
280.452 345.4 L
280.886 345.4 L
281.32 345.4 L
281.754 345.4 L
282.188 345.4 L
282.622 345.4 L
283.056 345.4 L
283.49 345.4 L
283.924 345.4 L
284.358 345.4 L
284.792 345.4 L
285.226 345.4 L
285.66 345.4 L
286.094 345.4 L
286.528 345.4 L
286.962 345.4 L
287.396 345.4 L
287.83 345.4 L
288.264 345.4 L
288.698 345.4 L
289.132 345.4 L
289.566 345.4 L
290 345.4 L
290.434 345.4 L
290.868 345.4 L
291.302 345.4 L
291.736 345.4 L
292.17 345.4 L
292.604 345.4 L
293.038 345.4 L
293.472 345.4 L
293.906 345.4 L
294.34 345.4 L
294.774 345.4 L
295.208 345.4 L
295.642 345.4 L
296.076 345.4 L
296.51 345.4 L
296.944 345.4 L
297.378 345.4 L
297.812 345.4 L
298.246 345.4 L
298.68 345.4 L
299.114 345.4 L
299.548 345.4 L
299.982 345.4 L
300.416 345.4 L
300.85 345.4 L
301.284 345.4 L
301.718 345.4 L
302.152 345.4 L
302.586 345.4 L
303.02 345.4 L
303.454 345.4 L
303.888 345.4 L
304.322 345.4 L
304.756 345.4 L
305.19 345.4 L
305.624 345.4 L
306.058 345.4 L
306.492 345.4 L
306.926 345.4 L
307.36 345.4 L
307.794 345.4 L
308.228 345.4 L
308.662 345.4 L
309.096 345.4 L
309.53 345.4 L
309.964 345.4 L
310.398 345.4 L
310.832 345.4 L
311.266 345.4 L
311.7 345.4 L
312.134 345.4 L
312.568 345.4 L
313.002 345.4 L
313.436 345.4 L
313.87 345.4 L
314.304 345.4 L
314.738 345.4 L
315.172 345.4 L
315.606 345.4 L
316.04 345.4 L
316.474 345.4 L
316.908 345.4 L
317.342 345.4 L
317.776 345.4 L
318.21 345.4 L
318.644 345.4 L
319.078 345.4 L
319.512 345.4 L
319.946 345.4 L
320.38 345.4 L
320.814 345.4 L
321.248 345.4 L
321.682 345.4 L
322.116 345.4 L
322.55 345.4 L
322.984 345.4 L
323.418 345.4 L
323.852 345.4 L
324.286 345.4 L
324.72 345.4 L
325.154 345.4 L
325.588 345.4 L
326.022 345.4 L
326.456 345.4 L
326.89 345.4 L
327.324 345.4 L
327.758 345.4 L
328.192 345.4 L
328.626 345.4 L
329.06 345.4 L
329.494 345.4 L
329.928 345.4 L
330.362 345.4 L
330.796 345.4 L
331.23 345.4 L
331.664 345.4 L
332.098 345.4 L
332.532 345.4 L
332.966 345.4 L
333.4 345.4 L
333.834 345.4 L
334.268 345.4 L
334.702 345.4 L
335.136 345.4 L
335.57 345.4 L
336.004 345.4 L
336.438 345.4 L
336.872 345.4 L
337.306 345.4 L
337.74 345.4 L
338.174 345.4 L
338.608 345.4 L
339.042 345.4 L
339.476 345.4 L
339.91 345.4 L
340.344 345.4 L
340.778 345.4 L
341.212 345.4 L
341.646 345.4 L
342.08 345.4 L
342.514 345.4 L
342.948 345.4 L
343.382 345.4 L
343.816 345.4 L
344.25 345.4 L
344.684 345.4 L
345.118 345.4 L
345.552 345.4 L
345.986 345.4 L
346.42 345.4 L
346.854 345.4 L
347.288 345.4 L
347.722 345.4 L
348.156 345.4 L
348.59 345.4 L
349.024 345.4 L
349.458 345.4 L
349.892 345.4 L
350.326 345.4 L
350.76 345.4 L
351.194 345.4 L
351.628 345.4 L
352.062 345.4 L
352.496 345.4 L
352.93 345.4 L
353.364 345.4 L
353.798 345.4 L
354.232 345.4 L
354.666 345.4 L
355.1 345.4 L
355.534 345.4 L
355.968 345.4 L
356.402 345.4 L
356.836 345.4 L
357.27 345.4 L
357.704 345.4 L
358.138 345.4 L
358.572 345.4 L
359.006 345.4 L
359.44 345.4 L
359.874 345.4 L
360.308 345.4 L
360.742 345.4 L
361.176 345.4 L
361.61 345.4 L
362.044 345.4 L
362.478 345.4 L
362.912 345.4 L
363.346 345.4 L
363.78 345.4 L
364.214 345.4 L
364.648 345.4 L
365.082 345.4 L
365.516 345.4 L
365.95 345.4 L
366.384 345.4 L
366.818 345.4 L
367.252 345.4 L
367.686 345.4 L
368.12 345.4 L
368.554 345.4 L
368.988 345.4 L
369.422 345.4 L
369.856 345.4 L
370.29 345.4 L
370.724 345.4 L
371.158 345.4 L
371.592 345.4 L
372.026 345.4 L
372.46 345.4 L
372.894 345.4 L
373.328 345.4 L
373.762 345.4 L
374.196 345.4 L
374.63 345.4 L
375.064 345.4 L
375.498 345.4 L
375.932 345.4 L
376.366 345.4 L
376.8 345.4 L
377.234 345.4 L
377.668 345.4 L
378.102 345.4 L
378.536 345.4 L
378.97 345.4 L
379.404 345.4 L
379.838 345.4 L
380.272 345.4 L
380.706 345.4 L
381.14 345.4 L
381.574 345.4 L
382.008 345.4 L
382.442 345.4 L
382.876 345.4 L
383.31 345.4 L
383.744 345.4 L
384.178 345.4 L
384.612 345.4 L
385.046 345.4 L
385.48 345.4 L
385.914 345.4 L
386.348 345.4 L
386.782 345.4 L
387.216 345.4 L
387.65 345.4 L
388.084 345.4 L
388.518 345.4 L
388.952 345.4 L
389.386 345.4 L
389.82 345.4 L
390.254 345.4 L
390.688 345.4 L
391.122 345.4 L
391.556 345.4 L
391.99 345.4 L
392.424 345.4 L
392.858 345.4 L
393.292 345.4 L
393.726 345.4 L
394.16 345.4 L
394.594 345.4 L
395.028 345.4 L
395.462 345.4 L
395.896 345.4 L
396.33 345.4 L
396.764 345.4 L
397.198 345.4 L
397.632 345.4 L
398.066 345.4 L
398.5 345.4 L
398.934 345.4 L
399.368 345.4 L
399.802 345.4 L
400.236 345.4 L
400.67 345.4 L
401.104 345.4 L
401.538 345.4 L
401.972 345.4 L
402.406 345.4 L
402.84 345.4 L
403.274 345.4 L
403.708 345.4 L
404.142 345.4 L
404.576 345.4 L
405.01 345.4 L
405.444 345.4 L
405.878 345.4 L
406.312 345.4 L
406.746 345.4 L
407.18 345.4 L
407.614 345.4 L
408.048 345.4 L
408.482 345.4 L
408.916 345.4 L
409.35 345.4 L
409.784 345.4 L
410.218 345.4 L
410.652 345.4 L
411.086 345.4 L
411.52 345.4 L
411.954 345.4 L
412.388 345.4 L
412.822 345.4 L
413.256 345.4 L
413.69 345.4 L
414.124 345.4 L
414.558 345.4 L
414.992 345.4 L
415.426 345.4 L
415.86 345.4 L
416.294 345.4 L
416.728 345.4 L
417.162 345.4 L
417.596 345.4 L
418.03 345.4 L
418.464 345.4 L
418.898 345.4 L
419.332 345.4 L
419.766 345.4 L
420.2 345.4 L
420.634 345.4 L
421.068 345.4 L
421.502 345.4 L
421.936 345.4 L
422.37 345.4 L
422.804 345.4 L
423.238 345.4 L
423.672 345.4 L
424.106 345.4 L
424.54 345.4 L
424.974 345.4 L
425.408 345.4 L
425.842 345.4 L
426.276 345.4 L
426.71 345.4 L
427.144 345.4 L
427.578 345.4 L
428.012 345.4 L
428.446 345.4 L
428.88 345.4 L
429.314 345.4 L
429.748 345.4 L
430.182 345.4 L
430.616 345.4 L
431.05 345.4 L
431.484 345.4 L
431.918 345.4 L
432.352 345.4 L
432.786 345.4 L
433.22 345.4 L
433.654 345.4 L
434.088 345.4 L
434.522 345.4 L
434.956 345.4 L
435.39 345.4 L
435.824 345.4 L
436.258 345.4 L
436.692 345.4 L
437.126 345.4 L
437.56 345.4 L
437.994 345.4 L
438.428 345.4 L
438.862 345.4 L
439.296 345.4 L
439.73 345.4 L
440.164 345.4 L
440.598 345.4 L
441.032 345.4 L
441.466 345.4 L
441.9 345.4 L
442.334 345.4 L
442.768 345.4 L
443.202 345.4 L
443.636 345.4 L
444.07 345.4 L
444.504 345.4 L
444.938 345.4 L
445.372 345.4 L
445.806 345.4 L
446.24 345.4 L
446.674 345.4 L
447.108 345.4 L
447.542 345.4 L
447.976 345.4 L
448.41 345.4 L
448.844 345.4 L
449.278 345.4 L
449.712 345.4 L
450.146 345.4 L
450.58 345.4 L
451.014 345.4 L
451.448 345.4 L
451.882 345.4 L
452.316 345.4 L
452.75 345.4 L
453.184 345.4 L
453.618 345.4 L
454.052 345.4 L
454.486 345.4 L
454.92 345.4 L
455.354 345.4 L
455.788 345.4 L
456.222 345.4 L
456.656 345.4 L
457.09 345.4 L
457.524 345.4 L
457.958 345.4 L
458.392 345.4 L
458.826 345.4 L
459.26 345.4 L
459.694 345.4 L
460.128 345.4 L
460.562 345.4 L
460.996 345.4 L
461.43 345.4 L
461.864 345.4 L
462.298 345.4 L
462.732 345.4 L
463.166 345.4 L
463.6 345.4 L
464.034 345.4 L
464.468 345.4 L
464.902 345.4 L
465.336 345.4 L
465.77 345.4 L
466.204 345.4 L
466.638 345.4 L
467.072 345.4 L
467.506 345.4 L
467.94 345.4 L
468.374 345.4 L
468.808 345.4 L
469.242 345.4 L
469.676 345.4 L
470.11 345.4 L
470.544 345.4 L
470.978 345.4 L
471.412 345.4 L
471.846 345.4 L
472.28 345.4 L
472.714 345.4 L
473.148 345.4 L
473.582 345.4 L
474.016 345.4 L
474.45 345.4 L
474.884 345.4 L
475.318 345.4 L
475.752 345.4 L
476.186 345.4 L
476.62 345.4 L
477.054 345.4 L
477.488 345.4 L
477.922 345.4 L
478.356 345.4 L
478.79 345.4 L
479.224 345.4 L
479.658 345.4 L
480.092 345.4 L
480.526 345.4 L
480.96 345.4 L
481.394 345.4 L
481.828 345.4 L
482.262 345.4 L
482.696 345.4 L
483.13 345.4 L
483.564 345.4 L
483.998 345.4 L
484.432 345.4 L
484.866 345.4 L
485.3 345.4 L
485.734 345.4 L
486.168 345.4 L
486.602 345.4 L
487.036 345.4 L
487.47 345.4 L
487.904 345.4 L
488.338 345.4 L
488.772 345.4 L
489.206 345.4 L
489.64 345.4 L
490.074 345.4 L
490.508 345.4 L
490.942 345.4 L
491.376 345.4 L
491.81 345.4 L
492.244 345.4 L
492.678 345.4 L
493.112 345.4 L
493.546 345.4 L
493.98 345.4 L
494.414 345.4 L
494.848 345.4 L
495.282 345.4 L
495.716 345.4 L
496.15 345.4 L
496.584 345.4 L
497.018 345.4 L
497.452 345.4 L
497.886 345.4 L
498.32 345.4 L
498.754 345.4 L
499.188 345.4 L
499.622 345.4 L
500.056 345.4 L
500.49 345.4 L
500.924 345.4 L
501.358 345.4 L
501.792 345.4 L
502.226 345.4 L
502.66 345.4 L
503.094 345.4 L
503.528 345.4 L
503.962 345.4 L
504.396 345.4 L
504.83 345.4 L
505.264 345.4 L
505.698 345.4 L
506.132 345.4 L
506.566 345.4 L
507 345.4 L
S
GR
GS
1 GC
N
342 263 M
342 237 L
500 237 L
500 263 L
cp
f
GR
GS
[1 0 0 1 379 244.35849] CT
/Helvetica 9 F
GS
[1 0 0 1 0 0] CT
0 3.5 moveto 
1 -1 scale
(Polynomial model - residuals) t 
GR
GR
GS
[1 0 0 1 361 244.35849] CT
0 0 1 RC
N
2.667 0 M
2.667 1.473 1.473 2.667 0 2.667 C
-1.473 2.667 -2.667 1.473 -2.667 0 C
-2.667 -1.473 -1.473 -2.667 0 -2.667 C
1.473 -2.667 2.667 -1.473 2.667 0 C
cp
f
GR
GS
[1 0 0 1 379 255.64151] CT
/Helvetica 9 F
GS
[1 0 0 1 0 0] CT
0 3.5 moveto 
1 -1 scale
(Zero Line) t 
GR
GR
GS
1 0 0 RC
1 LJ
N
346 255.642 M
376 255.642 L
S
GR
GS
0.149 GC
10.0 ML
0.5 LW
N
342 263 M
342 237 L
500 237 L
500 263 L
cp
S
GR
%%Trailer
%%Pages: 1
%%EOF
