%!PS-Adobe-3.0 EPSF-3.0
%%Creator: (MATLAB, The Mathworks, Inc. Version 9.0.0.341360 \(R2016a\). Operating System: Mac OS X)
%%Title: /Users/deepak/Documents/MATLAB/matlabprojects/singleCalib_IH/source/wryp.eps
%%CreationDate: 2016-11-26T22:35:11
%%Pages: (atend)
%%BoundingBox: 0 0 560 420
%%LanguageLevel: 3
%%EndComments
%%BeginProlog
%%BeginResource: procset (Apache XML Graphics Std ProcSet) 1.2 0
%%Version: 1.2 0
%%Copyright: (Copyright 2001-2003,2010 The Apache Software Foundation. License terms: http://www.apache.org/licenses/LICENSE-2.0)
/bd{bind def}bind def
/ld{load def}bd
/GR/grestore ld
/M/moveto ld
/LJ/setlinejoin ld
/C/curveto ld
/f/fill ld
/LW/setlinewidth ld
/GC/setgray ld
/t/show ld
/N/newpath ld
/CT/concat ld
/cp/closepath ld
/S/stroke ld
/L/lineto ld
/CC/setcmykcolor ld
/A/ashow ld
/GS/gsave ld
/RC/setrgbcolor ld
/RM/rmoveto ld
/ML/setmiterlimit ld
/re {4 2 roll M
1 index 0 rlineto
0 exch rlineto
neg 0 rlineto
cp } bd
/_ctm matrix def
/_tm matrix def
/BT { _ctm currentmatrix pop matrix _tm copy pop 0 0 moveto } bd
/ET { _ctm setmatrix } bd
/iTm { _ctm setmatrix _tm concat } bd
/Tm { _tm astore pop iTm 0 0 moveto } bd
/ux 0.0 def
/uy 0.0 def
/F {
  /Tp exch def
  /Tf exch def
  Tf findfont Tp scalefont setfont
  /cf Tf def  /cs Tp def
} bd
/ULS {currentpoint /uy exch def /ux exch def} bd
/ULE {
  /Tcx currentpoint pop def
  gsave
  newpath
  cf findfont cs scalefont dup
  /FontMatrix get 0 get /Ts exch def /FontInfo get dup
  /UnderlinePosition get Ts mul /To exch def
  /UnderlineThickness get Ts mul /Tt exch def
  ux uy To add moveto  Tcx uy To add lineto
  Tt setlinewidth stroke
  grestore
} bd
/OLE {
  /Tcx currentpoint pop def
  gsave
  newpath
  cf findfont cs scalefont dup
  /FontMatrix get 0 get /Ts exch def /FontInfo get dup
  /UnderlinePosition get Ts mul /To exch def
  /UnderlineThickness get Ts mul /Tt exch def
  ux uy To add cs add moveto Tcx uy To add cs add lineto
  Tt setlinewidth stroke
  grestore
} bd
/SOE {
  /Tcx currentpoint pop def
  gsave
  newpath
  cf findfont cs scalefont dup
  /FontMatrix get 0 get /Ts exch def /FontInfo get dup
  /UnderlinePosition get Ts mul /To exch def
  /UnderlineThickness get Ts mul /Tt exch def
  ux uy To add cs 10 mul 26 idiv add moveto Tcx uy To add cs 10 mul 26 idiv add lineto
  Tt setlinewidth stroke
  grestore
} bd
/QT {
/Y22 exch store
/X22 exch store
/Y21 exch store
/X21 exch store
currentpoint
/Y21 load 2 mul add 3 div exch
/X21 load 2 mul add 3 div exch
/X21 load 2 mul /X22 load add 3 div
/Y21 load 2 mul /Y22 load add 3 div
/X22 load /Y22 load curveto
} bd
/SSPD {
dup length /d exch dict def
{
/v exch def
/k exch def
currentpagedevice k known {
/cpdv currentpagedevice k get def
v cpdv ne {
/upd false def
/nullv v type /nulltype eq def
/nullcpdv cpdv type /nulltype eq def
nullv nullcpdv or
{
/upd true def
} {
/sametype v type cpdv type eq def
sametype {
v type /arraytype eq {
/vlen v length def
/cpdvlen cpdv length def
vlen cpdvlen eq {
0 1 vlen 1 sub {
/i exch def
/obj v i get def
/cpdobj cpdv i get def
obj cpdobj ne {
/upd true def
exit
} if
} for
} {
/upd true def
} ifelse
} {
v type /dicttype eq {
v {
/dv exch def
/dk exch def
/cpddv cpdv dk get def
dv cpddv ne {
/upd true def
exit
} if
} forall
} {
/upd true def
} ifelse
} ifelse
} if
} ifelse
upd true eq {
d k v put
} if
} if
} if
} forall
d length 0 gt {
d setpagedevice
} if
} bd
%%EndResource
%%BeginResource: procset (Apache XML Graphics EPS ProcSet) 1.0 0
%%Version: 1.0 0
%%Copyright: (Copyright 2002-2003 The Apache Software Foundation. License terms: http://www.apache.org/licenses/LICENSE-2.0)
/BeginEPSF { %def
/b4_Inc_state save def         % Save state for cleanup
/dict_count countdictstack def % Count objects on dict stack
/op_count count 1 sub def      % Count objects on operand stack
userdict begin                 % Push userdict on dict stack
/showpage { } def              % Redefine showpage, { } = null proc
0 setgray 0 setlinecap         % Prepare graphics state
1 setlinewidth 0 setlinejoin
10 setmiterlimit [ ] 0 setdash newpath
/languagelevel where           % If level not equal to 1 then
{pop languagelevel             % set strokeadjust and
1 ne                           % overprint to their defaults.
{false setstrokeadjust false setoverprint
} if
} if
} bd
/EndEPSF { %def
count op_count sub {pop} repeat            % Clean up stacks
countdictstack dict_count sub {end} repeat
b4_Inc_state restore
} bd
%%EndResource
%FOPBeginFontDict
%%IncludeResource: font Courier-Bold
%%IncludeResource: font Helvetica
%%IncludeResource: font Courier-BoldOblique
%%IncludeResource: font Courier-Oblique
%%IncludeResource: font Times-Roman
%%IncludeResource: font Helvetica-BoldOblique
%%IncludeResource: font Helvetica-Bold
%%IncludeResource: font Helvetica-Oblique
%%IncludeResource: font Times-BoldItalic
%%IncludeResource: font Courier
%%IncludeResource: font Times-Italic
%%IncludeResource: font Times-Bold
%%IncludeResource: font Symbol
%%IncludeResource: font ZapfDingbats
%FOPEndFontDict
%%BeginResource: encoding WinAnsiEncoding
/WinAnsiEncoding [
/.notdef /.notdef /.notdef /.notdef /.notdef
/.notdef /.notdef /.notdef /.notdef /.notdef
/.notdef /.notdef /.notdef /.notdef /.notdef
/.notdef /.notdef /.notdef /.notdef /.notdef
/.notdef /.notdef /.notdef /.notdef /.notdef
/.notdef /.notdef /.notdef /.notdef /.notdef
/.notdef /.notdef /space /exclam /quotedbl
/numbersign /dollar /percent /ampersand /quotesingle
/parenleft /parenright /asterisk /plus /comma
/hyphen /period /slash /zero /one
/two /three /four /five /six
/seven /eight /nine /colon /semicolon
/less /equal /greater /question /at
/A /B /C /D /E
/F /G /H /I /J
/K /L /M /N /O
/P /Q /R /S /T
/U /V /W /X /Y
/Z /bracketleft /backslash /bracketright /asciicircum
/underscore /quoteleft /a /b /c
/d /e /f /g /h
/i /j /k /l /m
/n /o /p /q /r
/s /t /u /v /w
/x /y /z /braceleft /bar
/braceright /asciitilde /bullet /Euro /bullet
/quotesinglbase /florin /quotedblbase /ellipsis /dagger
/daggerdbl /circumflex /perthousand /Scaron /guilsinglleft
/OE /bullet /Zcaron /bullet /bullet
/quoteleft /quoteright /quotedblleft /quotedblright /bullet
/endash /emdash /asciitilde /trademark /scaron
/guilsinglright /oe /bullet /zcaron /Ydieresis
/space /exclamdown /cent /sterling /currency
/yen /brokenbar /section /dieresis /copyright
/ordfeminine /guillemotleft /logicalnot /sfthyphen /registered
/macron /degree /plusminus /twosuperior /threesuperior
/acute /mu /paragraph /middot /cedilla
/onesuperior /ordmasculine /guillemotright /onequarter /onehalf
/threequarters /questiondown /Agrave /Aacute /Acircumflex
/Atilde /Adieresis /Aring /AE /Ccedilla
/Egrave /Eacute /Ecircumflex /Edieresis /Igrave
/Iacute /Icircumflex /Idieresis /Eth /Ntilde
/Ograve /Oacute /Ocircumflex /Otilde /Odieresis
/multiply /Oslash /Ugrave /Uacute /Ucircumflex
/Udieresis /Yacute /Thorn /germandbls /agrave
/aacute /acircumflex /atilde /adieresis /aring
/ae /ccedilla /egrave /eacute /ecircumflex
/edieresis /igrave /iacute /icircumflex /idieresis
/eth /ntilde /ograve /oacute /ocircumflex
/otilde /odieresis /divide /oslash /ugrave
/uacute /ucircumflex /udieresis /yacute /thorn
/ydieresis
] def
%%EndResource
%FOPBeginFontReencode
/Courier-Bold findfont
dup length dict begin
  {1 index /FID ne {def} {pop pop} ifelse} forall
  /Encoding WinAnsiEncoding def
  currentdict
end
/Courier-Bold exch definefont pop
/Helvetica findfont
dup length dict begin
  {1 index /FID ne {def} {pop pop} ifelse} forall
  /Encoding WinAnsiEncoding def
  currentdict
end
/Helvetica exch definefont pop
/Courier-BoldOblique findfont
dup length dict begin
  {1 index /FID ne {def} {pop pop} ifelse} forall
  /Encoding WinAnsiEncoding def
  currentdict
end
/Courier-BoldOblique exch definefont pop
/Courier-Oblique findfont
dup length dict begin
  {1 index /FID ne {def} {pop pop} ifelse} forall
  /Encoding WinAnsiEncoding def
  currentdict
end
/Courier-Oblique exch definefont pop
/Times-Roman findfont
dup length dict begin
  {1 index /FID ne {def} {pop pop} ifelse} forall
  /Encoding WinAnsiEncoding def
  currentdict
end
/Times-Roman exch definefont pop
/Helvetica-BoldOblique findfont
dup length dict begin
  {1 index /FID ne {def} {pop pop} ifelse} forall
  /Encoding WinAnsiEncoding def
  currentdict
end
/Helvetica-BoldOblique exch definefont pop
/Helvetica-Bold findfont
dup length dict begin
  {1 index /FID ne {def} {pop pop} ifelse} forall
  /Encoding WinAnsiEncoding def
  currentdict
end
/Helvetica-Bold exch definefont pop
/Helvetica-Oblique findfont
dup length dict begin
  {1 index /FID ne {def} {pop pop} ifelse} forall
  /Encoding WinAnsiEncoding def
  currentdict
end
/Helvetica-Oblique exch definefont pop
/Times-BoldItalic findfont
dup length dict begin
  {1 index /FID ne {def} {pop pop} ifelse} forall
  /Encoding WinAnsiEncoding def
  currentdict
end
/Times-BoldItalic exch definefont pop
/Courier findfont
dup length dict begin
  {1 index /FID ne {def} {pop pop} ifelse} forall
  /Encoding WinAnsiEncoding def
  currentdict
end
/Courier exch definefont pop
/Times-Italic findfont
dup length dict begin
  {1 index /FID ne {def} {pop pop} ifelse} forall
  /Encoding WinAnsiEncoding def
  currentdict
end
/Times-Italic exch definefont pop
/Times-Bold findfont
dup length dict begin
  {1 index /FID ne {def} {pop pop} ifelse} forall
  /Encoding WinAnsiEncoding def
  currentdict
end
/Times-Bold exch definefont pop
%FOPEndFontReencode
%%EndProlog
%%Page: 1 1
%%PageBoundingBox: 0 0 560 420
%%BeginPageSetup
[1 0 0 -1 0 420] CT
%%EndPageSetup
GS
1 GC
N
0 0 560 420 re
f
GR
GS
1 GC
N
0 0 560 420 re
f
GR
GS
1 GC
N
73 175 M
507 175 L
507 31 L
73 31 L
cp
f
GR
GS
0.873 GC
1 LJ
0.5 LW
N
73 175 M
73 31 L
S
GR
GS
0.873 GC
1 LJ
0.5 LW
N
127.25 175 M
127.25 31 L
S
GR
GS
0.873 GC
1 LJ
0.5 LW
N
181.5 175 M
181.5 31 L
S
GR
GS
0.873 GC
1 LJ
0.5 LW
N
235.75 175 M
235.75 31 L
S
GR
GS
0.873 GC
1 LJ
0.5 LW
N
290 175 M
290 31 L
S
GR
GS
0.873 GC
1 LJ
0.5 LW
N
344.25 175 M
344.25 31 L
S
GR
GS
0.873 GC
1 LJ
0.5 LW
N
398.5 175 M
398.5 31 L
S
GR
GS
0.873 GC
1 LJ
0.5 LW
N
452.75 175 M
452.75 31 L
S
GR
GS
0.873 GC
1 LJ
0.5 LW
N
507 175 M
507 31 L
S
GR
GS
0.873 GC
1 LJ
0.5 LW
N
507 175 M
73 175 L
S
GR
GS
0.873 GC
1 LJ
0.5 LW
N
507 139 M
73 139 L
S
GR
GS
0.873 GC
1 LJ
0.5 LW
N
507 103 M
73 103 L
S
GR
GS
0.873 GC
1 LJ
0.5 LW
N
507 67 M
73 67 L
S
GR
GS
0.873 GC
1 LJ
0.5 LW
N
507 31 M
73 31 L
S
GR
GS
0.149 GC
2 setlinecap
1 LJ
0.5 LW
N
73 175 M
507 175 L
S
GR
GS
0.149 GC
2 setlinecap
1 LJ
0.5 LW
N
73 31 M
507 31 L
S
GR
GS
0.149 GC
2 setlinecap
1 LJ
0.5 LW
N
73 175 M
73 170.66 L
S
GR
GS
0.149 GC
2 setlinecap
1 LJ
0.5 LW
N
127.25 175 M
127.25 170.66 L
S
GR
GS
0.149 GC
2 setlinecap
1 LJ
0.5 LW
N
181.5 175 M
181.5 170.66 L
S
GR
GS
0.149 GC
2 setlinecap
1 LJ
0.5 LW
N
235.75 175 M
235.75 170.66 L
S
GR
GS
0.149 GC
2 setlinecap
1 LJ
0.5 LW
N
290 175 M
290 170.66 L
S
GR
GS
0.149 GC
2 setlinecap
1 LJ
0.5 LW
N
344.25 175 M
344.25 170.66 L
S
GR
GS
0.149 GC
2 setlinecap
1 LJ
0.5 LW
N
398.5 175 M
398.5 170.66 L
S
GR
GS
0.149 GC
2 setlinecap
1 LJ
0.5 LW
N
452.75 175 M
452.75 170.66 L
S
GR
GS
0.149 GC
2 setlinecap
1 LJ
0.5 LW
N
507 175 M
507 170.66 L
S
GR
GS
0.149 GC
2 setlinecap
1 LJ
0.5 LW
N
73 31 M
73 35.34 L
S
GR
GS
0.149 GC
2 setlinecap
1 LJ
0.5 LW
N
127.25 31 M
127.25 35.34 L
S
GR
GS
0.149 GC
2 setlinecap
1 LJ
0.5 LW
N
181.5 31 M
181.5 35.34 L
S
GR
GS
0.149 GC
2 setlinecap
1 LJ
0.5 LW
N
235.75 31 M
235.75 35.34 L
S
GR
GS
0.149 GC
2 setlinecap
1 LJ
0.5 LW
N
290 31 M
290 35.34 L
S
GR
GS
0.149 GC
2 setlinecap
1 LJ
0.5 LW
N
344.25 31 M
344.25 35.34 L
S
GR
GS
0.149 GC
2 setlinecap
1 LJ
0.5 LW
N
398.5 31 M
398.5 35.34 L
S
GR
GS
0.149 GC
2 setlinecap
1 LJ
0.5 LW
N
452.75 31 M
452.75 35.34 L
S
GR
GS
0.149 GC
2 setlinecap
1 LJ
0.5 LW
N
507 31 M
507 35.34 L
S
GR
GS
[1 0 0 1 73 179] CT
0.149 GC
/Helvetica 10 F
GS
[1 0 0 1 0 0] CT
-3 10 moveto 
1 -1 scale
(0) t 
GR
GR
GS
[1 0 0 1 127.25 179] CT
0.149 GC
/Helvetica 10 F
GS
[1 0 0 1 0 0] CT
-3 10 moveto 
1 -1 scale
(5) t 
GR
GR
GS
[1 0 0 1 181.5 179] CT
0.149 GC
/Helvetica 10 F
GS
[1 0 0 1 0 0] CT
-6 10 moveto 
1 -1 scale
(10) t 
GR
GR
GS
[1 0 0 1 235.75 179] CT
0.149 GC
/Helvetica 10 F
GS
[1 0 0 1 0 0] CT
-6 10 moveto 
1 -1 scale
(15) t 
GR
GR
GS
[1 0 0 1 290 179] CT
0.149 GC
/Helvetica 10 F
GS
[1 0 0 1 0 0] CT
-6 10 moveto 
1 -1 scale
(20) t 
GR
GR
GS
[1 0 0 1 344.25 179] CT
0.149 GC
/Helvetica 10 F
GS
[1 0 0 1 0 0] CT
-6 10 moveto 
1 -1 scale
(25) t 
GR
GR
GS
[1 0 0 1 398.5 179] CT
0.149 GC
/Helvetica 10 F
GS
[1 0 0 1 0 0] CT
-6 10 moveto 
1 -1 scale
(30) t 
GR
GR
GS
[1 0 0 1 452.75 179] CT
0.149 GC
/Helvetica 10 F
GS
[1 0 0 1 0 0] CT
-6 10 moveto 
1 -1 scale
(35) t 
GR
GR
GS
[1 0 0 1 507 179] CT
0.149 GC
/Helvetica 10 F
GS
[1 0 0 1 0 0] CT
-6 10 moveto 
1 -1 scale
(40) t 
GR
GR
GS
[1 0 0 1 290.00021 193] CT
0.149 GC
/Helvetica-Bold 12 F
GS
[1 0 0 1 0 0] CT
-82 12 moveto 
1 -1 scale
(Camera rotation \(in degrees\)) t 
GR
GR
GS
0.149 GC
2 setlinecap
1 LJ
0.5 LW
N
73 175 M
73 31 L
S
GR
GS
0.149 GC
2 setlinecap
1 LJ
0.5 LW
N
507 175 M
507 31 L
S
GR
GS
0.149 GC
2 setlinecap
1 LJ
0.5 LW
N
73 175 M
77.34 175 L
S
GR
GS
0.149 GC
2 setlinecap
1 LJ
0.5 LW
N
73 139 M
77.34 139 L
S
GR
GS
0.149 GC
2 setlinecap
1 LJ
0.5 LW
N
73 103 M
77.34 103 L
S
GR
GS
0.149 GC
2 setlinecap
1 LJ
0.5 LW
N
73 67 M
77.34 67 L
S
GR
GS
0.149 GC
2 setlinecap
1 LJ
0.5 LW
N
73 31 M
77.34 31 L
S
GR
GS
0.149 GC
2 setlinecap
1 LJ
0.5 LW
N
507 175 M
502.66 175 L
S
GR
GS
0.149 GC
2 setlinecap
1 LJ
0.5 LW
N
507 139 M
502.66 139 L
S
GR
GS
0.149 GC
2 setlinecap
1 LJ
0.5 LW
N
507 103 M
502.66 103 L
S
GR
GS
0.149 GC
2 setlinecap
1 LJ
0.5 LW
N
507 67 M
502.66 67 L
S
GR
GS
0.149 GC
2 setlinecap
1 LJ
0.5 LW
N
507 31 M
502.66 31 L
S
GR
GS
[1 0 0 1 69 175] CT
0.149 GC
/Helvetica 10 F
GS
[1 0 0 1 0 0] CT
-6 3.5 moveto 
1 -1 scale
(0) t 
GR
GR
GS
[1 0 0 1 69 139] CT
0.149 GC
/Helvetica 10 F
GS
[1 0 0 1 0 0] CT
-12 3.5 moveto 
1 -1 scale
(10) t 
GR
GR
GS
[1 0 0 1 69 103] CT
0.149 GC
/Helvetica 10 F
GS
[1 0 0 1 0 0] CT
-12 3.5 moveto 
1 -1 scale
(20) t 
GR
GR
GS
[1 0 0 1 69 67] CT
0.149 GC
/Helvetica 10 F
GS
[1 0 0 1 0 0] CT
-12 3.5 moveto 
1 -1 scale
(30) t 
GR
GR
GS
[1 0 0 1 69 31] CT
0.149 GC
/Helvetica 10 F
GS
[1 0 0 1 0 0] CT
-12 3.5 moveto 
1 -1 scale
(40) t 
GR
GR
GS
[0 -1 1 0 54 102.99993] CT
0.149 GC
/Helvetica-Bold 12 F
GS
[1 0 0 1 0 0] CT
-55.5 -3 moveto 
1 -1 scale
(Width error \(in mm\)) t 
GR
GR
GS
[1 0 0 1 73 175] CT
0 0 1 RC
N
2.667 0 M
2.667 1.473 1.473 2.667 0 2.667 C
-1.473 2.667 -2.667 1.473 -2.667 0 C
-2.667 -1.473 -1.473 -2.667 0 -2.667 C
1.473 -2.667 2.667 -1.473 2.667 0 C
cp
f
GR
GS
[1 0 0 1 83.85 174.53261] CT
0 0 1 RC
N
2.667 0 M
2.667 1.473 1.473 2.667 0 2.667 C
-1.473 2.667 -2.667 1.473 -2.667 0 C
-2.667 -1.473 -1.473 -2.667 0 -2.667 C
1.473 -2.667 2.667 -1.473 2.667 0 C
cp
f
GR
GS
[1 0 0 1 94.7 174.06577] CT
0 0 1 RC
N
2.667 0 M
2.667 1.473 1.473 2.667 0 2.667 C
-1.473 2.667 -2.667 1.473 -2.667 0 C
-2.667 -1.473 -1.473 -2.667 0 -2.667 C
1.473 -2.667 2.667 -1.473 2.667 0 C
cp
f
GR
GS
[1 0 0 1 105.55 173.58685] CT
0 0 1 RC
N
2.667 0 M
2.667 1.473 1.473 2.667 0 2.667 C
-1.473 2.667 -2.667 1.473 -2.667 0 C
-2.667 -1.473 -1.473 -2.667 0 -2.667 C
1.473 -2.667 2.667 -1.473 2.667 0 C
cp
f
GR
GS
[1 0 0 1 116.4 173.11836] CT
0 0 1 RC
N
2.667 0 M
2.667 1.473 1.473 2.667 0 2.667 C
-1.473 2.667 -2.667 1.473 -2.667 0 C
-2.667 -1.473 -1.473 -2.667 0 -2.667 C
1.473 -2.667 2.667 -1.473 2.667 0 C
cp
f
GR
GS
[1 0 0 1 127.25 172.29626] CT
0 0 1 RC
N
2.667 0 M
2.667 1.473 1.473 2.667 0 2.667 C
-1.473 2.667 -2.667 1.473 -2.667 0 C
-2.667 -1.473 -1.473 -2.667 0 -2.667 C
1.473 -2.667 2.667 -1.473 2.667 0 C
cp
f
GR
GS
[1 0 0 1 138.10001 171.83734] CT
0 0 1 RC
N
2.667 0 M
2.667 1.473 1.473 2.667 0 2.667 C
-1.473 2.667 -2.667 1.473 -2.667 0 C
-2.667 -1.473 -1.473 -2.667 0 -2.667 C
1.473 -2.667 2.667 -1.473 2.667 0 C
cp
f
GR
GS
[1 0 0 1 148.95 171.03935] CT
0 0 1 RC
N
2.667 0 M
2.667 1.473 1.473 2.667 0 2.667 C
-1.473 2.667 -2.667 1.473 -2.667 0 C
-2.667 -1.473 -1.473 -2.667 0 -2.667 C
1.473 -2.667 2.667 -1.473 2.667 0 C
cp
f
GR
GS
[1 0 0 1 159.8 170.39032] CT
0 0 1 RC
N
2.667 0 M
2.667 1.473 1.473 2.667 0 2.667 C
-1.473 2.667 -2.667 1.473 -2.667 0 C
-2.667 -1.473 -1.473 -2.667 0 -2.667 C
1.473 -2.667 2.667 -1.473 2.667 0 C
cp
f
GR
GS
[1 0 0 1 170.64999 169.41528] CT
0 0 1 RC
N
2.667 0 M
2.667 1.473 1.473 2.667 0 2.667 C
-1.473 2.667 -2.667 1.473 -2.667 0 C
-2.667 -1.473 -1.473 -2.667 0 -2.667 C
1.473 -2.667 2.667 -1.473 2.667 0 C
cp
f
GR
GS
[1 0 0 1 181.5 168.90176] CT
0 0 1 RC
N
2.667 0 M
2.667 1.473 1.473 2.667 0 2.667 C
-1.473 2.667 -2.667 1.473 -2.667 0 C
-2.667 -1.473 -1.473 -2.667 0 -2.667 C
1.473 -2.667 2.667 -1.473 2.667 0 C
cp
f
GR
GS
[1 0 0 1 192.35001 167.32716] CT
0 0 1 RC
N
2.667 0 M
2.667 1.473 1.473 2.667 0 2.667 C
-1.473 2.667 -2.667 1.473 -2.667 0 C
-2.667 -1.473 -1.473 -2.667 0 -2.667 C
1.473 -2.667 2.667 -1.473 2.667 0 C
cp
f
GR
GS
[1 0 0 1 203.2 166.81943] CT
0 0 1 RC
N
2.667 0 M
2.667 1.473 1.473 2.667 0 2.667 C
-1.473 2.667 -2.667 1.473 -2.667 0 C
-2.667 -1.473 -1.473 -2.667 0 -2.667 C
1.473 -2.667 2.667 -1.473 2.667 0 C
cp
f
GR
GS
[1 0 0 1 214.05 165.49112] CT
0 0 1 RC
N
2.667 0 M
2.667 1.473 1.473 2.667 0 2.667 C
-1.473 2.667 -2.667 1.473 -2.667 0 C
-2.667 -1.473 -1.473 -2.667 0 -2.667 C
1.473 -2.667 2.667 -1.473 2.667 0 C
cp
f
GR
GS
[1 0 0 1 224.89999 164.29857] CT
0 0 1 RC
N
2.667 0 M
2.667 1.473 1.473 2.667 0 2.667 C
-1.473 2.667 -2.667 1.473 -2.667 0 C
-2.667 -1.473 -1.473 -2.667 0 -2.667 C
1.473 -2.667 2.667 -1.473 2.667 0 C
cp
f
GR
GS
[1 0 0 1 235.75 162.82538] CT
0 0 1 RC
N
2.667 0 M
2.667 1.473 1.473 2.667 0 2.667 C
-1.473 2.667 -2.667 1.473 -2.667 0 C
-2.667 -1.473 -1.473 -2.667 0 -2.667 C
1.473 -2.667 2.667 -1.473 2.667 0 C
cp
f
GR
GS
[1 0 0 1 246.60001 161.42526] CT
0 0 1 RC
N
2.667 0 M
2.667 1.473 1.473 2.667 0 2.667 C
-1.473 2.667 -2.667 1.473 -2.667 0 C
-2.667 -1.473 -1.473 -2.667 0 -2.667 C
1.473 -2.667 2.667 -1.473 2.667 0 C
cp
f
GR
GS
[1 0 0 1 257.45001 160.88597] CT
0 0 1 RC
N
2.667 0 M
2.667 1.473 1.473 2.667 0 2.667 C
-1.473 2.667 -2.667 1.473 -2.667 0 C
-2.667 -1.473 -1.473 -2.667 0 -2.667 C
1.473 -2.667 2.667 -1.473 2.667 0 C
cp
f
GR
GS
[1 0 0 1 268.29999 158.76759] CT
0 0 1 RC
N
2.667 0 M
2.667 1.473 1.473 2.667 0 2.667 C
-1.473 2.667 -2.667 1.473 -2.667 0 C
-2.667 -1.473 -1.473 -2.667 0 -2.667 C
1.473 -2.667 2.667 -1.473 2.667 0 C
cp
f
GR
GS
[1 0 0 1 279.14999 156.47198] CT
0 0 1 RC
N
2.667 0 M
2.667 1.473 1.473 2.667 0 2.667 C
-1.473 2.667 -2.667 1.473 -2.667 0 C
-2.667 -1.473 -1.473 -2.667 0 -2.667 C
1.473 -2.667 2.667 -1.473 2.667 0 C
cp
f
GR
GS
[1 0 0 1 290 154.07858] CT
0 0 1 RC
N
2.667 0 M
2.667 1.473 1.473 2.667 0 2.667 C
-1.473 2.667 -2.667 1.473 -2.667 0 C
-2.667 -1.473 -1.473 -2.667 0 -2.667 C
1.473 -2.667 2.667 -1.473 2.667 0 C
cp
f
GR
GS
[1 0 0 1 300.85001 152.91557] CT
0 0 1 RC
N
2.667 0 M
2.667 1.473 1.473 2.667 0 2.667 C
-1.473 2.667 -2.667 1.473 -2.667 0 C
-2.667 -1.473 -1.473 -2.667 0 -2.667 C
1.473 -2.667 2.667 -1.473 2.667 0 C
cp
f
GR
GS
[1 0 0 1 311.70001 150.52722] CT
0 0 1 RC
N
2.667 0 M
2.667 1.473 1.473 2.667 0 2.667 C
-1.473 2.667 -2.667 1.473 -2.667 0 C
-2.667 -1.473 -1.473 -2.667 0 -2.667 C
1.473 -2.667 2.667 -1.473 2.667 0 C
cp
f
GR
GS
[1 0 0 1 322.54999 147.62508] CT
0 0 1 RC
N
2.667 0 M
2.667 1.473 1.473 2.667 0 2.667 C
-1.473 2.667 -2.667 1.473 -2.667 0 C
-2.667 -1.473 -1.473 -2.667 0 -2.667 C
1.473 -2.667 2.667 -1.473 2.667 0 C
cp
f
GR
GS
[1 0 0 1 333.39999 145.54935] CT
0 0 1 RC
N
2.667 0 M
2.667 1.473 1.473 2.667 0 2.667 C
-1.473 2.667 -2.667 1.473 -2.667 0 C
-2.667 -1.473 -1.473 -2.667 0 -2.667 C
1.473 -2.667 2.667 -1.473 2.667 0 C
cp
f
GR
GS
[1 0 0 1 344.25 141.92416] CT
0 0 1 RC
N
2.667 0 M
2.667 1.473 1.473 2.667 0 2.667 C
-1.473 2.667 -2.667 1.473 -2.667 0 C
-2.667 -1.473 -1.473 -2.667 0 -2.667 C
1.473 -2.667 2.667 -1.473 2.667 0 C
cp
f
GR
GS
[1 0 0 1 355.10001 139.10812] CT
0 0 1 RC
N
2.667 0 M
2.667 1.473 1.473 2.667 0 2.667 C
-1.473 2.667 -2.667 1.473 -2.667 0 C
-2.667 -1.473 -1.473 -2.667 0 -2.667 C
1.473 -2.667 2.667 -1.473 2.667 0 C
cp
f
GR
GS
[1 0 0 1 365.95001 135.68748] CT
0 0 1 RC
N
2.667 0 M
2.667 1.473 1.473 2.667 0 2.667 C
-1.473 2.667 -2.667 1.473 -2.667 0 C
-2.667 -1.473 -1.473 -2.667 0 -2.667 C
1.473 -2.667 2.667 -1.473 2.667 0 C
cp
f
GR
GS
[1 0 0 1 376.79999 133.09709] CT
0 0 1 RC
N
2.667 0 M
2.667 1.473 1.473 2.667 0 2.667 C
-1.473 2.667 -2.667 1.473 -2.667 0 C
-2.667 -1.473 -1.473 -2.667 0 -2.667 C
1.473 -2.667 2.667 -1.473 2.667 0 C
cp
f
GR
GS
[1 0 0 1 387.64999 128.99846] CT
0 0 1 RC
N
2.667 0 M
2.667 1.473 1.473 2.667 0 2.667 C
-1.473 2.667 -2.667 1.473 -2.667 0 C
-2.667 -1.473 -1.473 -2.667 0 -2.667 C
1.473 -2.667 2.667 -1.473 2.667 0 C
cp
f
GR
GS
[1 0 0 1 398.5 126.02878] CT
0 0 1 RC
N
2.667 0 M
2.667 1.473 1.473 2.667 0 2.667 C
-1.473 2.667 -2.667 1.473 -2.667 0 C
-2.667 -1.473 -1.473 -2.667 0 -2.667 C
1.473 -2.667 2.667 -1.473 2.667 0 C
cp
f
GR
GS
[1 0 0 1 409.35001 122.91264] CT
0 0 1 RC
N
2.667 0 M
2.667 1.473 1.473 2.667 0 2.667 C
-1.473 2.667 -2.667 1.473 -2.667 0 C
-2.667 -1.473 -1.473 -2.667 0 -2.667 C
1.473 -2.667 2.667 -1.473 2.667 0 C
cp
f
GR
GS
[1 0 0 1 420.20001 114.98297] CT
0 0 1 RC
N
2.667 0 M
2.667 1.473 1.473 2.667 0 2.667 C
-1.473 2.667 -2.667 1.473 -2.667 0 C
-2.667 -1.473 -1.473 -2.667 0 -2.667 C
1.473 -2.667 2.667 -1.473 2.667 0 C
cp
f
GR
GS
[1 0 0 1 431.04999 111.04074] CT
0 0 1 RC
N
2.667 0 M
2.667 1.473 1.473 2.667 0 2.667 C
-1.473 2.667 -2.667 1.473 -2.667 0 C
-2.667 -1.473 -1.473 -2.667 0 -2.667 C
1.473 -2.667 2.667 -1.473 2.667 0 C
cp
f
GR
GS
[1 0 0 1 441.89999 107.20403] CT
0 0 1 RC
N
2.667 0 M
2.667 1.473 1.473 2.667 0 2.667 C
-1.473 2.667 -2.667 1.473 -2.667 0 C
-2.667 -1.473 -1.473 -2.667 0 -2.667 C
1.473 -2.667 2.667 -1.473 2.667 0 C
cp
f
GR
GS
[1 0 0 1 452.75 103.55511] CT
0 0 1 RC
N
2.667 0 M
2.667 1.473 1.473 2.667 0 2.667 C
-1.473 2.667 -2.667 1.473 -2.667 0 C
-2.667 -1.473 -1.473 -2.667 0 -2.667 C
1.473 -2.667 2.667 -1.473 2.667 0 C
cp
f
GR
GS
[1 0 0 1 463.60001 95.80026] CT
0 0 1 RC
N
2.667 0 M
2.667 1.473 1.473 2.667 0 2.667 C
-1.473 2.667 -2.667 1.473 -2.667 0 C
-2.667 -1.473 -1.473 -2.667 0 -2.667 C
1.473 -2.667 2.667 -1.473 2.667 0 C
cp
f
GR
GS
[1 0 0 1 474.45001 91.6161] CT
0 0 1 RC
N
2.667 0 M
2.667 1.473 1.473 2.667 0 2.667 C
-1.473 2.667 -2.667 1.473 -2.667 0 C
-2.667 -1.473 -1.473 -2.667 0 -2.667 C
1.473 -2.667 2.667 -1.473 2.667 0 C
cp
f
GR
GS
[1 0 0 1 485.29999 84.33845] CT
0 0 1 RC
N
2.667 0 M
2.667 1.473 1.473 2.667 0 2.667 C
-1.473 2.667 -2.667 1.473 -2.667 0 C
-2.667 -1.473 -1.473 -2.667 0 -2.667 C
1.473 -2.667 2.667 -1.473 2.667 0 C
cp
f
GR
GS
[1 0 0 1 496.14999 75.72504] CT
0 0 1 RC
N
2.667 0 M
2.667 1.473 1.473 2.667 0 2.667 C
-1.473 2.667 -2.667 1.473 -2.667 0 C
-2.667 -1.473 -1.473 -2.667 0 -2.667 C
1.473 -2.667 2.667 -1.473 2.667 0 C
cp
f
GR
GS
[1 0 0 1 507 65.70941] CT
0 0 1 RC
N
2.667 0 M
2.667 1.473 1.473 2.667 0 2.667 C
-1.473 2.667 -2.667 1.473 -2.667 0 C
-2.667 -1.473 -1.473 -2.667 0 -2.667 C
1.473 -2.667 2.667 -1.473 2.667 0 C
cp
f
GR
GS
1 0 0 RC
1 LJ
N
73 171.492 M
73.434 171.517 L
73.868 171.542 L
74.302 171.567 L
74.736 171.592 L
75.17 171.616 L
75.604 171.64 L
76.038 171.664 L
76.472 171.688 L
76.906 171.711 L
77.34 171.735 L
77.774 171.758 L
78.208 171.78 L
78.642 171.803 L
79.076 171.825 L
79.51 171.847 L
79.944 171.869 L
80.378 171.891 L
80.812 171.912 L
81.246 171.933 L
81.68 171.954 L
82.114 171.974 L
82.548 171.995 L
82.982 172.015 L
83.416 172.035 L
83.85 172.054 L
84.284 172.074 L
84.718 172.093 L
85.152 172.112 L
85.586 172.131 L
86.02 172.149 L
86.454 172.167 L
86.888 172.185 L
87.322 172.203 L
87.756 172.22 L
88.19 172.238 L
88.624 172.255 L
89.058 172.272 L
89.492 172.288 L
89.926 172.304 L
90.36 172.32 L
90.794 172.336 L
91.228 172.352 L
91.662 172.367 L
92.096 172.382 L
92.53 172.397 L
92.964 172.412 L
93.398 172.426 L
93.832 172.44 L
94.266 172.454 L
94.7 172.468 L
95.134 172.482 L
95.568 172.495 L
96.002 172.508 L
96.436 172.52 L
96.87 172.533 L
97.304 172.545 L
97.738 172.557 L
98.172 172.569 L
98.606 172.581 L
99.04 172.592 L
99.474 172.603 L
99.908 172.614 L
100.342 172.624 L
100.776 172.635 L
101.21 172.645 L
101.644 172.655 L
102.078 172.664 L
102.512 172.674 L
102.946 172.683 L
103.38 172.692 L
103.814 172.7 L
104.248 172.709 L
104.682 172.717 L
105.116 172.725 L
105.55 172.733 L
105.984 172.74 L
106.418 172.748 L
106.852 172.755 L
107.286 172.761 L
107.72 172.768 L
108.154 172.774 L
108.588 172.78 L
109.022 172.786 L
109.456 172.792 L
109.89 172.797 L
110.324 172.802 L
110.758 172.807 L
111.192 172.812 L
111.626 172.816 L
112.06 172.82 L
112.494 172.824 L
112.928 172.828 L
113.362 172.831 L
113.796 172.834 L
114.23 172.837 L
114.664 172.84 L
115.098 172.842 L
115.532 172.845 L
115.966 172.847 L
116.4 172.849 L
116.834 172.85 L
117.268 172.851 L
117.702 172.852 L
118.136 172.853 L
118.57 172.854 L
119.004 172.854 L
119.438 172.854 L
119.872 172.854 L
120.306 172.854 L
120.74 172.853 L
121.174 172.852 L
121.608 172.851 L
122.042 172.85 L
122.476 172.848 L
122.91 172.846 L
123.344 172.844 L
123.778 172.842 L
124.212 172.84 L
124.646 172.837 L
125.08 172.834 L
125.514 172.831 L
125.948 172.827 L
126.382 172.823 L
126.816 172.819 L
127.25 172.815 L
127.684 172.811 L
128.118 172.806 L
128.552 172.801 L
128.986 172.796 L
129.42 172.791 L
129.854 172.785 L
130.288 172.779 L
130.722 172.773 L
131.156 172.767 L
131.59 172.76 L
132.024 172.753 L
132.458 172.746 L
132.892 172.739 L
133.326 172.732 L
133.76 172.724 L
134.194 172.716 L
134.628 172.708 L
135.062 172.699 L
135.496 172.69 L
135.93 172.681 L
136.364 172.672 L
136.798 172.663 L
137.232 172.653 L
137.666 172.643 L
138.1 172.633 L
138.534 172.623 L
138.968 172.612 L
139.402 172.601 L
139.836 172.59 L
140.27 172.579 L
140.704 172.567 L
141.138 172.555 L
141.572 172.543 L
142.006 172.531 L
142.44 172.518 L
142.874 172.506 L
143.308 172.493 L
143.742 172.479 L
144.176 172.466 L
144.61 172.452 L
145.044 172.438 L
145.478 172.424 L
145.912 172.41 L
146.346 172.395 L
146.78 172.38 L
147.214 172.365 L
147.648 172.349 L
148.082 172.334 L
148.516 172.318 L
148.95 172.302 L
149.384 172.285 L
149.818 172.269 L
150.252 172.252 L
150.686 172.235 L
151.12 172.218 L
151.554 172.2 L
151.988 172.182 L
152.422 172.164 L
152.856 172.146 L
153.29 172.128 L
153.724 172.109 L
154.158 172.09 L
154.592 172.071 L
155.026 172.051 L
155.46 172.032 L
155.894 172.012 L
156.328 171.991 L
156.762 171.971 L
157.196 171.95 L
157.63 171.93 L
158.064 171.908 L
158.498 171.887 L
158.932 171.866 L
159.366 171.844 L
159.8 171.822 L
160.234 171.799 L
160.668 171.777 L
161.102 171.754 L
161.536 171.731 L
161.97 171.708 L
162.404 171.684 L
162.838 171.66 L
163.272 171.636 L
163.706 171.612 L
164.14 171.588 L
164.574 171.563 L
165.008 171.538 L
165.442 171.513 L
165.876 171.488 L
166.31 171.462 L
166.744 171.436 L
167.178 171.41 L
167.612 171.384 L
168.046 171.357 L
168.48 171.33 L
168.914 171.303 L
169.348 171.276 L
169.782 171.248 L
170.216 171.22 L
170.65 171.192 L
171.084 171.164 L
171.518 171.136 L
171.952 171.107 L
172.386 171.078 L
172.82 171.049 L
173.254 171.019 L
173.688 170.99 L
174.122 170.96 L
174.556 170.929 L
174.99 170.899 L
175.424 170.868 L
175.858 170.837 L
176.292 170.806 L
176.726 170.775 L
177.16 170.743 L
177.594 170.712 L
178.028 170.679 L
178.462 170.647 L
178.896 170.615 L
179.33 170.582 L
179.764 170.549 L
180.198 170.515 L
180.632 170.482 L
181.066 170.448 L
181.5 170.414 L
181.934 170.38 L
182.368 170.346 L
182.802 170.311 L
183.236 170.276 L
183.67 170.241 L
184.104 170.205 L
184.538 170.17 L
184.972 170.134 L
185.406 170.098 L
185.84 170.061 L
186.274 170.025 L
186.708 169.988 L
187.142 169.951 L
187.576 169.913 L
188.01 169.876 L
188.444 169.838 L
188.878 169.8 L
189.312 169.762 L
189.746 169.723 L
190.18 169.684 L
190.614 169.645 L
191.048 169.606 L
191.482 169.567 L
191.916 169.527 L
192.35 169.487 L
192.784 169.447 L
193.218 169.406 L
193.652 169.366 L
194.086 169.325 L
194.52 169.284 L
194.954 169.242 L
195.388 169.201 L
195.822 169.159 L
196.256 169.117 L
196.69 169.075 L
197.124 169.032 L
197.558 168.989 L
197.992 168.946 L
198.426 168.903 L
198.86 168.859 L
199.294 168.816 L
199.728 168.772 L
200.162 168.727 L
200.596 168.683 L
201.03 168.638 L
201.464 168.593 L
201.898 168.548 L
202.332 168.503 L
202.766 168.457 L
203.2 168.411 L
203.634 168.365 L
204.068 168.318 L
204.502 168.272 L
204.936 168.225 L
205.37 168.178 L
205.804 168.131 L
206.238 168.083 L
206.672 168.035 L
207.106 167.987 L
207.54 167.939 L
207.974 167.89 L
208.408 167.841 L
208.842 167.792 L
209.276 167.743 L
209.71 167.694 L
210.144 167.644 L
210.578 167.594 L
211.012 167.544 L
211.446 167.493 L
211.88 167.443 L
212.314 167.392 L
212.748 167.341 L
213.182 167.289 L
213.616 167.238 L
214.05 167.186 L
214.484 167.134 L
214.918 167.081 L
215.352 167.029 L
215.786 166.976 L
216.22 166.923 L
216.654 166.87 L
217.088 166.816 L
217.522 166.762 L
217.956 166.708 L
218.39 166.654 L
218.824 166.6 L
219.258 166.545 L
219.692 166.49 L
220.126 166.435 L
220.56 166.379 L
220.994 166.324 L
221.428 166.268 L
221.862 166.211 L
222.296 166.155 L
222.73 166.098 L
223.164 166.042 L
223.598 165.984 L
224.032 165.927 L
224.466 165.87 L
224.9 165.812 L
225.334 165.754 L
225.768 165.695 L
226.202 165.637 L
226.636 165.578 L
227.07 165.519 L
227.504 165.46 L
227.938 165.4 L
228.372 165.341 L
228.806 165.281 L
229.24 165.22 L
229.674 165.16 L
230.108 165.099 L
230.542 165.038 L
230.976 164.977 L
231.41 164.916 L
231.844 164.854 L
232.278 164.792 L
232.712 164.73 L
233.146 164.668 L
233.58 164.605 L
234.014 164.542 L
234.448 164.479 L
234.882 164.416 L
235.316 164.352 L
235.75 164.289 L
236.184 164.225 L
236.618 164.16 L
237.052 164.096 L
237.486 164.031 L
237.92 163.966 L
238.354 163.901 L
238.788 163.835 L
239.222 163.77 L
239.656 163.704 L
240.09 163.638 L
240.524 163.571 L
240.958 163.505 L
241.392 163.438 L
241.826 163.371 L
242.26 163.303 L
242.694 163.236 L
243.128 163.168 L
243.562 163.1 L
243.996 163.031 L
244.43 162.963 L
244.864 162.894 L
245.298 162.825 L
245.732 162.756 L
246.166 162.686 L
246.6 162.617 L
247.034 162.547 L
247.468 162.476 L
247.902 162.406 L
248.336 162.335 L
248.77 162.264 L
249.204 162.193 L
249.638 162.122 L
250.072 162.05 L
250.506 161.978 L
250.94 161.906 L
251.374 161.834 L
251.808 161.761 L
252.242 161.688 L
252.676 161.615 L
253.11 161.542 L
253.544 161.468 L
253.978 161.394 L
254.412 161.32 L
254.846 161.246 L
255.28 161.172 L
255.714 161.097 L
256.148 161.022 L
256.582 160.947 L
257.016 160.871 L
257.45 160.795 L
257.884 160.72 L
258.318 160.643 L
258.752 160.567 L
259.186 160.49 L
259.62 160.413 L
260.054 160.336 L
260.488 160.259 L
260.922 160.181 L
261.356 160.103 L
261.79 160.025 L
262.224 159.947 L
262.658 159.868 L
263.092 159.79 L
263.526 159.711 L
263.96 159.631 L
264.394 159.552 L
264.828 159.472 L
265.262 159.392 L
265.696 159.312 L
266.13 159.231 L
266.564 159.151 L
266.998 159.07 L
267.432 158.988 L
267.866 158.907 L
268.3 158.825 L
268.734 158.744 L
269.168 158.661 L
269.602 158.579 L
270.036 158.496 L
270.47 158.414 L
270.904 158.33 L
271.338 158.247 L
271.772 158.164 L
272.206 158.08 L
272.64 157.996 L
273.074 157.911 L
273.508 157.827 L
273.942 157.742 L
274.376 157.657 L
274.81 157.572 L
275.244 157.486 L
275.678 157.401 L
276.112 157.315 L
276.546 157.229 L
276.98 157.142 L
277.414 157.055 L
277.848 156.969 L
278.282 156.881 L
278.716 156.794 L
279.15 156.706 L
279.584 156.619 L
280.018 156.53 L
280.452 156.442 L
280.886 156.354 L
281.32 156.265 L
281.754 156.176 L
282.188 156.086 L
282.622 155.997 L
283.056 155.907 L
283.49 155.817 L
283.924 155.727 L
284.358 155.636 L
284.792 155.546 L
285.226 155.455 L
285.66 155.363 L
286.094 155.272 L
286.528 155.18 L
286.962 155.088 L
287.396 154.996 L
287.83 154.904 L
288.264 154.811 L
288.698 154.718 L
289.132 154.625 L
289.566 154.532 L
290 154.438 L
290.434 154.345 L
290.868 154.25 L
291.302 154.156 L
291.736 154.062 L
292.17 153.967 L
292.604 153.872 L
293.038 153.777 L
293.472 153.681 L
293.906 153.585 L
294.34 153.489 L
294.774 153.393 L
295.208 153.297 L
295.642 153.2 L
296.076 153.103 L
296.51 153.006 L
296.944 152.909 L
297.378 152.811 L
297.812 152.713 L
298.246 152.615 L
298.68 152.517 L
299.114 152.418 L
299.548 152.319 L
299.982 152.22 L
300.416 152.121 L
300.85 152.021 L
301.284 151.922 L
301.718 151.822 L
302.152 151.721 L
302.586 151.621 L
303.02 151.52 L
303.454 151.419 L
303.888 151.318 L
304.322 151.216 L
304.756 151.115 L
305.19 151.013 L
305.624 150.911 L
306.058 150.808 L
306.492 150.706 L
306.926 150.603 L
307.36 150.5 L
307.794 150.396 L
308.228 150.293 L
308.662 150.189 L
309.096 150.085 L
309.53 149.98 L
309.964 149.876 L
310.398 149.771 L
310.832 149.666 L
311.266 149.561 L
311.7 149.455 L
312.134 149.35 L
312.568 149.244 L
313.002 149.137 L
313.436 149.031 L
313.87 148.924 L
314.304 148.817 L
314.738 148.71 L
315.172 148.603 L
315.606 148.495 L
316.04 148.387 L
316.474 148.279 L
316.908 148.171 L
317.342 148.062 L
317.776 147.953 L
318.21 147.844 L
318.644 147.735 L
319.078 147.625 L
319.512 147.516 L
319.946 147.406 L
320.38 147.295 L
320.814 147.185 L
321.248 147.074 L
321.682 146.963 L
322.116 146.852 L
322.55 146.74 L
322.984 146.629 L
323.418 146.517 L
323.852 146.405 L
324.286 146.292 L
324.72 146.18 L
325.154 146.067 L
325.588 145.953 L
326.022 145.84 L
326.456 145.727 L
326.89 145.613 L
327.324 145.499 L
327.758 145.384 L
328.192 145.27 L
328.626 145.155 L
329.06 145.04 L
329.494 144.925 L
329.928 144.809 L
330.362 144.693 L
330.796 144.577 L
331.23 144.461 L
331.664 144.345 L
332.098 144.228 L
332.532 144.111 L
332.966 143.994 L
333.4 143.876 L
333.834 143.759 L
334.268 143.641 L
334.702 143.523 L
335.136 143.404 L
335.57 143.286 L
336.004 143.167 L
336.438 143.048 L
336.872 142.928 L
337.306 142.809 L
337.74 142.689 L
338.174 142.569 L
338.608 142.449 L
339.042 142.328 L
339.476 142.208 L
339.91 142.087 L
340.344 141.965 L
340.778 141.844 L
341.212 141.722 L
341.646 141.6 L
342.08 141.478 L
342.514 141.356 L
342.948 141.233 L
343.382 141.11 L
343.816 140.987 L
344.25 140.863 L
344.684 140.74 L
345.118 140.616 L
345.552 140.492 L
345.986 140.368 L
346.42 140.243 L
346.854 140.118 L
347.288 139.993 L
347.722 139.868 L
348.156 139.742 L
348.59 139.617 L
349.024 139.491 L
349.458 139.364 L
349.892 139.238 L
350.326 139.111 L
350.76 138.984 L
351.194 138.857 L
351.628 138.73 L
352.062 138.602 L
352.496 138.474 L
352.93 138.346 L
353.364 138.217 L
353.798 138.089 L
354.232 137.96 L
354.666 137.831 L
355.1 137.702 L
355.534 137.572 L
355.968 137.442 L
356.402 137.312 L
356.836 137.182 L
357.27 137.051 L
357.704 136.921 L
358.138 136.79 L
358.572 136.658 L
359.006 136.527 L
359.44 136.395 L
359.874 136.263 L
360.308 136.131 L
360.742 135.998 L
361.176 135.866 L
361.61 135.733 L
362.044 135.6 L
362.478 135.466 L
362.912 135.333 L
363.346 135.199 L
363.78 135.065 L
364.214 134.93 L
364.648 134.796 L
365.082 134.661 L
365.516 134.526 L
365.95 134.391 L
366.384 134.255 L
366.818 134.119 L
367.252 133.983 L
367.686 133.847 L
368.12 133.711 L
368.554 133.574 L
368.988 133.437 L
369.422 133.3 L
369.856 133.162 L
370.29 133.025 L
370.724 132.887 L
371.158 132.748 L
371.592 132.61 L
372.026 132.471 L
372.46 132.333 L
372.894 132.193 L
373.328 132.054 L
373.762 131.915 L
374.196 131.775 L
374.63 131.635 L
375.064 131.494 L
375.498 131.354 L
375.932 131.213 L
376.366 131.072 L
376.8 130.931 L
377.234 130.789 L
377.668 130.648 L
378.102 130.506 L
378.536 130.363 L
378.97 130.221 L
379.404 130.078 L
379.838 129.935 L
380.272 129.792 L
380.706 129.649 L
381.14 129.505 L
381.574 129.361 L
382.008 129.217 L
382.442 129.073 L
382.876 128.928 L
383.31 128.783 L
383.744 128.638 L
384.178 128.493 L
384.612 128.347 L
385.046 128.202 L
385.48 128.056 L
385.914 127.909 L
386.348 127.763 L
386.782 127.616 L
387.216 127.469 L
387.65 127.322 L
388.084 127.174 L
388.518 127.027 L
388.952 126.879 L
389.386 126.731 L
389.82 126.582 L
390.254 126.434 L
390.688 126.285 L
391.122 126.136 L
391.556 125.986 L
391.99 125.837 L
392.424 125.687 L
392.858 125.537 L
393.292 125.386 L
393.726 125.236 L
394.16 125.085 L
394.594 124.934 L
395.028 124.783 L
395.462 124.631 L
395.896 124.479 L
396.33 124.327 L
396.764 124.175 L
397.198 124.023 L
397.632 123.87 L
398.066 123.717 L
398.5 123.564 L
398.934 123.411 L
399.368 123.257 L
399.802 123.103 L
400.236 122.949 L
400.67 122.795 L
401.104 122.64 L
401.538 122.485 L
401.972 122.33 L
402.406 122.175 L
402.84 122.019 L
403.274 121.863 L
403.708 121.707 L
404.142 121.551 L
404.576 121.395 L
405.01 121.238 L
405.444 121.081 L
405.878 120.924 L
406.312 120.766 L
406.746 120.608 L
407.18 120.45 L
407.614 120.292 L
408.048 120.134 L
408.482 119.975 L
408.916 119.816 L
409.35 119.657 L
409.784 119.498 L
410.218 119.338 L
410.652 119.178 L
411.086 119.018 L
411.52 118.858 L
411.954 118.697 L
412.388 118.537 L
412.822 118.375 L
413.256 118.214 L
413.69 118.053 L
414.124 117.891 L
414.558 117.729 L
414.992 117.567 L
415.426 117.404 L
415.86 117.242 L
416.294 117.079 L
416.728 116.915 L
417.162 116.752 L
417.596 116.588 L
418.03 116.424 L
418.464 116.26 L
418.898 116.096 L
419.332 115.931 L
419.766 115.766 L
420.2 115.601 L
420.634 115.436 L
421.068 115.27 L
421.502 115.105 L
421.936 114.939 L
422.37 114.772 L
422.804 114.606 L
423.238 114.439 L
423.672 114.272 L
424.106 114.105 L
424.54 113.937 L
424.974 113.77 L
425.408 113.602 L
425.842 113.433 L
426.276 113.265 L
426.71 113.096 L
427.144 112.927 L
427.578 112.758 L
428.012 112.589 L
428.446 112.419 L
428.88 112.249 L
429.314 112.079 L
429.748 111.909 L
430.182 111.738 L
430.616 111.568 L
431.05 111.396 L
431.484 111.225 L
431.918 111.054 L
432.352 110.882 L
432.786 110.71 L
433.22 110.538 L
433.654 110.365 L
434.088 110.192 L
434.522 110.019 L
434.956 109.846 L
435.39 109.673 L
435.824 109.499 L
436.258 109.325 L
436.692 109.151 L
437.126 108.977 L
437.56 108.802 L
437.994 108.627 L
438.428 108.452 L
438.862 108.277 L
439.296 108.101 L
439.73 107.925 L
440.164 107.749 L
440.598 107.573 L
441.032 107.396 L
441.466 107.22 L
441.9 107.043 L
442.334 106.865 L
442.768 106.688 L
443.202 106.51 L
443.636 106.332 L
444.07 106.154 L
444.504 105.976 L
444.938 105.797 L
445.372 105.618 L
445.806 105.439 L
446.24 105.259 L
446.674 105.08 L
447.108 104.9 L
447.542 104.72 L
447.976 104.539 L
448.41 104.359 L
448.844 104.178 L
449.278 103.997 L
449.712 103.816 L
450.146 103.634 L
450.58 103.452 L
451.014 103.27 L
451.448 103.088 L
451.882 102.906 L
452.316 102.723 L
452.75 102.54 L
453.184 102.357 L
453.618 102.173 L
454.052 101.99 L
454.486 101.806 L
454.92 101.621 L
455.354 101.437 L
455.788 101.252 L
456.222 101.068 L
456.656 100.882 L
457.09 100.697 L
457.524 100.511 L
457.958 100.326 L
458.392 100.14 L
458.826 99.953 L
459.26 99.767 L
459.694 99.58 L
460.128 99.393 L
460.562 99.206 L
460.996 99.018 L
461.43 98.83 L
461.864 98.642 L
462.298 98.454 L
462.732 98.266 L
463.166 98.077 L
463.6 97.888 L
464.034 97.699 L
464.468 97.51 L
464.902 97.32 L
465.336 97.13 L
465.77 96.94 L
466.204 96.749 L
466.638 96.559 L
467.072 96.368 L
467.506 96.177 L
467.94 95.986 L
468.374 95.794 L
468.808 95.602 L
469.242 95.41 L
469.676 95.218 L
470.11 95.026 L
470.544 94.833 L
470.978 94.64 L
471.412 94.447 L
471.846 94.253 L
472.28 94.059 L
472.714 93.865 L
473.148 93.671 L
473.582 93.477 L
474.016 93.282 L
474.45 93.087 L
474.884 92.892 L
475.318 92.697 L
475.752 92.501 L
476.186 92.305 L
476.62 92.109 L
477.054 91.913 L
477.488 91.716 L
477.922 91.52 L
478.356 91.323 L
478.79 91.125 L
479.224 90.928 L
479.658 90.73 L
480.092 90.532 L
480.526 90.334 L
480.96 90.135 L
481.394 89.937 L
481.828 89.738 L
482.262 89.539 L
482.696 89.339 L
483.13 89.139 L
483.564 88.94 L
483.998 88.739 L
484.432 88.539 L
484.866 88.338 L
485.3 88.138 L
485.734 87.937 L
486.168 87.735 L
486.602 87.534 L
487.036 87.332 L
487.47 87.13 L
487.904 86.927 L
488.338 86.725 L
488.772 86.522 L
489.206 86.319 L
489.64 86.116 L
490.074 85.913 L
490.508 85.709 L
490.942 85.505 L
491.376 85.301 L
491.81 85.096 L
492.244 84.892 L
492.678 84.687 L
493.112 84.482 L
493.546 84.276 L
493.98 84.071 L
494.414 83.865 L
494.848 83.659 L
495.282 83.452 L
495.716 83.246 L
496.15 83.039 L
496.584 82.832 L
497.018 82.625 L
497.452 82.417 L
497.886 82.209 L
498.32 82.001 L
498.754 81.793 L
499.188 81.585 L
499.622 81.376 L
500.056 81.167 L
500.49 80.958 L
500.924 80.748 L
501.358 80.539 L
501.792 80.329 L
502.226 80.118 L
502.66 79.908 L
503.094 79.697 L
503.528 79.487 L
503.962 79.276 L
504.396 79.064 L
504.83 78.853 L
505.264 78.641 L
505.698 78.429 L
506.132 78.216 L
506.566 78.004 L
507 77.791 L
S
GR
GS
1 GC
N
79 64 M
79 38 L
192 38 L
192 64 L
cp
f
GR
GS
[1 0 0 1 116 45.35849] CT
/Helvetica 9 F
GS
[1 0 0 1 0 0] CT
0 3.5 moveto 
1 -1 scale
(Error data) t 
GR
GR
GS
[1 0 0 1 98 45.35849] CT
0 0 1 RC
N
2.667 0 M
2.667 1.473 1.473 2.667 0 2.667 C
-1.473 2.667 -2.667 1.473 -2.667 0 C
-2.667 -1.473 -1.473 -2.667 0 -2.667 C
1.473 -2.667 2.667 -1.473 2.667 0 C
cp
f
GR
GS
[1 0 0 1 116 56.64151] CT
/Helvetica 9 F
GS
[1 0 0 1 0 0] CT
0 3.5 moveto 
1 -1 scale
(Polynomial model) t 
GR
GR
GS
1 0 0 RC
1 LJ
N
83 56.642 M
113 56.642 L
S
GR
GS
0.149 GC
10.0 ML
0.5 LW
N
79 64 M
79 38 L
192 38 L
192 64 L
cp
S
GR
GS
1 GC
N
73 374 M
507 374 L
507 231 L
73 231 L
cp
f
GR
GS
0.873 GC
1 LJ
0.5 LW
N
73 374 M
73 231 L
S
GR
GS
0.873 GC
1 LJ
0.5 LW
N
127.25 374 M
127.25 231 L
S
GR
GS
0.873 GC
1 LJ
0.5 LW
N
181.5 374 M
181.5 231 L
S
GR
GS
0.873 GC
1 LJ
0.5 LW
N
235.75 374 M
235.75 231 L
S
GR
GS
0.873 GC
1 LJ
0.5 LW
N
290 374 M
290 231 L
S
GR
GS
0.873 GC
1 LJ
0.5 LW
N
344.25 374 M
344.25 231 L
S
GR
GS
0.873 GC
1 LJ
0.5 LW
N
398.5 374 M
398.5 231 L
S
GR
GS
0.873 GC
1 LJ
0.5 LW
N
452.75 374 M
452.75 231 L
S
GR
GS
0.873 GC
1 LJ
0.5 LW
N
507 374 M
507 231 L
S
GR
GS
0.873 GC
1 LJ
0.5 LW
N
507 374 M
73 374 L
S
GR
GS
0.873 GC
1 LJ
0.5 LW
N
507 345.4 M
73 345.4 L
S
GR
GS
0.873 GC
1 LJ
0.5 LW
N
507 316.8 M
73 316.8 L
S
GR
GS
0.873 GC
1 LJ
0.5 LW
N
507 288.2 M
73 288.2 L
S
GR
GS
0.873 GC
1 LJ
0.5 LW
N
507 259.6 M
73 259.6 L
S
GR
GS
0.873 GC
1 LJ
0.5 LW
N
507 231 M
73 231 L
S
GR
GS
0.149 GC
2 setlinecap
1 LJ
0.5 LW
N
73 374 M
507 374 L
S
GR
GS
0.149 GC
2 setlinecap
1 LJ
0.5 LW
N
73 231 M
507 231 L
S
GR
GS
0.149 GC
2 setlinecap
1 LJ
0.5 LW
N
73 374 M
73 369.66 L
S
GR
GS
0.149 GC
2 setlinecap
1 LJ
0.5 LW
N
127.25 374 M
127.25 369.66 L
S
GR
GS
0.149 GC
2 setlinecap
1 LJ
0.5 LW
N
181.5 374 M
181.5 369.66 L
S
GR
GS
0.149 GC
2 setlinecap
1 LJ
0.5 LW
N
235.75 374 M
235.75 369.66 L
S
GR
GS
0.149 GC
2 setlinecap
1 LJ
0.5 LW
N
290 374 M
290 369.66 L
S
GR
GS
0.149 GC
2 setlinecap
1 LJ
0.5 LW
N
344.25 374 M
344.25 369.66 L
S
GR
GS
0.149 GC
2 setlinecap
1 LJ
0.5 LW
N
398.5 374 M
398.5 369.66 L
S
GR
GS
0.149 GC
2 setlinecap
1 LJ
0.5 LW
N
452.75 374 M
452.75 369.66 L
S
GR
GS
0.149 GC
2 setlinecap
1 LJ
0.5 LW
N
507 374 M
507 369.66 L
S
GR
GS
0.149 GC
2 setlinecap
1 LJ
0.5 LW
N
73 231 M
73 235.34 L
S
GR
GS
0.149 GC
2 setlinecap
1 LJ
0.5 LW
N
127.25 231 M
127.25 235.34 L
S
GR
GS
0.149 GC
2 setlinecap
1 LJ
0.5 LW
N
181.5 231 M
181.5 235.34 L
S
GR
GS
0.149 GC
2 setlinecap
1 LJ
0.5 LW
N
235.75 231 M
235.75 235.34 L
S
GR
GS
0.149 GC
2 setlinecap
1 LJ
0.5 LW
N
290 231 M
290 235.34 L
S
GR
GS
0.149 GC
2 setlinecap
1 LJ
0.5 LW
N
344.25 231 M
344.25 235.34 L
S
GR
GS
0.149 GC
2 setlinecap
1 LJ
0.5 LW
N
398.5 231 M
398.5 235.34 L
S
GR
GS
0.149 GC
2 setlinecap
1 LJ
0.5 LW
N
452.75 231 M
452.75 235.34 L
S
GR
GS
0.149 GC
2 setlinecap
1 LJ
0.5 LW
N
507 231 M
507 235.34 L
S
GR
GS
[1 0 0 1 73 378] CT
0.149 GC
/Helvetica 10 F
GS
[1 0 0 1 0 0] CT
-3 10 moveto 
1 -1 scale
(0) t 
GR
GR
GS
[1 0 0 1 127.25 378] CT
0.149 GC
/Helvetica 10 F
GS
[1 0 0 1 0 0] CT
-3 10 moveto 
1 -1 scale
(5) t 
GR
GR
GS
[1 0 0 1 181.5 378] CT
0.149 GC
/Helvetica 10 F
GS
[1 0 0 1 0 0] CT
-6 10 moveto 
1 -1 scale
(10) t 
GR
GR
GS
[1 0 0 1 235.75 378] CT
0.149 GC
/Helvetica 10 F
GS
[1 0 0 1 0 0] CT
-6 10 moveto 
1 -1 scale
(15) t 
GR
GR
GS
[1 0 0 1 290 378] CT
0.149 GC
/Helvetica 10 F
GS
[1 0 0 1 0 0] CT
-6 10 moveto 
1 -1 scale
(20) t 
GR
GR
GS
[1 0 0 1 344.25 378] CT
0.149 GC
/Helvetica 10 F
GS
[1 0 0 1 0 0] CT
-6 10 moveto 
1 -1 scale
(25) t 
GR
GR
GS
[1 0 0 1 398.5 378] CT
0.149 GC
/Helvetica 10 F
GS
[1 0 0 1 0 0] CT
-6 10 moveto 
1 -1 scale
(30) t 
GR
GR
GS
[1 0 0 1 452.75 378] CT
0.149 GC
/Helvetica 10 F
GS
[1 0 0 1 0 0] CT
-6 10 moveto 
1 -1 scale
(35) t 
GR
GR
GS
[1 0 0 1 507 378] CT
0.149 GC
/Helvetica 10 F
GS
[1 0 0 1 0 0] CT
-6 10 moveto 
1 -1 scale
(40) t 
GR
GR
GS
[1 0 0 1 290.00021 392] CT
0.149 GC
/Helvetica-Bold 12 F
GS
[1 0 0 1 0 0] CT
-82 12 moveto 
1 -1 scale
(Camera rotation \(in degrees\)) t 
GR
GR
GS
0.149 GC
2 setlinecap
1 LJ
0.5 LW
N
73 374 M
73 231 L
S
GR
GS
0.149 GC
2 setlinecap
1 LJ
0.5 LW
N
507 374 M
507 231 L
S
GR
GS
0.149 GC
2 setlinecap
1 LJ
0.5 LW
N
73 374 M
77.34 374 L
S
GR
GS
0.149 GC
2 setlinecap
1 LJ
0.5 LW
N
73 345.4 M
77.34 345.4 L
S
GR
GS
0.149 GC
2 setlinecap
1 LJ
0.5 LW
N
73 316.8 M
77.34 316.8 L
S
GR
GS
0.149 GC
2 setlinecap
1 LJ
0.5 LW
N
73 288.2 M
77.34 288.2 L
S
GR
GS
0.149 GC
2 setlinecap
1 LJ
0.5 LW
N
73 259.6 M
77.34 259.6 L
S
GR
GS
0.149 GC
2 setlinecap
1 LJ
0.5 LW
N
73 231 M
77.34 231 L
S
GR
GS
0.149 GC
2 setlinecap
1 LJ
0.5 LW
N
507 374 M
502.66 374 L
S
GR
GS
0.149 GC
2 setlinecap
1 LJ
0.5 LW
N
507 345.4 M
502.66 345.4 L
S
GR
GS
0.149 GC
2 setlinecap
1 LJ
0.5 LW
N
507 316.8 M
502.66 316.8 L
S
GR
GS
0.149 GC
2 setlinecap
1 LJ
0.5 LW
N
507 288.2 M
502.66 288.2 L
S
GR
GS
0.149 GC
2 setlinecap
1 LJ
0.5 LW
N
507 259.6 M
502.66 259.6 L
S
GR
GS
0.149 GC
2 setlinecap
1 LJ
0.5 LW
N
507 231 M
502.66 231 L
S
GR
GS
[1 0 0 1 69 374] CT
0.149 GC
/Helvetica 10 F
GS
[1 0 0 1 0 0] CT
-10 3.5 moveto 
1 -1 scale
(-1) t 
GR
GR
GS
[1 0 0 1 69 345.39999] CT
0.149 GC
/Helvetica 10 F
GS
[1 0 0 1 0 0] CT
-6 3.5 moveto 
1 -1 scale
(0) t 
GR
GR
GS
[1 0 0 1 69 316.79999] CT
0.149 GC
/Helvetica 10 F
GS
[1 0 0 1 0 0] CT
-6 3.5 moveto 
1 -1 scale
(1) t 
GR
GR
GS
[1 0 0 1 69 288.20001] CT
0.149 GC
/Helvetica 10 F
GS
[1 0 0 1 0 0] CT
-6 3.5 moveto 
1 -1 scale
(2) t 
GR
GR
GS
[1 0 0 1 69 259.60001] CT
0.149 GC
/Helvetica 10 F
GS
[1 0 0 1 0 0] CT
-6 3.5 moveto 
1 -1 scale
(3) t 
GR
GR
GS
[1 0 0 1 69 231] CT
0.149 GC
/Helvetica 10 F
GS
[1 0 0 1 0 0] CT
-6 3.5 moveto 
1 -1 scale
(4) t 
GR
GR
GS
[0 -1 1 0 56 302.49994] CT
0.149 GC
/Helvetica-Bold 12 F
GS
[1 0 0 1 0 0] CT
-55.5 -3 moveto 
1 -1 scale
(Width error \(in mm\)) t 
GR
GR
GS
[1 0 0 1 73 373.27182] CT
0 0 1 RC
N
2.667 0 M
2.667 1.473 1.473 2.667 0 2.667 C
-1.473 2.667 -2.667 1.473 -2.667 0 C
-2.667 -1.473 -1.473 -2.667 0 -2.667 C
1.473 -2.667 2.667 -1.473 2.667 0 C
cp
f
GR
GS
[1 0 0 1 83.85 365.08838] CT
0 0 1 RC
N
2.667 0 M
2.667 1.473 1.473 2.667 0 2.667 C
-1.473 2.667 -2.667 1.473 -2.667 0 C
-2.667 -1.473 -1.473 -2.667 0 -2.667 C
1.473 -2.667 2.667 -1.473 2.667 0 C
cp
f
GR
GS
[1 0 0 1 94.7 358.09293] CT
0 0 1 RC
N
2.667 0 M
2.667 1.473 1.473 2.667 0 2.667 C
-1.473 2.667 -2.667 1.473 -2.667 0 C
-2.667 -1.473 -1.473 -2.667 0 -2.667 C
1.473 -2.667 2.667 -1.473 2.667 0 C
cp
f
GR
GS
[1 0 0 1 105.55 352.18518] CT
0 0 1 RC
N
2.667 0 M
2.667 1.473 1.473 2.667 0 2.667 C
-1.473 2.667 -2.667 1.473 -2.667 0 C
-2.667 -1.473 -1.473 -2.667 0 -2.667 C
1.473 -2.667 2.667 -1.473 2.667 0 C
cp
f
GR
GS
[1 0 0 1 116.4 347.54382] CT
0 0 1 RC
N
2.667 0 M
2.667 1.473 1.473 2.667 0 2.667 C
-1.473 2.667 -2.667 1.473 -2.667 0 C
-2.667 -1.473 -1.473 -2.667 0 -2.667 C
1.473 -2.667 2.667 -1.473 2.667 0 C
cp
f
GR
GS
[1 0 0 1 127.25 341.27682] CT
0 0 1 RC
N
2.667 0 M
2.667 1.473 1.473 2.667 0 2.667 C
-1.473 2.667 -2.667 1.473 -2.667 0 C
-2.667 -1.473 -1.473 -2.667 0 -2.667 C
1.473 -2.667 2.667 -1.473 2.667 0 C
cp
f
GR
GS
[1 0 0 1 138.10001 339.07877] CT
0 0 1 RC
N
2.667 0 M
2.667 1.473 1.473 2.667 0 2.667 C
-1.473 2.667 -2.667 1.473 -2.667 0 C
-2.667 -1.473 -1.473 -2.667 0 -2.667 C
1.473 -2.667 2.667 -1.473 2.667 0 C
cp
f
GR
GS
[1 0 0 1 148.95 335.37045] CT
0 0 1 RC
N
2.667 0 M
2.667 1.473 1.473 2.667 0 2.667 C
-1.473 2.667 -2.667 1.473 -2.667 0 C
-2.667 -1.473 -1.473 -2.667 0 -2.667 C
1.473 -2.667 2.667 -1.473 2.667 0 C
cp
f
GR
GS
[1 0 0 1 159.8 334.02921] CT
0 0 1 RC
N
2.667 0 M
2.667 1.473 1.473 2.667 0 2.667 C
-1.473 2.667 -2.667 1.473 -2.667 0 C
-2.667 -1.473 -1.473 -2.667 0 -2.667 C
1.473 -2.667 2.667 -1.473 2.667 0 C
cp
f
GR
GS
[1 0 0 1 170.64999 331.28165] CT
0 0 1 RC
N
2.667 0 M
2.667 1.473 1.473 2.667 0 2.667 C
-1.473 2.667 -2.667 1.473 -2.667 0 C
-2.667 -1.473 -1.473 -2.667 0 -2.667 C
1.473 -2.667 2.667 -1.473 2.667 0 C
cp
f
GR
GS
[1 0 0 1 181.5 333.38419] CT
0 0 1 RC
N
2.667 0 M
2.667 1.473 1.473 2.667 0 2.667 C
-1.473 2.667 -2.667 1.473 -2.667 0 C
-2.667 -1.473 -1.473 -2.667 0 -2.667 C
1.473 -2.667 2.667 -1.473 2.667 0 C
cp
f
GR
GS
[1 0 0 1 192.35001 328.24063] CT
0 0 1 RC
N
2.667 0 M
2.667 1.473 1.473 2.667 0 2.667 C
-1.473 2.667 -2.667 1.473 -2.667 0 C
-2.667 -1.473 -1.473 -2.667 0 -2.667 C
1.473 -2.667 2.667 -1.473 2.667 0 C
cp
f
GR
GS
[1 0 0 1 203.2 332.75623] CT
0 0 1 RC
N
2.667 0 M
2.667 1.473 1.473 2.667 0 2.667 C
-1.473 2.667 -2.667 1.473 -2.667 0 C
-2.667 -1.473 -1.473 -2.667 0 -2.667 C
1.473 -2.667 2.667 -1.473 2.667 0 C
cp
f
GR
GS
[1 0 0 1 214.05 331.93661] CT
0 0 1 RC
N
2.667 0 M
2.667 1.473 1.473 2.667 0 2.667 C
-1.473 2.667 -2.667 1.473 -2.667 0 C
-2.667 -1.473 -1.473 -2.667 0 -2.667 C
1.473 -2.667 2.667 -1.473 2.667 0 C
cp
f
GR
GS
[1 0 0 1 224.89999 333.379] CT
0 0 1 RC
N
2.667 0 M
2.667 1.473 1.473 2.667 0 2.667 C
-1.473 2.667 -2.667 1.473 -2.667 0 C
-2.667 -1.473 -1.473 -2.667 0 -2.667 C
1.473 -2.667 2.667 -1.473 2.667 0 C
cp
f
GR
GS
[1 0 0 1 235.75 333.77542] CT
0 0 1 RC
N
2.667 0 M
2.667 1.473 1.473 2.667 0 2.667 C
-1.473 2.667 -2.667 1.473 -2.667 0 C
-2.667 -1.473 -1.473 -2.667 0 -2.667 C
1.473 -2.667 2.667 -1.473 2.667 0 C
cp
f
GR
GS
[1 0 0 1 246.60001 335.93604] CT
0 0 1 RC
N
2.667 0 M
2.667 1.473 1.473 2.667 0 2.667 C
-1.473 2.667 -2.667 1.473 -2.667 0 C
-2.667 -1.473 -1.473 -2.667 0 -2.667 C
1.473 -2.667 2.667 -1.473 2.667 0 C
cp
f
GR
GS
[1 0 0 1 257.45001 346.11902] CT
0 0 1 RC
N
2.667 0 M
2.667 1.473 1.473 2.667 0 2.667 C
-1.473 2.667 -2.667 1.473 -2.667 0 C
-2.667 -1.473 -1.473 -2.667 0 -2.667 C
1.473 -2.667 2.667 -1.473 2.667 0 C
cp
f
GR
GS
[1 0 0 1 268.29999 344.94061] CT
0 0 1 RC
N
2.667 0 M
2.667 1.473 1.473 2.667 0 2.667 C
-1.473 2.667 -2.667 1.473 -2.667 0 C
-2.667 -1.473 -1.473 -2.667 0 -2.667 C
1.473 -2.667 2.667 -1.473 2.667 0 C
cp
f
GR
GS
[1 0 0 1 279.14999 343.53796] CT
0 0 1 RC
N
2.667 0 M
2.667 1.473 1.473 2.667 0 2.667 C
-1.473 2.667 -2.667 1.473 -2.667 0 C
-2.667 -1.473 -1.473 -2.667 0 -2.667 C
1.473 -2.667 2.667 -1.473 2.667 0 C
cp
f
GR
GS
[1 0 0 1 290 342.54178] CT
0 0 1 RC
N
2.667 0 M
2.667 1.473 1.473 2.667 0 2.667 C
-1.473 2.667 -2.667 1.473 -2.667 0 C
-2.667 -1.473 -1.473 -2.667 0 -2.667 C
1.473 -2.667 2.667 -1.473 2.667 0 C
cp
f
GR
GS
[1 0 0 1 300.85001 352.50412] CT
0 0 1 RC
N
2.667 0 M
2.667 1.473 1.473 2.667 0 2.667 C
-1.473 2.667 -2.667 1.473 -2.667 0 C
-2.667 -1.473 -1.473 -2.667 0 -2.667 C
1.473 -2.667 2.667 -1.473 2.667 0 C
cp
f
GR
GS
[1 0 0 1 311.70001 353.91534] CT
0 0 1 RC
N
2.667 0 M
2.667 1.473 1.473 2.667 0 2.667 C
-1.473 2.667 -2.667 1.473 -2.667 0 C
-2.667 -1.473 -1.473 -2.667 0 -2.667 C
1.473 -2.667 2.667 -1.473 2.667 0 C
cp
f
GR
GS
[1 0 0 1 322.54999 352.42844] CT
0 0 1 RC
N
2.667 0 M
2.667 1.473 1.473 2.667 0 2.667 C
-1.473 2.667 -2.667 1.473 -2.667 0 C
-2.667 -1.473 -1.473 -2.667 0 -2.667 C
1.473 -2.667 2.667 -1.473 2.667 0 C
cp
f
GR
GS
[1 0 0 1 333.39999 358.6904] CT
0 0 1 RC
N
2.667 0 M
2.667 1.473 1.473 2.667 0 2.667 C
-1.473 2.667 -2.667 1.473 -2.667 0 C
-2.667 -1.473 -1.473 -2.667 0 -2.667 C
1.473 -2.667 2.667 -1.473 2.667 0 C
cp
f
GR
GS
[1 0 0 1 344.25 353.82651] CT
0 0 1 RC
N
2.667 0 M
2.667 1.473 1.473 2.667 0 2.667 C
-1.473 2.667 -2.667 1.473 -2.667 0 C
-2.667 -1.473 -1.473 -2.667 0 -2.667 C
1.473 -2.667 2.667 -1.473 2.667 0 C
cp
f
GR
GS
[1 0 0 1 355.10001 356.57449] CT
0 0 1 RC
N
2.667 0 M
2.667 1.473 1.473 2.667 0 2.667 C
-1.473 2.667 -2.667 1.473 -2.667 0 C
-2.667 -1.473 -1.473 -2.667 0 -2.667 C
1.473 -2.667 2.667 -1.473 2.667 0 C
cp
f
GR
GS
[1 0 0 1 365.95001 355.70279] CT
0 0 1 RC
N
2.667 0 M
2.667 1.473 1.473 2.667 0 2.667 C
-1.473 2.667 -2.667 1.473 -2.667 0 C
-2.667 -1.473 -1.473 -2.667 0 -2.667 C
1.473 -2.667 2.667 -1.473 2.667 0 C
cp
f
GR
GS
[1 0 0 1 376.79999 362.6105] CT
0 0 1 RC
N
2.667 0 M
2.667 1.473 1.473 2.667 0 2.667 C
-1.473 2.667 -2.667 1.473 -2.667 0 C
-2.667 -1.473 -1.473 -2.667 0 -2.667 C
1.473 -2.667 2.667 -1.473 2.667 0 C
cp
f
GR
GS
[1 0 0 1 387.64999 358.71964] CT
0 0 1 RC
N
2.667 0 M
2.667 1.473 1.473 2.667 0 2.667 C
-1.473 2.667 -2.667 1.473 -2.667 0 C
-2.667 -1.473 -1.473 -2.667 0 -2.667 C
1.473 -2.667 2.667 -1.473 2.667 0 C
cp
f
GR
GS
[1 0 0 1 398.5 364.98138] CT
0 0 1 RC
N
2.667 0 M
2.667 1.473 1.473 2.667 0 2.667 C
-1.473 2.667 -2.667 1.473 -2.667 0 C
-2.667 -1.473 -1.473 -2.667 0 -2.667 C
1.473 -2.667 2.667 -1.473 2.667 0 C
cp
f
GR
GS
[1 0 0 1 409.35001 371.26318] CT
0 0 1 RC
N
2.667 0 M
2.667 1.473 1.473 2.667 0 2.667 C
-1.473 2.667 -2.667 1.473 -2.667 0 C
-2.667 -1.473 -1.473 -2.667 0 -2.667 C
1.473 -2.667 2.667 -1.473 2.667 0 C
cp
f
GR
GS
[1 0 0 1 420.20001 340.48779] CT
0 0 1 RC
N
2.667 0 M
2.667 1.473 1.473 2.667 0 2.667 C
-1.473 2.667 -2.667 1.473 -2.667 0 C
-2.667 -1.473 -1.473 -2.667 0 -2.667 C
1.473 -2.667 2.667 -1.473 2.667 0 C
cp
f
GR
GS
[1 0 0 1 431.04999 342.57391] CT
0 0 1 RC
N
2.667 0 M
2.667 1.473 1.473 2.667 0 2.667 C
-1.473 2.667 -2.667 1.473 -2.667 0 C
-2.667 -1.473 -1.473 -2.667 0 -2.667 C
1.473 -2.667 2.667 -1.473 2.667 0 C
cp
f
GR
GS
[1 0 0 1 441.89999 346.68185] CT
0 0 1 RC
N
2.667 0 M
2.667 1.473 1.473 2.667 0 2.667 C
-1.473 2.667 -2.667 1.473 -2.667 0 C
-2.667 -1.473 -1.473 -2.667 0 -2.667 C
1.473 -2.667 2.667 -1.473 2.667 0 C
cp
f
GR
GS
[1 0 0 1 452.75 353.46558] CT
0 0 1 RC
N
2.667 0 M
2.667 1.473 1.473 2.667 0 2.667 C
-1.473 2.667 -2.667 1.473 -2.667 0 C
-2.667 -1.473 -1.473 -2.667 0 -2.667 C
1.473 -2.667 2.667 -1.473 2.667 0 C
cp
f
GR
GS
[1 0 0 1 463.60001 328.81329] CT
0 0 1 RC
N
2.667 0 M
2.667 1.473 1.473 2.667 0 2.667 C
-1.473 2.667 -2.667 1.473 -2.667 0 C
-2.667 -1.473 -1.473 -2.667 0 -2.667 C
1.473 -2.667 2.667 -1.473 2.667 0 C
cp
f
GR
GS
[1 0 0 1 474.45001 333.71188] CT
0 0 1 RC
N
2.667 0 M
2.667 1.473 1.473 2.667 0 2.667 C
-1.473 2.667 -2.667 1.473 -2.667 0 C
-2.667 -1.473 -1.473 -2.667 0 -2.667 C
1.473 -2.667 2.667 -1.473 2.667 0 C
cp
f
GR
GS
[1 0 0 1 485.29999 315.21793] CT
0 0 1 RC
N
2.667 0 M
2.667 1.473 1.473 2.667 0 2.667 C
-1.473 2.667 -2.667 1.473 -2.667 0 C
-2.667 -1.473 -1.473 -2.667 0 -2.667 C
1.473 -2.667 2.667 -1.473 2.667 0 C
cp
f
GR
GS
[1 0 0 1 496.14999 287.29568] CT
0 0 1 RC
N
2.667 0 M
2.667 1.473 1.473 2.667 0 2.667 C
-1.473 2.667 -2.667 1.473 -2.667 0 C
-2.667 -1.473 -1.473 -2.667 0 -2.667 C
1.473 -2.667 2.667 -1.473 2.667 0 C
cp
f
GR
GS
[1 0 0 1 507 249.41734] CT
0 0 1 RC
N
2.667 0 M
2.667 1.473 1.473 2.667 0 2.667 C
-1.473 2.667 -2.667 1.473 -2.667 0 C
-2.667 -1.473 -1.473 -2.667 0 -2.667 C
1.473 -2.667 2.667 -1.473 2.667 0 C
cp
f
GR
GS
1 0 0 RC
1 LJ
N
73 345.4 M
73.434 345.4 L
73.868 345.4 L
74.302 345.4 L
74.736 345.4 L
75.17 345.4 L
75.604 345.4 L
76.038 345.4 L
76.472 345.4 L
76.906 345.4 L
77.34 345.4 L
77.774 345.4 L
78.208 345.4 L
78.642 345.4 L
79.076 345.4 L
79.51 345.4 L
79.944 345.4 L
80.378 345.4 L
80.812 345.4 L
81.246 345.4 L
81.68 345.4 L
82.114 345.4 L
82.548 345.4 L
82.982 345.4 L
83.416 345.4 L
83.85 345.4 L
84.284 345.4 L
84.718 345.4 L
85.152 345.4 L
85.586 345.4 L
86.02 345.4 L
86.454 345.4 L
86.888 345.4 L
87.322 345.4 L
87.756 345.4 L
88.19 345.4 L
88.624 345.4 L
89.058 345.4 L
89.492 345.4 L
89.926 345.4 L
90.36 345.4 L
90.794 345.4 L
91.228 345.4 L
91.662 345.4 L
92.096 345.4 L
92.53 345.4 L
92.964 345.4 L
93.398 345.4 L
93.832 345.4 L
94.266 345.4 L
94.7 345.4 L
95.134 345.4 L
95.568 345.4 L
96.002 345.4 L
96.436 345.4 L
96.87 345.4 L
97.304 345.4 L
97.738 345.4 L
98.172 345.4 L
98.606 345.4 L
99.04 345.4 L
99.474 345.4 L
99.908 345.4 L
100.342 345.4 L
100.776 345.4 L
101.21 345.4 L
101.644 345.4 L
102.078 345.4 L
102.512 345.4 L
102.946 345.4 L
103.38 345.4 L
103.814 345.4 L
104.248 345.4 L
104.682 345.4 L
105.116 345.4 L
105.55 345.4 L
105.984 345.4 L
106.418 345.4 L
106.852 345.4 L
107.286 345.4 L
107.72 345.4 L
108.154 345.4 L
108.588 345.4 L
109.022 345.4 L
109.456 345.4 L
109.89 345.4 L
110.324 345.4 L
110.758 345.4 L
111.192 345.4 L
111.626 345.4 L
112.06 345.4 L
112.494 345.4 L
112.928 345.4 L
113.362 345.4 L
113.796 345.4 L
114.23 345.4 L
114.664 345.4 L
115.098 345.4 L
115.532 345.4 L
115.966 345.4 L
116.4 345.4 L
116.834 345.4 L
117.268 345.4 L
117.702 345.4 L
118.136 345.4 L
118.57 345.4 L
119.004 345.4 L
119.438 345.4 L
119.872 345.4 L
120.306 345.4 L
120.74 345.4 L
121.174 345.4 L
121.608 345.4 L
122.042 345.4 L
122.476 345.4 L
122.91 345.4 L
123.344 345.4 L
123.778 345.4 L
124.212 345.4 L
124.646 345.4 L
125.08 345.4 L
125.514 345.4 L
125.948 345.4 L
126.382 345.4 L
126.816 345.4 L
127.25 345.4 L
127.684 345.4 L
128.118 345.4 L
128.552 345.4 L
128.986 345.4 L
129.42 345.4 L
129.854 345.4 L
130.288 345.4 L
130.722 345.4 L
131.156 345.4 L
131.59 345.4 L
132.024 345.4 L
132.458 345.4 L
132.892 345.4 L
133.326 345.4 L
133.76 345.4 L
134.194 345.4 L
134.628 345.4 L
135.062 345.4 L
135.496 345.4 L
135.93 345.4 L
136.364 345.4 L
136.798 345.4 L
137.232 345.4 L
137.666 345.4 L
138.1 345.4 L
138.534 345.4 L
138.968 345.4 L
139.402 345.4 L
139.836 345.4 L
140.27 345.4 L
140.704 345.4 L
141.138 345.4 L
141.572 345.4 L
142.006 345.4 L
142.44 345.4 L
142.874 345.4 L
143.308 345.4 L
143.742 345.4 L
144.176 345.4 L
144.61 345.4 L
145.044 345.4 L
145.478 345.4 L
145.912 345.4 L
146.346 345.4 L
146.78 345.4 L
147.214 345.4 L
147.648 345.4 L
148.082 345.4 L
148.516 345.4 L
148.95 345.4 L
149.384 345.4 L
149.818 345.4 L
150.252 345.4 L
150.686 345.4 L
151.12 345.4 L
151.554 345.4 L
151.988 345.4 L
152.422 345.4 L
152.856 345.4 L
153.29 345.4 L
153.724 345.4 L
154.158 345.4 L
154.592 345.4 L
155.026 345.4 L
155.46 345.4 L
155.894 345.4 L
156.328 345.4 L
156.762 345.4 L
157.196 345.4 L
157.63 345.4 L
158.064 345.4 L
158.498 345.4 L
158.932 345.4 L
159.366 345.4 L
159.8 345.4 L
160.234 345.4 L
160.668 345.4 L
161.102 345.4 L
161.536 345.4 L
161.97 345.4 L
162.404 345.4 L
162.838 345.4 L
163.272 345.4 L
163.706 345.4 L
164.14 345.4 L
164.574 345.4 L
165.008 345.4 L
165.442 345.4 L
165.876 345.4 L
166.31 345.4 L
166.744 345.4 L
167.178 345.4 L
167.612 345.4 L
168.046 345.4 L
168.48 345.4 L
168.914 345.4 L
169.348 345.4 L
169.782 345.4 L
170.216 345.4 L
170.65 345.4 L
171.084 345.4 L
171.518 345.4 L
171.952 345.4 L
172.386 345.4 L
172.82 345.4 L
173.254 345.4 L
173.688 345.4 L
174.122 345.4 L
174.556 345.4 L
174.99 345.4 L
175.424 345.4 L
175.858 345.4 L
176.292 345.4 L
176.726 345.4 L
177.16 345.4 L
177.594 345.4 L
178.028 345.4 L
178.462 345.4 L
178.896 345.4 L
179.33 345.4 L
179.764 345.4 L
180.198 345.4 L
180.632 345.4 L
181.066 345.4 L
181.5 345.4 L
181.934 345.4 L
182.368 345.4 L
182.802 345.4 L
183.236 345.4 L
183.67 345.4 L
184.104 345.4 L
184.538 345.4 L
184.972 345.4 L
185.406 345.4 L
185.84 345.4 L
186.274 345.4 L
186.708 345.4 L
187.142 345.4 L
187.576 345.4 L
188.01 345.4 L
188.444 345.4 L
188.878 345.4 L
189.312 345.4 L
189.746 345.4 L
190.18 345.4 L
190.614 345.4 L
191.048 345.4 L
191.482 345.4 L
191.916 345.4 L
192.35 345.4 L
192.784 345.4 L
193.218 345.4 L
193.652 345.4 L
194.086 345.4 L
194.52 345.4 L
194.954 345.4 L
195.388 345.4 L
195.822 345.4 L
196.256 345.4 L
196.69 345.4 L
197.124 345.4 L
197.558 345.4 L
197.992 345.4 L
198.426 345.4 L
198.86 345.4 L
199.294 345.4 L
199.728 345.4 L
200.162 345.4 L
200.596 345.4 L
201.03 345.4 L
201.464 345.4 L
201.898 345.4 L
202.332 345.4 L
202.766 345.4 L
203.2 345.4 L
203.634 345.4 L
204.068 345.4 L
204.502 345.4 L
204.936 345.4 L
205.37 345.4 L
205.804 345.4 L
206.238 345.4 L
206.672 345.4 L
207.106 345.4 L
207.54 345.4 L
207.974 345.4 L
208.408 345.4 L
208.842 345.4 L
209.276 345.4 L
209.71 345.4 L
210.144 345.4 L
210.578 345.4 L
211.012 345.4 L
211.446 345.4 L
211.88 345.4 L
212.314 345.4 L
212.748 345.4 L
213.182 345.4 L
213.616 345.4 L
214.05 345.4 L
214.484 345.4 L
214.918 345.4 L
215.352 345.4 L
215.786 345.4 L
216.22 345.4 L
216.654 345.4 L
217.088 345.4 L
217.522 345.4 L
217.956 345.4 L
218.39 345.4 L
218.824 345.4 L
219.258 345.4 L
219.692 345.4 L
220.126 345.4 L
220.56 345.4 L
220.994 345.4 L
221.428 345.4 L
221.862 345.4 L
222.296 345.4 L
222.73 345.4 L
223.164 345.4 L
223.598 345.4 L
224.032 345.4 L
224.466 345.4 L
224.9 345.4 L
225.334 345.4 L
225.768 345.4 L
226.202 345.4 L
226.636 345.4 L
227.07 345.4 L
227.504 345.4 L
227.938 345.4 L
228.372 345.4 L
228.806 345.4 L
229.24 345.4 L
229.674 345.4 L
230.108 345.4 L
230.542 345.4 L
230.976 345.4 L
231.41 345.4 L
231.844 345.4 L
232.278 345.4 L
232.712 345.4 L
233.146 345.4 L
233.58 345.4 L
234.014 345.4 L
234.448 345.4 L
234.882 345.4 L
235.316 345.4 L
235.75 345.4 L
236.184 345.4 L
236.618 345.4 L
237.052 345.4 L
237.486 345.4 L
237.92 345.4 L
238.354 345.4 L
238.788 345.4 L
239.222 345.4 L
239.656 345.4 L
240.09 345.4 L
240.524 345.4 L
240.958 345.4 L
241.392 345.4 L
241.826 345.4 L
242.26 345.4 L
242.694 345.4 L
243.128 345.4 L
243.562 345.4 L
243.996 345.4 L
244.43 345.4 L
244.864 345.4 L
245.298 345.4 L
245.732 345.4 L
246.166 345.4 L
246.6 345.4 L
247.034 345.4 L
247.468 345.4 L
247.902 345.4 L
248.336 345.4 L
248.77 345.4 L
249.204 345.4 L
249.638 345.4 L
250.072 345.4 L
250.506 345.4 L
250.94 345.4 L
251.374 345.4 L
251.808 345.4 L
252.242 345.4 L
252.676 345.4 L
253.11 345.4 L
253.544 345.4 L
253.978 345.4 L
254.412 345.4 L
254.846 345.4 L
255.28 345.4 L
255.714 345.4 L
256.148 345.4 L
256.582 345.4 L
257.016 345.4 L
257.45 345.4 L
257.884 345.4 L
258.318 345.4 L
258.752 345.4 L
259.186 345.4 L
259.62 345.4 L
260.054 345.4 L
260.488 345.4 L
260.922 345.4 L
261.356 345.4 L
261.79 345.4 L
262.224 345.4 L
262.658 345.4 L
263.092 345.4 L
263.526 345.4 L
263.96 345.4 L
264.394 345.4 L
264.828 345.4 L
265.262 345.4 L
265.696 345.4 L
266.13 345.4 L
266.564 345.4 L
266.998 345.4 L
267.432 345.4 L
267.866 345.4 L
268.3 345.4 L
268.734 345.4 L
269.168 345.4 L
269.602 345.4 L
270.036 345.4 L
270.47 345.4 L
270.904 345.4 L
271.338 345.4 L
271.772 345.4 L
272.206 345.4 L
272.64 345.4 L
273.074 345.4 L
273.508 345.4 L
273.942 345.4 L
274.376 345.4 L
274.81 345.4 L
275.244 345.4 L
275.678 345.4 L
276.112 345.4 L
276.546 345.4 L
276.98 345.4 L
277.414 345.4 L
277.848 345.4 L
278.282 345.4 L
278.716 345.4 L
279.15 345.4 L
279.584 345.4 L
280.018 345.4 L
280.452 345.4 L
280.886 345.4 L
281.32 345.4 L
281.754 345.4 L
282.188 345.4 L
282.622 345.4 L
283.056 345.4 L
283.49 345.4 L
283.924 345.4 L
284.358 345.4 L
284.792 345.4 L
285.226 345.4 L
285.66 345.4 L
286.094 345.4 L
286.528 345.4 L
286.962 345.4 L
287.396 345.4 L
287.83 345.4 L
288.264 345.4 L
288.698 345.4 L
289.132 345.4 L
289.566 345.4 L
290 345.4 L
290.434 345.4 L
290.868 345.4 L
291.302 345.4 L
291.736 345.4 L
292.17 345.4 L
292.604 345.4 L
293.038 345.4 L
293.472 345.4 L
293.906 345.4 L
294.34 345.4 L
294.774 345.4 L
295.208 345.4 L
295.642 345.4 L
296.076 345.4 L
296.51 345.4 L
296.944 345.4 L
297.378 345.4 L
297.812 345.4 L
298.246 345.4 L
298.68 345.4 L
299.114 345.4 L
299.548 345.4 L
299.982 345.4 L
300.416 345.4 L
300.85 345.4 L
301.284 345.4 L
301.718 345.4 L
302.152 345.4 L
302.586 345.4 L
303.02 345.4 L
303.454 345.4 L
303.888 345.4 L
304.322 345.4 L
304.756 345.4 L
305.19 345.4 L
305.624 345.4 L
306.058 345.4 L
306.492 345.4 L
306.926 345.4 L
307.36 345.4 L
307.794 345.4 L
308.228 345.4 L
308.662 345.4 L
309.096 345.4 L
309.53 345.4 L
309.964 345.4 L
310.398 345.4 L
310.832 345.4 L
311.266 345.4 L
311.7 345.4 L
312.134 345.4 L
312.568 345.4 L
313.002 345.4 L
313.436 345.4 L
313.87 345.4 L
314.304 345.4 L
314.738 345.4 L
315.172 345.4 L
315.606 345.4 L
316.04 345.4 L
316.474 345.4 L
316.908 345.4 L
317.342 345.4 L
317.776 345.4 L
318.21 345.4 L
318.644 345.4 L
319.078 345.4 L
319.512 345.4 L
319.946 345.4 L
320.38 345.4 L
320.814 345.4 L
321.248 345.4 L
321.682 345.4 L
322.116 345.4 L
322.55 345.4 L
322.984 345.4 L
323.418 345.4 L
323.852 345.4 L
324.286 345.4 L
324.72 345.4 L
325.154 345.4 L
325.588 345.4 L
326.022 345.4 L
326.456 345.4 L
326.89 345.4 L
327.324 345.4 L
327.758 345.4 L
328.192 345.4 L
328.626 345.4 L
329.06 345.4 L
329.494 345.4 L
329.928 345.4 L
330.362 345.4 L
330.796 345.4 L
331.23 345.4 L
331.664 345.4 L
332.098 345.4 L
332.532 345.4 L
332.966 345.4 L
333.4 345.4 L
333.834 345.4 L
334.268 345.4 L
334.702 345.4 L
335.136 345.4 L
335.57 345.4 L
336.004 345.4 L
336.438 345.4 L
336.872 345.4 L
337.306 345.4 L
337.74 345.4 L
338.174 345.4 L
338.608 345.4 L
339.042 345.4 L
339.476 345.4 L
339.91 345.4 L
340.344 345.4 L
340.778 345.4 L
341.212 345.4 L
341.646 345.4 L
342.08 345.4 L
342.514 345.4 L
342.948 345.4 L
343.382 345.4 L
343.816 345.4 L
344.25 345.4 L
344.684 345.4 L
345.118 345.4 L
345.552 345.4 L
345.986 345.4 L
346.42 345.4 L
346.854 345.4 L
347.288 345.4 L
347.722 345.4 L
348.156 345.4 L
348.59 345.4 L
349.024 345.4 L
349.458 345.4 L
349.892 345.4 L
350.326 345.4 L
350.76 345.4 L
351.194 345.4 L
351.628 345.4 L
352.062 345.4 L
352.496 345.4 L
352.93 345.4 L
353.364 345.4 L
353.798 345.4 L
354.232 345.4 L
354.666 345.4 L
355.1 345.4 L
355.534 345.4 L
355.968 345.4 L
356.402 345.4 L
356.836 345.4 L
357.27 345.4 L
357.704 345.4 L
358.138 345.4 L
358.572 345.4 L
359.006 345.4 L
359.44 345.4 L
359.874 345.4 L
360.308 345.4 L
360.742 345.4 L
361.176 345.4 L
361.61 345.4 L
362.044 345.4 L
362.478 345.4 L
362.912 345.4 L
363.346 345.4 L
363.78 345.4 L
364.214 345.4 L
364.648 345.4 L
365.082 345.4 L
365.516 345.4 L
365.95 345.4 L
366.384 345.4 L
366.818 345.4 L
367.252 345.4 L
367.686 345.4 L
368.12 345.4 L
368.554 345.4 L
368.988 345.4 L
369.422 345.4 L
369.856 345.4 L
370.29 345.4 L
370.724 345.4 L
371.158 345.4 L
371.592 345.4 L
372.026 345.4 L
372.46 345.4 L
372.894 345.4 L
373.328 345.4 L
373.762 345.4 L
374.196 345.4 L
374.63 345.4 L
375.064 345.4 L
375.498 345.4 L
375.932 345.4 L
376.366 345.4 L
376.8 345.4 L
377.234 345.4 L
377.668 345.4 L
378.102 345.4 L
378.536 345.4 L
378.97 345.4 L
379.404 345.4 L
379.838 345.4 L
380.272 345.4 L
380.706 345.4 L
381.14 345.4 L
381.574 345.4 L
382.008 345.4 L
382.442 345.4 L
382.876 345.4 L
383.31 345.4 L
383.744 345.4 L
384.178 345.4 L
384.612 345.4 L
385.046 345.4 L
385.48 345.4 L
385.914 345.4 L
386.348 345.4 L
386.782 345.4 L
387.216 345.4 L
387.65 345.4 L
388.084 345.4 L
388.518 345.4 L
388.952 345.4 L
389.386 345.4 L
389.82 345.4 L
390.254 345.4 L
390.688 345.4 L
391.122 345.4 L
391.556 345.4 L
391.99 345.4 L
392.424 345.4 L
392.858 345.4 L
393.292 345.4 L
393.726 345.4 L
394.16 345.4 L
394.594 345.4 L
395.028 345.4 L
395.462 345.4 L
395.896 345.4 L
396.33 345.4 L
396.764 345.4 L
397.198 345.4 L
397.632 345.4 L
398.066 345.4 L
398.5 345.4 L
398.934 345.4 L
399.368 345.4 L
399.802 345.4 L
400.236 345.4 L
400.67 345.4 L
401.104 345.4 L
401.538 345.4 L
401.972 345.4 L
402.406 345.4 L
402.84 345.4 L
403.274 345.4 L
403.708 345.4 L
404.142 345.4 L
404.576 345.4 L
405.01 345.4 L
405.444 345.4 L
405.878 345.4 L
406.312 345.4 L
406.746 345.4 L
407.18 345.4 L
407.614 345.4 L
408.048 345.4 L
408.482 345.4 L
408.916 345.4 L
409.35 345.4 L
409.784 345.4 L
410.218 345.4 L
410.652 345.4 L
411.086 345.4 L
411.52 345.4 L
411.954 345.4 L
412.388 345.4 L
412.822 345.4 L
413.256 345.4 L
413.69 345.4 L
414.124 345.4 L
414.558 345.4 L
414.992 345.4 L
415.426 345.4 L
415.86 345.4 L
416.294 345.4 L
416.728 345.4 L
417.162 345.4 L
417.596 345.4 L
418.03 345.4 L
418.464 345.4 L
418.898 345.4 L
419.332 345.4 L
419.766 345.4 L
420.2 345.4 L
420.634 345.4 L
421.068 345.4 L
421.502 345.4 L
421.936 345.4 L
422.37 345.4 L
422.804 345.4 L
423.238 345.4 L
423.672 345.4 L
424.106 345.4 L
424.54 345.4 L
424.974 345.4 L
425.408 345.4 L
425.842 345.4 L
426.276 345.4 L
426.71 345.4 L
427.144 345.4 L
427.578 345.4 L
428.012 345.4 L
428.446 345.4 L
428.88 345.4 L
429.314 345.4 L
429.748 345.4 L
430.182 345.4 L
430.616 345.4 L
431.05 345.4 L
431.484 345.4 L
431.918 345.4 L
432.352 345.4 L
432.786 345.4 L
433.22 345.4 L
433.654 345.4 L
434.088 345.4 L
434.522 345.4 L
434.956 345.4 L
435.39 345.4 L
435.824 345.4 L
436.258 345.4 L
436.692 345.4 L
437.126 345.4 L
437.56 345.4 L
437.994 345.4 L
438.428 345.4 L
438.862 345.4 L
439.296 345.4 L
439.73 345.4 L
440.164 345.4 L
440.598 345.4 L
441.032 345.4 L
441.466 345.4 L
441.9 345.4 L
442.334 345.4 L
442.768 345.4 L
443.202 345.4 L
443.636 345.4 L
444.07 345.4 L
444.504 345.4 L
444.938 345.4 L
445.372 345.4 L
445.806 345.4 L
446.24 345.4 L
446.674 345.4 L
447.108 345.4 L
447.542 345.4 L
447.976 345.4 L
448.41 345.4 L
448.844 345.4 L
449.278 345.4 L
449.712 345.4 L
450.146 345.4 L
450.58 345.4 L
451.014 345.4 L
451.448 345.4 L
451.882 345.4 L
452.316 345.4 L
452.75 345.4 L
453.184 345.4 L
453.618 345.4 L
454.052 345.4 L
454.486 345.4 L
454.92 345.4 L
455.354 345.4 L
455.788 345.4 L
456.222 345.4 L
456.656 345.4 L
457.09 345.4 L
457.524 345.4 L
457.958 345.4 L
458.392 345.4 L
458.826 345.4 L
459.26 345.4 L
459.694 345.4 L
460.128 345.4 L
460.562 345.4 L
460.996 345.4 L
461.43 345.4 L
461.864 345.4 L
462.298 345.4 L
462.732 345.4 L
463.166 345.4 L
463.6 345.4 L
464.034 345.4 L
464.468 345.4 L
464.902 345.4 L
465.336 345.4 L
465.77 345.4 L
466.204 345.4 L
466.638 345.4 L
467.072 345.4 L
467.506 345.4 L
467.94 345.4 L
468.374 345.4 L
468.808 345.4 L
469.242 345.4 L
469.676 345.4 L
470.11 345.4 L
470.544 345.4 L
470.978 345.4 L
471.412 345.4 L
471.846 345.4 L
472.28 345.4 L
472.714 345.4 L
473.148 345.4 L
473.582 345.4 L
474.016 345.4 L
474.45 345.4 L
474.884 345.4 L
475.318 345.4 L
475.752 345.4 L
476.186 345.4 L
476.62 345.4 L
477.054 345.4 L
477.488 345.4 L
477.922 345.4 L
478.356 345.4 L
478.79 345.4 L
479.224 345.4 L
479.658 345.4 L
480.092 345.4 L
480.526 345.4 L
480.96 345.4 L
481.394 345.4 L
481.828 345.4 L
482.262 345.4 L
482.696 345.4 L
483.13 345.4 L
483.564 345.4 L
483.998 345.4 L
484.432 345.4 L
484.866 345.4 L
485.3 345.4 L
485.734 345.4 L
486.168 345.4 L
486.602 345.4 L
487.036 345.4 L
487.47 345.4 L
487.904 345.4 L
488.338 345.4 L
488.772 345.4 L
489.206 345.4 L
489.64 345.4 L
490.074 345.4 L
490.508 345.4 L
490.942 345.4 L
491.376 345.4 L
491.81 345.4 L
492.244 345.4 L
492.678 345.4 L
493.112 345.4 L
493.546 345.4 L
493.98 345.4 L
494.414 345.4 L
494.848 345.4 L
495.282 345.4 L
495.716 345.4 L
496.15 345.4 L
496.584 345.4 L
497.018 345.4 L
497.452 345.4 L
497.886 345.4 L
498.32 345.4 L
498.754 345.4 L
499.188 345.4 L
499.622 345.4 L
500.056 345.4 L
500.49 345.4 L
500.924 345.4 L
501.358 345.4 L
501.792 345.4 L
502.226 345.4 L
502.66 345.4 L
503.094 345.4 L
503.528 345.4 L
503.962 345.4 L
504.396 345.4 L
504.83 345.4 L
505.264 345.4 L
505.698 345.4 L
506.132 345.4 L
506.566 345.4 L
507 345.4 L
S
GR
GS
1 GC
N
80 265 M
80 239 L
238 239 L
238 265 L
cp
f
GR
GS
[1 0 0 1 117 246.35849] CT
/Helvetica 9 F
GS
[1 0 0 1 0 0] CT
0 3.5 moveto 
1 -1 scale
(Polynomial model - residuals) t 
GR
GR
GS
[1 0 0 1 99 246.35849] CT
0 0 1 RC
N
2.667 0 M
2.667 1.473 1.473 2.667 0 2.667 C
-1.473 2.667 -2.667 1.473 -2.667 0 C
-2.667 -1.473 -1.473 -2.667 0 -2.667 C
1.473 -2.667 2.667 -1.473 2.667 0 C
cp
f
GR
GS
[1 0 0 1 117 257.64151] CT
/Helvetica 9 F
GS
[1 0 0 1 0 0] CT
0 3.5 moveto 
1 -1 scale
(Zero Line) t 
GR
GR
GS
1 0 0 RC
1 LJ
N
84 257.642 M
114 257.642 L
S
GR
GS
0.149 GC
10.0 ML
0.5 LW
N
80 265 M
80 239 L
238 239 L
238 265 L
cp
S
GR
%%Trailer
%%Pages: 1
%%EOF
