%!PS-Adobe-3.0 EPSF-3.0
%%Creator: (MATLAB, The Mathworks, Inc. Version 9.0.0.341360 \(R2016a\). Operating System: Mac OS X)
%%Title: /Users/deepak/Documents/MATLAB/matlabprojects/singleCalib_IH/source/wrzn.eps
%%CreationDate: 2016-11-26T22:37:34
%%Pages: (atend)
%%BoundingBox: 0 0 560 420
%%LanguageLevel: 3
%%EndComments
%%BeginProlog
%%BeginResource: procset (Apache XML Graphics Std ProcSet) 1.2 0
%%Version: 1.2 0
%%Copyright: (Copyright 2001-2003,2010 The Apache Software Foundation. License terms: http://www.apache.org/licenses/LICENSE-2.0)
/bd{bind def}bind def
/ld{load def}bd
/GR/grestore ld
/M/moveto ld
/LJ/setlinejoin ld
/C/curveto ld
/f/fill ld
/LW/setlinewidth ld
/GC/setgray ld
/t/show ld
/N/newpath ld
/CT/concat ld
/cp/closepath ld
/S/stroke ld
/L/lineto ld
/CC/setcmykcolor ld
/A/ashow ld
/GS/gsave ld
/RC/setrgbcolor ld
/RM/rmoveto ld
/ML/setmiterlimit ld
/re {4 2 roll M
1 index 0 rlineto
0 exch rlineto
neg 0 rlineto
cp } bd
/_ctm matrix def
/_tm matrix def
/BT { _ctm currentmatrix pop matrix _tm copy pop 0 0 moveto } bd
/ET { _ctm setmatrix } bd
/iTm { _ctm setmatrix _tm concat } bd
/Tm { _tm astore pop iTm 0 0 moveto } bd
/ux 0.0 def
/uy 0.0 def
/F {
  /Tp exch def
  /Tf exch def
  Tf findfont Tp scalefont setfont
  /cf Tf def  /cs Tp def
} bd
/ULS {currentpoint /uy exch def /ux exch def} bd
/ULE {
  /Tcx currentpoint pop def
  gsave
  newpath
  cf findfont cs scalefont dup
  /FontMatrix get 0 get /Ts exch def /FontInfo get dup
  /UnderlinePosition get Ts mul /To exch def
  /UnderlineThickness get Ts mul /Tt exch def
  ux uy To add moveto  Tcx uy To add lineto
  Tt setlinewidth stroke
  grestore
} bd
/OLE {
  /Tcx currentpoint pop def
  gsave
  newpath
  cf findfont cs scalefont dup
  /FontMatrix get 0 get /Ts exch def /FontInfo get dup
  /UnderlinePosition get Ts mul /To exch def
  /UnderlineThickness get Ts mul /Tt exch def
  ux uy To add cs add moveto Tcx uy To add cs add lineto
  Tt setlinewidth stroke
  grestore
} bd
/SOE {
  /Tcx currentpoint pop def
  gsave
  newpath
  cf findfont cs scalefont dup
  /FontMatrix get 0 get /Ts exch def /FontInfo get dup
  /UnderlinePosition get Ts mul /To exch def
  /UnderlineThickness get Ts mul /Tt exch def
  ux uy To add cs 10 mul 26 idiv add moveto Tcx uy To add cs 10 mul 26 idiv add lineto
  Tt setlinewidth stroke
  grestore
} bd
/QT {
/Y22 exch store
/X22 exch store
/Y21 exch store
/X21 exch store
currentpoint
/Y21 load 2 mul add 3 div exch
/X21 load 2 mul add 3 div exch
/X21 load 2 mul /X22 load add 3 div
/Y21 load 2 mul /Y22 load add 3 div
/X22 load /Y22 load curveto
} bd
/SSPD {
dup length /d exch dict def
{
/v exch def
/k exch def
currentpagedevice k known {
/cpdv currentpagedevice k get def
v cpdv ne {
/upd false def
/nullv v type /nulltype eq def
/nullcpdv cpdv type /nulltype eq def
nullv nullcpdv or
{
/upd true def
} {
/sametype v type cpdv type eq def
sametype {
v type /arraytype eq {
/vlen v length def
/cpdvlen cpdv length def
vlen cpdvlen eq {
0 1 vlen 1 sub {
/i exch def
/obj v i get def
/cpdobj cpdv i get def
obj cpdobj ne {
/upd true def
exit
} if
} for
} {
/upd true def
} ifelse
} {
v type /dicttype eq {
v {
/dv exch def
/dk exch def
/cpddv cpdv dk get def
dv cpddv ne {
/upd true def
exit
} if
} forall
} {
/upd true def
} ifelse
} ifelse
} if
} ifelse
upd true eq {
d k v put
} if
} if
} if
} forall
d length 0 gt {
d setpagedevice
} if
} bd
%%EndResource
%%BeginResource: procset (Apache XML Graphics EPS ProcSet) 1.0 0
%%Version: 1.0 0
%%Copyright: (Copyright 2002-2003 The Apache Software Foundation. License terms: http://www.apache.org/licenses/LICENSE-2.0)
/BeginEPSF { %def
/b4_Inc_state save def         % Save state for cleanup
/dict_count countdictstack def % Count objects on dict stack
/op_count count 1 sub def      % Count objects on operand stack
userdict begin                 % Push userdict on dict stack
/showpage { } def              % Redefine showpage, { } = null proc
0 setgray 0 setlinecap         % Prepare graphics state
1 setlinewidth 0 setlinejoin
10 setmiterlimit [ ] 0 setdash newpath
/languagelevel where           % If level not equal to 1 then
{pop languagelevel             % set strokeadjust and
1 ne                           % overprint to their defaults.
{false setstrokeadjust false setoverprint
} if
} if
} bd
/EndEPSF { %def
count op_count sub {pop} repeat            % Clean up stacks
countdictstack dict_count sub {end} repeat
b4_Inc_state restore
} bd
%%EndResource
%FOPBeginFontDict
%%IncludeResource: font Courier-Bold
%%IncludeResource: font Helvetica
%%IncludeResource: font Courier-BoldOblique
%%IncludeResource: font Courier-Oblique
%%IncludeResource: font Times-Roman
%%IncludeResource: font Helvetica-BoldOblique
%%IncludeResource: font Helvetica-Bold
%%IncludeResource: font Helvetica-Oblique
%%IncludeResource: font Times-BoldItalic
%%IncludeResource: font Courier
%%IncludeResource: font Times-Italic
%%IncludeResource: font Times-Bold
%%IncludeResource: font Symbol
%%IncludeResource: font ZapfDingbats
%FOPEndFontDict
%%BeginResource: encoding WinAnsiEncoding
/WinAnsiEncoding [
/.notdef /.notdef /.notdef /.notdef /.notdef
/.notdef /.notdef /.notdef /.notdef /.notdef
/.notdef /.notdef /.notdef /.notdef /.notdef
/.notdef /.notdef /.notdef /.notdef /.notdef
/.notdef /.notdef /.notdef /.notdef /.notdef
/.notdef /.notdef /.notdef /.notdef /.notdef
/.notdef /.notdef /space /exclam /quotedbl
/numbersign /dollar /percent /ampersand /quotesingle
/parenleft /parenright /asterisk /plus /comma
/hyphen /period /slash /zero /one
/two /three /four /five /six
/seven /eight /nine /colon /semicolon
/less /equal /greater /question /at
/A /B /C /D /E
/F /G /H /I /J
/K /L /M /N /O
/P /Q /R /S /T
/U /V /W /X /Y
/Z /bracketleft /backslash /bracketright /asciicircum
/underscore /quoteleft /a /b /c
/d /e /f /g /h
/i /j /k /l /m
/n /o /p /q /r
/s /t /u /v /w
/x /y /z /braceleft /bar
/braceright /asciitilde /bullet /Euro /bullet
/quotesinglbase /florin /quotedblbase /ellipsis /dagger
/daggerdbl /circumflex /perthousand /Scaron /guilsinglleft
/OE /bullet /Zcaron /bullet /bullet
/quoteleft /quoteright /quotedblleft /quotedblright /bullet
/endash /emdash /asciitilde /trademark /scaron
/guilsinglright /oe /bullet /zcaron /Ydieresis
/space /exclamdown /cent /sterling /currency
/yen /brokenbar /section /dieresis /copyright
/ordfeminine /guillemotleft /logicalnot /sfthyphen /registered
/macron /degree /plusminus /twosuperior /threesuperior
/acute /mu /paragraph /middot /cedilla
/onesuperior /ordmasculine /guillemotright /onequarter /onehalf
/threequarters /questiondown /Agrave /Aacute /Acircumflex
/Atilde /Adieresis /Aring /AE /Ccedilla
/Egrave /Eacute /Ecircumflex /Edieresis /Igrave
/Iacute /Icircumflex /Idieresis /Eth /Ntilde
/Ograve /Oacute /Ocircumflex /Otilde /Odieresis
/multiply /Oslash /Ugrave /Uacute /Ucircumflex
/Udieresis /Yacute /Thorn /germandbls /agrave
/aacute /acircumflex /atilde /adieresis /aring
/ae /ccedilla /egrave /eacute /ecircumflex
/edieresis /igrave /iacute /icircumflex /idieresis
/eth /ntilde /ograve /oacute /ocircumflex
/otilde /odieresis /divide /oslash /ugrave
/uacute /ucircumflex /udieresis /yacute /thorn
/ydieresis
] def
%%EndResource
%FOPBeginFontReencode
/Courier-Bold findfont
dup length dict begin
  {1 index /FID ne {def} {pop pop} ifelse} forall
  /Encoding WinAnsiEncoding def
  currentdict
end
/Courier-Bold exch definefont pop
/Helvetica findfont
dup length dict begin
  {1 index /FID ne {def} {pop pop} ifelse} forall
  /Encoding WinAnsiEncoding def
  currentdict
end
/Helvetica exch definefont pop
/Courier-BoldOblique findfont
dup length dict begin
  {1 index /FID ne {def} {pop pop} ifelse} forall
  /Encoding WinAnsiEncoding def
  currentdict
end
/Courier-BoldOblique exch definefont pop
/Courier-Oblique findfont
dup length dict begin
  {1 index /FID ne {def} {pop pop} ifelse} forall
  /Encoding WinAnsiEncoding def
  currentdict
end
/Courier-Oblique exch definefont pop
/Times-Roman findfont
dup length dict begin
  {1 index /FID ne {def} {pop pop} ifelse} forall
  /Encoding WinAnsiEncoding def
  currentdict
end
/Times-Roman exch definefont pop
/Helvetica-BoldOblique findfont
dup length dict begin
  {1 index /FID ne {def} {pop pop} ifelse} forall
  /Encoding WinAnsiEncoding def
  currentdict
end
/Helvetica-BoldOblique exch definefont pop
/Helvetica-Bold findfont
dup length dict begin
  {1 index /FID ne {def} {pop pop} ifelse} forall
  /Encoding WinAnsiEncoding def
  currentdict
end
/Helvetica-Bold exch definefont pop
/Helvetica-Oblique findfont
dup length dict begin
  {1 index /FID ne {def} {pop pop} ifelse} forall
  /Encoding WinAnsiEncoding def
  currentdict
end
/Helvetica-Oblique exch definefont pop
/Times-BoldItalic findfont
dup length dict begin
  {1 index /FID ne {def} {pop pop} ifelse} forall
  /Encoding WinAnsiEncoding def
  currentdict
end
/Times-BoldItalic exch definefont pop
/Courier findfont
dup length dict begin
  {1 index /FID ne {def} {pop pop} ifelse} forall
  /Encoding WinAnsiEncoding def
  currentdict
end
/Courier exch definefont pop
/Times-Italic findfont
dup length dict begin
  {1 index /FID ne {def} {pop pop} ifelse} forall
  /Encoding WinAnsiEncoding def
  currentdict
end
/Times-Italic exch definefont pop
/Times-Bold findfont
dup length dict begin
  {1 index /FID ne {def} {pop pop} ifelse} forall
  /Encoding WinAnsiEncoding def
  currentdict
end
/Times-Bold exch definefont pop
%FOPEndFontReencode
%%EndProlog
%%Page: 1 1
%%PageBoundingBox: 0 0 560 420
%%BeginPageSetup
[1 0 0 -1 0 420] CT
%%EndPageSetup
GS
1 GC
N
0 0 560 420 re
f
GR
GS
1 GC
N
0 0 560 420 re
f
GR
GS
1 GC
N
73 175 M
507 175 L
507 31 L
73 31 L
cp
f
GR
GS
0.873 GC
1 LJ
0.5 LW
N
73 175 M
73 31 L
S
GR
GS
0.873 GC
1 LJ
0.5 LW
N
127.25 175 M
127.25 31 L
S
GR
GS
0.873 GC
1 LJ
0.5 LW
N
181.5 175 M
181.5 31 L
S
GR
GS
0.873 GC
1 LJ
0.5 LW
N
235.75 175 M
235.75 31 L
S
GR
GS
0.873 GC
1 LJ
0.5 LW
N
290 175 M
290 31 L
S
GR
GS
0.873 GC
1 LJ
0.5 LW
N
344.25 175 M
344.25 31 L
S
GR
GS
0.873 GC
1 LJ
0.5 LW
N
398.5 175 M
398.5 31 L
S
GR
GS
0.873 GC
1 LJ
0.5 LW
N
452.75 175 M
452.75 31 L
S
GR
GS
0.873 GC
1 LJ
0.5 LW
N
507 175 M
507 31 L
S
GR
GS
0.873 GC
1 LJ
0.5 LW
N
507 175 M
73 175 L
S
GR
GS
0.873 GC
1 LJ
0.5 LW
N
507 146.2 M
73 146.2 L
S
GR
GS
0.873 GC
1 LJ
0.5 LW
N
507 117.4 M
73 117.4 L
S
GR
GS
0.873 GC
1 LJ
0.5 LW
N
507 88.6 M
73 88.6 L
S
GR
GS
0.873 GC
1 LJ
0.5 LW
N
507 59.8 M
73 59.8 L
S
GR
GS
0.873 GC
1 LJ
0.5 LW
N
507 31 M
73 31 L
S
GR
GS
0.149 GC
2 setlinecap
1 LJ
0.5 LW
N
73 175 M
507 175 L
S
GR
GS
0.149 GC
2 setlinecap
1 LJ
0.5 LW
N
73 31 M
507 31 L
S
GR
GS
0.149 GC
2 setlinecap
1 LJ
0.5 LW
N
73 175 M
73 170.66 L
S
GR
GS
0.149 GC
2 setlinecap
1 LJ
0.5 LW
N
127.25 175 M
127.25 170.66 L
S
GR
GS
0.149 GC
2 setlinecap
1 LJ
0.5 LW
N
181.5 175 M
181.5 170.66 L
S
GR
GS
0.149 GC
2 setlinecap
1 LJ
0.5 LW
N
235.75 175 M
235.75 170.66 L
S
GR
GS
0.149 GC
2 setlinecap
1 LJ
0.5 LW
N
290 175 M
290 170.66 L
S
GR
GS
0.149 GC
2 setlinecap
1 LJ
0.5 LW
N
344.25 175 M
344.25 170.66 L
S
GR
GS
0.149 GC
2 setlinecap
1 LJ
0.5 LW
N
398.5 175 M
398.5 170.66 L
S
GR
GS
0.149 GC
2 setlinecap
1 LJ
0.5 LW
N
452.75 175 M
452.75 170.66 L
S
GR
GS
0.149 GC
2 setlinecap
1 LJ
0.5 LW
N
507 175 M
507 170.66 L
S
GR
GS
0.149 GC
2 setlinecap
1 LJ
0.5 LW
N
73 31 M
73 35.34 L
S
GR
GS
0.149 GC
2 setlinecap
1 LJ
0.5 LW
N
127.25 31 M
127.25 35.34 L
S
GR
GS
0.149 GC
2 setlinecap
1 LJ
0.5 LW
N
181.5 31 M
181.5 35.34 L
S
GR
GS
0.149 GC
2 setlinecap
1 LJ
0.5 LW
N
235.75 31 M
235.75 35.34 L
S
GR
GS
0.149 GC
2 setlinecap
1 LJ
0.5 LW
N
290 31 M
290 35.34 L
S
GR
GS
0.149 GC
2 setlinecap
1 LJ
0.5 LW
N
344.25 31 M
344.25 35.34 L
S
GR
GS
0.149 GC
2 setlinecap
1 LJ
0.5 LW
N
398.5 31 M
398.5 35.34 L
S
GR
GS
0.149 GC
2 setlinecap
1 LJ
0.5 LW
N
452.75 31 M
452.75 35.34 L
S
GR
GS
0.149 GC
2 setlinecap
1 LJ
0.5 LW
N
507 31 M
507 35.34 L
S
GR
GS
[1 0 0 1 73 179] CT
0.149 GC
/Helvetica 10 F
GS
[1 0 0 1 0 0] CT
-8 10 moveto 
1 -1 scale
(-40) t 
GR
GR
GS
[1 0 0 1 127.25 179] CT
0.149 GC
/Helvetica 10 F
GS
[1 0 0 1 0 0] CT
-8 10 moveto 
1 -1 scale
(-35) t 
GR
GR
GS
[1 0 0 1 181.5 179] CT
0.149 GC
/Helvetica 10 F
GS
[1 0 0 1 0 0] CT
-8 10 moveto 
1 -1 scale
(-30) t 
GR
GR
GS
[1 0 0 1 235.75 179] CT
0.149 GC
/Helvetica 10 F
GS
[1 0 0 1 0 0] CT
-8 10 moveto 
1 -1 scale
(-25) t 
GR
GR
GS
[1 0 0 1 290 179] CT
0.149 GC
/Helvetica 10 F
GS
[1 0 0 1 0 0] CT
-8 10 moveto 
1 -1 scale
(-20) t 
GR
GR
GS
[1 0 0 1 344.25 179] CT
0.149 GC
/Helvetica 10 F
GS
[1 0 0 1 0 0] CT
-8 10 moveto 
1 -1 scale
(-15) t 
GR
GR
GS
[1 0 0 1 398.5 179] CT
0.149 GC
/Helvetica 10 F
GS
[1 0 0 1 0 0] CT
-8 10 moveto 
1 -1 scale
(-10) t 
GR
GR
GS
[1 0 0 1 452.75 179] CT
0.149 GC
/Helvetica 10 F
GS
[1 0 0 1 0 0] CT
-5 10 moveto 
1 -1 scale
(-5) t 
GR
GR
GS
[1 0 0 1 507 179] CT
0.149 GC
/Helvetica 10 F
GS
[1 0 0 1 0 0] CT
-3 10 moveto 
1 -1 scale
(0) t 
GR
GR
GS
[1 0 0 1 290.00021 193] CT
0.149 GC
/Helvetica-Bold 12 F
GS
[1 0 0 1 0 0] CT
-82 12 moveto 
1 -1 scale
(Camera rotation \(in degrees\)) t 
GR
GR
GS
0.149 GC
2 setlinecap
1 LJ
0.5 LW
N
73 175 M
73 31 L
S
GR
GS
0.149 GC
2 setlinecap
1 LJ
0.5 LW
N
507 175 M
507 31 L
S
GR
GS
0.149 GC
2 setlinecap
1 LJ
0.5 LW
N
73 175 M
77.34 175 L
S
GR
GS
0.149 GC
2 setlinecap
1 LJ
0.5 LW
N
73 146.2 M
77.34 146.2 L
S
GR
GS
0.149 GC
2 setlinecap
1 LJ
0.5 LW
N
73 117.4 M
77.34 117.4 L
S
GR
GS
0.149 GC
2 setlinecap
1 LJ
0.5 LW
N
73 88.6 M
77.34 88.6 L
S
GR
GS
0.149 GC
2 setlinecap
1 LJ
0.5 LW
N
73 59.8 M
77.34 59.8 L
S
GR
GS
0.149 GC
2 setlinecap
1 LJ
0.5 LW
N
73 31 M
77.34 31 L
S
GR
GS
0.149 GC
2 setlinecap
1 LJ
0.5 LW
N
507 175 M
502.66 175 L
S
GR
GS
0.149 GC
2 setlinecap
1 LJ
0.5 LW
N
507 146.2 M
502.66 146.2 L
S
GR
GS
0.149 GC
2 setlinecap
1 LJ
0.5 LW
N
507 117.4 M
502.66 117.4 L
S
GR
GS
0.149 GC
2 setlinecap
1 LJ
0.5 LW
N
507 88.6 M
502.66 88.6 L
S
GR
GS
0.149 GC
2 setlinecap
1 LJ
0.5 LW
N
507 59.8 M
502.66 59.8 L
S
GR
GS
0.149 GC
2 setlinecap
1 LJ
0.5 LW
N
507 31 M
502.66 31 L
S
GR
GS
[1 0 0 1 69 175] CT
0.149 GC
/Helvetica 10 F
GS
[1 0 0 1 0 0] CT
-6 3.5 moveto 
1 -1 scale
(0) t 
GR
GR
GS
[1 0 0 1 69 146.2] CT
0.149 GC
/Helvetica 10 F
GS
[1 0 0 1 0 0] CT
-6 3.5 moveto 
1 -1 scale
(2) t 
GR
GR
GS
[1 0 0 1 69 117.4] CT
0.149 GC
/Helvetica 10 F
GS
[1 0 0 1 0 0] CT
-6 3.5 moveto 
1 -1 scale
(4) t 
GR
GR
GS
[1 0 0 1 69 88.6] CT
0.149 GC
/Helvetica 10 F
GS
[1 0 0 1 0 0] CT
-6 3.5 moveto 
1 -1 scale
(6) t 
GR
GR
GS
[1 0 0 1 69 59.8] CT
0.149 GC
/Helvetica 10 F
GS
[1 0 0 1 0 0] CT
-6 3.5 moveto 
1 -1 scale
(8) t 
GR
GR
GS
[1 0 0 1 69 31] CT
0.149 GC
/Helvetica 10 F
GS
[1 0 0 1 0 0] CT
-12 3.5 moveto 
1 -1 scale
(10) t 
GR
GR
GS
[0 -1 1 0 54 102.99993] CT
0.149 GC
/Helvetica-Bold 12 F
GS
[1 0 0 1 0 0] CT
-55.5 -3 moveto 
1 -1 scale
(Width error \(in mm\)) t 
GR
GR
GS
[1 0 0 1 73 59.58891] CT
0 0 1 RC
N
2.667 0 M
2.667 1.473 1.473 2.667 0 2.667 C
-1.473 2.667 -2.667 1.473 -2.667 0 C
-2.667 -1.473 -1.473 -2.667 0 -2.667 C
1.473 -2.667 2.667 -1.473 2.667 0 C
cp
f
GR
GS
[1 0 0 1 83.85 63.69154] CT
0 0 1 RC
N
2.667 0 M
2.667 1.473 1.473 2.667 0 2.667 C
-1.473 2.667 -2.667 1.473 -2.667 0 C
-2.667 -1.473 -1.473 -2.667 0 -2.667 C
1.473 -2.667 2.667 -1.473 2.667 0 C
cp
f
GR
GS
[1 0 0 1 94.7 68.3772] CT
0 0 1 RC
N
2.667 0 M
2.667 1.473 1.473 2.667 0 2.667 C
-1.473 2.667 -2.667 1.473 -2.667 0 C
-2.667 -1.473 -1.473 -2.667 0 -2.667 C
1.473 -2.667 2.667 -1.473 2.667 0 C
cp
f
GR
GS
[1 0 0 1 105.55 74.35554] CT
0 0 1 RC
N
2.667 0 M
2.667 1.473 1.473 2.667 0 2.667 C
-1.473 2.667 -2.667 1.473 -2.667 0 C
-2.667 -1.473 -1.473 -2.667 0 -2.667 C
1.473 -2.667 2.667 -1.473 2.667 0 C
cp
f
GR
GS
[1 0 0 1 116.4 76.14216] CT
0 0 1 RC
N
2.667 0 M
2.667 1.473 1.473 2.667 0 2.667 C
-1.473 2.667 -2.667 1.473 -2.667 0 C
-2.667 -1.473 -1.473 -2.667 0 -2.667 C
1.473 -2.667 2.667 -1.473 2.667 0 C
cp
f
GR
GS
[1 0 0 1 127.25 82.63139] CT
0 0 1 RC
N
2.667 0 M
2.667 1.473 1.473 2.667 0 2.667 C
-1.473 2.667 -2.667 1.473 -2.667 0 C
-2.667 -1.473 -1.473 -2.667 0 -2.667 C
1.473 -2.667 2.667 -1.473 2.667 0 C
cp
f
GR
GS
[1 0 0 1 138.10001 89.27251] CT
0 0 1 RC
N
2.667 0 M
2.667 1.473 1.473 2.667 0 2.667 C
-1.473 2.667 -2.667 1.473 -2.667 0 C
-2.667 -1.473 -1.473 -2.667 0 -2.667 C
1.473 -2.667 2.667 -1.473 2.667 0 C
cp
f
GR
GS
[1 0 0 1 148.95 91.06212] CT
0 0 1 RC
N
2.667 0 M
2.667 1.473 1.473 2.667 0 2.667 C
-1.473 2.667 -2.667 1.473 -2.667 0 C
-2.667 -1.473 -1.473 -2.667 0 -2.667 C
1.473 -2.667 2.667 -1.473 2.667 0 C
cp
f
GR
GS
[1 0 0 1 159.8 95.11977] CT
0 0 1 RC
N
2.667 0 M
2.667 1.473 1.473 2.667 0 2.667 C
-1.473 2.667 -2.667 1.473 -2.667 0 C
-2.667 -1.473 -1.473 -2.667 0 -2.667 C
1.473 -2.667 2.667 -1.473 2.667 0 C
cp
f
GR
GS
[1 0 0 1 170.64999 96.53653] CT
0 0 1 RC
N
2.667 0 M
2.667 1.473 1.473 2.667 0 2.667 C
-1.473 2.667 -2.667 1.473 -2.667 0 C
-2.667 -1.473 -1.473 -2.667 0 -2.667 C
1.473 -2.667 2.667 -1.473 2.667 0 C
cp
f
GR
GS
[1 0 0 1 181.5 102.79596] CT
0 0 1 RC
N
2.667 0 M
2.667 1.473 1.473 2.667 0 2.667 C
-1.473 2.667 -2.667 1.473 -2.667 0 C
-2.667 -1.473 -1.473 -2.667 0 -2.667 C
1.473 -2.667 2.667 -1.473 2.667 0 C
cp
f
GR
GS
[1 0 0 1 192.35001 105.54921] CT
0 0 1 RC
N
2.667 0 M
2.667 1.473 1.473 2.667 0 2.667 C
-1.473 2.667 -2.667 1.473 -2.667 0 C
-2.667 -1.473 -1.473 -2.667 0 -2.667 C
1.473 -2.667 2.667 -1.473 2.667 0 C
cp
f
GR
GS
[1 0 0 1 203.2 107.3739] CT
0 0 1 RC
N
2.667 0 M
2.667 1.473 1.473 2.667 0 2.667 C
-1.473 2.667 -2.667 1.473 -2.667 0 C
-2.667 -1.473 -1.473 -2.667 0 -2.667 C
1.473 -2.667 2.667 -1.473 2.667 0 C
cp
f
GR
GS
[1 0 0 1 214.05 115.40427] CT
0 0 1 RC
N
2.667 0 M
2.667 1.473 1.473 2.667 0 2.667 C
-1.473 2.667 -2.667 1.473 -2.667 0 C
-2.667 -1.473 -1.473 -2.667 0 -2.667 C
1.473 -2.667 2.667 -1.473 2.667 0 C
cp
f
GR
GS
[1 0 0 1 224.89999 114.51443] CT
0 0 1 RC
N
2.667 0 M
2.667 1.473 1.473 2.667 0 2.667 C
-1.473 2.667 -2.667 1.473 -2.667 0 C
-2.667 -1.473 -1.473 -2.667 0 -2.667 C
1.473 -2.667 2.667 -1.473 2.667 0 C
cp
f
GR
GS
[1 0 0 1 235.75 120.99049] CT
0 0 1 RC
N
2.667 0 M
2.667 1.473 1.473 2.667 0 2.667 C
-1.473 2.667 -2.667 1.473 -2.667 0 C
-2.667 -1.473 -1.473 -2.667 0 -2.667 C
1.473 -2.667 2.667 -1.473 2.667 0 C
cp
f
GR
GS
[1 0 0 1 246.60001 123.94013] CT
0 0 1 RC
N
2.667 0 M
2.667 1.473 1.473 2.667 0 2.667 C
-1.473 2.667 -2.667 1.473 -2.667 0 C
-2.667 -1.473 -1.473 -2.667 0 -2.667 C
1.473 -2.667 2.667 -1.473 2.667 0 C
cp
f
GR
GS
[1 0 0 1 257.45001 122.99585] CT
0 0 1 RC
N
2.667 0 M
2.667 1.473 1.473 2.667 0 2.667 C
-1.473 2.667 -2.667 1.473 -2.667 0 C
-2.667 -1.473 -1.473 -2.667 0 -2.667 C
1.473 -2.667 2.667 -1.473 2.667 0 C
cp
f
GR
GS
[1 0 0 1 268.29999 132.17999] CT
0 0 1 RC
N
2.667 0 M
2.667 1.473 1.473 2.667 0 2.667 C
-1.473 2.667 -2.667 1.473 -2.667 0 C
-2.667 -1.473 -1.473 -2.667 0 -2.667 C
1.473 -2.667 2.667 -1.473 2.667 0 C
cp
f
GR
GS
[1 0 0 1 279.14999 133.01244] CT
0 0 1 RC
N
2.667 0 M
2.667 1.473 1.473 2.667 0 2.667 C
-1.473 2.667 -2.667 1.473 -2.667 0 C
-2.667 -1.473 -1.473 -2.667 0 -2.667 C
1.473 -2.667 2.667 -1.473 2.667 0 C
cp
f
GR
GS
[1 0 0 1 290 136.70309] CT
0 0 1 RC
N
2.667 0 M
2.667 1.473 1.473 2.667 0 2.667 C
-1.473 2.667 -2.667 1.473 -2.667 0 C
-2.667 -1.473 -1.473 -2.667 0 -2.667 C
1.473 -2.667 2.667 -1.473 2.667 0 C
cp
f
GR
GS
[1 0 0 1 300.85001 137.56847] CT
0 0 1 RC
N
2.667 0 M
2.667 1.473 1.473 2.667 0 2.667 C
-1.473 2.667 -2.667 1.473 -2.667 0 C
-2.667 -1.473 -1.473 -2.667 0 -2.667 C
1.473 -2.667 2.667 -1.473 2.667 0 C
cp
f
GR
GS
[1 0 0 1 311.70001 141.0519] CT
0 0 1 RC
N
2.667 0 M
2.667 1.473 1.473 2.667 0 2.667 C
-1.473 2.667 -2.667 1.473 -2.667 0 C
-2.667 -1.473 -1.473 -2.667 0 -2.667 C
1.473 -2.667 2.667 -1.473 2.667 0 C
cp
f
GR
GS
[1 0 0 1 322.54999 143.38275] CT
0 0 1 RC
N
2.667 0 M
2.667 1.473 1.473 2.667 0 2.667 C
-1.473 2.667 -2.667 1.473 -2.667 0 C
-2.667 -1.473 -1.473 -2.667 0 -2.667 C
1.473 -2.667 2.667 -1.473 2.667 0 C
cp
f
GR
GS
[1 0 0 1 333.39999 143.2885] CT
0 0 1 RC
N
2.667 0 M
2.667 1.473 1.473 2.667 0 2.667 C
-1.473 2.667 -2.667 1.473 -2.667 0 C
-2.667 -1.473 -1.473 -2.667 0 -2.667 C
1.473 -2.667 2.667 -1.473 2.667 0 C
cp
f
GR
GS
[1 0 0 1 344.25 146.96088] CT
0 0 1 RC
N
2.667 0 M
2.667 1.473 1.473 2.667 0 2.667 C
-1.473 2.667 -2.667 1.473 -2.667 0 C
-2.667 -1.473 -1.473 -2.667 0 -2.667 C
1.473 -2.667 2.667 -1.473 2.667 0 C
cp
f
GR
GS
[1 0 0 1 355.10001 149.64839] CT
0 0 1 RC
N
2.667 0 M
2.667 1.473 1.473 2.667 0 2.667 C
-1.473 2.667 -2.667 1.473 -2.667 0 C
-2.667 -1.473 -1.473 -2.667 0 -2.667 C
1.473 -2.667 2.667 -1.473 2.667 0 C
cp
f
GR
GS
[1 0 0 1 365.95001 152.11412] CT
0 0 1 RC
N
2.667 0 M
2.667 1.473 1.473 2.667 0 2.667 C
-1.473 2.667 -2.667 1.473 -2.667 0 C
-2.667 -1.473 -1.473 -2.667 0 -2.667 C
1.473 -2.667 2.667 -1.473 2.667 0 C
cp
f
GR
GS
[1 0 0 1 376.79999 154.02531] CT
0 0 1 RC
N
2.667 0 M
2.667 1.473 1.473 2.667 0 2.667 C
-1.473 2.667 -2.667 1.473 -2.667 0 C
-2.667 -1.473 -1.473 -2.667 0 -2.667 C
1.473 -2.667 2.667 -1.473 2.667 0 C
cp
f
GR
GS
[1 0 0 1 387.64999 157.34036] CT
0 0 1 RC
N
2.667 0 M
2.667 1.473 1.473 2.667 0 2.667 C
-1.473 2.667 -2.667 1.473 -2.667 0 C
-2.667 -1.473 -1.473 -2.667 0 -2.667 C
1.473 -2.667 2.667 -1.473 2.667 0 C
cp
f
GR
GS
[1 0 0 1 398.5 157.96664] CT
0 0 1 RC
N
2.667 0 M
2.667 1.473 1.473 2.667 0 2.667 C
-1.473 2.667 -2.667 1.473 -2.667 0 C
-2.667 -1.473 -1.473 -2.667 0 -2.667 C
1.473 -2.667 2.667 -1.473 2.667 0 C
cp
f
GR
GS
[1 0 0 1 409.35001 160.03426] CT
0 0 1 RC
N
2.667 0 M
2.667 1.473 1.473 2.667 0 2.667 C
-1.473 2.667 -2.667 1.473 -2.667 0 C
-2.667 -1.473 -1.473 -2.667 0 -2.667 C
1.473 -2.667 2.667 -1.473 2.667 0 C
cp
f
GR
GS
[1 0 0 1 420.20001 160.86922] CT
0 0 1 RC
N
2.667 0 M
2.667 1.473 1.473 2.667 0 2.667 C
-1.473 2.667 -2.667 1.473 -2.667 0 C
-2.667 -1.473 -1.473 -2.667 0 -2.667 C
1.473 -2.667 2.667 -1.473 2.667 0 C
cp
f
GR
GS
[1 0 0 1 431.04999 163.47987] CT
0 0 1 RC
N
2.667 0 M
2.667 1.473 1.473 2.667 0 2.667 C
-1.473 2.667 -2.667 1.473 -2.667 0 C
-2.667 -1.473 -1.473 -2.667 0 -2.667 C
1.473 -2.667 2.667 -1.473 2.667 0 C
cp
f
GR
GS
[1 0 0 1 441.89999 165.96564] CT
0 0 1 RC
N
2.667 0 M
2.667 1.473 1.473 2.667 0 2.667 C
-1.473 2.667 -2.667 1.473 -2.667 0 C
-2.667 -1.473 -1.473 -2.667 0 -2.667 C
1.473 -2.667 2.667 -1.473 2.667 0 C
cp
f
GR
GS
[1 0 0 1 452.75 167.39607] CT
0 0 1 RC
N
2.667 0 M
2.667 1.473 1.473 2.667 0 2.667 C
-1.473 2.667 -2.667 1.473 -2.667 0 C
-2.667 -1.473 -1.473 -2.667 0 -2.667 C
1.473 -2.667 2.667 -1.473 2.667 0 C
cp
f
GR
GS
[1 0 0 1 463.60001 169.015] CT
0 0 1 RC
N
2.667 0 M
2.667 1.473 1.473 2.667 0 2.667 C
-1.473 2.667 -2.667 1.473 -2.667 0 C
-2.667 -1.473 -1.473 -2.667 0 -2.667 C
1.473 -2.667 2.667 -1.473 2.667 0 C
cp
f
GR
GS
[1 0 0 1 474.45001 170.23082] CT
0 0 1 RC
N
2.667 0 M
2.667 1.473 1.473 2.667 0 2.667 C
-1.473 2.667 -2.667 1.473 -2.667 0 C
-2.667 -1.473 -1.473 -2.667 0 -2.667 C
1.473 -2.667 2.667 -1.473 2.667 0 C
cp
f
GR
GS
[1 0 0 1 485.29999 171.91336] CT
0 0 1 RC
N
2.667 0 M
2.667 1.473 1.473 2.667 0 2.667 C
-1.473 2.667 -2.667 1.473 -2.667 0 C
-2.667 -1.473 -1.473 -2.667 0 -2.667 C
1.473 -2.667 2.667 -1.473 2.667 0 C
cp
f
GR
GS
[1 0 0 1 496.14999 173.49031] CT
0 0 1 RC
N
2.667 0 M
2.667 1.473 1.473 2.667 0 2.667 C
-1.473 2.667 -2.667 1.473 -2.667 0 C
-2.667 -1.473 -1.473 -2.667 0 -2.667 C
1.473 -2.667 2.667 -1.473 2.667 0 C
cp
f
GR
GS
[1 0 0 1 507 175] CT
0 0 1 RC
N
2.667 0 M
2.667 1.473 1.473 2.667 0 2.667 C
-1.473 2.667 -2.667 1.473 -2.667 0 C
-2.667 -1.473 -1.473 -2.667 0 -2.667 C
1.473 -2.667 2.667 -1.473 2.667 0 C
cp
f
GR
GS
1 0 0 RC
1 LJ
N
73 60.067 M
73.434 60.253 L
73.868 60.438 L
74.302 60.623 L
74.736 60.808 L
75.17 60.993 L
75.604 61.177 L
76.038 61.362 L
76.472 61.546 L
76.906 61.73 L
77.34 61.915 L
77.774 62.098 L
78.208 62.282 L
78.642 62.466 L
79.076 62.649 L
79.51 62.833 L
79.944 63.016 L
80.378 63.199 L
80.812 63.382 L
81.246 63.565 L
81.68 63.747 L
82.114 63.93 L
82.548 64.112 L
82.982 64.294 L
83.416 64.476 L
83.85 64.658 L
84.284 64.84 L
84.718 65.022 L
85.152 65.203 L
85.586 65.384 L
86.02 65.566 L
86.454 65.747 L
86.888 65.928 L
87.322 66.108 L
87.756 66.289 L
88.19 66.47 L
88.624 66.65 L
89.058 66.83 L
89.492 67.01 L
89.926 67.19 L
90.36 67.37 L
90.794 67.549 L
91.228 67.729 L
91.662 67.908 L
92.096 68.087 L
92.53 68.266 L
92.964 68.445 L
93.398 68.624 L
93.832 68.803 L
94.266 68.981 L
94.7 69.159 L
95.134 69.338 L
95.568 69.516 L
96.002 69.694 L
96.436 69.871 L
96.87 70.049 L
97.304 70.226 L
97.738 70.404 L
98.172 70.581 L
98.606 70.758 L
99.04 70.935 L
99.474 71.112 L
99.908 71.288 L
100.342 71.465 L
100.776 71.641 L
101.21 71.817 L
101.644 71.993 L
102.078 72.169 L
102.512 72.345 L
102.946 72.52 L
103.38 72.696 L
103.814 72.871 L
104.248 73.046 L
104.682 73.221 L
105.116 73.396 L
105.55 73.571 L
105.984 73.746 L
106.418 73.92 L
106.852 74.094 L
107.286 74.269 L
107.72 74.443 L
108.154 74.616 L
108.588 74.79 L
109.022 74.964 L
109.456 75.137 L
109.89 75.31 L
110.324 75.484 L
110.758 75.657 L
111.192 75.83 L
111.626 76.002 L
112.06 76.175 L
112.494 76.347 L
112.928 76.52 L
113.362 76.692 L
113.796 76.864 L
114.23 77.036 L
114.664 77.207 L
115.098 77.379 L
115.532 77.55 L
115.966 77.722 L
116.4 77.893 L
116.834 78.064 L
117.268 78.235 L
117.702 78.405 L
118.136 78.576 L
118.57 78.746 L
119.004 78.917 L
119.438 79.087 L
119.872 79.257 L
120.306 79.427 L
120.74 79.596 L
121.174 79.766 L
121.608 79.935 L
122.042 80.105 L
122.476 80.274 L
122.91 80.443 L
123.344 80.612 L
123.778 80.78 L
124.212 80.949 L
124.646 81.117 L
125.08 81.286 L
125.514 81.454 L
125.948 81.622 L
126.382 81.79 L
126.816 81.957 L
127.25 82.125 L
127.684 82.292 L
128.118 82.46 L
128.552 82.627 L
128.986 82.794 L
129.42 82.961 L
129.854 83.127 L
130.288 83.294 L
130.722 83.46 L
131.156 83.627 L
131.59 83.793 L
132.024 83.959 L
132.458 84.125 L
132.892 84.29 L
133.326 84.456 L
133.76 84.621 L
134.194 84.787 L
134.628 84.952 L
135.062 85.117 L
135.496 85.282 L
135.93 85.446 L
136.364 85.611 L
136.798 85.775 L
137.232 85.939 L
137.666 86.104 L
138.1 86.268 L
138.534 86.431 L
138.968 86.595 L
139.402 86.759 L
139.836 86.922 L
140.27 87.085 L
140.704 87.248 L
141.138 87.411 L
141.572 87.574 L
142.006 87.737 L
142.44 87.899 L
142.874 88.062 L
143.308 88.224 L
143.742 88.386 L
144.176 88.548 L
144.61 88.71 L
145.044 88.872 L
145.478 89.033 L
145.912 89.195 L
146.346 89.356 L
146.78 89.517 L
147.214 89.678 L
147.648 89.839 L
148.082 90 L
148.516 90.16 L
148.95 90.32 L
149.384 90.481 L
149.818 90.641 L
150.252 90.801 L
150.686 90.961 L
151.12 91.12 L
151.554 91.28 L
151.988 91.439 L
152.422 91.598 L
152.856 91.758 L
153.29 91.917 L
153.724 92.075 L
154.158 92.234 L
154.592 92.393 L
155.026 92.551 L
155.46 92.709 L
155.894 92.867 L
156.328 93.025 L
156.762 93.183 L
157.196 93.341 L
157.63 93.498 L
158.064 93.656 L
158.498 93.813 L
158.932 93.97 L
159.366 94.127 L
159.8 94.284 L
160.234 94.44 L
160.668 94.597 L
161.102 94.753 L
161.536 94.909 L
161.97 95.066 L
162.404 95.222 L
162.838 95.377 L
163.272 95.533 L
163.706 95.688 L
164.14 95.844 L
164.574 95.999 L
165.008 96.154 L
165.442 96.309 L
165.876 96.464 L
166.31 96.619 L
166.744 96.773 L
167.178 96.927 L
167.612 97.082 L
168.046 97.236 L
168.48 97.39 L
168.914 97.544 L
169.348 97.697 L
169.782 97.851 L
170.216 98.004 L
170.65 98.157 L
171.084 98.31 L
171.518 98.463 L
171.952 98.616 L
172.386 98.769 L
172.82 98.921 L
173.254 99.074 L
173.688 99.226 L
174.122 99.378 L
174.556 99.53 L
174.99 99.682 L
175.424 99.833 L
175.858 99.985 L
176.292 100.136 L
176.726 100.287 L
177.16 100.438 L
177.594 100.589 L
178.028 100.74 L
178.462 100.891 L
178.896 101.041 L
179.33 101.192 L
179.764 101.342 L
180.198 101.492 L
180.632 101.642 L
181.066 101.792 L
181.5 101.941 L
181.934 102.091 L
182.368 102.24 L
182.802 102.389 L
183.236 102.538 L
183.67 102.687 L
184.104 102.836 L
184.538 102.985 L
184.972 103.133 L
185.406 103.281 L
185.84 103.43 L
186.274 103.578 L
186.708 103.726 L
187.142 103.873 L
187.576 104.021 L
188.01 104.168 L
188.444 104.316 L
188.878 104.463 L
189.312 104.61 L
189.746 104.757 L
190.18 104.904 L
190.614 105.05 L
191.048 105.197 L
191.482 105.343 L
191.916 105.489 L
192.35 105.635 L
192.784 105.781 L
193.218 105.927 L
193.652 106.073 L
194.086 106.218 L
194.52 106.363 L
194.954 106.509 L
195.388 106.654 L
195.822 106.799 L
196.256 106.943 L
196.69 107.088 L
197.124 107.232 L
197.558 107.377 L
197.992 107.521 L
198.426 107.665 L
198.86 107.809 L
199.294 107.953 L
199.728 108.096 L
200.162 108.24 L
200.596 108.383 L
201.03 108.526 L
201.464 108.669 L
201.898 108.812 L
202.332 108.955 L
202.766 109.098 L
203.2 109.24 L
203.634 109.382 L
204.068 109.524 L
204.502 109.667 L
204.936 109.808 L
205.37 109.95 L
205.804 110.092 L
206.238 110.233 L
206.672 110.375 L
207.106 110.516 L
207.54 110.657 L
207.974 110.798 L
208.408 110.938 L
208.842 111.079 L
209.276 111.219 L
209.71 111.36 L
210.144 111.5 L
210.578 111.64 L
211.012 111.78 L
211.446 111.92 L
211.88 112.059 L
212.314 112.199 L
212.748 112.338 L
213.182 112.477 L
213.616 112.616 L
214.05 112.755 L
214.484 112.894 L
214.918 113.032 L
215.352 113.171 L
215.786 113.309 L
216.22 113.447 L
216.654 113.585 L
217.088 113.723 L
217.522 113.861 L
217.956 113.998 L
218.39 114.136 L
218.824 114.273 L
219.258 114.41 L
219.692 114.547 L
220.126 114.684 L
220.56 114.821 L
220.994 114.957 L
221.428 115.094 L
221.862 115.23 L
222.296 115.366 L
222.73 115.502 L
223.164 115.638 L
223.598 115.774 L
224.032 115.909 L
224.466 116.045 L
224.9 116.18 L
225.334 116.315 L
225.768 116.45 L
226.202 116.585 L
226.636 116.72 L
227.07 116.854 L
227.504 116.989 L
227.938 117.123 L
228.372 117.257 L
228.806 117.391 L
229.24 117.525 L
229.674 117.659 L
230.108 117.792 L
230.542 117.926 L
230.976 118.059 L
231.41 118.192 L
231.844 118.325 L
232.278 118.458 L
232.712 118.591 L
233.146 118.723 L
233.58 118.856 L
234.014 118.988 L
234.448 119.12 L
234.882 119.252 L
235.316 119.384 L
235.75 119.516 L
236.184 119.647 L
236.618 119.779 L
237.052 119.91 L
237.486 120.041 L
237.92 120.172 L
238.354 120.303 L
238.788 120.434 L
239.222 120.564 L
239.656 120.695 L
240.09 120.825 L
240.524 120.955 L
240.958 121.085 L
241.392 121.215 L
241.826 121.345 L
242.26 121.474 L
242.694 121.604 L
243.128 121.733 L
243.562 121.862 L
243.996 121.991 L
244.43 122.12 L
244.864 122.248 L
245.298 122.377 L
245.732 122.505 L
246.166 122.634 L
246.6 122.762 L
247.034 122.89 L
247.468 123.018 L
247.902 123.145 L
248.336 123.273 L
248.77 123.4 L
249.204 123.527 L
249.638 123.655 L
250.072 123.782 L
250.506 123.908 L
250.94 124.035 L
251.374 124.162 L
251.808 124.288 L
252.242 124.414 L
252.676 124.54 L
253.11 124.666 L
253.544 124.792 L
253.978 124.918 L
254.412 125.043 L
254.846 125.169 L
255.28 125.294 L
255.714 125.419 L
256.148 125.544 L
256.582 125.669 L
257.016 125.794 L
257.45 125.918 L
257.884 126.042 L
258.318 126.167 L
258.752 126.291 L
259.186 126.415 L
259.62 126.539 L
260.054 126.662 L
260.488 126.786 L
260.922 126.909 L
261.356 127.032 L
261.79 127.155 L
262.224 127.278 L
262.658 127.401 L
263.092 127.524 L
263.526 127.646 L
263.96 127.769 L
264.394 127.891 L
264.828 128.013 L
265.262 128.135 L
265.696 128.257 L
266.13 128.379 L
266.564 128.5 L
266.998 128.621 L
267.432 128.743 L
267.866 128.864 L
268.3 128.985 L
268.734 129.105 L
269.168 129.226 L
269.602 129.347 L
270.036 129.467 L
270.47 129.587 L
270.904 129.707 L
271.338 129.827 L
271.772 129.947 L
272.206 130.067 L
272.64 130.186 L
273.074 130.306 L
273.508 130.425 L
273.942 130.544 L
274.376 130.663 L
274.81 130.782 L
275.244 130.9 L
275.678 131.019 L
276.112 131.137 L
276.546 131.255 L
276.98 131.373 L
277.414 131.491 L
277.848 131.609 L
278.282 131.727 L
278.716 131.844 L
279.15 131.962 L
279.584 132.079 L
280.018 132.196 L
280.452 132.313 L
280.886 132.43 L
281.32 132.546 L
281.754 132.663 L
282.188 132.779 L
282.622 132.895 L
283.056 133.011 L
283.49 133.127 L
283.924 133.243 L
284.358 133.359 L
284.792 133.474 L
285.226 133.59 L
285.66 133.705 L
286.094 133.82 L
286.528 133.935 L
286.962 134.05 L
287.396 134.164 L
287.83 134.279 L
288.264 134.393 L
288.698 134.507 L
289.132 134.621 L
289.566 134.735 L
290 134.849 L
290.434 134.963 L
290.868 135.076 L
291.302 135.189 L
291.736 135.303 L
292.17 135.416 L
292.604 135.529 L
293.038 135.641 L
293.472 135.754 L
293.906 135.866 L
294.34 135.979 L
294.774 136.091 L
295.208 136.203 L
295.642 136.315 L
296.076 136.427 L
296.51 136.538 L
296.944 136.65 L
297.378 136.761 L
297.812 136.872 L
298.246 136.983 L
298.68 137.094 L
299.114 137.205 L
299.548 137.316 L
299.982 137.426 L
300.416 137.536 L
300.85 137.647 L
301.284 137.757 L
301.718 137.867 L
302.152 137.976 L
302.586 138.086 L
303.02 138.195 L
303.454 138.305 L
303.888 138.414 L
304.322 138.523 L
304.756 138.632 L
305.19 138.741 L
305.624 138.849 L
306.058 138.958 L
306.492 139.066 L
306.926 139.174 L
307.36 139.282 L
307.794 139.39 L
308.228 139.498 L
308.662 139.605 L
309.096 139.713 L
309.53 139.82 L
309.964 139.927 L
310.398 140.034 L
310.832 140.141 L
311.266 140.248 L
311.7 140.355 L
312.134 140.461 L
312.568 140.567 L
313.002 140.674 L
313.436 140.78 L
313.87 140.885 L
314.304 140.991 L
314.738 141.097 L
315.172 141.202 L
315.606 141.308 L
316.04 141.413 L
316.474 141.518 L
316.908 141.623 L
317.342 141.727 L
317.776 141.832 L
318.21 141.936 L
318.644 142.041 L
319.078 142.145 L
319.512 142.249 L
319.946 142.353 L
320.38 142.456 L
320.814 142.56 L
321.248 142.663 L
321.682 142.767 L
322.116 142.87 L
322.55 142.973 L
322.984 143.076 L
323.418 143.179 L
323.852 143.281 L
324.286 143.384 L
324.72 143.486 L
325.154 143.588 L
325.588 143.69 L
326.022 143.792 L
326.456 143.894 L
326.89 143.995 L
327.324 144.097 L
327.758 144.198 L
328.192 144.299 L
328.626 144.4 L
329.06 144.501 L
329.494 144.602 L
329.928 144.702 L
330.362 144.803 L
330.796 144.903 L
331.23 145.003 L
331.664 145.103 L
332.098 145.203 L
332.532 145.303 L
332.966 145.402 L
333.4 145.502 L
333.834 145.601 L
334.268 145.7 L
334.702 145.799 L
335.136 145.898 L
335.57 145.997 L
336.004 146.095 L
336.438 146.194 L
336.872 146.292 L
337.306 146.39 L
337.74 146.488 L
338.174 146.586 L
338.608 146.684 L
339.042 146.781 L
339.476 146.878 L
339.91 146.976 L
340.344 147.073 L
340.778 147.17 L
341.212 147.267 L
341.646 147.363 L
342.08 147.46 L
342.514 147.556 L
342.948 147.653 L
343.382 147.749 L
343.816 147.845 L
344.25 147.941 L
344.684 148.036 L
345.118 148.132 L
345.552 148.227 L
345.986 148.323 L
346.42 148.418 L
346.854 148.513 L
347.288 148.607 L
347.722 148.702 L
348.156 148.797 L
348.59 148.891 L
349.024 148.985 L
349.458 149.079 L
349.892 149.173 L
350.326 149.267 L
350.76 149.361 L
351.194 149.455 L
351.628 149.548 L
352.062 149.641 L
352.496 149.734 L
352.93 149.827 L
353.364 149.92 L
353.798 150.013 L
354.232 150.105 L
354.666 150.198 L
355.1 150.29 L
355.534 150.382 L
355.968 150.474 L
356.402 150.566 L
356.836 150.658 L
357.27 150.749 L
357.704 150.84 L
358.138 150.932 L
358.572 151.023 L
359.006 151.114 L
359.44 151.205 L
359.874 151.295 L
360.308 151.386 L
360.742 151.476 L
361.176 151.566 L
361.61 151.657 L
362.044 151.746 L
362.478 151.836 L
362.912 151.926 L
363.346 152.016 L
363.78 152.105 L
364.214 152.194 L
364.648 152.283 L
365.082 152.372 L
365.516 152.461 L
365.95 152.55 L
366.384 152.638 L
366.818 152.727 L
367.252 152.815 L
367.686 152.903 L
368.12 152.991 L
368.554 153.079 L
368.988 153.166 L
369.422 153.254 L
369.856 153.341 L
370.29 153.428 L
370.724 153.516 L
371.158 153.602 L
371.592 153.689 L
372.026 153.776 L
372.46 153.862 L
372.894 153.949 L
373.328 154.035 L
373.762 154.121 L
374.196 154.207 L
374.63 154.293 L
375.064 154.379 L
375.498 154.464 L
375.932 154.549 L
376.366 154.635 L
376.8 154.72 L
377.234 154.805 L
377.668 154.889 L
378.102 154.974 L
378.536 155.059 L
378.97 155.143 L
379.404 155.227 L
379.838 155.311 L
380.272 155.395 L
380.706 155.479 L
381.14 155.563 L
381.574 155.646 L
382.008 155.729 L
382.442 155.813 L
382.876 155.896 L
383.31 155.979 L
383.744 156.061 L
384.178 156.144 L
384.612 156.227 L
385.046 156.309 L
385.48 156.391 L
385.914 156.473 L
386.348 156.555 L
386.782 156.637 L
387.216 156.719 L
387.65 156.8 L
388.084 156.881 L
388.518 156.963 L
388.952 157.044 L
389.386 157.125 L
389.82 157.205 L
390.254 157.286 L
390.688 157.367 L
391.122 157.447 L
391.556 157.527 L
391.99 157.607 L
392.424 157.687 L
392.858 157.767 L
393.292 157.846 L
393.726 157.926 L
394.16 158.005 L
394.594 158.084 L
395.028 158.164 L
395.462 158.242 L
395.896 158.321 L
396.33 158.4 L
396.764 158.478 L
397.198 158.557 L
397.632 158.635 L
398.066 158.713 L
398.5 158.791 L
398.934 158.869 L
399.368 158.946 L
399.802 159.024 L
400.236 159.101 L
400.67 159.178 L
401.104 159.255 L
401.538 159.332 L
401.972 159.409 L
402.406 159.485 L
402.84 159.562 L
403.274 159.638 L
403.708 159.714 L
404.142 159.791 L
404.576 159.866 L
405.01 159.942 L
405.444 160.018 L
405.878 160.093 L
406.312 160.169 L
406.746 160.244 L
407.18 160.319 L
407.614 160.394 L
408.048 160.468 L
408.482 160.543 L
408.916 160.618 L
409.35 160.692 L
409.784 160.766 L
410.218 160.84 L
410.652 160.914 L
411.086 160.988 L
411.52 161.061 L
411.954 161.135 L
412.388 161.208 L
412.822 161.281 L
413.256 161.354 L
413.69 161.427 L
414.124 161.5 L
414.558 161.572 L
414.992 161.645 L
415.426 161.717 L
415.86 161.789 L
416.294 161.861 L
416.728 161.933 L
417.162 162.005 L
417.596 162.077 L
418.03 162.148 L
418.464 162.219 L
418.898 162.291 L
419.332 162.362 L
419.766 162.432 L
420.2 162.503 L
420.634 162.574 L
421.068 162.644 L
421.502 162.715 L
421.936 162.785 L
422.37 162.855 L
422.804 162.925 L
423.238 162.994 L
423.672 163.064 L
424.106 163.133 L
424.54 163.203 L
424.974 163.272 L
425.408 163.341 L
425.842 163.41 L
426.276 163.478 L
426.71 163.547 L
427.144 163.615 L
427.578 163.684 L
428.012 163.752 L
428.446 163.82 L
428.88 163.888 L
429.314 163.956 L
429.748 164.023 L
430.182 164.091 L
430.616 164.158 L
431.05 164.225 L
431.484 164.292 L
431.918 164.359 L
432.352 164.426 L
432.786 164.492 L
433.22 164.559 L
433.654 164.625 L
434.088 164.691 L
434.522 164.757 L
434.956 164.823 L
435.39 164.889 L
435.824 164.954 L
436.258 165.02 L
436.692 165.085 L
437.126 165.15 L
437.56 165.215 L
437.994 165.28 L
438.428 165.345 L
438.862 165.409 L
439.296 165.474 L
439.73 165.538 L
440.164 165.602 L
440.598 165.666 L
441.032 165.73 L
441.466 165.793 L
441.9 165.857 L
442.334 165.92 L
442.768 165.984 L
443.202 166.047 L
443.636 166.11 L
444.07 166.173 L
444.504 166.235 L
444.938 166.298 L
445.372 166.36 L
445.806 166.423 L
446.24 166.485 L
446.674 166.547 L
447.108 166.609 L
447.542 166.67 L
447.976 166.732 L
448.41 166.793 L
448.844 166.855 L
449.278 166.916 L
449.712 166.977 L
450.146 167.037 L
450.58 167.098 L
451.014 167.159 L
451.448 167.219 L
451.882 167.279 L
452.316 167.339 L
452.75 167.399 L
453.184 167.459 L
453.618 167.519 L
454.052 167.579 L
454.486 167.638 L
454.92 167.697 L
455.354 167.756 L
455.788 167.815 L
456.222 167.874 L
456.656 167.933 L
457.09 167.991 L
457.524 168.05 L
457.958 168.108 L
458.392 168.166 L
458.826 168.224 L
459.26 168.282 L
459.694 168.34 L
460.128 168.397 L
460.562 168.454 L
460.996 168.512 L
461.43 168.569 L
461.864 168.626 L
462.298 168.683 L
462.732 168.739 L
463.166 168.796 L
463.6 168.852 L
464.034 168.908 L
464.468 168.965 L
464.902 169.021 L
465.336 169.076 L
465.77 169.132 L
466.204 169.188 L
466.638 169.243 L
467.072 169.298 L
467.506 169.353 L
467.94 169.408 L
468.374 169.463 L
468.808 169.518 L
469.242 169.572 L
469.676 169.627 L
470.11 169.681 L
470.544 169.735 L
470.978 169.789 L
471.412 169.843 L
471.846 169.896 L
472.28 169.95 L
472.714 170.003 L
473.148 170.056 L
473.582 170.11 L
474.016 170.163 L
474.45 170.215 L
474.884 170.268 L
475.318 170.321 L
475.752 170.373 L
476.186 170.425 L
476.62 170.477 L
477.054 170.529 L
477.488 170.581 L
477.922 170.633 L
478.356 170.684 L
478.79 170.735 L
479.224 170.787 L
479.658 170.838 L
480.092 170.889 L
480.526 170.939 L
480.96 170.99 L
481.394 171.041 L
481.828 171.091 L
482.262 171.141 L
482.696 171.191 L
483.13 171.241 L
483.564 171.291 L
483.998 171.341 L
484.432 171.39 L
484.866 171.44 L
485.3 171.489 L
485.734 171.538 L
486.168 171.587 L
486.602 171.636 L
487.036 171.684 L
487.47 171.733 L
487.904 171.781 L
488.338 171.829 L
488.772 171.877 L
489.206 171.925 L
489.64 171.973 L
490.074 172.021 L
490.508 172.068 L
490.942 172.116 L
491.376 172.163 L
491.81 172.21 L
492.244 172.257 L
492.678 172.303 L
493.112 172.35 L
493.546 172.397 L
493.98 172.443 L
494.414 172.489 L
494.848 172.535 L
495.282 172.581 L
495.716 172.627 L
496.15 172.673 L
496.584 172.718 L
497.018 172.763 L
497.452 172.809 L
497.886 172.854 L
498.32 172.899 L
498.754 172.943 L
499.188 172.988 L
499.622 173.032 L
500.056 173.077 L
500.49 173.121 L
500.924 173.165 L
501.358 173.209 L
501.792 173.253 L
502.226 173.296 L
502.66 173.34 L
503.094 173.383 L
503.528 173.426 L
503.962 173.469 L
504.396 173.512 L
504.83 173.555 L
505.264 173.598 L
505.698 173.64 L
506.132 173.682 L
506.566 173.725 L
507 173.767 L
S
GR
GS
1 GC
N
387 63 M
387 37 L
500 37 L
500 63 L
cp
f
GR
GS
[1 0 0 1 424 44.35849] CT
/Helvetica 9 F
GS
[1 0 0 1 0 0] CT
0 3.5 moveto 
1 -1 scale
(Error data) t 
GR
GR
GS
[1 0 0 1 406 44.35849] CT
0 0 1 RC
N
2.667 0 M
2.667 1.473 1.473 2.667 0 2.667 C
-1.473 2.667 -2.667 1.473 -2.667 0 C
-2.667 -1.473 -1.473 -2.667 0 -2.667 C
1.473 -2.667 2.667 -1.473 2.667 0 C
cp
f
GR
GS
[1 0 0 1 424 55.64151] CT
/Helvetica 9 F
GS
[1 0 0 1 0 0] CT
0 3.5 moveto 
1 -1 scale
(Polynomial model) t 
GR
GR
GS
1 0 0 RC
1 LJ
N
391 55.642 M
421 55.642 L
S
GR
GS
0.149 GC
10.0 ML
0.5 LW
N
387 63 M
387 37 L
500 37 L
500 63 L
cp
S
GR
GS
1 GC
N
73 374 M
507 374 L
507 231 L
73 231 L
cp
f
GR
GS
0.873 GC
1 LJ
0.5 LW
N
73 374 M
73 231 L
S
GR
GS
0.873 GC
1 LJ
0.5 LW
N
127.25 374 M
127.25 231 L
S
GR
GS
0.873 GC
1 LJ
0.5 LW
N
181.5 374 M
181.5 231 L
S
GR
GS
0.873 GC
1 LJ
0.5 LW
N
235.75 374 M
235.75 231 L
S
GR
GS
0.873 GC
1 LJ
0.5 LW
N
290 374 M
290 231 L
S
GR
GS
0.873 GC
1 LJ
0.5 LW
N
344.25 374 M
344.25 231 L
S
GR
GS
0.873 GC
1 LJ
0.5 LW
N
398.5 374 M
398.5 231 L
S
GR
GS
0.873 GC
1 LJ
0.5 LW
N
452.75 374 M
452.75 231 L
S
GR
GS
0.873 GC
1 LJ
0.5 LW
N
507 374 M
507 231 L
S
GR
GS
0.873 GC
1 LJ
0.5 LW
N
507 374 M
73 374 L
S
GR
GS
0.873 GC
1 LJ
0.5 LW
N
507 350.167 M
73 350.167 L
S
GR
GS
0.873 GC
1 LJ
0.5 LW
N
507 326.333 M
73 326.333 L
S
GR
GS
0.873 GC
1 LJ
0.5 LW
N
507 302.5 M
73 302.5 L
S
GR
GS
0.873 GC
1 LJ
0.5 LW
N
507 278.667 M
73 278.667 L
S
GR
GS
0.873 GC
1 LJ
0.5 LW
N
507 254.833 M
73 254.833 L
S
GR
GS
0.873 GC
1 LJ
0.5 LW
N
507 231 M
73 231 L
S
GR
GS
0.149 GC
2 setlinecap
1 LJ
0.5 LW
N
73 374 M
507 374 L
S
GR
GS
0.149 GC
2 setlinecap
1 LJ
0.5 LW
N
73 231 M
507 231 L
S
GR
GS
0.149 GC
2 setlinecap
1 LJ
0.5 LW
N
73 374 M
73 369.66 L
S
GR
GS
0.149 GC
2 setlinecap
1 LJ
0.5 LW
N
127.25 374 M
127.25 369.66 L
S
GR
GS
0.149 GC
2 setlinecap
1 LJ
0.5 LW
N
181.5 374 M
181.5 369.66 L
S
GR
GS
0.149 GC
2 setlinecap
1 LJ
0.5 LW
N
235.75 374 M
235.75 369.66 L
S
GR
GS
0.149 GC
2 setlinecap
1 LJ
0.5 LW
N
290 374 M
290 369.66 L
S
GR
GS
0.149 GC
2 setlinecap
1 LJ
0.5 LW
N
344.25 374 M
344.25 369.66 L
S
GR
GS
0.149 GC
2 setlinecap
1 LJ
0.5 LW
N
398.5 374 M
398.5 369.66 L
S
GR
GS
0.149 GC
2 setlinecap
1 LJ
0.5 LW
N
452.75 374 M
452.75 369.66 L
S
GR
GS
0.149 GC
2 setlinecap
1 LJ
0.5 LW
N
507 374 M
507 369.66 L
S
GR
GS
0.149 GC
2 setlinecap
1 LJ
0.5 LW
N
73 231 M
73 235.34 L
S
GR
GS
0.149 GC
2 setlinecap
1 LJ
0.5 LW
N
127.25 231 M
127.25 235.34 L
S
GR
GS
0.149 GC
2 setlinecap
1 LJ
0.5 LW
N
181.5 231 M
181.5 235.34 L
S
GR
GS
0.149 GC
2 setlinecap
1 LJ
0.5 LW
N
235.75 231 M
235.75 235.34 L
S
GR
GS
0.149 GC
2 setlinecap
1 LJ
0.5 LW
N
290 231 M
290 235.34 L
S
GR
GS
0.149 GC
2 setlinecap
1 LJ
0.5 LW
N
344.25 231 M
344.25 235.34 L
S
GR
GS
0.149 GC
2 setlinecap
1 LJ
0.5 LW
N
398.5 231 M
398.5 235.34 L
S
GR
GS
0.149 GC
2 setlinecap
1 LJ
0.5 LW
N
452.75 231 M
452.75 235.34 L
S
GR
GS
0.149 GC
2 setlinecap
1 LJ
0.5 LW
N
507 231 M
507 235.34 L
S
GR
GS
[1 0 0 1 73 378] CT
0.149 GC
/Helvetica 10 F
GS
[1 0 0 1 0 0] CT
-8 10 moveto 
1 -1 scale
(-40) t 
GR
GR
GS
[1 0 0 1 127.25 378] CT
0.149 GC
/Helvetica 10 F
GS
[1 0 0 1 0 0] CT
-8 10 moveto 
1 -1 scale
(-35) t 
GR
GR
GS
[1 0 0 1 181.5 378] CT
0.149 GC
/Helvetica 10 F
GS
[1 0 0 1 0 0] CT
-8 10 moveto 
1 -1 scale
(-30) t 
GR
GR
GS
[1 0 0 1 235.75 378] CT
0.149 GC
/Helvetica 10 F
GS
[1 0 0 1 0 0] CT
-8 10 moveto 
1 -1 scale
(-25) t 
GR
GR
GS
[1 0 0 1 290 378] CT
0.149 GC
/Helvetica 10 F
GS
[1 0 0 1 0 0] CT
-8 10 moveto 
1 -1 scale
(-20) t 
GR
GR
GS
[1 0 0 1 344.25 378] CT
0.149 GC
/Helvetica 10 F
GS
[1 0 0 1 0 0] CT
-8 10 moveto 
1 -1 scale
(-15) t 
GR
GR
GS
[1 0 0 1 398.5 378] CT
0.149 GC
/Helvetica 10 F
GS
[1 0 0 1 0 0] CT
-8 10 moveto 
1 -1 scale
(-10) t 
GR
GR
GS
[1 0 0 1 452.75 378] CT
0.149 GC
/Helvetica 10 F
GS
[1 0 0 1 0 0] CT
-5 10 moveto 
1 -1 scale
(-5) t 
GR
GR
GS
[1 0 0 1 507 378] CT
0.149 GC
/Helvetica 10 F
GS
[1 0 0 1 0 0] CT
-3 10 moveto 
1 -1 scale
(0) t 
GR
GR
GS
[1 0 0 1 290.00021 392] CT
0.149 GC
/Helvetica-Bold 12 F
GS
[1 0 0 1 0 0] CT
-82 12 moveto 
1 -1 scale
(Camera rotation \(in degrees\)) t 
GR
GR
GS
0.149 GC
2 setlinecap
1 LJ
0.5 LW
N
73 374 M
73 231 L
S
GR
GS
0.149 GC
2 setlinecap
1 LJ
0.5 LW
N
507 374 M
507 231 L
S
GR
GS
0.149 GC
2 setlinecap
1 LJ
0.5 LW
N
73 374 M
77.34 374 L
S
GR
GS
0.149 GC
2 setlinecap
1 LJ
0.5 LW
N
73 350.167 M
77.34 350.167 L
S
GR
GS
0.149 GC
2 setlinecap
1 LJ
0.5 LW
N
73 326.333 M
77.34 326.333 L
S
GR
GS
0.149 GC
2 setlinecap
1 LJ
0.5 LW
N
73 302.5 M
77.34 302.5 L
S
GR
GS
0.149 GC
2 setlinecap
1 LJ
0.5 LW
N
73 278.667 M
77.34 278.667 L
S
GR
GS
0.149 GC
2 setlinecap
1 LJ
0.5 LW
N
73 254.833 M
77.34 254.833 L
S
GR
GS
0.149 GC
2 setlinecap
1 LJ
0.5 LW
N
73 231 M
77.34 231 L
S
GR
GS
0.149 GC
2 setlinecap
1 LJ
0.5 LW
N
507 374 M
502.66 374 L
S
GR
GS
0.149 GC
2 setlinecap
1 LJ
0.5 LW
N
507 350.167 M
502.66 350.167 L
S
GR
GS
0.149 GC
2 setlinecap
1 LJ
0.5 LW
N
507 326.333 M
502.66 326.333 L
S
GR
GS
0.149 GC
2 setlinecap
1 LJ
0.5 LW
N
507 302.5 M
502.66 302.5 L
S
GR
GS
0.149 GC
2 setlinecap
1 LJ
0.5 LW
N
507 278.667 M
502.66 278.667 L
S
GR
GS
0.149 GC
2 setlinecap
1 LJ
0.5 LW
N
507 254.833 M
502.66 254.833 L
S
GR
GS
0.149 GC
2 setlinecap
1 LJ
0.5 LW
N
507 231 M
502.66 231 L
S
GR
GS
[1 0 0 1 69 374] CT
0.149 GC
/Helvetica 10 F
GS
[1 0 0 1 0 0] CT
-18 3.5 moveto 
1 -1 scale
(-0.3) t 
GR
GR
GS
[1 0 0 1 69 350.16666] CT
0.149 GC
/Helvetica 10 F
GS
[1 0 0 1 0 0] CT
-18 3.5 moveto 
1 -1 scale
(-0.2) t 
GR
GR
GS
[1 0 0 1 69 326.33334] CT
0.149 GC
/Helvetica 10 F
GS
[1 0 0 1 0 0] CT
-18 3.5 moveto 
1 -1 scale
(-0.1) t 
GR
GR
GS
[1 0 0 1 69 302.5] CT
0.149 GC
/Helvetica 10 F
GS
[1 0 0 1 0 0] CT
-6 3.5 moveto 
1 -1 scale
(0) t 
GR
GR
GS
[1 0 0 1 69 278.66666] CT
0.149 GC
/Helvetica 10 F
GS
[1 0 0 1 0 0] CT
-14 3.5 moveto 
1 -1 scale
(0.1) t 
GR
GR
GS
[1 0 0 1 69 254.83333] CT
0.149 GC
/Helvetica 10 F
GS
[1 0 0 1 0 0] CT
-14 3.5 moveto 
1 -1 scale
(0.2) t 
GR
GR
GS
[1 0 0 1 69 231] CT
0.149 GC
/Helvetica 10 F
GS
[1 0 0 1 0 0] CT
-14 3.5 moveto 
1 -1 scale
(0.3) t 
GR
GR
GS
[0 -1 1 0 48.00002 302.49994] CT
0.149 GC
/Helvetica-Bold 12 F
GS
[1 0 0 1 0 0] CT
-55.5 -3 moveto 
1 -1 scale
(Width error \(in mm\)) t 
GR
GR
GS
[1 0 0 1 73 294.58014] CT
0 0 1 RC
N
2.667 0 M
2.667 1.473 1.473 2.667 0 2.667 C
-1.473 2.667 -2.667 1.473 -2.667 0 C
-2.667 -1.473 -1.473 -2.667 0 -2.667 C
1.473 -2.667 2.667 -1.473 2.667 0 C
cp
f
GR
GS
[1 0 0 1 83.85 286.49973] CT
0 0 1 RC
N
2.667 0 M
2.667 1.473 1.473 2.667 0 2.667 C
-1.473 2.667 -2.667 1.473 -2.667 0 C
-2.667 -1.473 -1.473 -2.667 0 -2.667 C
1.473 -2.667 2.667 -1.473 2.667 0 C
cp
f
GR
GS
[1 0 0 1 94.7 289.5531] CT
0 0 1 RC
N
2.667 0 M
2.667 1.473 1.473 2.667 0 2.667 C
-1.473 2.667 -2.667 1.473 -2.667 0 C
-2.667 -1.473 -1.473 -2.667 0 -2.667 C
1.473 -2.667 2.667 -1.473 2.667 0 C
cp
f
GR
GS
[1 0 0 1 105.55 315.48526] CT
0 0 1 RC
N
2.667 0 M
2.667 1.473 1.473 2.667 0 2.667 C
-1.473 2.667 -2.667 1.473 -2.667 0 C
-2.667 -1.473 -1.473 -2.667 0 -2.667 C
1.473 -2.667 2.667 -1.473 2.667 0 C
cp
f
GR
GS
[1 0 0 1 116.4 273.52463] CT
0 0 1 RC
N
2.667 0 M
2.667 1.473 1.473 2.667 0 2.667 C
-1.473 2.667 -2.667 1.473 -2.667 0 C
-2.667 -1.473 -1.473 -2.667 0 -2.667 C
1.473 -2.667 2.667 -1.473 2.667 0 C
cp
f
GR
GS
[1 0 0 1 127.25 310.88049] CT
0 0 1 RC
N
2.667 0 M
2.667 1.473 1.473 2.667 0 2.667 C
-1.473 2.667 -2.667 1.473 -2.667 0 C
-2.667 -1.473 -1.473 -2.667 0 -2.667 C
1.473 -2.667 2.667 -1.473 2.667 0 C
cp
f
GR
GS
[1 0 0 1 138.10001 352.23434] CT
0 0 1 RC
N
2.667 0 M
2.667 1.473 1.473 2.667 0 2.667 C
-1.473 2.667 -2.667 1.473 -2.667 0 C
-2.667 -1.473 -1.473 -2.667 0 -2.667 C
1.473 -2.667 2.667 -1.473 2.667 0 C
cp
f
GR
GS
[1 0 0 1 148.95 314.77505] CT
0 0 1 RC
N
2.667 0 M
2.667 1.473 1.473 2.667 0 2.667 C
-1.473 2.667 -2.667 1.473 -2.667 0 C
-2.667 -1.473 -1.473 -2.667 0 -2.667 C
1.473 -2.667 2.667 -1.473 2.667 0 C
cp
f
GR
GS
[1 0 0 1 159.8 316.33789] CT
0 0 1 RC
N
2.667 0 M
2.667 1.473 1.473 2.667 0 2.667 C
-1.473 2.667 -2.667 1.473 -2.667 0 C
-2.667 -1.473 -1.473 -2.667 0 -2.667 C
1.473 -2.667 2.667 -1.473 2.667 0 C
cp
f
GR
GS
[1 0 0 1 170.64999 275.67554] CT
0 0 1 RC
N
2.667 0 M
2.667 1.473 1.473 2.667 0 2.667 C
-1.473 2.667 -2.667 1.473 -2.667 0 C
-2.667 -1.473 -1.473 -2.667 0 -2.667 C
1.473 -2.667 2.667 -1.473 2.667 0 C
cp
f
GR
GS
[1 0 0 1 181.5 316.64777] CT
0 0 1 RC
N
2.667 0 M
2.667 1.473 1.473 2.667 0 2.667 C
-1.473 2.667 -2.667 1.473 -2.667 0 C
-2.667 -1.473 -1.473 -2.667 0 -2.667 C
1.473 -2.667 2.667 -1.473 2.667 0 C
cp
f
GR
GS
[1 0 0 1 192.35001 301.07349] CT
0 0 1 RC
N
2.667 0 M
2.667 1.473 1.473 2.667 0 2.667 C
-1.473 2.667 -2.667 1.473 -2.667 0 C
-2.667 -1.473 -1.473 -2.667 0 -2.667 C
1.473 -2.667 2.667 -1.473 2.667 0 C
cp
f
GR
GS
[1 0 0 1 203.2 271.61447] CT
0 0 1 RC
N
2.667 0 M
2.667 1.473 1.473 2.667 0 2.667 C
-1.473 2.667 -2.667 1.473 -2.667 0 C
-2.667 -1.473 -1.473 -2.667 0 -2.667 C
1.473 -2.667 2.667 -1.473 2.667 0 C
cp
f
GR
GS
[1 0 0 1 214.05 346.34918] CT
0 0 1 RC
N
2.667 0 M
2.667 1.473 1.473 2.667 0 2.667 C
-1.473 2.667 -2.667 1.473 -2.667 0 C
-2.667 -1.473 -1.473 -2.667 0 -2.667 C
1.473 -2.667 2.667 -1.473 2.667 0 C
cp
f
GR
GS
[1 0 0 1 224.89999 274.9303] CT
0 0 1 RC
N
2.667 0 M
2.667 1.473 1.473 2.667 0 2.667 C
-1.473 2.667 -2.667 1.473 -2.667 0 C
-2.667 -1.473 -1.473 -2.667 0 -2.667 C
1.473 -2.667 2.667 -1.473 2.667 0 C
cp
f
GR
GS
[1 0 0 1 235.75 326.90759] CT
0 0 1 RC
N
2.667 0 M
2.667 1.473 1.473 2.667 0 2.667 C
-1.473 2.667 -2.667 1.473 -2.667 0 C
-2.667 -1.473 -1.473 -2.667 0 -2.667 C
1.473 -2.667 2.667 -1.473 2.667 0 C
cp
f
GR
GS
[1 0 0 1 246.60001 322.00339] CT
0 0 1 RC
N
2.667 0 M
2.667 1.473 1.473 2.667 0 2.667 C
-1.473 2.667 -2.667 1.473 -2.667 0 C
-2.667 -1.473 -1.473 -2.667 0 -2.667 C
1.473 -2.667 2.667 -1.473 2.667 0 C
cp
f
GR
GS
[1 0 0 1 257.45001 254.13522] CT
0 0 1 RC
N
2.667 0 M
2.667 1.473 1.473 2.667 0 2.667 C
-1.473 2.667 -2.667 1.473 -2.667 0 C
-2.667 -1.473 -1.473 -2.667 0 -2.667 C
1.473 -2.667 2.667 -1.473 2.667 0 C
cp
f
GR
GS
[1 0 0 1 268.29999 355.38562] CT
0 0 1 RC
N
2.667 0 M
2.667 1.473 1.473 2.667 0 2.667 C
-1.473 2.667 -2.667 1.473 -2.667 0 C
-2.667 -1.473 -1.473 -2.667 0 -2.667 C
1.473 -2.667 2.667 -1.473 2.667 0 C
cp
f
GR
GS
[1 0 0 1 279.14999 319.89178] CT
0 0 1 RC
N
2.667 0 M
2.667 1.473 1.473 2.667 0 2.667 C
-1.473 2.667 -2.667 1.473 -2.667 0 C
-2.667 -1.473 -1.473 -2.667 0 -2.667 C
1.473 -2.667 2.667 -1.473 2.667 0 C
cp
f
GR
GS
[1 0 0 1 290 333.18793] CT
0 0 1 RC
N
2.667 0 M
2.667 1.473 1.473 2.667 0 2.667 C
-1.473 2.667 -2.667 1.473 -2.667 0 C
-2.667 -1.473 -1.473 -2.667 0 -2.667 C
1.473 -2.667 2.667 -1.473 2.667 0 C
cp
f
GR
GS
[1 0 0 1 300.85001 301.20697] CT
0 0 1 RC
N
2.667 0 M
2.667 1.473 1.473 2.667 0 2.667 C
-1.473 2.667 -2.667 1.473 -2.667 0 C
-2.667 -1.473 -1.473 -2.667 0 -2.667 C
1.473 -2.667 2.667 -1.473 2.667 0 C
cp
f
GR
GS
[1 0 0 1 311.70001 314.04111] CT
0 0 1 RC
N
2.667 0 M
2.667 1.473 1.473 2.667 0 2.667 C
-1.473 2.667 -2.667 1.473 -2.667 0 C
-2.667 -1.473 -1.473 -2.667 0 -2.667 C
1.473 -2.667 2.667 -1.473 2.667 0 C
cp
f
GR
GS
[1 0 0 1 322.54999 309.28308] CT
0 0 1 RC
N
2.667 0 M
2.667 1.473 1.473 2.667 0 2.667 C
-1.473 2.667 -2.667 1.473 -2.667 0 C
-2.667 -1.473 -1.473 -2.667 0 -2.667 C
1.473 -2.667 2.667 -1.473 2.667 0 C
cp
f
GR
GS
[1 0 0 1 333.39999 265.87128] CT
0 0 1 RC
N
2.667 0 M
2.667 1.473 1.473 2.667 0 2.667 C
-1.473 2.667 -2.667 1.473 -2.667 0 C
-2.667 -1.473 -1.473 -2.667 0 -2.667 C
1.473 -2.667 2.667 -1.473 2.667 0 C
cp
f
GR
GS
[1 0 0 1 344.25 286.28458] CT
0 0 1 RC
N
2.667 0 M
2.667 1.473 1.473 2.667 0 2.667 C
-1.473 2.667 -2.667 1.473 -2.667 0 C
-2.667 -1.473 -1.473 -2.667 0 -2.667 C
1.473 -2.667 2.667 -1.473 2.667 0 C
cp
f
GR
GS
[1 0 0 1 355.10001 291.88138] CT
0 0 1 RC
N
2.667 0 M
2.667 1.473 1.473 2.667 0 2.667 C
-1.473 2.667 -2.667 1.473 -2.667 0 C
-2.667 -1.473 -1.473 -2.667 0 -2.667 C
1.473 -2.667 2.667 -1.473 2.667 0 C
cp
f
GR
GS
[1 0 0 1 365.95001 295.29144] CT
0 0 1 RC
N
2.667 0 M
2.667 1.473 1.473 2.667 0 2.667 C
-1.473 2.667 -2.667 1.473 -2.667 0 C
-2.667 -1.473 -1.473 -2.667 0 -2.667 C
1.473 -2.667 2.667 -1.473 2.667 0 C
cp
f
GR
GS
[1 0 0 1 376.79999 291.00748] CT
0 0 1 RC
N
2.667 0 M
2.667 1.473 1.473 2.667 0 2.667 C
-1.473 2.667 -2.667 1.473 -2.667 0 C
-2.667 -1.473 -1.473 -2.667 0 -2.667 C
1.473 -2.667 2.667 -1.473 2.667 0 C
cp
f
GR
GS
[1 0 0 1 387.64999 311.44247] CT
0 0 1 RC
N
2.667 0 M
2.667 1.473 1.473 2.667 0 2.667 C
-1.473 2.667 -2.667 1.473 -2.667 0 C
-2.667 -1.473 -1.473 -2.667 0 -2.667 C
1.473 -2.667 2.667 -1.473 2.667 0 C
cp
f
GR
GS
[1 0 0 1 398.5 288.8598] CT
0 0 1 RC
N
2.667 0 M
2.667 1.473 1.473 2.667 0 2.667 C
-1.473 2.667 -2.667 1.473 -2.667 0 C
-2.667 -1.473 -1.473 -2.667 0 -2.667 C
1.473 -2.667 2.667 -1.473 2.667 0 C
cp
f
GR
GS
[1 0 0 1 409.35001 291.61649] CT
0 0 1 RC
N
2.667 0 M
2.667 1.473 1.473 2.667 0 2.667 C
-1.473 2.667 -2.667 1.473 -2.667 0 C
-2.667 -1.473 -1.473 -2.667 0 -2.667 C
1.473 -2.667 2.667 -1.473 2.667 0 C
cp
f
GR
GS
[1 0 0 1 420.20001 275.45554] CT
0 0 1 RC
N
2.667 0 M
2.667 1.473 1.473 2.667 0 2.667 C
-1.473 2.667 -2.667 1.473 -2.667 0 C
-2.667 -1.473 -1.473 -2.667 0 -2.667 C
1.473 -2.667 2.667 -1.473 2.667 0 C
cp
f
GR
GS
[1 0 0 1 431.04999 290.16791] CT
0 0 1 RC
N
2.667 0 M
2.667 1.473 1.473 2.667 0 2.667 C
-1.473 2.667 -2.667 1.473 -2.667 0 C
-2.667 -1.473 -1.473 -2.667 0 -2.667 C
1.473 -2.667 2.667 -1.473 2.667 0 C
cp
f
GR
GS
[1 0 0 1 441.89999 304.29712] CT
0 0 1 RC
N
2.667 0 M
2.667 1.473 1.473 2.667 0 2.667 C
-1.473 2.667 -2.667 1.473 -2.667 0 C
-2.667 -1.473 -1.473 -2.667 0 -2.667 C
1.473 -2.667 2.667 -1.473 2.667 0 C
cp
f
GR
GS
[1 0 0 1 452.75 302.4437] CT
0 0 1 RC
N
2.667 0 M
2.667 1.473 1.473 2.667 0 2.667 C
-1.473 2.667 -2.667 1.473 -2.667 0 C
-2.667 -1.473 -1.473 -2.667 0 -2.667 C
1.473 -2.667 2.667 -1.473 2.667 0 C
cp
f
GR
GS
[1 0 0 1 463.60001 305.19406] CT
0 0 1 RC
N
2.667 0 M
2.667 1.473 1.473 2.667 0 2.667 C
-1.473 2.667 -2.667 1.473 -2.667 0 C
-2.667 -1.473 -1.473 -2.667 0 -2.667 C
1.473 -2.667 2.667 -1.473 2.667 0 C
cp
f
GR
GS
[1 0 0 1 474.45001 302.75629] CT
0 0 1 RC
N
2.667 0 M
2.667 1.473 1.473 2.667 0 2.667 C
-1.473 2.667 -2.667 1.473 -2.667 0 C
-2.667 -1.473 -1.473 -2.667 0 -2.667 C
1.473 -2.667 2.667 -1.473 2.667 0 C
cp
f
GR
GS
[1 0 0 1 485.29999 309.52722] CT
0 0 1 RC
N
2.667 0 M
2.667 1.473 1.473 2.667 0 2.667 C
-1.473 2.667 -2.667 1.473 -2.667 0 C
-2.667 -1.473 -1.473 -2.667 0 -2.667 C
1.473 -2.667 2.667 -1.473 2.667 0 C
cp
f
GR
GS
[1 0 0 1 496.14999 316.0347] CT
0 0 1 RC
N
2.667 0 M
2.667 1.473 1.473 2.667 0 2.667 C
-1.473 2.667 -2.667 1.473 -2.667 0 C
-2.667 -1.473 -1.473 -2.667 0 -2.667 C
1.473 -2.667 2.667 -1.473 2.667 0 C
cp
f
GR
GS
[1 0 0 1 507 322.91263] CT
0 0 1 RC
N
2.667 0 M
2.667 1.473 1.473 2.667 0 2.667 C
-1.473 2.667 -2.667 1.473 -2.667 0 C
-2.667 -1.473 -1.473 -2.667 0 -2.667 C
1.473 -2.667 2.667 -1.473 2.667 0 C
cp
f
GR
GS
1 0 0 RC
1 LJ
N
73 302.5 M
73.434 302.5 L
73.868 302.5 L
74.302 302.5 L
74.736 302.5 L
75.17 302.5 L
75.604 302.5 L
76.038 302.5 L
76.472 302.5 L
76.906 302.5 L
77.34 302.5 L
77.774 302.5 L
78.208 302.5 L
78.642 302.5 L
79.076 302.5 L
79.51 302.5 L
79.944 302.5 L
80.378 302.5 L
80.812 302.5 L
81.246 302.5 L
81.68 302.5 L
82.114 302.5 L
82.548 302.5 L
82.982 302.5 L
83.416 302.5 L
83.85 302.5 L
84.284 302.5 L
84.718 302.5 L
85.152 302.5 L
85.586 302.5 L
86.02 302.5 L
86.454 302.5 L
86.888 302.5 L
87.322 302.5 L
87.756 302.5 L
88.19 302.5 L
88.624 302.5 L
89.058 302.5 L
89.492 302.5 L
89.926 302.5 L
90.36 302.5 L
90.794 302.5 L
91.228 302.5 L
91.662 302.5 L
92.096 302.5 L
92.53 302.5 L
92.964 302.5 L
93.398 302.5 L
93.832 302.5 L
94.266 302.5 L
94.7 302.5 L
95.134 302.5 L
95.568 302.5 L
96.002 302.5 L
96.436 302.5 L
96.87 302.5 L
97.304 302.5 L
97.738 302.5 L
98.172 302.5 L
98.606 302.5 L
99.04 302.5 L
99.474 302.5 L
99.908 302.5 L
100.342 302.5 L
100.776 302.5 L
101.21 302.5 L
101.644 302.5 L
102.078 302.5 L
102.512 302.5 L
102.946 302.5 L
103.38 302.5 L
103.814 302.5 L
104.248 302.5 L
104.682 302.5 L
105.116 302.5 L
105.55 302.5 L
105.984 302.5 L
106.418 302.5 L
106.852 302.5 L
107.286 302.5 L
107.72 302.5 L
108.154 302.5 L
108.588 302.5 L
109.022 302.5 L
109.456 302.5 L
109.89 302.5 L
110.324 302.5 L
110.758 302.5 L
111.192 302.5 L
111.626 302.5 L
112.06 302.5 L
112.494 302.5 L
112.928 302.5 L
113.362 302.5 L
113.796 302.5 L
114.23 302.5 L
114.664 302.5 L
115.098 302.5 L
115.532 302.5 L
115.966 302.5 L
116.4 302.5 L
116.834 302.5 L
117.268 302.5 L
117.702 302.5 L
118.136 302.5 L
118.57 302.5 L
119.004 302.5 L
119.438 302.5 L
119.872 302.5 L
120.306 302.5 L
120.74 302.5 L
121.174 302.5 L
121.608 302.5 L
122.042 302.5 L
122.476 302.5 L
122.91 302.5 L
123.344 302.5 L
123.778 302.5 L
124.212 302.5 L
124.646 302.5 L
125.08 302.5 L
125.514 302.5 L
125.948 302.5 L
126.382 302.5 L
126.816 302.5 L
127.25 302.5 L
127.684 302.5 L
128.118 302.5 L
128.552 302.5 L
128.986 302.5 L
129.42 302.5 L
129.854 302.5 L
130.288 302.5 L
130.722 302.5 L
131.156 302.5 L
131.59 302.5 L
132.024 302.5 L
132.458 302.5 L
132.892 302.5 L
133.326 302.5 L
133.76 302.5 L
134.194 302.5 L
134.628 302.5 L
135.062 302.5 L
135.496 302.5 L
135.93 302.5 L
136.364 302.5 L
136.798 302.5 L
137.232 302.5 L
137.666 302.5 L
138.1 302.5 L
138.534 302.5 L
138.968 302.5 L
139.402 302.5 L
139.836 302.5 L
140.27 302.5 L
140.704 302.5 L
141.138 302.5 L
141.572 302.5 L
142.006 302.5 L
142.44 302.5 L
142.874 302.5 L
143.308 302.5 L
143.742 302.5 L
144.176 302.5 L
144.61 302.5 L
145.044 302.5 L
145.478 302.5 L
145.912 302.5 L
146.346 302.5 L
146.78 302.5 L
147.214 302.5 L
147.648 302.5 L
148.082 302.5 L
148.516 302.5 L
148.95 302.5 L
149.384 302.5 L
149.818 302.5 L
150.252 302.5 L
150.686 302.5 L
151.12 302.5 L
151.554 302.5 L
151.988 302.5 L
152.422 302.5 L
152.856 302.5 L
153.29 302.5 L
153.724 302.5 L
154.158 302.5 L
154.592 302.5 L
155.026 302.5 L
155.46 302.5 L
155.894 302.5 L
156.328 302.5 L
156.762 302.5 L
157.196 302.5 L
157.63 302.5 L
158.064 302.5 L
158.498 302.5 L
158.932 302.5 L
159.366 302.5 L
159.8 302.5 L
160.234 302.5 L
160.668 302.5 L
161.102 302.5 L
161.536 302.5 L
161.97 302.5 L
162.404 302.5 L
162.838 302.5 L
163.272 302.5 L
163.706 302.5 L
164.14 302.5 L
164.574 302.5 L
165.008 302.5 L
165.442 302.5 L
165.876 302.5 L
166.31 302.5 L
166.744 302.5 L
167.178 302.5 L
167.612 302.5 L
168.046 302.5 L
168.48 302.5 L
168.914 302.5 L
169.348 302.5 L
169.782 302.5 L
170.216 302.5 L
170.65 302.5 L
171.084 302.5 L
171.518 302.5 L
171.952 302.5 L
172.386 302.5 L
172.82 302.5 L
173.254 302.5 L
173.688 302.5 L
174.122 302.5 L
174.556 302.5 L
174.99 302.5 L
175.424 302.5 L
175.858 302.5 L
176.292 302.5 L
176.726 302.5 L
177.16 302.5 L
177.594 302.5 L
178.028 302.5 L
178.462 302.5 L
178.896 302.5 L
179.33 302.5 L
179.764 302.5 L
180.198 302.5 L
180.632 302.5 L
181.066 302.5 L
181.5 302.5 L
181.934 302.5 L
182.368 302.5 L
182.802 302.5 L
183.236 302.5 L
183.67 302.5 L
184.104 302.5 L
184.538 302.5 L
184.972 302.5 L
185.406 302.5 L
185.84 302.5 L
186.274 302.5 L
186.708 302.5 L
187.142 302.5 L
187.576 302.5 L
188.01 302.5 L
188.444 302.5 L
188.878 302.5 L
189.312 302.5 L
189.746 302.5 L
190.18 302.5 L
190.614 302.5 L
191.048 302.5 L
191.482 302.5 L
191.916 302.5 L
192.35 302.5 L
192.784 302.5 L
193.218 302.5 L
193.652 302.5 L
194.086 302.5 L
194.52 302.5 L
194.954 302.5 L
195.388 302.5 L
195.822 302.5 L
196.256 302.5 L
196.69 302.5 L
197.124 302.5 L
197.558 302.5 L
197.992 302.5 L
198.426 302.5 L
198.86 302.5 L
199.294 302.5 L
199.728 302.5 L
200.162 302.5 L
200.596 302.5 L
201.03 302.5 L
201.464 302.5 L
201.898 302.5 L
202.332 302.5 L
202.766 302.5 L
203.2 302.5 L
203.634 302.5 L
204.068 302.5 L
204.502 302.5 L
204.936 302.5 L
205.37 302.5 L
205.804 302.5 L
206.238 302.5 L
206.672 302.5 L
207.106 302.5 L
207.54 302.5 L
207.974 302.5 L
208.408 302.5 L
208.842 302.5 L
209.276 302.5 L
209.71 302.5 L
210.144 302.5 L
210.578 302.5 L
211.012 302.5 L
211.446 302.5 L
211.88 302.5 L
212.314 302.5 L
212.748 302.5 L
213.182 302.5 L
213.616 302.5 L
214.05 302.5 L
214.484 302.5 L
214.918 302.5 L
215.352 302.5 L
215.786 302.5 L
216.22 302.5 L
216.654 302.5 L
217.088 302.5 L
217.522 302.5 L
217.956 302.5 L
218.39 302.5 L
218.824 302.5 L
219.258 302.5 L
219.692 302.5 L
220.126 302.5 L
220.56 302.5 L
220.994 302.5 L
221.428 302.5 L
221.862 302.5 L
222.296 302.5 L
222.73 302.5 L
223.164 302.5 L
223.598 302.5 L
224.032 302.5 L
224.466 302.5 L
224.9 302.5 L
225.334 302.5 L
225.768 302.5 L
226.202 302.5 L
226.636 302.5 L
227.07 302.5 L
227.504 302.5 L
227.938 302.5 L
228.372 302.5 L
228.806 302.5 L
229.24 302.5 L
229.674 302.5 L
230.108 302.5 L
230.542 302.5 L
230.976 302.5 L
231.41 302.5 L
231.844 302.5 L
232.278 302.5 L
232.712 302.5 L
233.146 302.5 L
233.58 302.5 L
234.014 302.5 L
234.448 302.5 L
234.882 302.5 L
235.316 302.5 L
235.75 302.5 L
236.184 302.5 L
236.618 302.5 L
237.052 302.5 L
237.486 302.5 L
237.92 302.5 L
238.354 302.5 L
238.788 302.5 L
239.222 302.5 L
239.656 302.5 L
240.09 302.5 L
240.524 302.5 L
240.958 302.5 L
241.392 302.5 L
241.826 302.5 L
242.26 302.5 L
242.694 302.5 L
243.128 302.5 L
243.562 302.5 L
243.996 302.5 L
244.43 302.5 L
244.864 302.5 L
245.298 302.5 L
245.732 302.5 L
246.166 302.5 L
246.6 302.5 L
247.034 302.5 L
247.468 302.5 L
247.902 302.5 L
248.336 302.5 L
248.77 302.5 L
249.204 302.5 L
249.638 302.5 L
250.072 302.5 L
250.506 302.5 L
250.94 302.5 L
251.374 302.5 L
251.808 302.5 L
252.242 302.5 L
252.676 302.5 L
253.11 302.5 L
253.544 302.5 L
253.978 302.5 L
254.412 302.5 L
254.846 302.5 L
255.28 302.5 L
255.714 302.5 L
256.148 302.5 L
256.582 302.5 L
257.016 302.5 L
257.45 302.5 L
257.884 302.5 L
258.318 302.5 L
258.752 302.5 L
259.186 302.5 L
259.62 302.5 L
260.054 302.5 L
260.488 302.5 L
260.922 302.5 L
261.356 302.5 L
261.79 302.5 L
262.224 302.5 L
262.658 302.5 L
263.092 302.5 L
263.526 302.5 L
263.96 302.5 L
264.394 302.5 L
264.828 302.5 L
265.262 302.5 L
265.696 302.5 L
266.13 302.5 L
266.564 302.5 L
266.998 302.5 L
267.432 302.5 L
267.866 302.5 L
268.3 302.5 L
268.734 302.5 L
269.168 302.5 L
269.602 302.5 L
270.036 302.5 L
270.47 302.5 L
270.904 302.5 L
271.338 302.5 L
271.772 302.5 L
272.206 302.5 L
272.64 302.5 L
273.074 302.5 L
273.508 302.5 L
273.942 302.5 L
274.376 302.5 L
274.81 302.5 L
275.244 302.5 L
275.678 302.5 L
276.112 302.5 L
276.546 302.5 L
276.98 302.5 L
277.414 302.5 L
277.848 302.5 L
278.282 302.5 L
278.716 302.5 L
279.15 302.5 L
279.584 302.5 L
280.018 302.5 L
280.452 302.5 L
280.886 302.5 L
281.32 302.5 L
281.754 302.5 L
282.188 302.5 L
282.622 302.5 L
283.056 302.5 L
283.49 302.5 L
283.924 302.5 L
284.358 302.5 L
284.792 302.5 L
285.226 302.5 L
285.66 302.5 L
286.094 302.5 L
286.528 302.5 L
286.962 302.5 L
287.396 302.5 L
287.83 302.5 L
288.264 302.5 L
288.698 302.5 L
289.132 302.5 L
289.566 302.5 L
290 302.5 L
290.434 302.5 L
290.868 302.5 L
291.302 302.5 L
291.736 302.5 L
292.17 302.5 L
292.604 302.5 L
293.038 302.5 L
293.472 302.5 L
293.906 302.5 L
294.34 302.5 L
294.774 302.5 L
295.208 302.5 L
295.642 302.5 L
296.076 302.5 L
296.51 302.5 L
296.944 302.5 L
297.378 302.5 L
297.812 302.5 L
298.246 302.5 L
298.68 302.5 L
299.114 302.5 L
299.548 302.5 L
299.982 302.5 L
300.416 302.5 L
300.85 302.5 L
301.284 302.5 L
301.718 302.5 L
302.152 302.5 L
302.586 302.5 L
303.02 302.5 L
303.454 302.5 L
303.888 302.5 L
304.322 302.5 L
304.756 302.5 L
305.19 302.5 L
305.624 302.5 L
306.058 302.5 L
306.492 302.5 L
306.926 302.5 L
307.36 302.5 L
307.794 302.5 L
308.228 302.5 L
308.662 302.5 L
309.096 302.5 L
309.53 302.5 L
309.964 302.5 L
310.398 302.5 L
310.832 302.5 L
311.266 302.5 L
311.7 302.5 L
312.134 302.5 L
312.568 302.5 L
313.002 302.5 L
313.436 302.5 L
313.87 302.5 L
314.304 302.5 L
314.738 302.5 L
315.172 302.5 L
315.606 302.5 L
316.04 302.5 L
316.474 302.5 L
316.908 302.5 L
317.342 302.5 L
317.776 302.5 L
318.21 302.5 L
318.644 302.5 L
319.078 302.5 L
319.512 302.5 L
319.946 302.5 L
320.38 302.5 L
320.814 302.5 L
321.248 302.5 L
321.682 302.5 L
322.116 302.5 L
322.55 302.5 L
322.984 302.5 L
323.418 302.5 L
323.852 302.5 L
324.286 302.5 L
324.72 302.5 L
325.154 302.5 L
325.588 302.5 L
326.022 302.5 L
326.456 302.5 L
326.89 302.5 L
327.324 302.5 L
327.758 302.5 L
328.192 302.5 L
328.626 302.5 L
329.06 302.5 L
329.494 302.5 L
329.928 302.5 L
330.362 302.5 L
330.796 302.5 L
331.23 302.5 L
331.664 302.5 L
332.098 302.5 L
332.532 302.5 L
332.966 302.5 L
333.4 302.5 L
333.834 302.5 L
334.268 302.5 L
334.702 302.5 L
335.136 302.5 L
335.57 302.5 L
336.004 302.5 L
336.438 302.5 L
336.872 302.5 L
337.306 302.5 L
337.74 302.5 L
338.174 302.5 L
338.608 302.5 L
339.042 302.5 L
339.476 302.5 L
339.91 302.5 L
340.344 302.5 L
340.778 302.5 L
341.212 302.5 L
341.646 302.5 L
342.08 302.5 L
342.514 302.5 L
342.948 302.5 L
343.382 302.5 L
343.816 302.5 L
344.25 302.5 L
344.684 302.5 L
345.118 302.5 L
345.552 302.5 L
345.986 302.5 L
346.42 302.5 L
346.854 302.5 L
347.288 302.5 L
347.722 302.5 L
348.156 302.5 L
348.59 302.5 L
349.024 302.5 L
349.458 302.5 L
349.892 302.5 L
350.326 302.5 L
350.76 302.5 L
351.194 302.5 L
351.628 302.5 L
352.062 302.5 L
352.496 302.5 L
352.93 302.5 L
353.364 302.5 L
353.798 302.5 L
354.232 302.5 L
354.666 302.5 L
355.1 302.5 L
355.534 302.5 L
355.968 302.5 L
356.402 302.5 L
356.836 302.5 L
357.27 302.5 L
357.704 302.5 L
358.138 302.5 L
358.572 302.5 L
359.006 302.5 L
359.44 302.5 L
359.874 302.5 L
360.308 302.5 L
360.742 302.5 L
361.176 302.5 L
361.61 302.5 L
362.044 302.5 L
362.478 302.5 L
362.912 302.5 L
363.346 302.5 L
363.78 302.5 L
364.214 302.5 L
364.648 302.5 L
365.082 302.5 L
365.516 302.5 L
365.95 302.5 L
366.384 302.5 L
366.818 302.5 L
367.252 302.5 L
367.686 302.5 L
368.12 302.5 L
368.554 302.5 L
368.988 302.5 L
369.422 302.5 L
369.856 302.5 L
370.29 302.5 L
370.724 302.5 L
371.158 302.5 L
371.592 302.5 L
372.026 302.5 L
372.46 302.5 L
372.894 302.5 L
373.328 302.5 L
373.762 302.5 L
374.196 302.5 L
374.63 302.5 L
375.064 302.5 L
375.498 302.5 L
375.932 302.5 L
376.366 302.5 L
376.8 302.5 L
377.234 302.5 L
377.668 302.5 L
378.102 302.5 L
378.536 302.5 L
378.97 302.5 L
379.404 302.5 L
379.838 302.5 L
380.272 302.5 L
380.706 302.5 L
381.14 302.5 L
381.574 302.5 L
382.008 302.5 L
382.442 302.5 L
382.876 302.5 L
383.31 302.5 L
383.744 302.5 L
384.178 302.5 L
384.612 302.5 L
385.046 302.5 L
385.48 302.5 L
385.914 302.5 L
386.348 302.5 L
386.782 302.5 L
387.216 302.5 L
387.65 302.5 L
388.084 302.5 L
388.518 302.5 L
388.952 302.5 L
389.386 302.5 L
389.82 302.5 L
390.254 302.5 L
390.688 302.5 L
391.122 302.5 L
391.556 302.5 L
391.99 302.5 L
392.424 302.5 L
392.858 302.5 L
393.292 302.5 L
393.726 302.5 L
394.16 302.5 L
394.594 302.5 L
395.028 302.5 L
395.462 302.5 L
395.896 302.5 L
396.33 302.5 L
396.764 302.5 L
397.198 302.5 L
397.632 302.5 L
398.066 302.5 L
398.5 302.5 L
398.934 302.5 L
399.368 302.5 L
399.802 302.5 L
400.236 302.5 L
400.67 302.5 L
401.104 302.5 L
401.538 302.5 L
401.972 302.5 L
402.406 302.5 L
402.84 302.5 L
403.274 302.5 L
403.708 302.5 L
404.142 302.5 L
404.576 302.5 L
405.01 302.5 L
405.444 302.5 L
405.878 302.5 L
406.312 302.5 L
406.746 302.5 L
407.18 302.5 L
407.614 302.5 L
408.048 302.5 L
408.482 302.5 L
408.916 302.5 L
409.35 302.5 L
409.784 302.5 L
410.218 302.5 L
410.652 302.5 L
411.086 302.5 L
411.52 302.5 L
411.954 302.5 L
412.388 302.5 L
412.822 302.5 L
413.256 302.5 L
413.69 302.5 L
414.124 302.5 L
414.558 302.5 L
414.992 302.5 L
415.426 302.5 L
415.86 302.5 L
416.294 302.5 L
416.728 302.5 L
417.162 302.5 L
417.596 302.5 L
418.03 302.5 L
418.464 302.5 L
418.898 302.5 L
419.332 302.5 L
419.766 302.5 L
420.2 302.5 L
420.634 302.5 L
421.068 302.5 L
421.502 302.5 L
421.936 302.5 L
422.37 302.5 L
422.804 302.5 L
423.238 302.5 L
423.672 302.5 L
424.106 302.5 L
424.54 302.5 L
424.974 302.5 L
425.408 302.5 L
425.842 302.5 L
426.276 302.5 L
426.71 302.5 L
427.144 302.5 L
427.578 302.5 L
428.012 302.5 L
428.446 302.5 L
428.88 302.5 L
429.314 302.5 L
429.748 302.5 L
430.182 302.5 L
430.616 302.5 L
431.05 302.5 L
431.484 302.5 L
431.918 302.5 L
432.352 302.5 L
432.786 302.5 L
433.22 302.5 L
433.654 302.5 L
434.088 302.5 L
434.522 302.5 L
434.956 302.5 L
435.39 302.5 L
435.824 302.5 L
436.258 302.5 L
436.692 302.5 L
437.126 302.5 L
437.56 302.5 L
437.994 302.5 L
438.428 302.5 L
438.862 302.5 L
439.296 302.5 L
439.73 302.5 L
440.164 302.5 L
440.598 302.5 L
441.032 302.5 L
441.466 302.5 L
441.9 302.5 L
442.334 302.5 L
442.768 302.5 L
443.202 302.5 L
443.636 302.5 L
444.07 302.5 L
444.504 302.5 L
444.938 302.5 L
445.372 302.5 L
445.806 302.5 L
446.24 302.5 L
446.674 302.5 L
447.108 302.5 L
447.542 302.5 L
447.976 302.5 L
448.41 302.5 L
448.844 302.5 L
449.278 302.5 L
449.712 302.5 L
450.146 302.5 L
450.58 302.5 L
451.014 302.5 L
451.448 302.5 L
451.882 302.5 L
452.316 302.5 L
452.75 302.5 L
453.184 302.5 L
453.618 302.5 L
454.052 302.5 L
454.486 302.5 L
454.92 302.5 L
455.354 302.5 L
455.788 302.5 L
456.222 302.5 L
456.656 302.5 L
457.09 302.5 L
457.524 302.5 L
457.958 302.5 L
458.392 302.5 L
458.826 302.5 L
459.26 302.5 L
459.694 302.5 L
460.128 302.5 L
460.562 302.5 L
460.996 302.5 L
461.43 302.5 L
461.864 302.5 L
462.298 302.5 L
462.732 302.5 L
463.166 302.5 L
463.6 302.5 L
464.034 302.5 L
464.468 302.5 L
464.902 302.5 L
465.336 302.5 L
465.77 302.5 L
466.204 302.5 L
466.638 302.5 L
467.072 302.5 L
467.506 302.5 L
467.94 302.5 L
468.374 302.5 L
468.808 302.5 L
469.242 302.5 L
469.676 302.5 L
470.11 302.5 L
470.544 302.5 L
470.978 302.5 L
471.412 302.5 L
471.846 302.5 L
472.28 302.5 L
472.714 302.5 L
473.148 302.5 L
473.582 302.5 L
474.016 302.5 L
474.45 302.5 L
474.884 302.5 L
475.318 302.5 L
475.752 302.5 L
476.186 302.5 L
476.62 302.5 L
477.054 302.5 L
477.488 302.5 L
477.922 302.5 L
478.356 302.5 L
478.79 302.5 L
479.224 302.5 L
479.658 302.5 L
480.092 302.5 L
480.526 302.5 L
480.96 302.5 L
481.394 302.5 L
481.828 302.5 L
482.262 302.5 L
482.696 302.5 L
483.13 302.5 L
483.564 302.5 L
483.998 302.5 L
484.432 302.5 L
484.866 302.5 L
485.3 302.5 L
485.734 302.5 L
486.168 302.5 L
486.602 302.5 L
487.036 302.5 L
487.47 302.5 L
487.904 302.5 L
488.338 302.5 L
488.772 302.5 L
489.206 302.5 L
489.64 302.5 L
490.074 302.5 L
490.508 302.5 L
490.942 302.5 L
491.376 302.5 L
491.81 302.5 L
492.244 302.5 L
492.678 302.5 L
493.112 302.5 L
493.546 302.5 L
493.98 302.5 L
494.414 302.5 L
494.848 302.5 L
495.282 302.5 L
495.716 302.5 L
496.15 302.5 L
496.584 302.5 L
497.018 302.5 L
497.452 302.5 L
497.886 302.5 L
498.32 302.5 L
498.754 302.5 L
499.188 302.5 L
499.622 302.5 L
500.056 302.5 L
500.49 302.5 L
500.924 302.5 L
501.358 302.5 L
501.792 302.5 L
502.226 302.5 L
502.66 302.5 L
503.094 302.5 L
503.528 302.5 L
503.962 302.5 L
504.396 302.5 L
504.83 302.5 L
505.264 302.5 L
505.698 302.5 L
506.132 302.5 L
506.566 302.5 L
507 302.5 L
S
GR
GS
1 GC
N
342 264 M
342 238 L
500 238 L
500 264 L
cp
f
GR
GS
[1 0 0 1 379 245.35849] CT
/Helvetica 9 F
GS
[1 0 0 1 0 0] CT
0 3.5 moveto 
1 -1 scale
(Polynomial model - residuals) t 
GR
GR
GS
[1 0 0 1 361 245.35849] CT
0 0 1 RC
N
2.667 0 M
2.667 1.473 1.473 2.667 0 2.667 C
-1.473 2.667 -2.667 1.473 -2.667 0 C
-2.667 -1.473 -1.473 -2.667 0 -2.667 C
1.473 -2.667 2.667 -1.473 2.667 0 C
cp
f
GR
GS
[1 0 0 1 379 256.64151] CT
/Helvetica 9 F
GS
[1 0 0 1 0 0] CT
0 3.5 moveto 
1 -1 scale
(Zero Line) t 
GR
GR
GS
1 0 0 RC
1 LJ
N
346 256.642 M
376 256.642 L
S
GR
GS
0.149 GC
10.0 ML
0.5 LW
N
342 264 M
342 238 L
500 238 L
500 264 L
cp
S
GR
%%Trailer
%%Pages: 1
%%EOF
