%!PS-Adobe-3.0 EPSF-3.0
%%Creator: (MATLAB, The Mathworks, Inc. Version 9.0.0.341360 \(R2016a\). Operating System: Mac OS X)
%%Title: /Users/deepak/Documents/MATLAB/matlabprojects/singleCalib_IH/source/wrzp.eps
%%CreationDate: 2016-11-26T22:35:56
%%Pages: (atend)
%%BoundingBox: 0 0 560 420
%%LanguageLevel: 3
%%EndComments
%%BeginProlog
%%BeginResource: procset (Apache XML Graphics Std ProcSet) 1.2 0
%%Version: 1.2 0
%%Copyright: (Copyright 2001-2003,2010 The Apache Software Foundation. License terms: http://www.apache.org/licenses/LICENSE-2.0)
/bd{bind def}bind def
/ld{load def}bd
/GR/grestore ld
/M/moveto ld
/LJ/setlinejoin ld
/C/curveto ld
/f/fill ld
/LW/setlinewidth ld
/GC/setgray ld
/t/show ld
/N/newpath ld
/CT/concat ld
/cp/closepath ld
/S/stroke ld
/L/lineto ld
/CC/setcmykcolor ld
/A/ashow ld
/GS/gsave ld
/RC/setrgbcolor ld
/RM/rmoveto ld
/ML/setmiterlimit ld
/re {4 2 roll M
1 index 0 rlineto
0 exch rlineto
neg 0 rlineto
cp } bd
/_ctm matrix def
/_tm matrix def
/BT { _ctm currentmatrix pop matrix _tm copy pop 0 0 moveto } bd
/ET { _ctm setmatrix } bd
/iTm { _ctm setmatrix _tm concat } bd
/Tm { _tm astore pop iTm 0 0 moveto } bd
/ux 0.0 def
/uy 0.0 def
/F {
  /Tp exch def
  /Tf exch def
  Tf findfont Tp scalefont setfont
  /cf Tf def  /cs Tp def
} bd
/ULS {currentpoint /uy exch def /ux exch def} bd
/ULE {
  /Tcx currentpoint pop def
  gsave
  newpath
  cf findfont cs scalefont dup
  /FontMatrix get 0 get /Ts exch def /FontInfo get dup
  /UnderlinePosition get Ts mul /To exch def
  /UnderlineThickness get Ts mul /Tt exch def
  ux uy To add moveto  Tcx uy To add lineto
  Tt setlinewidth stroke
  grestore
} bd
/OLE {
  /Tcx currentpoint pop def
  gsave
  newpath
  cf findfont cs scalefont dup
  /FontMatrix get 0 get /Ts exch def /FontInfo get dup
  /UnderlinePosition get Ts mul /To exch def
  /UnderlineThickness get Ts mul /Tt exch def
  ux uy To add cs add moveto Tcx uy To add cs add lineto
  Tt setlinewidth stroke
  grestore
} bd
/SOE {
  /Tcx currentpoint pop def
  gsave
  newpath
  cf findfont cs scalefont dup
  /FontMatrix get 0 get /Ts exch def /FontInfo get dup
  /UnderlinePosition get Ts mul /To exch def
  /UnderlineThickness get Ts mul /Tt exch def
  ux uy To add cs 10 mul 26 idiv add moveto Tcx uy To add cs 10 mul 26 idiv add lineto
  Tt setlinewidth stroke
  grestore
} bd
/QT {
/Y22 exch store
/X22 exch store
/Y21 exch store
/X21 exch store
currentpoint
/Y21 load 2 mul add 3 div exch
/X21 load 2 mul add 3 div exch
/X21 load 2 mul /X22 load add 3 div
/Y21 load 2 mul /Y22 load add 3 div
/X22 load /Y22 load curveto
} bd
/SSPD {
dup length /d exch dict def
{
/v exch def
/k exch def
currentpagedevice k known {
/cpdv currentpagedevice k get def
v cpdv ne {
/upd false def
/nullv v type /nulltype eq def
/nullcpdv cpdv type /nulltype eq def
nullv nullcpdv or
{
/upd true def
} {
/sametype v type cpdv type eq def
sametype {
v type /arraytype eq {
/vlen v length def
/cpdvlen cpdv length def
vlen cpdvlen eq {
0 1 vlen 1 sub {
/i exch def
/obj v i get def
/cpdobj cpdv i get def
obj cpdobj ne {
/upd true def
exit
} if
} for
} {
/upd true def
} ifelse
} {
v type /dicttype eq {
v {
/dv exch def
/dk exch def
/cpddv cpdv dk get def
dv cpddv ne {
/upd true def
exit
} if
} forall
} {
/upd true def
} ifelse
} ifelse
} if
} ifelse
upd true eq {
d k v put
} if
} if
} if
} forall
d length 0 gt {
d setpagedevice
} if
} bd
%%EndResource
%%BeginResource: procset (Apache XML Graphics EPS ProcSet) 1.0 0
%%Version: 1.0 0
%%Copyright: (Copyright 2002-2003 The Apache Software Foundation. License terms: http://www.apache.org/licenses/LICENSE-2.0)
/BeginEPSF { %def
/b4_Inc_state save def         % Save state for cleanup
/dict_count countdictstack def % Count objects on dict stack
/op_count count 1 sub def      % Count objects on operand stack
userdict begin                 % Push userdict on dict stack
/showpage { } def              % Redefine showpage, { } = null proc
0 setgray 0 setlinecap         % Prepare graphics state
1 setlinewidth 0 setlinejoin
10 setmiterlimit [ ] 0 setdash newpath
/languagelevel where           % If level not equal to 1 then
{pop languagelevel             % set strokeadjust and
1 ne                           % overprint to their defaults.
{false setstrokeadjust false setoverprint
} if
} if
} bd
/EndEPSF { %def
count op_count sub {pop} repeat            % Clean up stacks
countdictstack dict_count sub {end} repeat
b4_Inc_state restore
} bd
%%EndResource
%FOPBeginFontDict
%%IncludeResource: font Courier-Bold
%%IncludeResource: font Helvetica
%%IncludeResource: font Courier-BoldOblique
%%IncludeResource: font Courier-Oblique
%%IncludeResource: font Times-Roman
%%IncludeResource: font Helvetica-BoldOblique
%%IncludeResource: font Helvetica-Bold
%%IncludeResource: font Helvetica-Oblique
%%IncludeResource: font Times-BoldItalic
%%IncludeResource: font Courier
%%IncludeResource: font Times-Italic
%%IncludeResource: font Times-Bold
%%IncludeResource: font Symbol
%%IncludeResource: font ZapfDingbats
%FOPEndFontDict
%%BeginResource: encoding WinAnsiEncoding
/WinAnsiEncoding [
/.notdef /.notdef /.notdef /.notdef /.notdef
/.notdef /.notdef /.notdef /.notdef /.notdef
/.notdef /.notdef /.notdef /.notdef /.notdef
/.notdef /.notdef /.notdef /.notdef /.notdef
/.notdef /.notdef /.notdef /.notdef /.notdef
/.notdef /.notdef /.notdef /.notdef /.notdef
/.notdef /.notdef /space /exclam /quotedbl
/numbersign /dollar /percent /ampersand /quotesingle
/parenleft /parenright /asterisk /plus /comma
/hyphen /period /slash /zero /one
/two /three /four /five /six
/seven /eight /nine /colon /semicolon
/less /equal /greater /question /at
/A /B /C /D /E
/F /G /H /I /J
/K /L /M /N /O
/P /Q /R /S /T
/U /V /W /X /Y
/Z /bracketleft /backslash /bracketright /asciicircum
/underscore /quoteleft /a /b /c
/d /e /f /g /h
/i /j /k /l /m
/n /o /p /q /r
/s /t /u /v /w
/x /y /z /braceleft /bar
/braceright /asciitilde /bullet /Euro /bullet
/quotesinglbase /florin /quotedblbase /ellipsis /dagger
/daggerdbl /circumflex /perthousand /Scaron /guilsinglleft
/OE /bullet /Zcaron /bullet /bullet
/quoteleft /quoteright /quotedblleft /quotedblright /bullet
/endash /emdash /asciitilde /trademark /scaron
/guilsinglright /oe /bullet /zcaron /Ydieresis
/space /exclamdown /cent /sterling /currency
/yen /brokenbar /section /dieresis /copyright
/ordfeminine /guillemotleft /logicalnot /sfthyphen /registered
/macron /degree /plusminus /twosuperior /threesuperior
/acute /mu /paragraph /middot /cedilla
/onesuperior /ordmasculine /guillemotright /onequarter /onehalf
/threequarters /questiondown /Agrave /Aacute /Acircumflex
/Atilde /Adieresis /Aring /AE /Ccedilla
/Egrave /Eacute /Ecircumflex /Edieresis /Igrave
/Iacute /Icircumflex /Idieresis /Eth /Ntilde
/Ograve /Oacute /Ocircumflex /Otilde /Odieresis
/multiply /Oslash /Ugrave /Uacute /Ucircumflex
/Udieresis /Yacute /Thorn /germandbls /agrave
/aacute /acircumflex /atilde /adieresis /aring
/ae /ccedilla /egrave /eacute /ecircumflex
/edieresis /igrave /iacute /icircumflex /idieresis
/eth /ntilde /ograve /oacute /ocircumflex
/otilde /odieresis /divide /oslash /ugrave
/uacute /ucircumflex /udieresis /yacute /thorn
/ydieresis
] def
%%EndResource
%FOPBeginFontReencode
/Courier-Bold findfont
dup length dict begin
  {1 index /FID ne {def} {pop pop} ifelse} forall
  /Encoding WinAnsiEncoding def
  currentdict
end
/Courier-Bold exch definefont pop
/Helvetica findfont
dup length dict begin
  {1 index /FID ne {def} {pop pop} ifelse} forall
  /Encoding WinAnsiEncoding def
  currentdict
end
/Helvetica exch definefont pop
/Courier-BoldOblique findfont
dup length dict begin
  {1 index /FID ne {def} {pop pop} ifelse} forall
  /Encoding WinAnsiEncoding def
  currentdict
end
/Courier-BoldOblique exch definefont pop
/Courier-Oblique findfont
dup length dict begin
  {1 index /FID ne {def} {pop pop} ifelse} forall
  /Encoding WinAnsiEncoding def
  currentdict
end
/Courier-Oblique exch definefont pop
/Times-Roman findfont
dup length dict begin
  {1 index /FID ne {def} {pop pop} ifelse} forall
  /Encoding WinAnsiEncoding def
  currentdict
end
/Times-Roman exch definefont pop
/Helvetica-BoldOblique findfont
dup length dict begin
  {1 index /FID ne {def} {pop pop} ifelse} forall
  /Encoding WinAnsiEncoding def
  currentdict
end
/Helvetica-BoldOblique exch definefont pop
/Helvetica-Bold findfont
dup length dict begin
  {1 index /FID ne {def} {pop pop} ifelse} forall
  /Encoding WinAnsiEncoding def
  currentdict
end
/Helvetica-Bold exch definefont pop
/Helvetica-Oblique findfont
dup length dict begin
  {1 index /FID ne {def} {pop pop} ifelse} forall
  /Encoding WinAnsiEncoding def
  currentdict
end
/Helvetica-Oblique exch definefont pop
/Times-BoldItalic findfont
dup length dict begin
  {1 index /FID ne {def} {pop pop} ifelse} forall
  /Encoding WinAnsiEncoding def
  currentdict
end
/Times-BoldItalic exch definefont pop
/Courier findfont
dup length dict begin
  {1 index /FID ne {def} {pop pop} ifelse} forall
  /Encoding WinAnsiEncoding def
  currentdict
end
/Courier exch definefont pop
/Times-Italic findfont
dup length dict begin
  {1 index /FID ne {def} {pop pop} ifelse} forall
  /Encoding WinAnsiEncoding def
  currentdict
end
/Times-Italic exch definefont pop
/Times-Bold findfont
dup length dict begin
  {1 index /FID ne {def} {pop pop} ifelse} forall
  /Encoding WinAnsiEncoding def
  currentdict
end
/Times-Bold exch definefont pop
%FOPEndFontReencode
%%EndProlog
%%Page: 1 1
%%PageBoundingBox: 0 0 560 420
%%BeginPageSetup
[1 0 0 -1 0 420] CT
%%EndPageSetup
GS
1 GC
N
0 0 560 420 re
f
GR
GS
1 GC
N
0 0 560 420 re
f
GR
GS
1 GC
N
73 175 M
507 175 L
507 31 L
73 31 L
cp
f
GR
GS
0.873 GC
1 LJ
0.5 LW
N
73 175 M
73 31 L
S
GR
GS
0.873 GC
1 LJ
0.5 LW
N
127.25 175 M
127.25 31 L
S
GR
GS
0.873 GC
1 LJ
0.5 LW
N
181.5 175 M
181.5 31 L
S
GR
GS
0.873 GC
1 LJ
0.5 LW
N
235.75 175 M
235.75 31 L
S
GR
GS
0.873 GC
1 LJ
0.5 LW
N
290 175 M
290 31 L
S
GR
GS
0.873 GC
1 LJ
0.5 LW
N
344.25 175 M
344.25 31 L
S
GR
GS
0.873 GC
1 LJ
0.5 LW
N
398.5 175 M
398.5 31 L
S
GR
GS
0.873 GC
1 LJ
0.5 LW
N
452.75 175 M
452.75 31 L
S
GR
GS
0.873 GC
1 LJ
0.5 LW
N
507 175 M
507 31 L
S
GR
GS
0.873 GC
1 LJ
0.5 LW
N
507 175 M
73 175 L
S
GR
GS
0.873 GC
1 LJ
0.5 LW
N
507 146.2 M
73 146.2 L
S
GR
GS
0.873 GC
1 LJ
0.5 LW
N
507 117.4 M
73 117.4 L
S
GR
GS
0.873 GC
1 LJ
0.5 LW
N
507 88.6 M
73 88.6 L
S
GR
GS
0.873 GC
1 LJ
0.5 LW
N
507 59.8 M
73 59.8 L
S
GR
GS
0.873 GC
1 LJ
0.5 LW
N
507 31 M
73 31 L
S
GR
GS
0.149 GC
2 setlinecap
1 LJ
0.5 LW
N
73 175 M
507 175 L
S
GR
GS
0.149 GC
2 setlinecap
1 LJ
0.5 LW
N
73 31 M
507 31 L
S
GR
GS
0.149 GC
2 setlinecap
1 LJ
0.5 LW
N
73 175 M
73 170.66 L
S
GR
GS
0.149 GC
2 setlinecap
1 LJ
0.5 LW
N
127.25 175 M
127.25 170.66 L
S
GR
GS
0.149 GC
2 setlinecap
1 LJ
0.5 LW
N
181.5 175 M
181.5 170.66 L
S
GR
GS
0.149 GC
2 setlinecap
1 LJ
0.5 LW
N
235.75 175 M
235.75 170.66 L
S
GR
GS
0.149 GC
2 setlinecap
1 LJ
0.5 LW
N
290 175 M
290 170.66 L
S
GR
GS
0.149 GC
2 setlinecap
1 LJ
0.5 LW
N
344.25 175 M
344.25 170.66 L
S
GR
GS
0.149 GC
2 setlinecap
1 LJ
0.5 LW
N
398.5 175 M
398.5 170.66 L
S
GR
GS
0.149 GC
2 setlinecap
1 LJ
0.5 LW
N
452.75 175 M
452.75 170.66 L
S
GR
GS
0.149 GC
2 setlinecap
1 LJ
0.5 LW
N
507 175 M
507 170.66 L
S
GR
GS
0.149 GC
2 setlinecap
1 LJ
0.5 LW
N
73 31 M
73 35.34 L
S
GR
GS
0.149 GC
2 setlinecap
1 LJ
0.5 LW
N
127.25 31 M
127.25 35.34 L
S
GR
GS
0.149 GC
2 setlinecap
1 LJ
0.5 LW
N
181.5 31 M
181.5 35.34 L
S
GR
GS
0.149 GC
2 setlinecap
1 LJ
0.5 LW
N
235.75 31 M
235.75 35.34 L
S
GR
GS
0.149 GC
2 setlinecap
1 LJ
0.5 LW
N
290 31 M
290 35.34 L
S
GR
GS
0.149 GC
2 setlinecap
1 LJ
0.5 LW
N
344.25 31 M
344.25 35.34 L
S
GR
GS
0.149 GC
2 setlinecap
1 LJ
0.5 LW
N
398.5 31 M
398.5 35.34 L
S
GR
GS
0.149 GC
2 setlinecap
1 LJ
0.5 LW
N
452.75 31 M
452.75 35.34 L
S
GR
GS
0.149 GC
2 setlinecap
1 LJ
0.5 LW
N
507 31 M
507 35.34 L
S
GR
GS
[1 0 0 1 73 179] CT
0.149 GC
/Helvetica 10 F
GS
[1 0 0 1 0 0] CT
-3 10 moveto 
1 -1 scale
(0) t 
GR
GR
GS
[1 0 0 1 127.25 179] CT
0.149 GC
/Helvetica 10 F
GS
[1 0 0 1 0 0] CT
-3 10 moveto 
1 -1 scale
(5) t 
GR
GR
GS
[1 0 0 1 181.5 179] CT
0.149 GC
/Helvetica 10 F
GS
[1 0 0 1 0 0] CT
-6 10 moveto 
1 -1 scale
(10) t 
GR
GR
GS
[1 0 0 1 235.75 179] CT
0.149 GC
/Helvetica 10 F
GS
[1 0 0 1 0 0] CT
-6 10 moveto 
1 -1 scale
(15) t 
GR
GR
GS
[1 0 0 1 290 179] CT
0.149 GC
/Helvetica 10 F
GS
[1 0 0 1 0 0] CT
-6 10 moveto 
1 -1 scale
(20) t 
GR
GR
GS
[1 0 0 1 344.25 179] CT
0.149 GC
/Helvetica 10 F
GS
[1 0 0 1 0 0] CT
-6 10 moveto 
1 -1 scale
(25) t 
GR
GR
GS
[1 0 0 1 398.5 179] CT
0.149 GC
/Helvetica 10 F
GS
[1 0 0 1 0 0] CT
-6 10 moveto 
1 -1 scale
(30) t 
GR
GR
GS
[1 0 0 1 452.75 179] CT
0.149 GC
/Helvetica 10 F
GS
[1 0 0 1 0 0] CT
-6 10 moveto 
1 -1 scale
(35) t 
GR
GR
GS
[1 0 0 1 507 179] CT
0.149 GC
/Helvetica 10 F
GS
[1 0 0 1 0 0] CT
-6 10 moveto 
1 -1 scale
(40) t 
GR
GR
GS
[1 0 0 1 290.00021 193] CT
0.149 GC
/Helvetica-Bold 12 F
GS
[1 0 0 1 0 0] CT
-82 12 moveto 
1 -1 scale
(Camera rotation \(in degrees\)) t 
GR
GR
GS
0.149 GC
2 setlinecap
1 LJ
0.5 LW
N
73 175 M
73 31 L
S
GR
GS
0.149 GC
2 setlinecap
1 LJ
0.5 LW
N
507 175 M
507 31 L
S
GR
GS
0.149 GC
2 setlinecap
1 LJ
0.5 LW
N
73 175 M
77.34 175 L
S
GR
GS
0.149 GC
2 setlinecap
1 LJ
0.5 LW
N
73 146.2 M
77.34 146.2 L
S
GR
GS
0.149 GC
2 setlinecap
1 LJ
0.5 LW
N
73 117.4 M
77.34 117.4 L
S
GR
GS
0.149 GC
2 setlinecap
1 LJ
0.5 LW
N
73 88.6 M
77.34 88.6 L
S
GR
GS
0.149 GC
2 setlinecap
1 LJ
0.5 LW
N
73 59.8 M
77.34 59.8 L
S
GR
GS
0.149 GC
2 setlinecap
1 LJ
0.5 LW
N
73 31 M
77.34 31 L
S
GR
GS
0.149 GC
2 setlinecap
1 LJ
0.5 LW
N
507 175 M
502.66 175 L
S
GR
GS
0.149 GC
2 setlinecap
1 LJ
0.5 LW
N
507 146.2 M
502.66 146.2 L
S
GR
GS
0.149 GC
2 setlinecap
1 LJ
0.5 LW
N
507 117.4 M
502.66 117.4 L
S
GR
GS
0.149 GC
2 setlinecap
1 LJ
0.5 LW
N
507 88.6 M
502.66 88.6 L
S
GR
GS
0.149 GC
2 setlinecap
1 LJ
0.5 LW
N
507 59.8 M
502.66 59.8 L
S
GR
GS
0.149 GC
2 setlinecap
1 LJ
0.5 LW
N
507 31 M
502.66 31 L
S
GR
GS
[1 0 0 1 69 175] CT
0.149 GC
/Helvetica 10 F
GS
[1 0 0 1 0 0] CT
-6 3.5 moveto 
1 -1 scale
(0) t 
GR
GR
GS
[1 0 0 1 69 146.2] CT
0.149 GC
/Helvetica 10 F
GS
[1 0 0 1 0 0] CT
-6 3.5 moveto 
1 -1 scale
(1) t 
GR
GR
GS
[1 0 0 1 69 117.4] CT
0.149 GC
/Helvetica 10 F
GS
[1 0 0 1 0 0] CT
-6 3.5 moveto 
1 -1 scale
(2) t 
GR
GR
GS
[1 0 0 1 69 88.6] CT
0.149 GC
/Helvetica 10 F
GS
[1 0 0 1 0 0] CT
-6 3.5 moveto 
1 -1 scale
(3) t 
GR
GR
GS
[1 0 0 1 69 59.8] CT
0.149 GC
/Helvetica 10 F
GS
[1 0 0 1 0 0] CT
-6 3.5 moveto 
1 -1 scale
(4) t 
GR
GR
GS
[1 0 0 1 69 31] CT
0.149 GC
/Helvetica 10 F
GS
[1 0 0 1 0 0] CT
-6 3.5 moveto 
1 -1 scale
(5) t 
GR
GR
GS
[0 -1 1 0 60 102.99993] CT
0.149 GC
/Helvetica-Bold 12 F
GS
[1 0 0 1 0 0] CT
-55.5 -3 moveto 
1 -1 scale
(Width error \(in mm\)) t 
GR
GR
GS
[1 0 0 1 73 175] CT
0 0 1 RC
N
2.667 0 M
2.667 1.473 1.473 2.667 0 2.667 C
-1.473 2.667 -2.667 1.473 -2.667 0 C
-2.667 -1.473 -1.473 -2.667 0 -2.667 C
1.473 -2.667 2.667 -1.473 2.667 0 C
cp
f
GR
GS
[1 0 0 1 83.85 172.08656] CT
0 0 1 RC
N
2.667 0 M
2.667 1.473 1.473 2.667 0 2.667 C
-1.473 2.667 -2.667 1.473 -2.667 0 C
-2.667 -1.473 -1.473 -2.667 0 -2.667 C
1.473 -2.667 2.667 -1.473 2.667 0 C
cp
f
GR
GS
[1 0 0 1 94.7 169.15381] CT
0 0 1 RC
N
2.667 0 M
2.667 1.473 1.473 2.667 0 2.667 C
-1.473 2.667 -2.667 1.473 -2.667 0 C
-2.667 -1.473 -1.473 -2.667 0 -2.667 C
1.473 -2.667 2.667 -1.473 2.667 0 C
cp
f
GR
GS
[1 0 0 1 105.55 166.06825] CT
0 0 1 RC
N
2.667 0 M
2.667 1.473 1.473 2.667 0 2.667 C
-1.473 2.667 -2.667 1.473 -2.667 0 C
-2.667 -1.473 -1.473 -2.667 0 -2.667 C
1.473 -2.667 2.667 -1.473 2.667 0 C
cp
f
GR
GS
[1 0 0 1 116.4 163.33957] CT
0 0 1 RC
N
2.667 0 M
2.667 1.473 1.473 2.667 0 2.667 C
-1.473 2.667 -2.667 1.473 -2.667 0 C
-2.667 -1.473 -1.473 -2.667 0 -2.667 C
1.473 -2.667 2.667 -1.473 2.667 0 C
cp
f
GR
GS
[1 0 0 1 127.25 160.41699] CT
0 0 1 RC
N
2.667 0 M
2.667 1.473 1.473 2.667 0 2.667 C
-1.473 2.667 -2.667 1.473 -2.667 0 C
-2.667 -1.473 -1.473 -2.667 0 -2.667 C
1.473 -2.667 2.667 -1.473 2.667 0 C
cp
f
GR
GS
[1 0 0 1 138.10001 157.78548] CT
0 0 1 RC
N
2.667 0 M
2.667 1.473 1.473 2.667 0 2.667 C
-1.473 2.667 -2.667 1.473 -2.667 0 C
-2.667 -1.473 -1.473 -2.667 0 -2.667 C
1.473 -2.667 2.667 -1.473 2.667 0 C
cp
f
GR
GS
[1 0 0 1 148.95 154.63913] CT
0 0 1 RC
N
2.667 0 M
2.667 1.473 1.473 2.667 0 2.667 C
-1.473 2.667 -2.667 1.473 -2.667 0 C
-2.667 -1.473 -1.473 -2.667 0 -2.667 C
1.473 -2.667 2.667 -1.473 2.667 0 C
cp
f
GR
GS
[1 0 0 1 159.8 151.18402] CT
0 0 1 RC
N
2.667 0 M
2.667 1.473 1.473 2.667 0 2.667 C
-1.473 2.667 -2.667 1.473 -2.667 0 C
-2.667 -1.473 -1.473 -2.667 0 -2.667 C
1.473 -2.667 2.667 -1.473 2.667 0 C
cp
f
GR
GS
[1 0 0 1 170.64999 150.20494] CT
0 0 1 RC
N
2.667 0 M
2.667 1.473 1.473 2.667 0 2.667 C
-1.473 2.667 -2.667 1.473 -2.667 0 C
-2.667 -1.473 -1.473 -2.667 0 -2.667 C
1.473 -2.667 2.667 -1.473 2.667 0 C
cp
f
GR
GS
[1 0 0 1 181.5 146.81166] CT
0 0 1 RC
N
2.667 0 M
2.667 1.473 1.473 2.667 0 2.667 C
-1.473 2.667 -2.667 1.473 -2.667 0 C
-2.667 -1.473 -1.473 -2.667 0 -2.667 C
1.473 -2.667 2.667 -1.473 2.667 0 C
cp
f
GR
GS
[1 0 0 1 192.35001 145.01385] CT
0 0 1 RC
N
2.667 0 M
2.667 1.473 1.473 2.667 0 2.667 C
-1.473 2.667 -2.667 1.473 -2.667 0 C
-2.667 -1.473 -1.473 -2.667 0 -2.667 C
1.473 -2.667 2.667 -1.473 2.667 0 C
cp
f
GR
GS
[1 0 0 1 203.2 141.80841] CT
0 0 1 RC
N
2.667 0 M
2.667 1.473 1.473 2.667 0 2.667 C
-1.473 2.667 -2.667 1.473 -2.667 0 C
-2.667 -1.473 -1.473 -2.667 0 -2.667 C
1.473 -2.667 2.667 -1.473 2.667 0 C
cp
f
GR
GS
[1 0 0 1 214.05 137.87718] CT
0 0 1 RC
N
2.667 0 M
2.667 1.473 1.473 2.667 0 2.667 C
-1.473 2.667 -2.667 1.473 -2.667 0 C
-2.667 -1.473 -1.473 -2.667 0 -2.667 C
1.473 -2.667 2.667 -1.473 2.667 0 C
cp
f
GR
GS
[1 0 0 1 224.89999 136.50961] CT
0 0 1 RC
N
2.667 0 M
2.667 1.473 1.473 2.667 0 2.667 C
-1.473 2.667 -2.667 1.473 -2.667 0 C
-2.667 -1.473 -1.473 -2.667 0 -2.667 C
1.473 -2.667 2.667 -1.473 2.667 0 C
cp
f
GR
GS
[1 0 0 1 235.75 132.97751] CT
0 0 1 RC
N
2.667 0 M
2.667 1.473 1.473 2.667 0 2.667 C
-1.473 2.667 -2.667 1.473 -2.667 0 C
-2.667 -1.473 -1.473 -2.667 0 -2.667 C
1.473 -2.667 2.667 -1.473 2.667 0 C
cp
f
GR
GS
[1 0 0 1 246.60001 128.53976] CT
0 0 1 RC
N
2.667 0 M
2.667 1.473 1.473 2.667 0 2.667 C
-1.473 2.667 -2.667 1.473 -2.667 0 C
-2.667 -1.473 -1.473 -2.667 0 -2.667 C
1.473 -2.667 2.667 -1.473 2.667 0 C
cp
f
GR
GS
[1 0 0 1 257.45001 127.73706] CT
0 0 1 RC
N
2.667 0 M
2.667 1.473 1.473 2.667 0 2.667 C
-1.473 2.667 -2.667 1.473 -2.667 0 C
-2.667 -1.473 -1.473 -2.667 0 -2.667 C
1.473 -2.667 2.667 -1.473 2.667 0 C
cp
f
GR
GS
[1 0 0 1 268.29999 124.47214] CT
0 0 1 RC
N
2.667 0 M
2.667 1.473 1.473 2.667 0 2.667 C
-1.473 2.667 -2.667 1.473 -2.667 0 C
-2.667 -1.473 -1.473 -2.667 0 -2.667 C
1.473 -2.667 2.667 -1.473 2.667 0 C
cp
f
GR
GS
[1 0 0 1 279.14999 123.8322] CT
0 0 1 RC
N
2.667 0 M
2.667 1.473 1.473 2.667 0 2.667 C
-1.473 2.667 -2.667 1.473 -2.667 0 C
-2.667 -1.473 -1.473 -2.667 0 -2.667 C
1.473 -2.667 2.667 -1.473 2.667 0 C
cp
f
GR
GS
[1 0 0 1 290 118.26509] CT
0 0 1 RC
N
2.667 0 M
2.667 1.473 1.473 2.667 0 2.667 C
-1.473 2.667 -2.667 1.473 -2.667 0 C
-2.667 -1.473 -1.473 -2.667 0 -2.667 C
1.473 -2.667 2.667 -1.473 2.667 0 C
cp
f
GR
GS
[1 0 0 1 300.85001 115.95422] CT
0 0 1 RC
N
2.667 0 M
2.667 1.473 1.473 2.667 0 2.667 C
-1.473 2.667 -2.667 1.473 -2.667 0 C
-2.667 -1.473 -1.473 -2.667 0 -2.667 C
1.473 -2.667 2.667 -1.473 2.667 0 C
cp
f
GR
GS
[1 0 0 1 311.70001 111.13232] CT
0 0 1 RC
N
2.667 0 M
2.667 1.473 1.473 2.667 0 2.667 C
-1.473 2.667 -2.667 1.473 -2.667 0 C
-2.667 -1.473 -1.473 -2.667 0 -2.667 C
1.473 -2.667 2.667 -1.473 2.667 0 C
cp
f
GR
GS
[1 0 0 1 322.54999 108.57882] CT
0 0 1 RC
N
2.667 0 M
2.667 1.473 1.473 2.667 0 2.667 C
-1.473 2.667 -2.667 1.473 -2.667 0 C
-2.667 -1.473 -1.473 -2.667 0 -2.667 C
1.473 -2.667 2.667 -1.473 2.667 0 C
cp
f
GR
GS
[1 0 0 1 333.39999 104.80273] CT
0 0 1 RC
N
2.667 0 M
2.667 1.473 1.473 2.667 0 2.667 C
-1.473 2.667 -2.667 1.473 -2.667 0 C
-2.667 -1.473 -1.473 -2.667 0 -2.667 C
1.473 -2.667 2.667 -1.473 2.667 0 C
cp
f
GR
GS
[1 0 0 1 344.25 99.80122] CT
0 0 1 RC
N
2.667 0 M
2.667 1.473 1.473 2.667 0 2.667 C
-1.473 2.667 -2.667 1.473 -2.667 0 C
-2.667 -1.473 -1.473 -2.667 0 -2.667 C
1.473 -2.667 2.667 -1.473 2.667 0 C
cp
f
GR
GS
[1 0 0 1 355.10001 102.39059] CT
0 0 1 RC
N
2.667 0 M
2.667 1.473 1.473 2.667 0 2.667 C
-1.473 2.667 -2.667 1.473 -2.667 0 C
-2.667 -1.473 -1.473 -2.667 0 -2.667 C
1.473 -2.667 2.667 -1.473 2.667 0 C
cp
f
GR
GS
[1 0 0 1 365.95001 93.47134] CT
0 0 1 RC
N
2.667 0 M
2.667 1.473 1.473 2.667 0 2.667 C
-1.473 2.667 -2.667 1.473 -2.667 0 C
-2.667 -1.473 -1.473 -2.667 0 -2.667 C
1.473 -2.667 2.667 -1.473 2.667 0 C
cp
f
GR
GS
[1 0 0 1 376.79999 86.5841] CT
0 0 1 RC
N
2.667 0 M
2.667 1.473 1.473 2.667 0 2.667 C
-1.473 2.667 -2.667 1.473 -2.667 0 C
-2.667 -1.473 -1.473 -2.667 0 -2.667 C
1.473 -2.667 2.667 -1.473 2.667 0 C
cp
f
GR
GS
[1 0 0 1 387.64999 85.93616] CT
0 0 1 RC
N
2.667 0 M
2.667 1.473 1.473 2.667 0 2.667 C
-1.473 2.667 -2.667 1.473 -2.667 0 C
-2.667 -1.473 -1.473 -2.667 0 -2.667 C
1.473 -2.667 2.667 -1.473 2.667 0 C
cp
f
GR
GS
[1 0 0 1 398.5 79.51189] CT
0 0 1 RC
N
2.667 0 M
2.667 1.473 1.473 2.667 0 2.667 C
-1.473 2.667 -2.667 1.473 -2.667 0 C
-2.667 -1.473 -1.473 -2.667 0 -2.667 C
1.473 -2.667 2.667 -1.473 2.667 0 C
cp
f
GR
GS
[1 0 0 1 409.35001 84.32579] CT
0 0 1 RC
N
2.667 0 M
2.667 1.473 1.473 2.667 0 2.667 C
-1.473 2.667 -2.667 1.473 -2.667 0 C
-2.667 -1.473 -1.473 -2.667 0 -2.667 C
1.473 -2.667 2.667 -1.473 2.667 0 C
cp
f
GR
GS
[1 0 0 1 420.20001 75.35105] CT
0 0 1 RC
N
2.667 0 M
2.667 1.473 1.473 2.667 0 2.667 C
-1.473 2.667 -2.667 1.473 -2.667 0 C
-2.667 -1.473 -1.473 -2.667 0 -2.667 C
1.473 -2.667 2.667 -1.473 2.667 0 C
cp
f
GR
GS
[1 0 0 1 431.04999 70.7026] CT
0 0 1 RC
N
2.667 0 M
2.667 1.473 1.473 2.667 0 2.667 C
-1.473 2.667 -2.667 1.473 -2.667 0 C
-2.667 -1.473 -1.473 -2.667 0 -2.667 C
1.473 -2.667 2.667 -1.473 2.667 0 C
cp
f
GR
GS
[1 0 0 1 441.89999 62.5387] CT
0 0 1 RC
N
2.667 0 M
2.667 1.473 1.473 2.667 0 2.667 C
-1.473 2.667 -2.667 1.473 -2.667 0 C
-2.667 -1.473 -1.473 -2.667 0 -2.667 C
1.473 -2.667 2.667 -1.473 2.667 0 C
cp
f
GR
GS
[1 0 0 1 452.75 57.15114] CT
0 0 1 RC
N
2.667 0 M
2.667 1.473 1.473 2.667 0 2.667 C
-1.473 2.667 -2.667 1.473 -2.667 0 C
-2.667 -1.473 -1.473 -2.667 0 -2.667 C
1.473 -2.667 2.667 -1.473 2.667 0 C
cp
f
GR
GS
[1 0 0 1 463.60001 52.21427] CT
0 0 1 RC
N
2.667 0 M
2.667 1.473 1.473 2.667 0 2.667 C
-1.473 2.667 -2.667 1.473 -2.667 0 C
-2.667 -1.473 -1.473 -2.667 0 -2.667 C
1.473 -2.667 2.667 -1.473 2.667 0 C
cp
f
GR
GS
[1 0 0 1 474.45001 44.85386] CT
0 0 1 RC
N
2.667 0 M
2.667 1.473 1.473 2.667 0 2.667 C
-1.473 2.667 -2.667 1.473 -2.667 0 C
-2.667 -1.473 -1.473 -2.667 0 -2.667 C
1.473 -2.667 2.667 -1.473 2.667 0 C
cp
f
GR
GS
[1 0 0 1 485.29999 41.13835] CT
0 0 1 RC
N
2.667 0 M
2.667 1.473 1.473 2.667 0 2.667 C
-1.473 2.667 -2.667 1.473 -2.667 0 C
-2.667 -1.473 -1.473 -2.667 0 -2.667 C
1.473 -2.667 2.667 -1.473 2.667 0 C
cp
f
GR
GS
[1 0 0 1 496.14999 37.11686] CT
0 0 1 RC
N
2.667 0 M
2.667 1.473 1.473 2.667 0 2.667 C
-1.473 2.667 -2.667 1.473 -2.667 0 C
-2.667 -1.473 -1.473 -2.667 0 -2.667 C
1.473 -2.667 2.667 -1.473 2.667 0 C
cp
f
GR
GS
[1 0 0 1 507 31.88706] CT
0 0 1 RC
N
2.667 0 M
2.667 1.473 1.473 2.667 0 2.667 C
-1.473 2.667 -2.667 1.473 -2.667 0 C
-2.667 -1.473 -1.473 -2.667 0 -2.667 C
1.473 -2.667 2.667 -1.473 2.667 0 C
cp
f
GR
GS
1 0 0 RC
1 LJ
N
73 171.339 M
73.434 171.264 L
73.868 171.188 L
74.302 171.113 L
74.736 171.037 L
75.17 170.961 L
75.604 170.885 L
76.038 170.809 L
76.472 170.733 L
76.906 170.657 L
77.34 170.58 L
77.774 170.503 L
78.208 170.427 L
78.642 170.35 L
79.076 170.273 L
79.51 170.196 L
79.944 170.119 L
80.378 170.041 L
80.812 169.964 L
81.246 169.886 L
81.68 169.808 L
82.114 169.731 L
82.548 169.653 L
82.982 169.574 L
83.416 169.496 L
83.85 169.418 L
84.284 169.339 L
84.718 169.261 L
85.152 169.182 L
85.586 169.103 L
86.02 169.024 L
86.454 168.945 L
86.888 168.866 L
87.322 168.786 L
87.756 168.707 L
88.19 168.627 L
88.624 168.548 L
89.058 168.468 L
89.492 168.388 L
89.926 168.308 L
90.36 168.227 L
90.794 168.147 L
91.228 168.067 L
91.662 167.986 L
92.096 167.905 L
92.53 167.824 L
92.964 167.743 L
93.398 167.662 L
93.832 167.581 L
94.266 167.5 L
94.7 167.418 L
95.134 167.336 L
95.568 167.255 L
96.002 167.173 L
96.436 167.091 L
96.87 167.009 L
97.304 166.926 L
97.738 166.844 L
98.172 166.761 L
98.606 166.679 L
99.04 166.596 L
99.474 166.513 L
99.908 166.43 L
100.342 166.347 L
100.776 166.264 L
101.21 166.18 L
101.644 166.097 L
102.078 166.013 L
102.512 165.929 L
102.946 165.846 L
103.38 165.761 L
103.814 165.677 L
104.248 165.593 L
104.682 165.509 L
105.116 165.424 L
105.55 165.339 L
105.984 165.255 L
106.418 165.17 L
106.852 165.085 L
107.286 165 L
107.72 164.914 L
108.154 164.829 L
108.588 164.743 L
109.022 164.658 L
109.456 164.572 L
109.89 164.486 L
110.324 164.4 L
110.758 164.314 L
111.192 164.228 L
111.626 164.141 L
112.06 164.055 L
112.494 163.968 L
112.928 163.881 L
113.362 163.794 L
113.796 163.707 L
114.23 163.62 L
114.664 163.533 L
115.098 163.445 L
115.532 163.358 L
115.966 163.27 L
116.4 163.182 L
116.834 163.094 L
117.268 163.006 L
117.702 162.918 L
118.136 162.83 L
118.57 162.741 L
119.004 162.653 L
119.438 162.564 L
119.872 162.475 L
120.306 162.387 L
120.74 162.297 L
121.174 162.208 L
121.608 162.119 L
122.042 162.03 L
122.476 161.94 L
122.91 161.85 L
123.344 161.761 L
123.778 161.671 L
124.212 161.581 L
124.646 161.49 L
125.08 161.4 L
125.514 161.31 L
125.948 161.219 L
126.382 161.128 L
126.816 161.038 L
127.25 160.947 L
127.684 160.855 L
128.118 160.764 L
128.552 160.673 L
128.986 160.582 L
129.42 160.49 L
129.854 160.398 L
130.288 160.306 L
130.722 160.215 L
131.156 160.122 L
131.59 160.03 L
132.024 159.938 L
132.458 159.845 L
132.892 159.753 L
133.326 159.66 L
133.76 159.567 L
134.194 159.474 L
134.628 159.381 L
135.062 159.288 L
135.496 159.195 L
135.93 159.101 L
136.364 159.008 L
136.798 158.914 L
137.232 158.82 L
137.666 158.726 L
138.1 158.632 L
138.534 158.538 L
138.968 158.444 L
139.402 158.349 L
139.836 158.255 L
140.27 158.16 L
140.704 158.065 L
141.138 157.97 L
141.572 157.875 L
142.006 157.78 L
142.44 157.684 L
142.874 157.589 L
143.308 157.493 L
143.742 157.398 L
144.176 157.302 L
144.61 157.206 L
145.044 157.11 L
145.478 157.013 L
145.912 156.917 L
146.346 156.821 L
146.78 156.724 L
147.214 156.627 L
147.648 156.53 L
148.082 156.433 L
148.516 156.336 L
148.95 156.239 L
149.384 156.142 L
149.818 156.044 L
150.252 155.947 L
150.686 155.849 L
151.12 155.751 L
151.554 155.653 L
151.988 155.555 L
152.422 155.457 L
152.856 155.358 L
153.29 155.26 L
153.724 155.161 L
154.158 155.063 L
154.592 154.964 L
155.026 154.865 L
155.46 154.766 L
155.894 154.666 L
156.328 154.567 L
156.762 154.467 L
157.196 154.368 L
157.63 154.268 L
158.064 154.168 L
158.498 154.068 L
158.932 153.968 L
159.366 153.868 L
159.8 153.767 L
160.234 153.667 L
160.668 153.566 L
161.102 153.466 L
161.536 153.365 L
161.97 153.264 L
162.404 153.163 L
162.838 153.061 L
163.272 152.96 L
163.706 152.858 L
164.14 152.757 L
164.574 152.655 L
165.008 152.553 L
165.442 152.451 L
165.876 152.349 L
166.31 152.247 L
166.744 152.144 L
167.178 152.042 L
167.612 151.939 L
168.046 151.836 L
168.48 151.733 L
168.914 151.63 L
169.348 151.527 L
169.782 151.424 L
170.216 151.321 L
170.65 151.217 L
171.084 151.113 L
171.518 151.01 L
171.952 150.906 L
172.386 150.802 L
172.82 150.698 L
173.254 150.593 L
173.688 150.489 L
174.122 150.384 L
174.556 150.28 L
174.99 150.175 L
175.424 150.07 L
175.858 149.965 L
176.292 149.86 L
176.726 149.755 L
177.16 149.649 L
177.594 149.544 L
178.028 149.438 L
178.462 149.332 L
178.896 149.226 L
179.33 149.12 L
179.764 149.014 L
180.198 148.908 L
180.632 148.801 L
181.066 148.695 L
181.5 148.588 L
181.934 148.481 L
182.368 148.374 L
182.802 148.267 L
183.236 148.16 L
183.67 148.053 L
184.104 147.946 L
184.538 147.838 L
184.972 147.73 L
185.406 147.623 L
185.84 147.515 L
186.274 147.407 L
186.708 147.298 L
187.142 147.19 L
187.576 147.082 L
188.01 146.973 L
188.444 146.864 L
188.878 146.756 L
189.312 146.647 L
189.746 146.538 L
190.18 146.428 L
190.614 146.319 L
191.048 146.21 L
191.482 146.1 L
191.916 145.99 L
192.35 145.881 L
192.784 145.771 L
193.218 145.661 L
193.652 145.55 L
194.086 145.44 L
194.52 145.33 L
194.954 145.219 L
195.388 145.108 L
195.822 144.998 L
196.256 144.887 L
196.69 144.776 L
197.124 144.664 L
197.558 144.553 L
197.992 144.442 L
198.426 144.33 L
198.86 144.218 L
199.294 144.106 L
199.728 143.995 L
200.162 143.882 L
200.596 143.77 L
201.03 143.658 L
201.464 143.545 L
201.898 143.433 L
202.332 143.32 L
202.766 143.207 L
203.2 143.094 L
203.634 142.981 L
204.068 142.868 L
204.502 142.755 L
204.936 142.641 L
205.37 142.528 L
205.804 142.414 L
206.238 142.3 L
206.672 142.186 L
207.106 142.072 L
207.54 141.958 L
207.974 141.844 L
208.408 141.729 L
208.842 141.615 L
209.276 141.5 L
209.71 141.385 L
210.144 141.27 L
210.578 141.155 L
211.012 141.04 L
211.446 140.924 L
211.88 140.809 L
212.314 140.693 L
212.748 140.577 L
213.182 140.462 L
213.616 140.346 L
214.05 140.23 L
214.484 140.113 L
214.918 139.997 L
215.352 139.881 L
215.786 139.764 L
216.22 139.647 L
216.654 139.53 L
217.088 139.413 L
217.522 139.296 L
217.956 139.179 L
218.39 139.062 L
218.824 138.944 L
219.258 138.827 L
219.692 138.709 L
220.126 138.591 L
220.56 138.473 L
220.994 138.355 L
221.428 138.237 L
221.862 138.118 L
222.296 138 L
222.73 137.881 L
223.164 137.762 L
223.598 137.643 L
224.032 137.524 L
224.466 137.405 L
224.9 137.286 L
225.334 137.167 L
225.768 137.047 L
226.202 136.928 L
226.636 136.808 L
227.07 136.688 L
227.504 136.568 L
227.938 136.448 L
228.372 136.328 L
228.806 136.207 L
229.24 136.087 L
229.674 135.966 L
230.108 135.845 L
230.542 135.724 L
230.976 135.603 L
231.41 135.482 L
231.844 135.361 L
232.278 135.24 L
232.712 135.118 L
233.146 134.996 L
233.58 134.875 L
234.014 134.753 L
234.448 134.631 L
234.882 134.509 L
235.316 134.386 L
235.75 134.264 L
236.184 134.141 L
236.618 134.019 L
237.052 133.896 L
237.486 133.773 L
237.92 133.65 L
238.354 133.527 L
238.788 133.404 L
239.222 133.28 L
239.656 133.157 L
240.09 133.033 L
240.524 132.909 L
240.958 132.785 L
241.392 132.661 L
241.826 132.537 L
242.26 132.413 L
242.694 132.289 L
243.128 132.164 L
243.562 132.039 L
243.996 131.915 L
244.43 131.79 L
244.864 131.665 L
245.298 131.539 L
245.732 131.414 L
246.166 131.289 L
246.6 131.163 L
247.034 131.038 L
247.468 130.912 L
247.902 130.786 L
248.336 130.66 L
248.77 130.534 L
249.204 130.407 L
249.638 130.281 L
250.072 130.154 L
250.506 130.028 L
250.94 129.901 L
251.374 129.774 L
251.808 129.647 L
252.242 129.52 L
252.676 129.393 L
253.11 129.265 L
253.544 129.138 L
253.978 129.01 L
254.412 128.882 L
254.846 128.754 L
255.28 128.626 L
255.714 128.498 L
256.148 128.37 L
256.582 128.241 L
257.016 128.113 L
257.45 127.984 L
257.884 127.855 L
258.318 127.726 L
258.752 127.597 L
259.186 127.468 L
259.62 127.339 L
260.054 127.209 L
260.488 127.08 L
260.922 126.95 L
261.356 126.82 L
261.79 126.69 L
262.224 126.56 L
262.658 126.43 L
263.092 126.3 L
263.526 126.169 L
263.96 126.039 L
264.394 125.908 L
264.828 125.777 L
265.262 125.646 L
265.696 125.515 L
266.13 125.384 L
266.564 125.252 L
266.998 125.121 L
267.432 124.989 L
267.866 124.858 L
268.3 124.726 L
268.734 124.594 L
269.168 124.462 L
269.602 124.33 L
270.036 124.197 L
270.47 124.065 L
270.904 123.932 L
271.338 123.8 L
271.772 123.667 L
272.206 123.534 L
272.64 123.401 L
273.074 123.267 L
273.508 123.134 L
273.942 123.001 L
274.376 122.867 L
274.81 122.733 L
275.244 122.6 L
275.678 122.466 L
276.112 122.331 L
276.546 122.197 L
276.98 122.063 L
277.414 121.928 L
277.848 121.794 L
278.282 121.659 L
278.716 121.524 L
279.15 121.389 L
279.584 121.254 L
280.018 121.119 L
280.452 120.984 L
280.886 120.848 L
281.32 120.713 L
281.754 120.577 L
282.188 120.441 L
282.622 120.305 L
283.056 120.169 L
283.49 120.033 L
283.924 119.896 L
284.358 119.76 L
284.792 119.623 L
285.226 119.486 L
285.66 119.35 L
286.094 119.213 L
286.528 119.075 L
286.962 118.938 L
287.396 118.801 L
287.83 118.663 L
288.264 118.526 L
288.698 118.388 L
289.132 118.25 L
289.566 118.112 L
290 117.974 L
290.434 117.836 L
290.868 117.697 L
291.302 117.559 L
291.736 117.42 L
292.17 117.282 L
292.604 117.143 L
293.038 117.004 L
293.472 116.865 L
293.906 116.725 L
294.34 116.586 L
294.774 116.446 L
295.208 116.307 L
295.642 116.167 L
296.076 116.027 L
296.51 115.887 L
296.944 115.747 L
297.378 115.607 L
297.812 115.466 L
298.246 115.326 L
298.68 115.185 L
299.114 115.044 L
299.548 114.904 L
299.982 114.763 L
300.416 114.621 L
300.85 114.48 L
301.284 114.339 L
301.718 114.197 L
302.152 114.056 L
302.586 113.914 L
303.02 113.772 L
303.454 113.63 L
303.888 113.488 L
304.322 113.345 L
304.756 113.203 L
305.19 113.061 L
305.624 112.918 L
306.058 112.775 L
306.492 112.632 L
306.926 112.489 L
307.36 112.346 L
307.794 112.203 L
308.228 112.059 L
308.662 111.916 L
309.096 111.772 L
309.53 111.628 L
309.964 111.484 L
310.398 111.34 L
310.832 111.196 L
311.266 111.052 L
311.7 110.908 L
312.134 110.763 L
312.568 110.618 L
313.002 110.474 L
313.436 110.329 L
313.87 110.184 L
314.304 110.038 L
314.738 109.893 L
315.172 109.748 L
315.606 109.602 L
316.04 109.457 L
316.474 109.311 L
316.908 109.165 L
317.342 109.019 L
317.776 108.873 L
318.21 108.726 L
318.644 108.58 L
319.078 108.433 L
319.512 108.287 L
319.946 108.14 L
320.38 107.993 L
320.814 107.846 L
321.248 107.699 L
321.682 107.551 L
322.116 107.404 L
322.55 107.256 L
322.984 107.109 L
323.418 106.961 L
323.852 106.813 L
324.286 106.665 L
324.72 106.517 L
325.154 106.368 L
325.588 106.22 L
326.022 106.071 L
326.456 105.923 L
326.89 105.774 L
327.324 105.625 L
327.758 105.476 L
328.192 105.327 L
328.626 105.177 L
329.06 105.028 L
329.494 104.878 L
329.928 104.729 L
330.362 104.579 L
330.796 104.429 L
331.23 104.279 L
331.664 104.129 L
332.098 103.978 L
332.532 103.828 L
332.966 103.677 L
333.4 103.527 L
333.834 103.376 L
334.268 103.225 L
334.702 103.074 L
335.136 102.923 L
335.57 102.771 L
336.004 102.62 L
336.438 102.468 L
336.872 102.316 L
337.306 102.165 L
337.74 102.013 L
338.174 101.861 L
338.608 101.708 L
339.042 101.556 L
339.476 101.404 L
339.91 101.251 L
340.344 101.098 L
340.778 100.945 L
341.212 100.792 L
341.646 100.639 L
342.08 100.486 L
342.514 100.333 L
342.948 100.179 L
343.382 100.026 L
343.816 99.872 L
344.25 99.718 L
344.684 99.564 L
345.118 99.41 L
345.552 99.256 L
345.986 99.102 L
346.42 98.947 L
346.854 98.792 L
347.288 98.638 L
347.722 98.483 L
348.156 98.328 L
348.59 98.173 L
349.024 98.018 L
349.458 97.862 L
349.892 97.707 L
350.326 97.551 L
350.76 97.395 L
351.194 97.24 L
351.628 97.084 L
352.062 96.927 L
352.496 96.771 L
352.93 96.615 L
353.364 96.458 L
353.798 96.302 L
354.232 96.145 L
354.666 95.988 L
355.1 95.831 L
355.534 95.674 L
355.968 95.517 L
356.402 95.359 L
356.836 95.202 L
357.27 95.044 L
357.704 94.887 L
358.138 94.729 L
358.572 94.571 L
359.006 94.413 L
359.44 94.254 L
359.874 94.096 L
360.308 93.937 L
360.742 93.779 L
361.176 93.62 L
361.61 93.461 L
362.044 93.302 L
362.478 93.143 L
362.912 92.984 L
363.346 92.824 L
363.78 92.665 L
364.214 92.505 L
364.648 92.345 L
365.082 92.186 L
365.516 92.026 L
365.95 91.865 L
366.384 91.705 L
366.818 91.545 L
367.252 91.384 L
367.686 91.224 L
368.12 91.063 L
368.554 90.902 L
368.988 90.741 L
369.422 90.58 L
369.856 90.419 L
370.29 90.257 L
370.724 90.096 L
371.158 89.934 L
371.592 89.772 L
372.026 89.61 L
372.46 89.448 L
372.894 89.286 L
373.328 89.124 L
373.762 88.961 L
374.196 88.799 L
374.63 88.636 L
375.064 88.473 L
375.498 88.311 L
375.932 88.148 L
376.366 87.984 L
376.8 87.821 L
377.234 87.658 L
377.668 87.494 L
378.102 87.331 L
378.536 87.167 L
378.97 87.003 L
379.404 86.839 L
379.838 86.675 L
380.272 86.51 L
380.706 86.346 L
381.14 86.181 L
381.574 86.017 L
382.008 85.852 L
382.442 85.687 L
382.876 85.522 L
383.31 85.357 L
383.744 85.191 L
384.178 85.026 L
384.612 84.861 L
385.046 84.695 L
385.48 84.529 L
385.914 84.363 L
386.348 84.197 L
386.782 84.031 L
387.216 83.865 L
387.65 83.698 L
388.084 83.532 L
388.518 83.365 L
388.952 83.198 L
389.386 83.031 L
389.82 82.864 L
390.254 82.697 L
390.688 82.53 L
391.122 82.362 L
391.556 82.195 L
391.99 82.027 L
392.424 81.859 L
392.858 81.691 L
393.292 81.523 L
393.726 81.355 L
394.16 81.187 L
394.594 81.018 L
395.028 80.85 L
395.462 80.681 L
395.896 80.512 L
396.33 80.343 L
396.764 80.174 L
397.198 80.005 L
397.632 79.836 L
398.066 79.666 L
398.5 79.497 L
398.934 79.327 L
399.368 79.157 L
399.802 78.987 L
400.236 78.817 L
400.67 78.647 L
401.104 78.477 L
401.538 78.306 L
401.972 78.135 L
402.406 77.965 L
402.84 77.794 L
403.274 77.623 L
403.708 77.452 L
404.142 77.281 L
404.576 77.109 L
405.01 76.938 L
405.444 76.766 L
405.878 76.595 L
406.312 76.423 L
406.746 76.251 L
407.18 76.079 L
407.614 75.906 L
408.048 75.734 L
408.482 75.562 L
408.916 75.389 L
409.35 75.216 L
409.784 75.044 L
410.218 74.871 L
410.652 74.697 L
411.086 74.524 L
411.52 74.351 L
411.954 74.177 L
412.388 74.004 L
412.822 73.83 L
413.256 73.656 L
413.69 73.482 L
414.124 73.308 L
414.558 73.134 L
414.992 72.96 L
415.426 72.785 L
415.86 72.61 L
416.294 72.436 L
416.728 72.261 L
417.162 72.086 L
417.596 71.911 L
418.03 71.736 L
418.464 71.56 L
418.898 71.385 L
419.332 71.209 L
419.766 71.033 L
420.2 70.858 L
420.634 70.682 L
421.068 70.505 L
421.502 70.329 L
421.936 70.153 L
422.37 69.976 L
422.804 69.8 L
423.238 69.623 L
423.672 69.446 L
424.106 69.269 L
424.54 69.092 L
424.974 68.915 L
425.408 68.737 L
425.842 68.56 L
426.276 68.382 L
426.71 68.204 L
427.144 68.027 L
427.578 67.849 L
428.012 67.67 L
428.446 67.492 L
428.88 67.314 L
429.314 67.135 L
429.748 66.957 L
430.182 66.778 L
430.616 66.599 L
431.05 66.42 L
431.484 66.241 L
431.918 66.062 L
432.352 65.882 L
432.786 65.703 L
433.22 65.523 L
433.654 65.343 L
434.088 65.163 L
434.522 64.983 L
434.956 64.803 L
435.39 64.623 L
435.824 64.443 L
436.258 64.262 L
436.692 64.081 L
437.126 63.901 L
437.56 63.72 L
437.994 63.539 L
438.428 63.358 L
438.862 63.176 L
439.296 62.995 L
439.73 62.813 L
440.164 62.632 L
440.598 62.45 L
441.032 62.268 L
441.466 62.086 L
441.9 61.904 L
442.334 61.722 L
442.768 61.539 L
443.202 61.357 L
443.636 61.174 L
444.07 60.991 L
444.504 60.808 L
444.938 60.625 L
445.372 60.442 L
445.806 60.259 L
446.24 60.075 L
446.674 59.892 L
447.108 59.708 L
447.542 59.524 L
447.976 59.341 L
448.41 59.157 L
448.844 58.972 L
449.278 58.788 L
449.712 58.604 L
450.146 58.419 L
450.58 58.234 L
451.014 58.05 L
451.448 57.865 L
451.882 57.68 L
452.316 57.494 L
452.75 57.309 L
453.184 57.124 L
453.618 56.938 L
454.052 56.753 L
454.486 56.567 L
454.92 56.381 L
455.354 56.195 L
455.788 56.009 L
456.222 55.822 L
456.656 55.636 L
457.09 55.449 L
457.524 55.263 L
457.958 55.076 L
458.392 54.889 L
458.826 54.702 L
459.26 54.515 L
459.694 54.327 L
460.128 54.14 L
460.562 53.952 L
460.996 53.765 L
461.43 53.577 L
461.864 53.389 L
462.298 53.201 L
462.732 53.013 L
463.166 52.824 L
463.6 52.636 L
464.034 52.447 L
464.468 52.259 L
464.902 52.07 L
465.336 51.881 L
465.77 51.692 L
466.204 51.502 L
466.638 51.313 L
467.072 51.124 L
467.506 50.934 L
467.94 50.744 L
468.374 50.555 L
468.808 50.365 L
469.242 50.175 L
469.676 49.984 L
470.11 49.794 L
470.544 49.604 L
470.978 49.413 L
471.412 49.222 L
471.846 49.031 L
472.28 48.84 L
472.714 48.649 L
473.148 48.458 L
473.582 48.267 L
474.016 48.075 L
474.45 47.884 L
474.884 47.692 L
475.318 47.5 L
475.752 47.308 L
476.186 47.116 L
476.62 46.924 L
477.054 46.732 L
477.488 46.539 L
477.922 46.347 L
478.356 46.154 L
478.79 45.961 L
479.224 45.768 L
479.658 45.575 L
480.092 45.382 L
480.526 45.188 L
480.96 44.995 L
481.394 44.801 L
481.828 44.608 L
482.262 44.414 L
482.696 44.22 L
483.13 44.026 L
483.564 43.831 L
483.998 43.637 L
484.432 43.442 L
484.866 43.248 L
485.3 43.053 L
485.734 42.858 L
486.168 42.663 L
486.602 42.468 L
487.036 42.273 L
487.47 42.078 L
487.904 41.882 L
488.338 41.686 L
488.772 41.491 L
489.206 41.295 L
489.64 41.099 L
490.074 40.903 L
490.508 40.707 L
490.942 40.51 L
491.376 40.314 L
491.81 40.117 L
492.244 39.92 L
492.678 39.723 L
493.112 39.526 L
493.546 39.329 L
493.98 39.132 L
494.414 38.935 L
494.848 38.737 L
495.282 38.54 L
495.716 38.342 L
496.15 38.144 L
496.584 37.946 L
497.018 37.748 L
497.452 37.549 L
497.886 37.351 L
498.32 37.153 L
498.754 36.954 L
499.188 36.755 L
499.622 36.556 L
500.056 36.357 L
500.49 36.158 L
500.924 35.959 L
501.358 35.759 L
501.792 35.56 L
502.226 35.36 L
502.66 35.161 L
503.094 34.961 L
503.528 34.761 L
503.962 34.561 L
504.396 34.36 L
504.83 34.16 L
505.264 33.959 L
505.698 33.759 L
506.132 33.558 L
506.566 33.357 L
507 33.156 L
S
GR
GS
1 GC
N
81 63 M
81 37 L
194 37 L
194 63 L
cp
f
GR
GS
[1 0 0 1 118 44.35849] CT
/Helvetica 9 F
GS
[1 0 0 1 0 0] CT
0 3.5 moveto 
1 -1 scale
(Error data) t 
GR
GR
GS
[1 0 0 1 100 44.35849] CT
0 0 1 RC
N
2.667 0 M
2.667 1.473 1.473 2.667 0 2.667 C
-1.473 2.667 -2.667 1.473 -2.667 0 C
-2.667 -1.473 -1.473 -2.667 0 -2.667 C
1.473 -2.667 2.667 -1.473 2.667 0 C
cp
f
GR
GS
[1 0 0 1 118 55.64151] CT
/Helvetica 9 F
GS
[1 0 0 1 0 0] CT
0 3.5 moveto 
1 -1 scale
(Polynomial model) t 
GR
GR
GS
1 0 0 RC
1 LJ
N
85 55.642 M
115 55.642 L
S
GR
GS
0.149 GC
10.0 ML
0.5 LW
N
81 63 M
81 37 L
194 37 L
194 63 L
cp
S
GR
GS
1 GC
N
73 374 M
507 374 L
507 231 L
73 231 L
cp
f
GR
GS
0.873 GC
1 LJ
0.5 LW
N
73 374 M
73 231 L
S
GR
GS
0.873 GC
1 LJ
0.5 LW
N
127.25 374 M
127.25 231 L
S
GR
GS
0.873 GC
1 LJ
0.5 LW
N
181.5 374 M
181.5 231 L
S
GR
GS
0.873 GC
1 LJ
0.5 LW
N
235.75 374 M
235.75 231 L
S
GR
GS
0.873 GC
1 LJ
0.5 LW
N
290 374 M
290 231 L
S
GR
GS
0.873 GC
1 LJ
0.5 LW
N
344.25 374 M
344.25 231 L
S
GR
GS
0.873 GC
1 LJ
0.5 LW
N
398.5 374 M
398.5 231 L
S
GR
GS
0.873 GC
1 LJ
0.5 LW
N
452.75 374 M
452.75 231 L
S
GR
GS
0.873 GC
1 LJ
0.5 LW
N
507 374 M
507 231 L
S
GR
GS
0.873 GC
1 LJ
0.5 LW
N
507 374 M
73 374 L
S
GR
GS
0.873 GC
1 LJ
0.5 LW
N
507 350.167 M
73 350.167 L
S
GR
GS
0.873 GC
1 LJ
0.5 LW
N
507 326.333 M
73 326.333 L
S
GR
GS
0.873 GC
1 LJ
0.5 LW
N
507 302.5 M
73 302.5 L
S
GR
GS
0.873 GC
1 LJ
0.5 LW
N
507 278.667 M
73 278.667 L
S
GR
GS
0.873 GC
1 LJ
0.5 LW
N
507 254.833 M
73 254.833 L
S
GR
GS
0.873 GC
1 LJ
0.5 LW
N
507 231 M
73 231 L
S
GR
GS
0.149 GC
2 setlinecap
1 LJ
0.5 LW
N
73 374 M
507 374 L
S
GR
GS
0.149 GC
2 setlinecap
1 LJ
0.5 LW
N
73 231 M
507 231 L
S
GR
GS
0.149 GC
2 setlinecap
1 LJ
0.5 LW
N
73 374 M
73 369.66 L
S
GR
GS
0.149 GC
2 setlinecap
1 LJ
0.5 LW
N
127.25 374 M
127.25 369.66 L
S
GR
GS
0.149 GC
2 setlinecap
1 LJ
0.5 LW
N
181.5 374 M
181.5 369.66 L
S
GR
GS
0.149 GC
2 setlinecap
1 LJ
0.5 LW
N
235.75 374 M
235.75 369.66 L
S
GR
GS
0.149 GC
2 setlinecap
1 LJ
0.5 LW
N
290 374 M
290 369.66 L
S
GR
GS
0.149 GC
2 setlinecap
1 LJ
0.5 LW
N
344.25 374 M
344.25 369.66 L
S
GR
GS
0.149 GC
2 setlinecap
1 LJ
0.5 LW
N
398.5 374 M
398.5 369.66 L
S
GR
GS
0.149 GC
2 setlinecap
1 LJ
0.5 LW
N
452.75 374 M
452.75 369.66 L
S
GR
GS
0.149 GC
2 setlinecap
1 LJ
0.5 LW
N
507 374 M
507 369.66 L
S
GR
GS
0.149 GC
2 setlinecap
1 LJ
0.5 LW
N
73 231 M
73 235.34 L
S
GR
GS
0.149 GC
2 setlinecap
1 LJ
0.5 LW
N
127.25 231 M
127.25 235.34 L
S
GR
GS
0.149 GC
2 setlinecap
1 LJ
0.5 LW
N
181.5 231 M
181.5 235.34 L
S
GR
GS
0.149 GC
2 setlinecap
1 LJ
0.5 LW
N
235.75 231 M
235.75 235.34 L
S
GR
GS
0.149 GC
2 setlinecap
1 LJ
0.5 LW
N
290 231 M
290 235.34 L
S
GR
GS
0.149 GC
2 setlinecap
1 LJ
0.5 LW
N
344.25 231 M
344.25 235.34 L
S
GR
GS
0.149 GC
2 setlinecap
1 LJ
0.5 LW
N
398.5 231 M
398.5 235.34 L
S
GR
GS
0.149 GC
2 setlinecap
1 LJ
0.5 LW
N
452.75 231 M
452.75 235.34 L
S
GR
GS
0.149 GC
2 setlinecap
1 LJ
0.5 LW
N
507 231 M
507 235.34 L
S
GR
GS
[1 0 0 1 73 378] CT
0.149 GC
/Helvetica 10 F
GS
[1 0 0 1 0 0] CT
-3 10 moveto 
1 -1 scale
(0) t 
GR
GR
GS
[1 0 0 1 127.25 378] CT
0.149 GC
/Helvetica 10 F
GS
[1 0 0 1 0 0] CT
-3 10 moveto 
1 -1 scale
(5) t 
GR
GR
GS
[1 0 0 1 181.5 378] CT
0.149 GC
/Helvetica 10 F
GS
[1 0 0 1 0 0] CT
-6 10 moveto 
1 -1 scale
(10) t 
GR
GR
GS
[1 0 0 1 235.75 378] CT
0.149 GC
/Helvetica 10 F
GS
[1 0 0 1 0 0] CT
-6 10 moveto 
1 -1 scale
(15) t 
GR
GR
GS
[1 0 0 1 290 378] CT
0.149 GC
/Helvetica 10 F
GS
[1 0 0 1 0 0] CT
-6 10 moveto 
1 -1 scale
(20) t 
GR
GR
GS
[1 0 0 1 344.25 378] CT
0.149 GC
/Helvetica 10 F
GS
[1 0 0 1 0 0] CT
-6 10 moveto 
1 -1 scale
(25) t 
GR
GR
GS
[1 0 0 1 398.5 378] CT
0.149 GC
/Helvetica 10 F
GS
[1 0 0 1 0 0] CT
-6 10 moveto 
1 -1 scale
(30) t 
GR
GR
GS
[1 0 0 1 452.75 378] CT
0.149 GC
/Helvetica 10 F
GS
[1 0 0 1 0 0] CT
-6 10 moveto 
1 -1 scale
(35) t 
GR
GR
GS
[1 0 0 1 507 378] CT
0.149 GC
/Helvetica 10 F
GS
[1 0 0 1 0 0] CT
-6 10 moveto 
1 -1 scale
(40) t 
GR
GR
GS
[1 0 0 1 290.00021 392] CT
0.149 GC
/Helvetica-Bold 12 F
GS
[1 0 0 1 0 0] CT
-82 12 moveto 
1 -1 scale
(Camera rotation \(in degrees\)) t 
GR
GR
GS
0.149 GC
2 setlinecap
1 LJ
0.5 LW
N
73 374 M
73 231 L
S
GR
GS
0.149 GC
2 setlinecap
1 LJ
0.5 LW
N
507 374 M
507 231 L
S
GR
GS
0.149 GC
2 setlinecap
1 LJ
0.5 LW
N
73 374 M
77.34 374 L
S
GR
GS
0.149 GC
2 setlinecap
1 LJ
0.5 LW
N
73 350.167 M
77.34 350.167 L
S
GR
GS
0.149 GC
2 setlinecap
1 LJ
0.5 LW
N
73 326.333 M
77.34 326.333 L
S
GR
GS
0.149 GC
2 setlinecap
1 LJ
0.5 LW
N
73 302.5 M
77.34 302.5 L
S
GR
GS
0.149 GC
2 setlinecap
1 LJ
0.5 LW
N
73 278.667 M
77.34 278.667 L
S
GR
GS
0.149 GC
2 setlinecap
1 LJ
0.5 LW
N
73 254.833 M
77.34 254.833 L
S
GR
GS
0.149 GC
2 setlinecap
1 LJ
0.5 LW
N
73 231 M
77.34 231 L
S
GR
GS
0.149 GC
2 setlinecap
1 LJ
0.5 LW
N
507 374 M
502.66 374 L
S
GR
GS
0.149 GC
2 setlinecap
1 LJ
0.5 LW
N
507 350.167 M
502.66 350.167 L
S
GR
GS
0.149 GC
2 setlinecap
1 LJ
0.5 LW
N
507 326.333 M
502.66 326.333 L
S
GR
GS
0.149 GC
2 setlinecap
1 LJ
0.5 LW
N
507 302.5 M
502.66 302.5 L
S
GR
GS
0.149 GC
2 setlinecap
1 LJ
0.5 LW
N
507 278.667 M
502.66 278.667 L
S
GR
GS
0.149 GC
2 setlinecap
1 LJ
0.5 LW
N
507 254.833 M
502.66 254.833 L
S
GR
GS
0.149 GC
2 setlinecap
1 LJ
0.5 LW
N
507 231 M
502.66 231 L
S
GR
GS
[1 0 0 1 69 374] CT
0.149 GC
/Helvetica 10 F
GS
[1 0 0 1 0 0] CT
-18 3.5 moveto 
1 -1 scale
(-0.4) t 
GR
GR
GS
[1 0 0 1 69 350.16666] CT
0.149 GC
/Helvetica 10 F
GS
[1 0 0 1 0 0] CT
-18 3.5 moveto 
1 -1 scale
(-0.3) t 
GR
GR
GS
[1 0 0 1 69 326.33334] CT
0.149 GC
/Helvetica 10 F
GS
[1 0 0 1 0 0] CT
-18 3.5 moveto 
1 -1 scale
(-0.2) t 
GR
GR
GS
[1 0 0 1 69 302.5] CT
0.149 GC
/Helvetica 10 F
GS
[1 0 0 1 0 0] CT
-18 3.5 moveto 
1 -1 scale
(-0.1) t 
GR
GR
GS
[1 0 0 1 69 278.66666] CT
0.149 GC
/Helvetica 10 F
GS
[1 0 0 1 0 0] CT
-6 3.5 moveto 
1 -1 scale
(0) t 
GR
GR
GS
[1 0 0 1 69 254.83333] CT
0.149 GC
/Helvetica 10 F
GS
[1 0 0 1 0 0] CT
-14 3.5 moveto 
1 -1 scale
(0.1) t 
GR
GR
GS
[1 0 0 1 69 231] CT
0.149 GC
/Helvetica 10 F
GS
[1 0 0 1 0 0] CT
-14 3.5 moveto 
1 -1 scale
(0.2) t 
GR
GR
GS
[0 -1 1 0 48 302.49994] CT
0.149 GC
/Helvetica-Bold 12 F
GS
[1 0 0 1 0 0] CT
-55.5 -3 moveto 
1 -1 scale
(Width error \(in mm\)) t 
GR
GR
GS
[1 0 0 1 73 308.96188] CT
0 0 1 RC
N
2.667 0 M
2.667 1.473 1.473 2.667 0 2.667 C
-1.473 2.667 -2.667 1.473 -2.667 0 C
-2.667 -1.473 -1.473 -2.667 0 -2.667 C
1.473 -2.667 2.667 -1.473 2.667 0 C
cp
f
GR
GS
[1 0 0 1 83.85 300.7511] CT
0 0 1 RC
N
2.667 0 M
2.667 1.473 1.473 2.667 0 2.667 C
-1.473 2.667 -2.667 1.473 -2.667 0 C
-2.667 -1.473 -1.473 -2.667 0 -2.667 C
1.473 -2.667 2.667 -1.473 2.667 0 C
cp
f
GR
GS
[1 0 0 1 94.7 293.03122] CT
0 0 1 RC
N
2.667 0 M
2.667 1.473 1.473 2.667 0 2.667 C
-1.473 2.667 -2.667 1.473 -2.667 0 C
-2.667 -1.473 -1.473 -2.667 0 -2.667 C
1.473 -2.667 2.667 -1.473 2.667 0 C
cp
f
GR
GS
[1 0 0 1 105.55 284.69739] CT
0 0 1 RC
N
2.667 0 M
2.667 1.473 1.473 2.667 0 2.667 C
-1.473 2.667 -2.667 1.473 -2.667 0 C
-2.667 -1.473 -1.473 -2.667 0 -2.667 C
1.473 -2.667 2.667 -1.473 2.667 0 C
cp
f
GR
GS
[1 0 0 1 116.4 279.96768] CT
0 0 1 RC
N
2.667 0 M
2.667 1.473 1.473 2.667 0 2.667 C
-1.473 2.667 -2.667 1.473 -2.667 0 C
-2.667 -1.473 -1.473 -2.667 0 -2.667 C
1.473 -2.667 2.667 -1.473 2.667 0 C
cp
f
GR
GS
[1 0 0 1 127.25 274.28418] CT
0 0 1 RC
N
2.667 0 M
2.667 1.473 1.473 2.667 0 2.667 C
-1.473 2.667 -2.667 1.473 -2.667 0 C
-2.667 -1.473 -1.473 -2.667 0 -2.667 C
1.473 -2.667 2.667 -1.473 2.667 0 C
cp
f
GR
GS
[1 0 0 1 138.10001 271.66] CT
0 0 1 RC
N
2.667 0 M
2.667 1.473 1.473 2.667 0 2.667 C
-1.473 2.667 -2.667 1.473 -2.667 0 C
-2.667 -1.473 -1.473 -2.667 0 -2.667 C
1.473 -2.667 2.667 -1.473 2.667 0 C
cp
f
GR
GS
[1 0 0 1 148.95 265.42612] CT
0 0 1 RC
N
2.667 0 M
2.667 1.473 1.473 2.667 0 2.667 C
-1.473 2.667 -2.667 1.473 -2.667 0 C
-2.667 -1.473 -1.473 -2.667 0 -2.667 C
1.473 -2.667 2.667 -1.473 2.667 0 C
cp
f
GR
GS
[1 0 0 1 159.8 257.28766] CT
0 0 1 RC
N
2.667 0 M
2.667 1.473 1.473 2.667 0 2.667 C
-1.473 2.667 -2.667 1.473 -2.667 0 C
-2.667 -1.473 -1.473 -2.667 0 -2.667 C
1.473 -2.667 2.667 -1.473 2.667 0 C
cp
f
GR
GS
[1 0 0 1 170.64999 270.29034] CT
0 0 1 RC
N
2.667 0 M
2.667 1.473 1.473 2.667 0 2.667 C
-1.473 2.667 -2.667 1.473 -2.667 0 C
-2.667 -1.473 -1.473 -2.667 0 -2.667 C
1.473 -2.667 2.667 -1.473 2.667 0 C
cp
f
GR
GS
[1 0 0 1 181.5 263.96512] CT
0 0 1 RC
N
2.667 0 M
2.667 1.473 1.473 2.667 0 2.667 C
-1.473 2.667 -2.667 1.473 -2.667 0 C
-2.667 -1.473 -1.473 -2.667 0 -2.667 C
1.473 -2.667 2.667 -1.473 2.667 0 C
cp
f
GR
GS
[1 0 0 1 192.35001 271.4938] CT
0 0 1 RC
N
2.667 0 M
2.667 1.473 1.473 2.667 0 2.667 C
-1.473 2.667 -2.667 1.473 -2.667 0 C
-2.667 -1.473 -1.473 -2.667 0 -2.667 C
1.473 -2.667 2.667 -1.473 2.667 0 C
cp
f
GR
GS
[1 0 0 1 203.2 268.02451] CT
0 0 1 RC
N
2.667 0 M
2.667 1.473 1.473 2.667 0 2.667 C
-1.473 2.667 -2.667 1.473 -2.667 0 C
-2.667 -1.473 -1.473 -2.667 0 -2.667 C
1.473 -2.667 2.667 -1.473 2.667 0 C
cp
f
GR
GS
[1 0 0 1 214.05 259.19955] CT
0 0 1 RC
N
2.667 0 M
2.667 1.473 1.473 2.667 0 2.667 C
-1.473 2.667 -2.667 1.473 -2.667 0 C
-2.667 -1.473 -1.473 -2.667 0 -2.667 C
1.473 -2.667 2.667 -1.473 2.667 0 C
cp
f
GR
GS
[1 0 0 1 224.89999 272.24091] CT
0 0 1 RC
N
2.667 0 M
2.667 1.473 1.473 2.667 0 2.667 C
-1.473 2.667 -2.667 1.473 -2.667 0 C
-2.667 -1.473 -1.473 -2.667 0 -2.667 C
1.473 -2.667 2.667 -1.473 2.667 0 C
cp
f
GR
GS
[1 0 0 1 235.75 268.02036] CT
0 0 1 RC
N
2.667 0 M
2.667 1.473 1.473 2.667 0 2.667 C
-1.473 2.667 -2.667 1.473 -2.667 0 C
-2.667 -1.473 -1.473 -2.667 0 -2.667 C
1.473 -2.667 2.667 -1.473 2.667 0 C
cp
f
GR
GS
[1 0 0 1 246.60001 256.95609] CT
0 0 1 RC
N
2.667 0 M
2.667 1.473 1.473 2.667 0 2.667 C
-1.473 2.667 -2.667 1.473 -2.667 0 C
-2.667 -1.473 -1.473 -2.667 0 -2.667 C
1.473 -2.667 2.667 -1.473 2.667 0 C
cp
f
GR
GS
[1 0 0 1 257.45001 276.62399] CT
0 0 1 RC
N
2.667 0 M
2.667 1.473 1.473 2.667 0 2.667 C
-1.473 2.667 -2.667 1.473 -2.667 0 C
-2.667 -1.473 -1.473 -2.667 0 -2.667 C
1.473 -2.667 2.667 -1.473 2.667 0 C
cp
f
GR
GS
[1 0 0 1 268.29999 276.56671] CT
0 0 1 RC
N
2.667 0 M
2.667 1.473 1.473 2.667 0 2.667 C
-1.473 2.667 -2.667 1.473 -2.667 0 C
-2.667 -1.473 -1.473 -2.667 0 -2.667 C
1.473 -2.667 2.667 -1.473 2.667 0 C
cp
f
GR
GS
[1 0 0 1 279.14999 298.88312] CT
0 0 1 RC
N
2.667 0 M
2.667 1.473 1.473 2.667 0 2.667 C
-1.473 2.667 -2.667 1.473 -2.667 0 C
-2.667 -1.473 -1.473 -2.667 0 -2.667 C
1.473 -2.667 2.667 -1.473 2.667 0 C
cp
f
GR
GS
[1 0 0 1 290 281.07559] CT
0 0 1 RC
N
2.667 0 M
2.667 1.473 1.473 2.667 0 2.667 C
-1.473 2.667 -2.667 1.473 -2.667 0 C
-2.667 -1.473 -1.473 -2.667 0 -2.667 C
1.473 -2.667 2.667 -1.473 2.667 0 C
cp
f
GR
GS
[1 0 0 1 300.85001 290.86566] CT
0 0 1 RC
N
2.667 0 M
2.667 1.473 1.473 2.667 0 2.667 C
-1.473 2.667 -2.667 1.473 -2.667 0 C
-2.667 -1.473 -1.473 -2.667 0 -2.667 C
1.473 -2.667 2.667 -1.473 2.667 0 C
cp
f
GR
GS
[1 0 0 1 311.70001 280.52664] CT
0 0 1 RC
N
2.667 0 M
2.667 1.473 1.473 2.667 0 2.667 C
-1.473 2.667 -2.667 1.473 -2.667 0 C
-2.667 -1.473 -1.473 -2.667 0 -2.667 C
1.473 -2.667 2.667 -1.473 2.667 0 C
cp
f
GR
GS
[1 0 0 1 322.54999 289.61017] CT
0 0 1 RC
N
2.667 0 M
2.667 1.473 1.473 2.667 0 2.667 C
-1.473 2.667 -2.667 1.473 -2.667 0 C
-2.667 -1.473 -1.473 -2.667 0 -2.667 C
1.473 -2.667 2.667 -1.473 2.667 0 C
cp
f
GR
GS
[1 0 0 1 333.39999 289.22702] CT
0 0 1 RC
N
2.667 0 M
2.667 1.473 1.473 2.667 0 2.667 C
-1.473 2.667 -2.667 1.473 -2.667 0 C
-2.667 -1.473 -1.473 -2.667 0 -2.667 C
1.473 -2.667 2.667 -1.473 2.667 0 C
cp
f
GR
GS
[1 0 0 1 344.25 279.35373] CT
0 0 1 RC
N
2.667 0 M
2.667 1.473 1.473 2.667 0 2.667 C
-1.473 2.667 -2.667 1.473 -2.667 0 C
-2.667 -1.473 -1.473 -2.667 0 -2.667 C
1.473 -2.667 2.667 -1.473 2.667 0 C
cp
f
GR
GS
[1 0 0 1 355.10001 332.94922] CT
0 0 1 RC
N
2.667 0 M
2.667 1.473 1.473 2.667 0 2.667 C
-1.473 2.667 -2.667 1.473 -2.667 0 C
-2.667 -1.473 -1.473 -2.667 0 -2.667 C
1.473 -2.667 2.667 -1.473 2.667 0 C
cp
f
GR
GS
[1 0 0 1 365.95001 291.95621] CT
0 0 1 RC
N
2.667 0 M
2.667 1.473 1.473 2.667 0 2.667 C
-1.473 2.667 -2.667 1.473 -2.667 0 C
-2.667 -1.473 -1.473 -2.667 0 -2.667 C
1.473 -2.667 2.667 -1.473 2.667 0 C
cp
f
GR
GS
[1 0 0 1 376.79999 268.42966] CT
0 0 1 RC
N
2.667 0 M
2.667 1.473 1.473 2.667 0 2.667 C
-1.473 2.667 -2.667 1.473 -2.667 0 C
-2.667 -1.473 -1.473 -2.667 0 -2.667 C
1.473 -2.667 2.667 -1.473 2.667 0 C
cp
f
GR
GS
[1 0 0 1 387.64999 297.1871] CT
0 0 1 RC
N
2.667 0 M
2.667 1.473 1.473 2.667 0 2.667 C
-1.473 2.667 -2.667 1.473 -2.667 0 C
-2.667 -1.473 -1.473 -2.667 0 -2.667 C
1.473 -2.667 2.667 -1.473 2.667 0 C
cp
f
GR
GS
[1 0 0 1 398.5 278.79327] CT
0 0 1 RC
N
2.667 0 M
2.667 1.473 1.473 2.667 0 2.667 C
-1.473 2.667 -2.667 1.473 -2.667 0 C
-2.667 -1.473 -1.473 -2.667 0 -2.667 C
1.473 -2.667 2.667 -1.473 2.667 0 C
cp
f
GR
GS
[1 0 0 1 409.35001 354.05133] CT
0 0 1 RC
N
2.667 0 M
2.667 1.473 1.473 2.667 0 2.667 C
-1.473 2.667 -2.667 1.473 -2.667 0 C
-2.667 -1.473 -1.473 -2.667 0 -2.667 C
1.473 -2.667 2.667 -1.473 2.667 0 C
cp
f
GR
GS
[1 0 0 1 420.20001 315.85275] CT
0 0 1 RC
N
2.667 0 M
2.667 1.473 1.473 2.667 0 2.667 C
-1.473 2.667 -2.667 1.473 -2.667 0 C
-2.667 -1.473 -1.473 -2.667 0 -2.667 C
1.473 -2.667 2.667 -1.473 2.667 0 C
cp
f
GR
GS
[1 0 0 1 431.04999 314.10684] CT
0 0 1 RC
N
2.667 0 M
2.667 1.473 1.473 2.667 0 2.667 C
-1.473 2.667 -2.667 1.473 -2.667 0 C
-2.667 -1.473 -1.473 -2.667 0 -2.667 C
1.473 -2.667 2.667 -1.473 2.667 0 C
cp
f
GR
GS
[1 0 0 1 441.89999 283.91971] CT
0 0 1 RC
N
2.667 0 M
2.667 1.473 1.473 2.667 0 2.667 C
-1.473 2.667 -2.667 1.473 -2.667 0 C
-2.667 -1.473 -1.473 -2.667 0 -2.667 C
1.473 -2.667 2.667 -1.473 2.667 0 C
cp
f
GR
GS
[1 0 0 1 452.75 277.35883] CT
0 0 1 RC
N
2.667 0 M
2.667 1.473 1.473 2.667 0 2.667 C
-1.473 2.667 -2.667 1.473 -2.667 0 C
-2.667 -1.473 -1.473 -2.667 0 -2.667 C
1.473 -2.667 2.667 -1.473 2.667 0 C
cp
f
GR
GS
[1 0 0 1 463.60001 275.17831] CT
0 0 1 RC
N
2.667 0 M
2.667 1.473 1.473 2.667 0 2.667 C
-1.473 2.667 -2.667 1.473 -2.667 0 C
-2.667 -1.473 -1.473 -2.667 0 -2.667 C
1.473 -2.667 2.667 -1.473 2.667 0 C
cp
f
GR
GS
[1 0 0 1 474.45001 253.59261] CT
0 0 1 RC
N
2.667 0 M
2.667 1.473 1.473 2.667 0 2.667 C
-1.473 2.667 -2.667 1.473 -2.667 0 C
-2.667 -1.473 -1.473 -2.667 0 -2.667 C
1.473 -2.667 2.667 -1.473 2.667 0 C
cp
f
GR
GS
[1 0 0 1 485.29999 262.82089] CT
0 0 1 RC
N
2.667 0 M
2.667 1.473 1.473 2.667 0 2.667 C
-1.473 2.667 -2.667 1.473 -2.667 0 C
-2.667 -1.473 -1.473 -2.667 0 -2.667 C
1.473 -2.667 2.667 -1.473 2.667 0 C
cp
f
GR
GS
[1 0 0 1 496.14999 270.16766] CT
0 0 1 RC
N
2.667 0 M
2.667 1.473 1.473 2.667 0 2.667 C
-1.473 2.667 -2.667 1.473 -2.667 0 C
-2.667 -1.473 -1.473 -2.667 0 -2.667 C
1.473 -2.667 2.667 -1.473 2.667 0 C
cp
f
GR
GS
[1 0 0 1 507 268.16602] CT
0 0 1 RC
N
2.667 0 M
2.667 1.473 1.473 2.667 0 2.667 C
-1.473 2.667 -2.667 1.473 -2.667 0 C
-2.667 -1.473 -1.473 -2.667 0 -2.667 C
1.473 -2.667 2.667 -1.473 2.667 0 C
cp
f
GR
GS
1 0 0 RC
1 LJ
N
73 278.667 M
73.434 278.667 L
73.868 278.667 L
74.302 278.667 L
74.736 278.667 L
75.17 278.667 L
75.604 278.667 L
76.038 278.667 L
76.472 278.667 L
76.906 278.667 L
77.34 278.667 L
77.774 278.667 L
78.208 278.667 L
78.642 278.667 L
79.076 278.667 L
79.51 278.667 L
79.944 278.667 L
80.378 278.667 L
80.812 278.667 L
81.246 278.667 L
81.68 278.667 L
82.114 278.667 L
82.548 278.667 L
82.982 278.667 L
83.416 278.667 L
83.85 278.667 L
84.284 278.667 L
84.718 278.667 L
85.152 278.667 L
85.586 278.667 L
86.02 278.667 L
86.454 278.667 L
86.888 278.667 L
87.322 278.667 L
87.756 278.667 L
88.19 278.667 L
88.624 278.667 L
89.058 278.667 L
89.492 278.667 L
89.926 278.667 L
90.36 278.667 L
90.794 278.667 L
91.228 278.667 L
91.662 278.667 L
92.096 278.667 L
92.53 278.667 L
92.964 278.667 L
93.398 278.667 L
93.832 278.667 L
94.266 278.667 L
94.7 278.667 L
95.134 278.667 L
95.568 278.667 L
96.002 278.667 L
96.436 278.667 L
96.87 278.667 L
97.304 278.667 L
97.738 278.667 L
98.172 278.667 L
98.606 278.667 L
99.04 278.667 L
99.474 278.667 L
99.908 278.667 L
100.342 278.667 L
100.776 278.667 L
101.21 278.667 L
101.644 278.667 L
102.078 278.667 L
102.512 278.667 L
102.946 278.667 L
103.38 278.667 L
103.814 278.667 L
104.248 278.667 L
104.682 278.667 L
105.116 278.667 L
105.55 278.667 L
105.984 278.667 L
106.418 278.667 L
106.852 278.667 L
107.286 278.667 L
107.72 278.667 L
108.154 278.667 L
108.588 278.667 L
109.022 278.667 L
109.456 278.667 L
109.89 278.667 L
110.324 278.667 L
110.758 278.667 L
111.192 278.667 L
111.626 278.667 L
112.06 278.667 L
112.494 278.667 L
112.928 278.667 L
113.362 278.667 L
113.796 278.667 L
114.23 278.667 L
114.664 278.667 L
115.098 278.667 L
115.532 278.667 L
115.966 278.667 L
116.4 278.667 L
116.834 278.667 L
117.268 278.667 L
117.702 278.667 L
118.136 278.667 L
118.57 278.667 L
119.004 278.667 L
119.438 278.667 L
119.872 278.667 L
120.306 278.667 L
120.74 278.667 L
121.174 278.667 L
121.608 278.667 L
122.042 278.667 L
122.476 278.667 L
122.91 278.667 L
123.344 278.667 L
123.778 278.667 L
124.212 278.667 L
124.646 278.667 L
125.08 278.667 L
125.514 278.667 L
125.948 278.667 L
126.382 278.667 L
126.816 278.667 L
127.25 278.667 L
127.684 278.667 L
128.118 278.667 L
128.552 278.667 L
128.986 278.667 L
129.42 278.667 L
129.854 278.667 L
130.288 278.667 L
130.722 278.667 L
131.156 278.667 L
131.59 278.667 L
132.024 278.667 L
132.458 278.667 L
132.892 278.667 L
133.326 278.667 L
133.76 278.667 L
134.194 278.667 L
134.628 278.667 L
135.062 278.667 L
135.496 278.667 L
135.93 278.667 L
136.364 278.667 L
136.798 278.667 L
137.232 278.667 L
137.666 278.667 L
138.1 278.667 L
138.534 278.667 L
138.968 278.667 L
139.402 278.667 L
139.836 278.667 L
140.27 278.667 L
140.704 278.667 L
141.138 278.667 L
141.572 278.667 L
142.006 278.667 L
142.44 278.667 L
142.874 278.667 L
143.308 278.667 L
143.742 278.667 L
144.176 278.667 L
144.61 278.667 L
145.044 278.667 L
145.478 278.667 L
145.912 278.667 L
146.346 278.667 L
146.78 278.667 L
147.214 278.667 L
147.648 278.667 L
148.082 278.667 L
148.516 278.667 L
148.95 278.667 L
149.384 278.667 L
149.818 278.667 L
150.252 278.667 L
150.686 278.667 L
151.12 278.667 L
151.554 278.667 L
151.988 278.667 L
152.422 278.667 L
152.856 278.667 L
153.29 278.667 L
153.724 278.667 L
154.158 278.667 L
154.592 278.667 L
155.026 278.667 L
155.46 278.667 L
155.894 278.667 L
156.328 278.667 L
156.762 278.667 L
157.196 278.667 L
157.63 278.667 L
158.064 278.667 L
158.498 278.667 L
158.932 278.667 L
159.366 278.667 L
159.8 278.667 L
160.234 278.667 L
160.668 278.667 L
161.102 278.667 L
161.536 278.667 L
161.97 278.667 L
162.404 278.667 L
162.838 278.667 L
163.272 278.667 L
163.706 278.667 L
164.14 278.667 L
164.574 278.667 L
165.008 278.667 L
165.442 278.667 L
165.876 278.667 L
166.31 278.667 L
166.744 278.667 L
167.178 278.667 L
167.612 278.667 L
168.046 278.667 L
168.48 278.667 L
168.914 278.667 L
169.348 278.667 L
169.782 278.667 L
170.216 278.667 L
170.65 278.667 L
171.084 278.667 L
171.518 278.667 L
171.952 278.667 L
172.386 278.667 L
172.82 278.667 L
173.254 278.667 L
173.688 278.667 L
174.122 278.667 L
174.556 278.667 L
174.99 278.667 L
175.424 278.667 L
175.858 278.667 L
176.292 278.667 L
176.726 278.667 L
177.16 278.667 L
177.594 278.667 L
178.028 278.667 L
178.462 278.667 L
178.896 278.667 L
179.33 278.667 L
179.764 278.667 L
180.198 278.667 L
180.632 278.667 L
181.066 278.667 L
181.5 278.667 L
181.934 278.667 L
182.368 278.667 L
182.802 278.667 L
183.236 278.667 L
183.67 278.667 L
184.104 278.667 L
184.538 278.667 L
184.972 278.667 L
185.406 278.667 L
185.84 278.667 L
186.274 278.667 L
186.708 278.667 L
187.142 278.667 L
187.576 278.667 L
188.01 278.667 L
188.444 278.667 L
188.878 278.667 L
189.312 278.667 L
189.746 278.667 L
190.18 278.667 L
190.614 278.667 L
191.048 278.667 L
191.482 278.667 L
191.916 278.667 L
192.35 278.667 L
192.784 278.667 L
193.218 278.667 L
193.652 278.667 L
194.086 278.667 L
194.52 278.667 L
194.954 278.667 L
195.388 278.667 L
195.822 278.667 L
196.256 278.667 L
196.69 278.667 L
197.124 278.667 L
197.558 278.667 L
197.992 278.667 L
198.426 278.667 L
198.86 278.667 L
199.294 278.667 L
199.728 278.667 L
200.162 278.667 L
200.596 278.667 L
201.03 278.667 L
201.464 278.667 L
201.898 278.667 L
202.332 278.667 L
202.766 278.667 L
203.2 278.667 L
203.634 278.667 L
204.068 278.667 L
204.502 278.667 L
204.936 278.667 L
205.37 278.667 L
205.804 278.667 L
206.238 278.667 L
206.672 278.667 L
207.106 278.667 L
207.54 278.667 L
207.974 278.667 L
208.408 278.667 L
208.842 278.667 L
209.276 278.667 L
209.71 278.667 L
210.144 278.667 L
210.578 278.667 L
211.012 278.667 L
211.446 278.667 L
211.88 278.667 L
212.314 278.667 L
212.748 278.667 L
213.182 278.667 L
213.616 278.667 L
214.05 278.667 L
214.484 278.667 L
214.918 278.667 L
215.352 278.667 L
215.786 278.667 L
216.22 278.667 L
216.654 278.667 L
217.088 278.667 L
217.522 278.667 L
217.956 278.667 L
218.39 278.667 L
218.824 278.667 L
219.258 278.667 L
219.692 278.667 L
220.126 278.667 L
220.56 278.667 L
220.994 278.667 L
221.428 278.667 L
221.862 278.667 L
222.296 278.667 L
222.73 278.667 L
223.164 278.667 L
223.598 278.667 L
224.032 278.667 L
224.466 278.667 L
224.9 278.667 L
225.334 278.667 L
225.768 278.667 L
226.202 278.667 L
226.636 278.667 L
227.07 278.667 L
227.504 278.667 L
227.938 278.667 L
228.372 278.667 L
228.806 278.667 L
229.24 278.667 L
229.674 278.667 L
230.108 278.667 L
230.542 278.667 L
230.976 278.667 L
231.41 278.667 L
231.844 278.667 L
232.278 278.667 L
232.712 278.667 L
233.146 278.667 L
233.58 278.667 L
234.014 278.667 L
234.448 278.667 L
234.882 278.667 L
235.316 278.667 L
235.75 278.667 L
236.184 278.667 L
236.618 278.667 L
237.052 278.667 L
237.486 278.667 L
237.92 278.667 L
238.354 278.667 L
238.788 278.667 L
239.222 278.667 L
239.656 278.667 L
240.09 278.667 L
240.524 278.667 L
240.958 278.667 L
241.392 278.667 L
241.826 278.667 L
242.26 278.667 L
242.694 278.667 L
243.128 278.667 L
243.562 278.667 L
243.996 278.667 L
244.43 278.667 L
244.864 278.667 L
245.298 278.667 L
245.732 278.667 L
246.166 278.667 L
246.6 278.667 L
247.034 278.667 L
247.468 278.667 L
247.902 278.667 L
248.336 278.667 L
248.77 278.667 L
249.204 278.667 L
249.638 278.667 L
250.072 278.667 L
250.506 278.667 L
250.94 278.667 L
251.374 278.667 L
251.808 278.667 L
252.242 278.667 L
252.676 278.667 L
253.11 278.667 L
253.544 278.667 L
253.978 278.667 L
254.412 278.667 L
254.846 278.667 L
255.28 278.667 L
255.714 278.667 L
256.148 278.667 L
256.582 278.667 L
257.016 278.667 L
257.45 278.667 L
257.884 278.667 L
258.318 278.667 L
258.752 278.667 L
259.186 278.667 L
259.62 278.667 L
260.054 278.667 L
260.488 278.667 L
260.922 278.667 L
261.356 278.667 L
261.79 278.667 L
262.224 278.667 L
262.658 278.667 L
263.092 278.667 L
263.526 278.667 L
263.96 278.667 L
264.394 278.667 L
264.828 278.667 L
265.262 278.667 L
265.696 278.667 L
266.13 278.667 L
266.564 278.667 L
266.998 278.667 L
267.432 278.667 L
267.866 278.667 L
268.3 278.667 L
268.734 278.667 L
269.168 278.667 L
269.602 278.667 L
270.036 278.667 L
270.47 278.667 L
270.904 278.667 L
271.338 278.667 L
271.772 278.667 L
272.206 278.667 L
272.64 278.667 L
273.074 278.667 L
273.508 278.667 L
273.942 278.667 L
274.376 278.667 L
274.81 278.667 L
275.244 278.667 L
275.678 278.667 L
276.112 278.667 L
276.546 278.667 L
276.98 278.667 L
277.414 278.667 L
277.848 278.667 L
278.282 278.667 L
278.716 278.667 L
279.15 278.667 L
279.584 278.667 L
280.018 278.667 L
280.452 278.667 L
280.886 278.667 L
281.32 278.667 L
281.754 278.667 L
282.188 278.667 L
282.622 278.667 L
283.056 278.667 L
283.49 278.667 L
283.924 278.667 L
284.358 278.667 L
284.792 278.667 L
285.226 278.667 L
285.66 278.667 L
286.094 278.667 L
286.528 278.667 L
286.962 278.667 L
287.396 278.667 L
287.83 278.667 L
288.264 278.667 L
288.698 278.667 L
289.132 278.667 L
289.566 278.667 L
290 278.667 L
290.434 278.667 L
290.868 278.667 L
291.302 278.667 L
291.736 278.667 L
292.17 278.667 L
292.604 278.667 L
293.038 278.667 L
293.472 278.667 L
293.906 278.667 L
294.34 278.667 L
294.774 278.667 L
295.208 278.667 L
295.642 278.667 L
296.076 278.667 L
296.51 278.667 L
296.944 278.667 L
297.378 278.667 L
297.812 278.667 L
298.246 278.667 L
298.68 278.667 L
299.114 278.667 L
299.548 278.667 L
299.982 278.667 L
300.416 278.667 L
300.85 278.667 L
301.284 278.667 L
301.718 278.667 L
302.152 278.667 L
302.586 278.667 L
303.02 278.667 L
303.454 278.667 L
303.888 278.667 L
304.322 278.667 L
304.756 278.667 L
305.19 278.667 L
305.624 278.667 L
306.058 278.667 L
306.492 278.667 L
306.926 278.667 L
307.36 278.667 L
307.794 278.667 L
308.228 278.667 L
308.662 278.667 L
309.096 278.667 L
309.53 278.667 L
309.964 278.667 L
310.398 278.667 L
310.832 278.667 L
311.266 278.667 L
311.7 278.667 L
312.134 278.667 L
312.568 278.667 L
313.002 278.667 L
313.436 278.667 L
313.87 278.667 L
314.304 278.667 L
314.738 278.667 L
315.172 278.667 L
315.606 278.667 L
316.04 278.667 L
316.474 278.667 L
316.908 278.667 L
317.342 278.667 L
317.776 278.667 L
318.21 278.667 L
318.644 278.667 L
319.078 278.667 L
319.512 278.667 L
319.946 278.667 L
320.38 278.667 L
320.814 278.667 L
321.248 278.667 L
321.682 278.667 L
322.116 278.667 L
322.55 278.667 L
322.984 278.667 L
323.418 278.667 L
323.852 278.667 L
324.286 278.667 L
324.72 278.667 L
325.154 278.667 L
325.588 278.667 L
326.022 278.667 L
326.456 278.667 L
326.89 278.667 L
327.324 278.667 L
327.758 278.667 L
328.192 278.667 L
328.626 278.667 L
329.06 278.667 L
329.494 278.667 L
329.928 278.667 L
330.362 278.667 L
330.796 278.667 L
331.23 278.667 L
331.664 278.667 L
332.098 278.667 L
332.532 278.667 L
332.966 278.667 L
333.4 278.667 L
333.834 278.667 L
334.268 278.667 L
334.702 278.667 L
335.136 278.667 L
335.57 278.667 L
336.004 278.667 L
336.438 278.667 L
336.872 278.667 L
337.306 278.667 L
337.74 278.667 L
338.174 278.667 L
338.608 278.667 L
339.042 278.667 L
339.476 278.667 L
339.91 278.667 L
340.344 278.667 L
340.778 278.667 L
341.212 278.667 L
341.646 278.667 L
342.08 278.667 L
342.514 278.667 L
342.948 278.667 L
343.382 278.667 L
343.816 278.667 L
344.25 278.667 L
344.684 278.667 L
345.118 278.667 L
345.552 278.667 L
345.986 278.667 L
346.42 278.667 L
346.854 278.667 L
347.288 278.667 L
347.722 278.667 L
348.156 278.667 L
348.59 278.667 L
349.024 278.667 L
349.458 278.667 L
349.892 278.667 L
350.326 278.667 L
350.76 278.667 L
351.194 278.667 L
351.628 278.667 L
352.062 278.667 L
352.496 278.667 L
352.93 278.667 L
353.364 278.667 L
353.798 278.667 L
354.232 278.667 L
354.666 278.667 L
355.1 278.667 L
355.534 278.667 L
355.968 278.667 L
356.402 278.667 L
356.836 278.667 L
357.27 278.667 L
357.704 278.667 L
358.138 278.667 L
358.572 278.667 L
359.006 278.667 L
359.44 278.667 L
359.874 278.667 L
360.308 278.667 L
360.742 278.667 L
361.176 278.667 L
361.61 278.667 L
362.044 278.667 L
362.478 278.667 L
362.912 278.667 L
363.346 278.667 L
363.78 278.667 L
364.214 278.667 L
364.648 278.667 L
365.082 278.667 L
365.516 278.667 L
365.95 278.667 L
366.384 278.667 L
366.818 278.667 L
367.252 278.667 L
367.686 278.667 L
368.12 278.667 L
368.554 278.667 L
368.988 278.667 L
369.422 278.667 L
369.856 278.667 L
370.29 278.667 L
370.724 278.667 L
371.158 278.667 L
371.592 278.667 L
372.026 278.667 L
372.46 278.667 L
372.894 278.667 L
373.328 278.667 L
373.762 278.667 L
374.196 278.667 L
374.63 278.667 L
375.064 278.667 L
375.498 278.667 L
375.932 278.667 L
376.366 278.667 L
376.8 278.667 L
377.234 278.667 L
377.668 278.667 L
378.102 278.667 L
378.536 278.667 L
378.97 278.667 L
379.404 278.667 L
379.838 278.667 L
380.272 278.667 L
380.706 278.667 L
381.14 278.667 L
381.574 278.667 L
382.008 278.667 L
382.442 278.667 L
382.876 278.667 L
383.31 278.667 L
383.744 278.667 L
384.178 278.667 L
384.612 278.667 L
385.046 278.667 L
385.48 278.667 L
385.914 278.667 L
386.348 278.667 L
386.782 278.667 L
387.216 278.667 L
387.65 278.667 L
388.084 278.667 L
388.518 278.667 L
388.952 278.667 L
389.386 278.667 L
389.82 278.667 L
390.254 278.667 L
390.688 278.667 L
391.122 278.667 L
391.556 278.667 L
391.99 278.667 L
392.424 278.667 L
392.858 278.667 L
393.292 278.667 L
393.726 278.667 L
394.16 278.667 L
394.594 278.667 L
395.028 278.667 L
395.462 278.667 L
395.896 278.667 L
396.33 278.667 L
396.764 278.667 L
397.198 278.667 L
397.632 278.667 L
398.066 278.667 L
398.5 278.667 L
398.934 278.667 L
399.368 278.667 L
399.802 278.667 L
400.236 278.667 L
400.67 278.667 L
401.104 278.667 L
401.538 278.667 L
401.972 278.667 L
402.406 278.667 L
402.84 278.667 L
403.274 278.667 L
403.708 278.667 L
404.142 278.667 L
404.576 278.667 L
405.01 278.667 L
405.444 278.667 L
405.878 278.667 L
406.312 278.667 L
406.746 278.667 L
407.18 278.667 L
407.614 278.667 L
408.048 278.667 L
408.482 278.667 L
408.916 278.667 L
409.35 278.667 L
409.784 278.667 L
410.218 278.667 L
410.652 278.667 L
411.086 278.667 L
411.52 278.667 L
411.954 278.667 L
412.388 278.667 L
412.822 278.667 L
413.256 278.667 L
413.69 278.667 L
414.124 278.667 L
414.558 278.667 L
414.992 278.667 L
415.426 278.667 L
415.86 278.667 L
416.294 278.667 L
416.728 278.667 L
417.162 278.667 L
417.596 278.667 L
418.03 278.667 L
418.464 278.667 L
418.898 278.667 L
419.332 278.667 L
419.766 278.667 L
420.2 278.667 L
420.634 278.667 L
421.068 278.667 L
421.502 278.667 L
421.936 278.667 L
422.37 278.667 L
422.804 278.667 L
423.238 278.667 L
423.672 278.667 L
424.106 278.667 L
424.54 278.667 L
424.974 278.667 L
425.408 278.667 L
425.842 278.667 L
426.276 278.667 L
426.71 278.667 L
427.144 278.667 L
427.578 278.667 L
428.012 278.667 L
428.446 278.667 L
428.88 278.667 L
429.314 278.667 L
429.748 278.667 L
430.182 278.667 L
430.616 278.667 L
431.05 278.667 L
431.484 278.667 L
431.918 278.667 L
432.352 278.667 L
432.786 278.667 L
433.22 278.667 L
433.654 278.667 L
434.088 278.667 L
434.522 278.667 L
434.956 278.667 L
435.39 278.667 L
435.824 278.667 L
436.258 278.667 L
436.692 278.667 L
437.126 278.667 L
437.56 278.667 L
437.994 278.667 L
438.428 278.667 L
438.862 278.667 L
439.296 278.667 L
439.73 278.667 L
440.164 278.667 L
440.598 278.667 L
441.032 278.667 L
441.466 278.667 L
441.9 278.667 L
442.334 278.667 L
442.768 278.667 L
443.202 278.667 L
443.636 278.667 L
444.07 278.667 L
444.504 278.667 L
444.938 278.667 L
445.372 278.667 L
445.806 278.667 L
446.24 278.667 L
446.674 278.667 L
447.108 278.667 L
447.542 278.667 L
447.976 278.667 L
448.41 278.667 L
448.844 278.667 L
449.278 278.667 L
449.712 278.667 L
450.146 278.667 L
450.58 278.667 L
451.014 278.667 L
451.448 278.667 L
451.882 278.667 L
452.316 278.667 L
452.75 278.667 L
453.184 278.667 L
453.618 278.667 L
454.052 278.667 L
454.486 278.667 L
454.92 278.667 L
455.354 278.667 L
455.788 278.667 L
456.222 278.667 L
456.656 278.667 L
457.09 278.667 L
457.524 278.667 L
457.958 278.667 L
458.392 278.667 L
458.826 278.667 L
459.26 278.667 L
459.694 278.667 L
460.128 278.667 L
460.562 278.667 L
460.996 278.667 L
461.43 278.667 L
461.864 278.667 L
462.298 278.667 L
462.732 278.667 L
463.166 278.667 L
463.6 278.667 L
464.034 278.667 L
464.468 278.667 L
464.902 278.667 L
465.336 278.667 L
465.77 278.667 L
466.204 278.667 L
466.638 278.667 L
467.072 278.667 L
467.506 278.667 L
467.94 278.667 L
468.374 278.667 L
468.808 278.667 L
469.242 278.667 L
469.676 278.667 L
470.11 278.667 L
470.544 278.667 L
470.978 278.667 L
471.412 278.667 L
471.846 278.667 L
472.28 278.667 L
472.714 278.667 L
473.148 278.667 L
473.582 278.667 L
474.016 278.667 L
474.45 278.667 L
474.884 278.667 L
475.318 278.667 L
475.752 278.667 L
476.186 278.667 L
476.62 278.667 L
477.054 278.667 L
477.488 278.667 L
477.922 278.667 L
478.356 278.667 L
478.79 278.667 L
479.224 278.667 L
479.658 278.667 L
480.092 278.667 L
480.526 278.667 L
480.96 278.667 L
481.394 278.667 L
481.828 278.667 L
482.262 278.667 L
482.696 278.667 L
483.13 278.667 L
483.564 278.667 L
483.998 278.667 L
484.432 278.667 L
484.866 278.667 L
485.3 278.667 L
485.734 278.667 L
486.168 278.667 L
486.602 278.667 L
487.036 278.667 L
487.47 278.667 L
487.904 278.667 L
488.338 278.667 L
488.772 278.667 L
489.206 278.667 L
489.64 278.667 L
490.074 278.667 L
490.508 278.667 L
490.942 278.667 L
491.376 278.667 L
491.81 278.667 L
492.244 278.667 L
492.678 278.667 L
493.112 278.667 L
493.546 278.667 L
493.98 278.667 L
494.414 278.667 L
494.848 278.667 L
495.282 278.667 L
495.716 278.667 L
496.15 278.667 L
496.584 278.667 L
497.018 278.667 L
497.452 278.667 L
497.886 278.667 L
498.32 278.667 L
498.754 278.667 L
499.188 278.667 L
499.622 278.667 L
500.056 278.667 L
500.49 278.667 L
500.924 278.667 L
501.358 278.667 L
501.792 278.667 L
502.226 278.667 L
502.66 278.667 L
503.094 278.667 L
503.528 278.667 L
503.962 278.667 L
504.396 278.667 L
504.83 278.667 L
505.264 278.667 L
505.698 278.667 L
506.132 278.667 L
506.566 278.667 L
507 278.667 L
S
GR
GS
1 GC
N
82 265 M
82 239 L
240 239 L
240 265 L
cp
f
GR
GS
[1 0 0 1 119 246.35849] CT
/Helvetica 9 F
GS
[1 0 0 1 0 0] CT
0 3.5 moveto 
1 -1 scale
(Polynomial model - residuals) t 
GR
GR
GS
[1 0 0 1 101 246.35849] CT
0 0 1 RC
N
2.667 0 M
2.667 1.473 1.473 2.667 0 2.667 C
-1.473 2.667 -2.667 1.473 -2.667 0 C
-2.667 -1.473 -1.473 -2.667 0 -2.667 C
1.473 -2.667 2.667 -1.473 2.667 0 C
cp
f
GR
GS
[1 0 0 1 119 257.64151] CT
/Helvetica 9 F
GS
[1 0 0 1 0 0] CT
0 3.5 moveto 
1 -1 scale
(Zero Line) t 
GR
GR
GS
1 0 0 RC
1 LJ
N
86 257.642 M
116 257.642 L
S
GR
GS
0.149 GC
10.0 ML
0.5 LW
N
82 265 M
82 239 L
240 239 L
240 265 L
cp
S
GR
%%Trailer
%%Pages: 1
%%EOF
