%!PS-Adobe-3.0 EPSF-3.0
%%Creator: (MATLAB, The Mathworks, Inc. Version 9.0.0.341360 \(R2016a\). Operating System: Mac OS X)
%%Title: /Users/deepak/Documents/MATLAB/matlabprojects/singleCalib_IH/source/wtyn.eps
%%CreationDate: 2016-11-26T23:27:27
%%Pages: (atend)
%%BoundingBox: 0 0 560 420
%%LanguageLevel: 3
%%EndComments
%%BeginProlog
%%BeginResource: procset (Apache XML Graphics Std ProcSet) 1.2 0
%%Version: 1.2 0
%%Copyright: (Copyright 2001-2003,2010 The Apache Software Foundation. License terms: http://www.apache.org/licenses/LICENSE-2.0)
/bd{bind def}bind def
/ld{load def}bd
/GR/grestore ld
/M/moveto ld
/LJ/setlinejoin ld
/C/curveto ld
/f/fill ld
/LW/setlinewidth ld
/GC/setgray ld
/t/show ld
/N/newpath ld
/CT/concat ld
/cp/closepath ld
/S/stroke ld
/L/lineto ld
/CC/setcmykcolor ld
/A/ashow ld
/GS/gsave ld
/RC/setrgbcolor ld
/RM/rmoveto ld
/ML/setmiterlimit ld
/re {4 2 roll M
1 index 0 rlineto
0 exch rlineto
neg 0 rlineto
cp } bd
/_ctm matrix def
/_tm matrix def
/BT { _ctm currentmatrix pop matrix _tm copy pop 0 0 moveto } bd
/ET { _ctm setmatrix } bd
/iTm { _ctm setmatrix _tm concat } bd
/Tm { _tm astore pop iTm 0 0 moveto } bd
/ux 0.0 def
/uy 0.0 def
/F {
  /Tp exch def
  /Tf exch def
  Tf findfont Tp scalefont setfont
  /cf Tf def  /cs Tp def
} bd
/ULS {currentpoint /uy exch def /ux exch def} bd
/ULE {
  /Tcx currentpoint pop def
  gsave
  newpath
  cf findfont cs scalefont dup
  /FontMatrix get 0 get /Ts exch def /FontInfo get dup
  /UnderlinePosition get Ts mul /To exch def
  /UnderlineThickness get Ts mul /Tt exch def
  ux uy To add moveto  Tcx uy To add lineto
  Tt setlinewidth stroke
  grestore
} bd
/OLE {
  /Tcx currentpoint pop def
  gsave
  newpath
  cf findfont cs scalefont dup
  /FontMatrix get 0 get /Ts exch def /FontInfo get dup
  /UnderlinePosition get Ts mul /To exch def
  /UnderlineThickness get Ts mul /Tt exch def
  ux uy To add cs add moveto Tcx uy To add cs add lineto
  Tt setlinewidth stroke
  grestore
} bd
/SOE {
  /Tcx currentpoint pop def
  gsave
  newpath
  cf findfont cs scalefont dup
  /FontMatrix get 0 get /Ts exch def /FontInfo get dup
  /UnderlinePosition get Ts mul /To exch def
  /UnderlineThickness get Ts mul /Tt exch def
  ux uy To add cs 10 mul 26 idiv add moveto Tcx uy To add cs 10 mul 26 idiv add lineto
  Tt setlinewidth stroke
  grestore
} bd
/QT {
/Y22 exch store
/X22 exch store
/Y21 exch store
/X21 exch store
currentpoint
/Y21 load 2 mul add 3 div exch
/X21 load 2 mul add 3 div exch
/X21 load 2 mul /X22 load add 3 div
/Y21 load 2 mul /Y22 load add 3 div
/X22 load /Y22 load curveto
} bd
/SSPD {
dup length /d exch dict def
{
/v exch def
/k exch def
currentpagedevice k known {
/cpdv currentpagedevice k get def
v cpdv ne {
/upd false def
/nullv v type /nulltype eq def
/nullcpdv cpdv type /nulltype eq def
nullv nullcpdv or
{
/upd true def
} {
/sametype v type cpdv type eq def
sametype {
v type /arraytype eq {
/vlen v length def
/cpdvlen cpdv length def
vlen cpdvlen eq {
0 1 vlen 1 sub {
/i exch def
/obj v i get def
/cpdobj cpdv i get def
obj cpdobj ne {
/upd true def
exit
} if
} for
} {
/upd true def
} ifelse
} {
v type /dicttype eq {
v {
/dv exch def
/dk exch def
/cpddv cpdv dk get def
dv cpddv ne {
/upd true def
exit
} if
} forall
} {
/upd true def
} ifelse
} ifelse
} if
} ifelse
upd true eq {
d k v put
} if
} if
} if
} forall
d length 0 gt {
d setpagedevice
} if
} bd
%%EndResource
%%BeginResource: procset (Apache XML Graphics EPS ProcSet) 1.0 0
%%Version: 1.0 0
%%Copyright: (Copyright 2002-2003 The Apache Software Foundation. License terms: http://www.apache.org/licenses/LICENSE-2.0)
/BeginEPSF { %def
/b4_Inc_state save def         % Save state for cleanup
/dict_count countdictstack def % Count objects on dict stack
/op_count count 1 sub def      % Count objects on operand stack
userdict begin                 % Push userdict on dict stack
/showpage { } def              % Redefine showpage, { } = null proc
0 setgray 0 setlinecap         % Prepare graphics state
1 setlinewidth 0 setlinejoin
10 setmiterlimit [ ] 0 setdash newpath
/languagelevel where           % If level not equal to 1 then
{pop languagelevel             % set strokeadjust and
1 ne                           % overprint to their defaults.
{false setstrokeadjust false setoverprint
} if
} if
} bd
/EndEPSF { %def
count op_count sub {pop} repeat            % Clean up stacks
countdictstack dict_count sub {end} repeat
b4_Inc_state restore
} bd
%%EndResource
%FOPBeginFontDict
%%IncludeResource: font Courier-Bold
%%IncludeResource: font Helvetica
%%IncludeResource: font Courier-BoldOblique
%%IncludeResource: font Courier-Oblique
%%IncludeResource: font Times-Roman
%%IncludeResource: font Helvetica-BoldOblique
%%IncludeResource: font Helvetica-Bold
%%IncludeResource: font Helvetica-Oblique
%%IncludeResource: font Times-BoldItalic
%%IncludeResource: font Courier
%%IncludeResource: font Times-Italic
%%IncludeResource: font Times-Bold
%%IncludeResource: font Symbol
%%IncludeResource: font ZapfDingbats
%FOPEndFontDict
%%BeginResource: encoding WinAnsiEncoding
/WinAnsiEncoding [
/.notdef /.notdef /.notdef /.notdef /.notdef
/.notdef /.notdef /.notdef /.notdef /.notdef
/.notdef /.notdef /.notdef /.notdef /.notdef
/.notdef /.notdef /.notdef /.notdef /.notdef
/.notdef /.notdef /.notdef /.notdef /.notdef
/.notdef /.notdef /.notdef /.notdef /.notdef
/.notdef /.notdef /space /exclam /quotedbl
/numbersign /dollar /percent /ampersand /quotesingle
/parenleft /parenright /asterisk /plus /comma
/hyphen /period /slash /zero /one
/two /three /four /five /six
/seven /eight /nine /colon /semicolon
/less /equal /greater /question /at
/A /B /C /D /E
/F /G /H /I /J
/K /L /M /N /O
/P /Q /R /S /T
/U /V /W /X /Y
/Z /bracketleft /backslash /bracketright /asciicircum
/underscore /quoteleft /a /b /c
/d /e /f /g /h
/i /j /k /l /m
/n /o /p /q /r
/s /t /u /v /w
/x /y /z /braceleft /bar
/braceright /asciitilde /bullet /Euro /bullet
/quotesinglbase /florin /quotedblbase /ellipsis /dagger
/daggerdbl /circumflex /perthousand /Scaron /guilsinglleft
/OE /bullet /Zcaron /bullet /bullet
/quoteleft /quoteright /quotedblleft /quotedblright /bullet
/endash /emdash /asciitilde /trademark /scaron
/guilsinglright /oe /bullet /zcaron /Ydieresis
/space /exclamdown /cent /sterling /currency
/yen /brokenbar /section /dieresis /copyright
/ordfeminine /guillemotleft /logicalnot /sfthyphen /registered
/macron /degree /plusminus /twosuperior /threesuperior
/acute /mu /paragraph /middot /cedilla
/onesuperior /ordmasculine /guillemotright /onequarter /onehalf
/threequarters /questiondown /Agrave /Aacute /Acircumflex
/Atilde /Adieresis /Aring /AE /Ccedilla
/Egrave /Eacute /Ecircumflex /Edieresis /Igrave
/Iacute /Icircumflex /Idieresis /Eth /Ntilde
/Ograve /Oacute /Ocircumflex /Otilde /Odieresis
/multiply /Oslash /Ugrave /Uacute /Ucircumflex
/Udieresis /Yacute /Thorn /germandbls /agrave
/aacute /acircumflex /atilde /adieresis /aring
/ae /ccedilla /egrave /eacute /ecircumflex
/edieresis /igrave /iacute /icircumflex /idieresis
/eth /ntilde /ograve /oacute /ocircumflex
/otilde /odieresis /divide /oslash /ugrave
/uacute /ucircumflex /udieresis /yacute /thorn
/ydieresis
] def
%%EndResource
%FOPBeginFontReencode
/Courier-Bold findfont
dup length dict begin
  {1 index /FID ne {def} {pop pop} ifelse} forall
  /Encoding WinAnsiEncoding def
  currentdict
end
/Courier-Bold exch definefont pop
/Helvetica findfont
dup length dict begin
  {1 index /FID ne {def} {pop pop} ifelse} forall
  /Encoding WinAnsiEncoding def
  currentdict
end
/Helvetica exch definefont pop
/Courier-BoldOblique findfont
dup length dict begin
  {1 index /FID ne {def} {pop pop} ifelse} forall
  /Encoding WinAnsiEncoding def
  currentdict
end
/Courier-BoldOblique exch definefont pop
/Courier-Oblique findfont
dup length dict begin
  {1 index /FID ne {def} {pop pop} ifelse} forall
  /Encoding WinAnsiEncoding def
  currentdict
end
/Courier-Oblique exch definefont pop
/Times-Roman findfont
dup length dict begin
  {1 index /FID ne {def} {pop pop} ifelse} forall
  /Encoding WinAnsiEncoding def
  currentdict
end
/Times-Roman exch definefont pop
/Helvetica-BoldOblique findfont
dup length dict begin
  {1 index /FID ne {def} {pop pop} ifelse} forall
  /Encoding WinAnsiEncoding def
  currentdict
end
/Helvetica-BoldOblique exch definefont pop
/Helvetica-Bold findfont
dup length dict begin
  {1 index /FID ne {def} {pop pop} ifelse} forall
  /Encoding WinAnsiEncoding def
  currentdict
end
/Helvetica-Bold exch definefont pop
/Helvetica-Oblique findfont
dup length dict begin
  {1 index /FID ne {def} {pop pop} ifelse} forall
  /Encoding WinAnsiEncoding def
  currentdict
end
/Helvetica-Oblique exch definefont pop
/Times-BoldItalic findfont
dup length dict begin
  {1 index /FID ne {def} {pop pop} ifelse} forall
  /Encoding WinAnsiEncoding def
  currentdict
end
/Times-BoldItalic exch definefont pop
/Courier findfont
dup length dict begin
  {1 index /FID ne {def} {pop pop} ifelse} forall
  /Encoding WinAnsiEncoding def
  currentdict
end
/Courier exch definefont pop
/Times-Italic findfont
dup length dict begin
  {1 index /FID ne {def} {pop pop} ifelse} forall
  /Encoding WinAnsiEncoding def
  currentdict
end
/Times-Italic exch definefont pop
/Times-Bold findfont
dup length dict begin
  {1 index /FID ne {def} {pop pop} ifelse} forall
  /Encoding WinAnsiEncoding def
  currentdict
end
/Times-Bold exch definefont pop
%FOPEndFontReencode
%%EndProlog
%%Page: 1 1
%%PageBoundingBox: 0 0 560 420
%%BeginPageSetup
[1 0 0 -1 0 420] CT
%%EndPageSetup
GS
1 GC
N
0 0 560 420 re
f
GR
GS
1 GC
N
0 0 560 420 re
f
GR
GS
1 GC
N
73 175 M
507 175 L
507 31 L
73 31 L
cp
f
GR
GS
0.873 GC
1 LJ
0.5 LW
N
73 175 M
73 31 L
S
GR
GS
0.873 GC
1 LJ
0.5 LW
N
116.4 175 M
116.4 31 L
S
GR
GS
0.873 GC
1 LJ
0.5 LW
N
159.8 175 M
159.8 31 L
S
GR
GS
0.873 GC
1 LJ
0.5 LW
N
203.2 175 M
203.2 31 L
S
GR
GS
0.873 GC
1 LJ
0.5 LW
N
246.6 175 M
246.6 31 L
S
GR
GS
0.873 GC
1 LJ
0.5 LW
N
290 175 M
290 31 L
S
GR
GS
0.873 GC
1 LJ
0.5 LW
N
333.4 175 M
333.4 31 L
S
GR
GS
0.873 GC
1 LJ
0.5 LW
N
376.8 175 M
376.8 31 L
S
GR
GS
0.873 GC
1 LJ
0.5 LW
N
420.2 175 M
420.2 31 L
S
GR
GS
0.873 GC
1 LJ
0.5 LW
N
463.6 175 M
463.6 31 L
S
GR
GS
0.873 GC
1 LJ
0.5 LW
N
507 175 M
507 31 L
S
GR
GS
0.873 GC
1 LJ
0.5 LW
N
507 175 M
73 175 L
S
GR
GS
0.873 GC
1 LJ
0.5 LW
N
507 139 M
73 139 L
S
GR
GS
0.873 GC
1 LJ
0.5 LW
N
507 103 M
73 103 L
S
GR
GS
0.873 GC
1 LJ
0.5 LW
N
507 67 M
73 67 L
S
GR
GS
0.873 GC
1 LJ
0.5 LW
N
507 31 M
73 31 L
S
GR
GS
0.149 GC
2 setlinecap
1 LJ
0.5 LW
N
73 175 M
507 175 L
S
GR
GS
0.149 GC
2 setlinecap
1 LJ
0.5 LW
N
73 31 M
507 31 L
S
GR
GS
0.149 GC
2 setlinecap
1 LJ
0.5 LW
N
73 175 M
73 170.66 L
S
GR
GS
0.149 GC
2 setlinecap
1 LJ
0.5 LW
N
116.4 175 M
116.4 170.66 L
S
GR
GS
0.149 GC
2 setlinecap
1 LJ
0.5 LW
N
159.8 175 M
159.8 170.66 L
S
GR
GS
0.149 GC
2 setlinecap
1 LJ
0.5 LW
N
203.2 175 M
203.2 170.66 L
S
GR
GS
0.149 GC
2 setlinecap
1 LJ
0.5 LW
N
246.6 175 M
246.6 170.66 L
S
GR
GS
0.149 GC
2 setlinecap
1 LJ
0.5 LW
N
290 175 M
290 170.66 L
S
GR
GS
0.149 GC
2 setlinecap
1 LJ
0.5 LW
N
333.4 175 M
333.4 170.66 L
S
GR
GS
0.149 GC
2 setlinecap
1 LJ
0.5 LW
N
376.8 175 M
376.8 170.66 L
S
GR
GS
0.149 GC
2 setlinecap
1 LJ
0.5 LW
N
420.2 175 M
420.2 170.66 L
S
GR
GS
0.149 GC
2 setlinecap
1 LJ
0.5 LW
N
463.6 175 M
463.6 170.66 L
S
GR
GS
0.149 GC
2 setlinecap
1 LJ
0.5 LW
N
507 175 M
507 170.66 L
S
GR
GS
0.149 GC
2 setlinecap
1 LJ
0.5 LW
N
73 31 M
73 35.34 L
S
GR
GS
0.149 GC
2 setlinecap
1 LJ
0.5 LW
N
116.4 31 M
116.4 35.34 L
S
GR
GS
0.149 GC
2 setlinecap
1 LJ
0.5 LW
N
159.8 31 M
159.8 35.34 L
S
GR
GS
0.149 GC
2 setlinecap
1 LJ
0.5 LW
N
203.2 31 M
203.2 35.34 L
S
GR
GS
0.149 GC
2 setlinecap
1 LJ
0.5 LW
N
246.6 31 M
246.6 35.34 L
S
GR
GS
0.149 GC
2 setlinecap
1 LJ
0.5 LW
N
290 31 M
290 35.34 L
S
GR
GS
0.149 GC
2 setlinecap
1 LJ
0.5 LW
N
333.4 31 M
333.4 35.34 L
S
GR
GS
0.149 GC
2 setlinecap
1 LJ
0.5 LW
N
376.8 31 M
376.8 35.34 L
S
GR
GS
0.149 GC
2 setlinecap
1 LJ
0.5 LW
N
420.2 31 M
420.2 35.34 L
S
GR
GS
0.149 GC
2 setlinecap
1 LJ
0.5 LW
N
463.6 31 M
463.6 35.34 L
S
GR
GS
0.149 GC
2 setlinecap
1 LJ
0.5 LW
N
507 31 M
507 35.34 L
S
GR
GS
[1 0 0 1 73 179] CT
0.149 GC
/Helvetica 10 F
GS
[1 0 0 1 0 0] CT
-10.5 10 moveto 
1 -1 scale
(-100) t 
GR
GR
GS
[1 0 0 1 116.4 179] CT
0.149 GC
/Helvetica 10 F
GS
[1 0 0 1 0 0] CT
-8 10 moveto 
1 -1 scale
(-90) t 
GR
GR
GS
[1 0 0 1 159.8 179] CT
0.149 GC
/Helvetica 10 F
GS
[1 0 0 1 0 0] CT
-8 10 moveto 
1 -1 scale
(-80) t 
GR
GR
GS
[1 0 0 1 203.2 179] CT
0.149 GC
/Helvetica 10 F
GS
[1 0 0 1 0 0] CT
-8 10 moveto 
1 -1 scale
(-70) t 
GR
GR
GS
[1 0 0 1 246.60001 179] CT
0.149 GC
/Helvetica 10 F
GS
[1 0 0 1 0 0] CT
-8 10 moveto 
1 -1 scale
(-60) t 
GR
GR
GS
[1 0 0 1 290 179] CT
0.149 GC
/Helvetica 10 F
GS
[1 0 0 1 0 0] CT
-8 10 moveto 
1 -1 scale
(-50) t 
GR
GR
GS
[1 0 0 1 333.39999 179] CT
0.149 GC
/Helvetica 10 F
GS
[1 0 0 1 0 0] CT
-8 10 moveto 
1 -1 scale
(-40) t 
GR
GR
GS
[1 0 0 1 376.79999 179] CT
0.149 GC
/Helvetica 10 F
GS
[1 0 0 1 0 0] CT
-8 10 moveto 
1 -1 scale
(-30) t 
GR
GR
GS
[1 0 0 1 420.20001 179] CT
0.149 GC
/Helvetica 10 F
GS
[1 0 0 1 0 0] CT
-8 10 moveto 
1 -1 scale
(-20) t 
GR
GR
GS
[1 0 0 1 463.60001 179] CT
0.149 GC
/Helvetica 10 F
GS
[1 0 0 1 0 0] CT
-8 10 moveto 
1 -1 scale
(-10) t 
GR
GR
GS
[1 0 0 1 507 179] CT
0.149 GC
/Helvetica 10 F
GS
[1 0 0 1 0 0] CT
-3 10 moveto 
1 -1 scale
(0) t 
GR
GR
GS
[1 0 0 1 290.00021 193] CT
0.149 GC
/Helvetica-Bold 12 F
GS
[1 0 0 1 0 0] CT
-78 12 moveto 
1 -1 scale
(Camera translation \(in mm\)) t 
GR
GR
GS
0.149 GC
2 setlinecap
1 LJ
0.5 LW
N
73 175 M
73 31 L
S
GR
GS
0.149 GC
2 setlinecap
1 LJ
0.5 LW
N
507 175 M
507 31 L
S
GR
GS
0.149 GC
2 setlinecap
1 LJ
0.5 LW
N
73 175 M
77.34 175 L
S
GR
GS
0.149 GC
2 setlinecap
1 LJ
0.5 LW
N
73 139 M
77.34 139 L
S
GR
GS
0.149 GC
2 setlinecap
1 LJ
0.5 LW
N
73 103 M
77.34 103 L
S
GR
GS
0.149 GC
2 setlinecap
1 LJ
0.5 LW
N
73 67 M
77.34 67 L
S
GR
GS
0.149 GC
2 setlinecap
1 LJ
0.5 LW
N
73 31 M
77.34 31 L
S
GR
GS
0.149 GC
2 setlinecap
1 LJ
0.5 LW
N
507 175 M
502.66 175 L
S
GR
GS
0.149 GC
2 setlinecap
1 LJ
0.5 LW
N
507 139 M
502.66 139 L
S
GR
GS
0.149 GC
2 setlinecap
1 LJ
0.5 LW
N
507 103 M
502.66 103 L
S
GR
GS
0.149 GC
2 setlinecap
1 LJ
0.5 LW
N
507 67 M
502.66 67 L
S
GR
GS
0.149 GC
2 setlinecap
1 LJ
0.5 LW
N
507 31 M
502.66 31 L
S
GR
GS
[1 0 0 1 68.99999 175] CT
0.149 GC
/Helvetica 10 F
GS
[1 0 0 1 0 0] CT
-6 3.5 moveto 
1 -1 scale
(0) t 
GR
GR
GS
[1 0 0 1 68.99999 139] CT
0.149 GC
/Helvetica 10 F
GS
[1 0 0 1 0 0] CT
-14 3.5 moveto 
1 -1 scale
(0.2) t 
GR
GR
GS
[1 0 0 1 68.99999 103] CT
0.149 GC
/Helvetica 10 F
GS
[1 0 0 1 0 0] CT
-14 3.5 moveto 
1 -1 scale
(0.4) t 
GR
GR
GS
[1 0 0 1 68.99999 66.99999] CT
0.149 GC
/Helvetica 10 F
GS
[1 0 0 1 0 0] CT
-14 3.5 moveto 
1 -1 scale
(0.6) t 
GR
GR
GS
[1 0 0 1 68.99999 31] CT
0.149 GC
/Helvetica 10 F
GS
[1 0 0 1 0 0] CT
-14 3.5 moveto 
1 -1 scale
(0.8) t 
GR
GR
GS
[0 -1 1 0 52.00001 102.99993] CT
0.149 GC
/Helvetica-Bold 12 F
GS
[1 0 0 1 0 0] CT
-55.5 -3 moveto 
1 -1 scale
(Width error \(in mm\)) t 
GR
GR
GS
[1 0 0 1 73 47.14695] CT
0 0 1 RC
N
2.667 0 M
2.667 1.473 1.473 2.667 0 2.667 C
-1.473 2.667 -2.667 1.473 -2.667 0 C
-2.667 -1.473 -1.473 -2.667 0 -2.667 C
1.473 -2.667 2.667 -1.473 2.667 0 C
cp
f
GR
GS
[1 0 0 1 77.34 49.24002] CT
0 0 1 RC
N
2.667 0 M
2.667 1.473 1.473 2.667 0 2.667 C
-1.473 2.667 -2.667 1.473 -2.667 0 C
-2.667 -1.473 -1.473 -2.667 0 -2.667 C
1.473 -2.667 2.667 -1.473 2.667 0 C
cp
f
GR
GS
[1 0 0 1 81.68 50.20965] CT
0 0 1 RC
N
2.667 0 M
2.667 1.473 1.473 2.667 0 2.667 C
-1.473 2.667 -2.667 1.473 -2.667 0 C
-2.667 -1.473 -1.473 -2.667 0 -2.667 C
1.473 -2.667 2.667 -1.473 2.667 0 C
cp
f
GR
GS
[1 0 0 1 86.02 51.32888] CT
0 0 1 RC
N
2.667 0 M
2.667 1.473 1.473 2.667 0 2.667 C
-1.473 2.667 -2.667 1.473 -2.667 0 C
-2.667 -1.473 -1.473 -2.667 0 -2.667 C
1.473 -2.667 2.667 -1.473 2.667 0 C
cp
f
GR
GS
[1 0 0 1 90.36 47.13838] CT
0 0 1 RC
N
2.667 0 M
2.667 1.473 1.473 2.667 0 2.667 C
-1.473 2.667 -2.667 1.473 -2.667 0 C
-2.667 -1.473 -1.473 -2.667 0 -2.667 C
1.473 -2.667 2.667 -1.473 2.667 0 C
cp
f
GR
GS
[1 0 0 1 94.7 49.36074] CT
0 0 1 RC
N
2.667 0 M
2.667 1.473 1.473 2.667 0 2.667 C
-1.473 2.667 -2.667 1.473 -2.667 0 C
-2.667 -1.473 -1.473 -2.667 0 -2.667 C
1.473 -2.667 2.667 -1.473 2.667 0 C
cp
f
GR
GS
[1 0 0 1 99.04 53.61162] CT
0 0 1 RC
N
2.667 0 M
2.667 1.473 1.473 2.667 0 2.667 C
-1.473 2.667 -2.667 1.473 -2.667 0 C
-2.667 -1.473 -1.473 -2.667 0 -2.667 C
1.473 -2.667 2.667 -1.473 2.667 0 C
cp
f
GR
GS
[1 0 0 1 103.38 55.93015] CT
0 0 1 RC
N
2.667 0 M
2.667 1.473 1.473 2.667 0 2.667 C
-1.473 2.667 -2.667 1.473 -2.667 0 C
-2.667 -1.473 -1.473 -2.667 0 -2.667 C
1.473 -2.667 2.667 -1.473 2.667 0 C
cp
f
GR
GS
[1 0 0 1 107.72 55.65815] CT
0 0 1 RC
N
2.667 0 M
2.667 1.473 1.473 2.667 0 2.667 C
-1.473 2.667 -2.667 1.473 -2.667 0 C
-2.667 -1.473 -1.473 -2.667 0 -2.667 C
1.473 -2.667 2.667 -1.473 2.667 0 C
cp
f
GR
GS
[1 0 0 1 112.06 62.33549] CT
0 0 1 RC
N
2.667 0 M
2.667 1.473 1.473 2.667 0 2.667 C
-1.473 2.667 -2.667 1.473 -2.667 0 C
-2.667 -1.473 -1.473 -2.667 0 -2.667 C
1.473 -2.667 2.667 -1.473 2.667 0 C
cp
f
GR
GS
[1 0 0 1 116.4 59.26675] CT
0 0 1 RC
N
2.667 0 M
2.667 1.473 1.473 2.667 0 2.667 C
-1.473 2.667 -2.667 1.473 -2.667 0 C
-2.667 -1.473 -1.473 -2.667 0 -2.667 C
1.473 -2.667 2.667 -1.473 2.667 0 C
cp
f
GR
GS
[1 0 0 1 120.74 59.88488] CT
0 0 1 RC
N
2.667 0 M
2.667 1.473 1.473 2.667 0 2.667 C
-1.473 2.667 -2.667 1.473 -2.667 0 C
-2.667 -1.473 -1.473 -2.667 0 -2.667 C
1.473 -2.667 2.667 -1.473 2.667 0 C
cp
f
GR
GS
[1 0 0 1 125.08 64.66114] CT
0 0 1 RC
N
2.667 0 M
2.667 1.473 1.473 2.667 0 2.667 C
-1.473 2.667 -2.667 1.473 -2.667 0 C
-2.667 -1.473 -1.473 -2.667 0 -2.667 C
1.473 -2.667 2.667 -1.473 2.667 0 C
cp
f
GR
GS
[1 0 0 1 129.42 61.70645] CT
0 0 1 RC
N
2.667 0 M
2.667 1.473 1.473 2.667 0 2.667 C
-1.473 2.667 -2.667 1.473 -2.667 0 C
-2.667 -1.473 -1.473 -2.667 0 -2.667 C
1.473 -2.667 2.667 -1.473 2.667 0 C
cp
f
GR
GS
[1 0 0 1 133.75999 65.10188] CT
0 0 1 RC
N
2.667 0 M
2.667 1.473 1.473 2.667 0 2.667 C
-1.473 2.667 -2.667 1.473 -2.667 0 C
-2.667 -1.473 -1.473 -2.667 0 -2.667 C
1.473 -2.667 2.667 -1.473 2.667 0 C
cp
f
GR
GS
[1 0 0 1 138.10001 66.99571] CT
0 0 1 RC
N
2.667 0 M
2.667 1.473 1.473 2.667 0 2.667 C
-1.473 2.667 -2.667 1.473 -2.667 0 C
-2.667 -1.473 -1.473 -2.667 0 -2.667 C
1.473 -2.667 2.667 -1.473 2.667 0 C
cp
f
GR
GS
[1 0 0 1 142.44 67.46555] CT
0 0 1 RC
N
2.667 0 M
2.667 1.473 1.473 2.667 0 2.667 C
-1.473 2.667 -2.667 1.473 -2.667 0 C
-2.667 -1.473 -1.473 -2.667 0 -2.667 C
1.473 -2.667 2.667 -1.473 2.667 0 C
cp
f
GR
GS
[1 0 0 1 146.78 68.00272] CT
0 0 1 RC
N
2.667 0 M
2.667 1.473 1.473 2.667 0 2.667 C
-1.473 2.667 -2.667 1.473 -2.667 0 C
-2.667 -1.473 -1.473 -2.667 0 -2.667 C
1.473 -2.667 2.667 -1.473 2.667 0 C
cp
f
GR
GS
[1 0 0 1 151.12 69.73823] CT
0 0 1 RC
N
2.667 0 M
2.667 1.473 1.473 2.667 0 2.667 C
-1.473 2.667 -2.667 1.473 -2.667 0 C
-2.667 -1.473 -1.473 -2.667 0 -2.667 C
1.473 -2.667 2.667 -1.473 2.667 0 C
cp
f
GR
GS
[1 0 0 1 155.46001 71.57886] CT
0 0 1 RC
N
2.667 0 M
2.667 1.473 1.473 2.667 0 2.667 C
-1.473 2.667 -2.667 1.473 -2.667 0 C
-2.667 -1.473 -1.473 -2.667 0 -2.667 C
1.473 -2.667 2.667 -1.473 2.667 0 C
cp
f
GR
GS
[1 0 0 1 159.8 72.7588] CT
0 0 1 RC
N
2.667 0 M
2.667 1.473 1.473 2.667 0 2.667 C
-1.473 2.667 -2.667 1.473 -2.667 0 C
-2.667 -1.473 -1.473 -2.667 0 -2.667 C
1.473 -2.667 2.667 -1.473 2.667 0 C
cp
f
GR
GS
[1 0 0 1 164.14 75.97421] CT
0 0 1 RC
N
2.667 0 M
2.667 1.473 1.473 2.667 0 2.667 C
-1.473 2.667 -2.667 1.473 -2.667 0 C
-2.667 -1.473 -1.473 -2.667 0 -2.667 C
1.473 -2.667 2.667 -1.473 2.667 0 C
cp
f
GR
GS
[1 0 0 1 168.48 74.74123] CT
0 0 1 RC
N
2.667 0 M
2.667 1.473 1.473 2.667 0 2.667 C
-1.473 2.667 -2.667 1.473 -2.667 0 C
-2.667 -1.473 -1.473 -2.667 0 -2.667 C
1.473 -2.667 2.667 -1.473 2.667 0 C
cp
f
GR
GS
[1 0 0 1 172.82001 74.44827] CT
0 0 1 RC
N
2.667 0 M
2.667 1.473 1.473 2.667 0 2.667 C
-1.473 2.667 -2.667 1.473 -2.667 0 C
-2.667 -1.473 -1.473 -2.667 0 -2.667 C
1.473 -2.667 2.667 -1.473 2.667 0 C
cp
f
GR
GS
[1 0 0 1 177.16 77.48779] CT
0 0 1 RC
N
2.667 0 M
2.667 1.473 1.473 2.667 0 2.667 C
-1.473 2.667 -2.667 1.473 -2.667 0 C
-2.667 -1.473 -1.473 -2.667 0 -2.667 C
1.473 -2.667 2.667 -1.473 2.667 0 C
cp
f
GR
GS
[1 0 0 1 181.5 76.45192] CT
0 0 1 RC
N
2.667 0 M
2.667 1.473 1.473 2.667 0 2.667 C
-1.473 2.667 -2.667 1.473 -2.667 0 C
-2.667 -1.473 -1.473 -2.667 0 -2.667 C
1.473 -2.667 2.667 -1.473 2.667 0 C
cp
f
GR
GS
[1 0 0 1 185.84 84.5079] CT
0 0 1 RC
N
2.667 0 M
2.667 1.473 1.473 2.667 0 2.667 C
-1.473 2.667 -2.667 1.473 -2.667 0 C
-2.667 -1.473 -1.473 -2.667 0 -2.667 C
1.473 -2.667 2.667 -1.473 2.667 0 C
cp
f
GR
GS
[1 0 0 1 190.17999 81.72481] CT
0 0 1 RC
N
2.667 0 M
2.667 1.473 1.473 2.667 0 2.667 C
-1.473 2.667 -2.667 1.473 -2.667 0 C
-2.667 -1.473 -1.473 -2.667 0 -2.667 C
1.473 -2.667 2.667 -1.473 2.667 0 C
cp
f
GR
GS
[1 0 0 1 194.52 81.14188] CT
0 0 1 RC
N
2.667 0 M
2.667 1.473 1.473 2.667 0 2.667 C
-1.473 2.667 -2.667 1.473 -2.667 0 C
-2.667 -1.473 -1.473 -2.667 0 -2.667 C
1.473 -2.667 2.667 -1.473 2.667 0 C
cp
f
GR
GS
[1 0 0 1 198.86 84.20545] CT
0 0 1 RC
N
2.667 0 M
2.667 1.473 1.473 2.667 0 2.667 C
-1.473 2.667 -2.667 1.473 -2.667 0 C
-2.667 -1.473 -1.473 -2.667 0 -2.667 C
1.473 -2.667 2.667 -1.473 2.667 0 C
cp
f
GR
GS
[1 0 0 1 203.2 80.62556] CT
0 0 1 RC
N
2.667 0 M
2.667 1.473 1.473 2.667 0 2.667 C
-1.473 2.667 -2.667 1.473 -2.667 0 C
-2.667 -1.473 -1.473 -2.667 0 -2.667 C
1.473 -2.667 2.667 -1.473 2.667 0 C
cp
f
GR
GS
[1 0 0 1 207.53999 84.31908] CT
0 0 1 RC
N
2.667 0 M
2.667 1.473 1.473 2.667 0 2.667 C
-1.473 2.667 -2.667 1.473 -2.667 0 C
-2.667 -1.473 -1.473 -2.667 0 -2.667 C
1.473 -2.667 2.667 -1.473 2.667 0 C
cp
f
GR
GS
[1 0 0 1 211.88 86.09782] CT
0 0 1 RC
N
2.667 0 M
2.667 1.473 1.473 2.667 0 2.667 C
-1.473 2.667 -2.667 1.473 -2.667 0 C
-2.667 -1.473 -1.473 -2.667 0 -2.667 C
1.473 -2.667 2.667 -1.473 2.667 0 C
cp
f
GR
GS
[1 0 0 1 216.22 87.46092] CT
0 0 1 RC
N
2.667 0 M
2.667 1.473 1.473 2.667 0 2.667 C
-1.473 2.667 -2.667 1.473 -2.667 0 C
-2.667 -1.473 -1.473 -2.667 0 -2.667 C
1.473 -2.667 2.667 -1.473 2.667 0 C
cp
f
GR
GS
[1 0 0 1 220.56 89.32516] CT
0 0 1 RC
N
2.667 0 M
2.667 1.473 1.473 2.667 0 2.667 C
-1.473 2.667 -2.667 1.473 -2.667 0 C
-2.667 -1.473 -1.473 -2.667 0 -2.667 C
1.473 -2.667 2.667 -1.473 2.667 0 C
cp
f
GR
GS
[1 0 0 1 224.89999 92.09557] CT
0 0 1 RC
N
2.667 0 M
2.667 1.473 1.473 2.667 0 2.667 C
-1.473 2.667 -2.667 1.473 -2.667 0 C
-2.667 -1.473 -1.473 -2.667 0 -2.667 C
1.473 -2.667 2.667 -1.473 2.667 0 C
cp
f
GR
GS
[1 0 0 1 229.24001 90.95203] CT
0 0 1 RC
N
2.667 0 M
2.667 1.473 1.473 2.667 0 2.667 C
-1.473 2.667 -2.667 1.473 -2.667 0 C
-2.667 -1.473 -1.473 -2.667 0 -2.667 C
1.473 -2.667 2.667 -1.473 2.667 0 C
cp
f
GR
GS
[1 0 0 1 233.58 92.56145] CT
0 0 1 RC
N
2.667 0 M
2.667 1.473 1.473 2.667 0 2.667 C
-1.473 2.667 -2.667 1.473 -2.667 0 C
-2.667 -1.473 -1.473 -2.667 0 -2.667 C
1.473 -2.667 2.667 -1.473 2.667 0 C
cp
f
GR
GS
[1 0 0 1 237.92 92.02312] CT
0 0 1 RC
N
2.667 0 M
2.667 1.473 1.473 2.667 0 2.667 C
-1.473 2.667 -2.667 1.473 -2.667 0 C
-2.667 -1.473 -1.473 -2.667 0 -2.667 C
1.473 -2.667 2.667 -1.473 2.667 0 C
cp
f
GR
GS
[1 0 0 1 242.25999 97.49757] CT
0 0 1 RC
N
2.667 0 M
2.667 1.473 1.473 2.667 0 2.667 C
-1.473 2.667 -2.667 1.473 -2.667 0 C
-2.667 -1.473 -1.473 -2.667 0 -2.667 C
1.473 -2.667 2.667 -1.473 2.667 0 C
cp
f
GR
GS
[1 0 0 1 246.60001 95.65786] CT
0 0 1 RC
N
2.667 0 M
2.667 1.473 1.473 2.667 0 2.667 C
-1.473 2.667 -2.667 1.473 -2.667 0 C
-2.667 -1.473 -1.473 -2.667 0 -2.667 C
1.473 -2.667 2.667 -1.473 2.667 0 C
cp
f
GR
GS
[1 0 0 1 250.94 98.09966] CT
0 0 1 RC
N
2.667 0 M
2.667 1.473 1.473 2.667 0 2.667 C
-1.473 2.667 -2.667 1.473 -2.667 0 C
-2.667 -1.473 -1.473 -2.667 0 -2.667 C
1.473 -2.667 2.667 -1.473 2.667 0 C
cp
f
GR
GS
[1 0 0 1 255.28 99.92472] CT
0 0 1 RC
N
2.667 0 M
2.667 1.473 1.473 2.667 0 2.667 C
-1.473 2.667 -2.667 1.473 -2.667 0 C
-2.667 -1.473 -1.473 -2.667 0 -2.667 C
1.473 -2.667 2.667 -1.473 2.667 0 C
cp
f
GR
GS
[1 0 0 1 259.62 102.79108] CT
0 0 1 RC
N
2.667 0 M
2.667 1.473 1.473 2.667 0 2.667 C
-1.473 2.667 -2.667 1.473 -2.667 0 C
-2.667 -1.473 -1.473 -2.667 0 -2.667 C
1.473 -2.667 2.667 -1.473 2.667 0 C
cp
f
GR
GS
[1 0 0 1 263.95999 103.59909] CT
0 0 1 RC
N
2.667 0 M
2.667 1.473 1.473 2.667 0 2.667 C
-1.473 2.667 -2.667 1.473 -2.667 0 C
-2.667 -1.473 -1.473 -2.667 0 -2.667 C
1.473 -2.667 2.667 -1.473 2.667 0 C
cp
f
GR
GS
[1 0 0 1 268.29999 104.58608] CT
0 0 1 RC
N
2.667 0 M
2.667 1.473 1.473 2.667 0 2.667 C
-1.473 2.667 -2.667 1.473 -2.667 0 C
-2.667 -1.473 -1.473 -2.667 0 -2.667 C
1.473 -2.667 2.667 -1.473 2.667 0 C
cp
f
GR
GS
[1 0 0 1 272.64001 102.84396] CT
0 0 1 RC
N
2.667 0 M
2.667 1.473 1.473 2.667 0 2.667 C
-1.473 2.667 -2.667 1.473 -2.667 0 C
-2.667 -1.473 -1.473 -2.667 0 -2.667 C
1.473 -2.667 2.667 -1.473 2.667 0 C
cp
f
GR
GS
[1 0 0 1 276.98001 105.56264] CT
0 0 1 RC
N
2.667 0 M
2.667 1.473 1.473 2.667 0 2.667 C
-1.473 2.667 -2.667 1.473 -2.667 0 C
-2.667 -1.473 -1.473 -2.667 0 -2.667 C
1.473 -2.667 2.667 -1.473 2.667 0 C
cp
f
GR
GS
[1 0 0 1 281.32001 108.43815] CT
0 0 1 RC
N
2.667 0 M
2.667 1.473 1.473 2.667 0 2.667 C
-1.473 2.667 -2.667 1.473 -2.667 0 C
-2.667 -1.473 -1.473 -2.667 0 -2.667 C
1.473 -2.667 2.667 -1.473 2.667 0 C
cp
f
GR
GS
[1 0 0 1 285.66 109.63417] CT
0 0 1 RC
N
2.667 0 M
2.667 1.473 1.473 2.667 0 2.667 C
-1.473 2.667 -2.667 1.473 -2.667 0 C
-2.667 -1.473 -1.473 -2.667 0 -2.667 C
1.473 -2.667 2.667 -1.473 2.667 0 C
cp
f
GR
GS
[1 0 0 1 290 110.85787] CT
0 0 1 RC
N
2.667 0 M
2.667 1.473 1.473 2.667 0 2.667 C
-1.473 2.667 -2.667 1.473 -2.667 0 C
-2.667 -1.473 -1.473 -2.667 0 -2.667 C
1.473 -2.667 2.667 -1.473 2.667 0 C
cp
f
GR
GS
[1 0 0 1 294.34 112.87415] CT
0 0 1 RC
N
2.667 0 M
2.667 1.473 1.473 2.667 0 2.667 C
-1.473 2.667 -2.667 1.473 -2.667 0 C
-2.667 -1.473 -1.473 -2.667 0 -2.667 C
1.473 -2.667 2.667 -1.473 2.667 0 C
cp
f
GR
GS
[1 0 0 1 298.67999 113.41193] CT
0 0 1 RC
N
2.667 0 M
2.667 1.473 1.473 2.667 0 2.667 C
-1.473 2.667 -2.667 1.473 -2.667 0 C
-2.667 -1.473 -1.473 -2.667 0 -2.667 C
1.473 -2.667 2.667 -1.473 2.667 0 C
cp
f
GR
GS
[1 0 0 1 303.01999 112.41305] CT
0 0 1 RC
N
2.667 0 M
2.667 1.473 1.473 2.667 0 2.667 C
-1.473 2.667 -2.667 1.473 -2.667 0 C
-2.667 -1.473 -1.473 -2.667 0 -2.667 C
1.473 -2.667 2.667 -1.473 2.667 0 C
cp
f
GR
GS
[1 0 0 1 307.35999 114.53481] CT
0 0 1 RC
N
2.667 0 M
2.667 1.473 1.473 2.667 0 2.667 C
-1.473 2.667 -2.667 1.473 -2.667 0 C
-2.667 -1.473 -1.473 -2.667 0 -2.667 C
1.473 -2.667 2.667 -1.473 2.667 0 C
cp
f
GR
GS
[1 0 0 1 311.70001 117.45762] CT
0 0 1 RC
N
2.667 0 M
2.667 1.473 1.473 2.667 0 2.667 C
-1.473 2.667 -2.667 1.473 -2.667 0 C
-2.667 -1.473 -1.473 -2.667 0 -2.667 C
1.473 -2.667 2.667 -1.473 2.667 0 C
cp
f
GR
GS
[1 0 0 1 316.04001 116.50847] CT
0 0 1 RC
N
2.667 0 M
2.667 1.473 1.473 2.667 0 2.667 C
-1.473 2.667 -2.667 1.473 -2.667 0 C
-2.667 -1.473 -1.473 -2.667 0 -2.667 C
1.473 -2.667 2.667 -1.473 2.667 0 C
cp
f
GR
GS
[1 0 0 1 320.38 122.27023] CT
0 0 1 RC
N
2.667 0 M
2.667 1.473 1.473 2.667 0 2.667 C
-1.473 2.667 -2.667 1.473 -2.667 0 C
-2.667 -1.473 -1.473 -2.667 0 -2.667 C
1.473 -2.667 2.667 -1.473 2.667 0 C
cp
f
GR
GS
[1 0 0 1 324.72 119.50338] CT
0 0 1 RC
N
2.667 0 M
2.667 1.473 1.473 2.667 0 2.667 C
-1.473 2.667 -2.667 1.473 -2.667 0 C
-2.667 -1.473 -1.473 -2.667 0 -2.667 C
1.473 -2.667 2.667 -1.473 2.667 0 C
cp
f
GR
GS
[1 0 0 1 329.06 120.55251] CT
0 0 1 RC
N
2.667 0 M
2.667 1.473 1.473 2.667 0 2.667 C
-1.473 2.667 -2.667 1.473 -2.667 0 C
-2.667 -1.473 -1.473 -2.667 0 -2.667 C
1.473 -2.667 2.667 -1.473 2.667 0 C
cp
f
GR
GS
[1 0 0 1 333.39999 122.0737] CT
0 0 1 RC
N
2.667 0 M
2.667 1.473 1.473 2.667 0 2.667 C
-1.473 2.667 -2.667 1.473 -2.667 0 C
-2.667 -1.473 -1.473 -2.667 0 -2.667 C
1.473 -2.667 2.667 -1.473 2.667 0 C
cp
f
GR
GS
[1 0 0 1 337.73999 124.54041] CT
0 0 1 RC
N
2.667 0 M
2.667 1.473 1.473 2.667 0 2.667 C
-1.473 2.667 -2.667 1.473 -2.667 0 C
-2.667 -1.473 -1.473 -2.667 0 -2.667 C
1.473 -2.667 2.667 -1.473 2.667 0 C
cp
f
GR
GS
[1 0 0 1 342.07999 125.32806] CT
0 0 1 RC
N
2.667 0 M
2.667 1.473 1.473 2.667 0 2.667 C
-1.473 2.667 -2.667 1.473 -2.667 0 C
-2.667 -1.473 -1.473 -2.667 0 -2.667 C
1.473 -2.667 2.667 -1.473 2.667 0 C
cp
f
GR
GS
[1 0 0 1 346.42001 127.10417] CT
0 0 1 RC
N
2.667 0 M
2.667 1.473 1.473 2.667 0 2.667 C
-1.473 2.667 -2.667 1.473 -2.667 0 C
-2.667 -1.473 -1.473 -2.667 0 -2.667 C
1.473 -2.667 2.667 -1.473 2.667 0 C
cp
f
GR
GS
[1 0 0 1 350.76001 126.98051] CT
0 0 1 RC
N
2.667 0 M
2.667 1.473 1.473 2.667 0 2.667 C
-1.473 2.667 -2.667 1.473 -2.667 0 C
-2.667 -1.473 -1.473 -2.667 0 -2.667 C
1.473 -2.667 2.667 -1.473 2.667 0 C
cp
f
GR
GS
[1 0 0 1 355.10001 129.83563] CT
0 0 1 RC
N
2.667 0 M
2.667 1.473 1.473 2.667 0 2.667 C
-1.473 2.667 -2.667 1.473 -2.667 0 C
-2.667 -1.473 -1.473 -2.667 0 -2.667 C
1.473 -2.667 2.667 -1.473 2.667 0 C
cp
f
GR
GS
[1 0 0 1 359.44 130.33614] CT
0 0 1 RC
N
2.667 0 M
2.667 1.473 1.473 2.667 0 2.667 C
-1.473 2.667 -2.667 1.473 -2.667 0 C
-2.667 -1.473 -1.473 -2.667 0 -2.667 C
1.473 -2.667 2.667 -1.473 2.667 0 C
cp
f
GR
GS
[1 0 0 1 363.78 133.02249] CT
0 0 1 RC
N
2.667 0 M
2.667 1.473 1.473 2.667 0 2.667 C
-1.473 2.667 -2.667 1.473 -2.667 0 C
-2.667 -1.473 -1.473 -2.667 0 -2.667 C
1.473 -2.667 2.667 -1.473 2.667 0 C
cp
f
GR
GS
[1 0 0 1 368.12 133.92818] CT
0 0 1 RC
N
2.667 0 M
2.667 1.473 1.473 2.667 0 2.667 C
-1.473 2.667 -2.667 1.473 -2.667 0 C
-2.667 -1.473 -1.473 -2.667 0 -2.667 C
1.473 -2.667 2.667 -1.473 2.667 0 C
cp
f
GR
GS
[1 0 0 1 372.45999 135.09282] CT
0 0 1 RC
N
2.667 0 M
2.667 1.473 1.473 2.667 0 2.667 C
-1.473 2.667 -2.667 1.473 -2.667 0 C
-2.667 -1.473 -1.473 -2.667 0 -2.667 C
1.473 -2.667 2.667 -1.473 2.667 0 C
cp
f
GR
GS
[1 0 0 1 376.79999 135.75586] CT
0 0 1 RC
N
2.667 0 M
2.667 1.473 1.473 2.667 0 2.667 C
-1.473 2.667 -2.667 1.473 -2.667 0 C
-2.667 -1.473 -1.473 -2.667 0 -2.667 C
1.473 -2.667 2.667 -1.473 2.667 0 C
cp
f
GR
GS
[1 0 0 1 381.14001 138.36339] CT
0 0 1 RC
N
2.667 0 M
2.667 1.473 1.473 2.667 0 2.667 C
-1.473 2.667 -2.667 1.473 -2.667 0 C
-2.667 -1.473 -1.473 -2.667 0 -2.667 C
1.473 -2.667 2.667 -1.473 2.667 0 C
cp
f
GR
GS
[1 0 0 1 385.48001 137.68958] CT
0 0 1 RC
N
2.667 0 M
2.667 1.473 1.473 2.667 0 2.667 C
-1.473 2.667 -2.667 1.473 -2.667 0 C
-2.667 -1.473 -1.473 -2.667 0 -2.667 C
1.473 -2.667 2.667 -1.473 2.667 0 C
cp
f
GR
GS
[1 0 0 1 389.82001 138.42549] CT
0 0 1 RC
N
2.667 0 M
2.667 1.473 1.473 2.667 0 2.667 C
-1.473 2.667 -2.667 1.473 -2.667 0 C
-2.667 -1.473 -1.473 -2.667 0 -2.667 C
1.473 -2.667 2.667 -1.473 2.667 0 C
cp
f
GR
GS
[1 0 0 1 394.16 141.86702] CT
0 0 1 RC
N
2.667 0 M
2.667 1.473 1.473 2.667 0 2.667 C
-1.473 2.667 -2.667 1.473 -2.667 0 C
-2.667 -1.473 -1.473 -2.667 0 -2.667 C
1.473 -2.667 2.667 -1.473 2.667 0 C
cp
f
GR
GS
[1 0 0 1 398.5 143.66888] CT
0 0 1 RC
N
2.667 0 M
2.667 1.473 1.473 2.667 0 2.667 C
-1.473 2.667 -2.667 1.473 -2.667 0 C
-2.667 -1.473 -1.473 -2.667 0 -2.667 C
1.473 -2.667 2.667 -1.473 2.667 0 C
cp
f
GR
GS
[1 0 0 1 402.84 144.10776] CT
0 0 1 RC
N
2.667 0 M
2.667 1.473 1.473 2.667 0 2.667 C
-1.473 2.667 -2.667 1.473 -2.667 0 C
-2.667 -1.473 -1.473 -2.667 0 -2.667 C
1.473 -2.667 2.667 -1.473 2.667 0 C
cp
f
GR
GS
[1 0 0 1 407.17999 145.35709] CT
0 0 1 RC
N
2.667 0 M
2.667 1.473 1.473 2.667 0 2.667 C
-1.473 2.667 -2.667 1.473 -2.667 0 C
-2.667 -1.473 -1.473 -2.667 0 -2.667 C
1.473 -2.667 2.667 -1.473 2.667 0 C
cp
f
GR
GS
[1 0 0 1 411.51999 146.51907] CT
0 0 1 RC
N
2.667 0 M
2.667 1.473 1.473 2.667 0 2.667 C
-1.473 2.667 -2.667 1.473 -2.667 0 C
-2.667 -1.473 -1.473 -2.667 0 -2.667 C
1.473 -2.667 2.667 -1.473 2.667 0 C
cp
f
GR
GS
[1 0 0 1 415.85999 147.95264] CT
0 0 1 RC
N
2.667 0 M
2.667 1.473 1.473 2.667 0 2.667 C
-1.473 2.667 -2.667 1.473 -2.667 0 C
-2.667 -1.473 -1.473 -2.667 0 -2.667 C
1.473 -2.667 2.667 -1.473 2.667 0 C
cp
f
GR
GS
[1 0 0 1 420.20001 148.97185] CT
0 0 1 RC
N
2.667 0 M
2.667 1.473 1.473 2.667 0 2.667 C
-1.473 2.667 -2.667 1.473 -2.667 0 C
-2.667 -1.473 -1.473 -2.667 0 -2.667 C
1.473 -2.667 2.667 -1.473 2.667 0 C
cp
f
GR
GS
[1 0 0 1 424.54001 150.36836] CT
0 0 1 RC
N
2.667 0 M
2.667 1.473 1.473 2.667 0 2.667 C
-1.473 2.667 -2.667 1.473 -2.667 0 C
-2.667 -1.473 -1.473 -2.667 0 -2.667 C
1.473 -2.667 2.667 -1.473 2.667 0 C
cp
f
GR
GS
[1 0 0 1 428.88 151.39594] CT
0 0 1 RC
N
2.667 0 M
2.667 1.473 1.473 2.667 0 2.667 C
-1.473 2.667 -2.667 1.473 -2.667 0 C
-2.667 -1.473 -1.473 -2.667 0 -2.667 C
1.473 -2.667 2.667 -1.473 2.667 0 C
cp
f
GR
GS
[1 0 0 1 433.22 153.62732] CT
0 0 1 RC
N
2.667 0 M
2.667 1.473 1.473 2.667 0 2.667 C
-1.473 2.667 -2.667 1.473 -2.667 0 C
-2.667 -1.473 -1.473 -2.667 0 -2.667 C
1.473 -2.667 2.667 -1.473 2.667 0 C
cp
f
GR
GS
[1 0 0 1 437.56 153.95384] CT
0 0 1 RC
N
2.667 0 M
2.667 1.473 1.473 2.667 0 2.667 C
-1.473 2.667 -2.667 1.473 -2.667 0 C
-2.667 -1.473 -1.473 -2.667 0 -2.667 C
1.473 -2.667 2.667 -1.473 2.667 0 C
cp
f
GR
GS
[1 0 0 1 441.89999 155.69159] CT
0 0 1 RC
N
2.667 0 M
2.667 1.473 1.473 2.667 0 2.667 C
-1.473 2.667 -2.667 1.473 -2.667 0 C
-2.667 -1.473 -1.473 -2.667 0 -2.667 C
1.473 -2.667 2.667 -1.473 2.667 0 C
cp
f
GR
GS
[1 0 0 1 446.23999 157.02657] CT
0 0 1 RC
N
2.667 0 M
2.667 1.473 1.473 2.667 0 2.667 C
-1.473 2.667 -2.667 1.473 -2.667 0 C
-2.667 -1.473 -1.473 -2.667 0 -2.667 C
1.473 -2.667 2.667 -1.473 2.667 0 C
cp
f
GR
GS
[1 0 0 1 450.57999 157.7155] CT
0 0 1 RC
N
2.667 0 M
2.667 1.473 1.473 2.667 0 2.667 C
-1.473 2.667 -2.667 1.473 -2.667 0 C
-2.667 -1.473 -1.473 -2.667 0 -2.667 C
1.473 -2.667 2.667 -1.473 2.667 0 C
cp
f
GR
GS
[1 0 0 1 454.92001 159.62268] CT
0 0 1 RC
N
2.667 0 M
2.667 1.473 1.473 2.667 0 2.667 C
-1.473 2.667 -2.667 1.473 -2.667 0 C
-2.667 -1.473 -1.473 -2.667 0 -2.667 C
1.473 -2.667 2.667 -1.473 2.667 0 C
cp
f
GR
GS
[1 0 0 1 459.26001 160.44907] CT
0 0 1 RC
N
2.667 0 M
2.667 1.473 1.473 2.667 0 2.667 C
-1.473 2.667 -2.667 1.473 -2.667 0 C
-2.667 -1.473 -1.473 -2.667 0 -2.667 C
1.473 -2.667 2.667 -1.473 2.667 0 C
cp
f
GR
GS
[1 0 0 1 463.60001 161.34061] CT
0 0 1 RC
N
2.667 0 M
2.667 1.473 1.473 2.667 0 2.667 C
-1.473 2.667 -2.667 1.473 -2.667 0 C
-2.667 -1.473 -1.473 -2.667 0 -2.667 C
1.473 -2.667 2.667 -1.473 2.667 0 C
cp
f
GR
GS
[1 0 0 1 467.94 163.38791] CT
0 0 1 RC
N
2.667 0 M
2.667 1.473 1.473 2.667 0 2.667 C
-1.473 2.667 -2.667 1.473 -2.667 0 C
-2.667 -1.473 -1.473 -2.667 0 -2.667 C
1.473 -2.667 2.667 -1.473 2.667 0 C
cp
f
GR
GS
[1 0 0 1 472.28 164.45187] CT
0 0 1 RC
N
2.667 0 M
2.667 1.473 1.473 2.667 0 2.667 C
-1.473 2.667 -2.667 1.473 -2.667 0 C
-2.667 -1.473 -1.473 -2.667 0 -2.667 C
1.473 -2.667 2.667 -1.473 2.667 0 C
cp
f
GR
GS
[1 0 0 1 476.62 165.79936] CT
0 0 1 RC
N
2.667 0 M
2.667 1.473 1.473 2.667 0 2.667 C
-1.473 2.667 -2.667 1.473 -2.667 0 C
-2.667 -1.473 -1.473 -2.667 0 -2.667 C
1.473 -2.667 2.667 -1.473 2.667 0 C
cp
f
GR
GS
[1 0 0 1 480.95999 167.28255] CT
0 0 1 RC
N
2.667 0 M
2.667 1.473 1.473 2.667 0 2.667 C
-1.473 2.667 -2.667 1.473 -2.667 0 C
-2.667 -1.473 -1.473 -2.667 0 -2.667 C
1.473 -2.667 2.667 -1.473 2.667 0 C
cp
f
GR
GS
[1 0 0 1 485.29999 168.31229] CT
0 0 1 RC
N
2.667 0 M
2.667 1.473 1.473 2.667 0 2.667 C
-1.473 2.667 -2.667 1.473 -2.667 0 C
-2.667 -1.473 -1.473 -2.667 0 -2.667 C
1.473 -2.667 2.667 -1.473 2.667 0 C
cp
f
GR
GS
[1 0 0 1 489.64001 169.73802] CT
0 0 1 RC
N
2.667 0 M
2.667 1.473 1.473 2.667 0 2.667 C
-1.473 2.667 -2.667 1.473 -2.667 0 C
-2.667 -1.473 -1.473 -2.667 0 -2.667 C
1.473 -2.667 2.667 -1.473 2.667 0 C
cp
f
GR
GS
[1 0 0 1 493.98001 171.00249] CT
0 0 1 RC
N
2.667 0 M
2.667 1.473 1.473 2.667 0 2.667 C
-1.473 2.667 -2.667 1.473 -2.667 0 C
-2.667 -1.473 -1.473 -2.667 0 -2.667 C
1.473 -2.667 2.667 -1.473 2.667 0 C
cp
f
GR
GS
[1 0 0 1 498.32001 172.31583] CT
0 0 1 RC
N
2.667 0 M
2.667 1.473 1.473 2.667 0 2.667 C
-1.473 2.667 -2.667 1.473 -2.667 0 C
-2.667 -1.473 -1.473 -2.667 0 -2.667 C
1.473 -2.667 2.667 -1.473 2.667 0 C
cp
f
GR
GS
[1 0 0 1 502.66 173.70695] CT
0 0 1 RC
N
2.667 0 M
2.667 1.473 1.473 2.667 0 2.667 C
-1.473 2.667 -2.667 1.473 -2.667 0 C
-2.667 -1.473 -1.473 -2.667 0 -2.667 C
1.473 -2.667 2.667 -1.473 2.667 0 C
cp
f
GR
GS
[1 0 0 1 507 175] CT
0 0 1 RC
N
2.667 0 M
2.667 1.473 1.473 2.667 0 2.667 C
-1.473 2.667 -2.667 1.473 -2.667 0 C
-2.667 -1.473 -1.473 -2.667 0 -2.667 C
1.473 -2.667 2.667 -1.473 2.667 0 C
cp
f
GR
GS
1 0 0 RC
1 LJ
N
73 46.291 M
73.434 46.42 L
73.868 46.548 L
74.302 46.676 L
74.736 46.805 L
75.17 46.933 L
75.604 47.061 L
76.038 47.19 L
76.472 47.318 L
76.906 47.446 L
77.34 47.574 L
77.774 47.703 L
78.208 47.831 L
78.642 47.959 L
79.076 48.088 L
79.51 48.216 L
79.944 48.344 L
80.378 48.473 L
80.812 48.601 L
81.246 48.729 L
81.68 48.858 L
82.114 48.986 L
82.548 49.114 L
82.982 49.242 L
83.416 49.371 L
83.85 49.499 L
84.284 49.627 L
84.718 49.756 L
85.152 49.884 L
85.586 50.012 L
86.02 50.141 L
86.454 50.269 L
86.888 50.397 L
87.322 50.526 L
87.756 50.654 L
88.19 50.782 L
88.624 50.911 L
89.058 51.039 L
89.492 51.167 L
89.926 51.295 L
90.36 51.424 L
90.794 51.552 L
91.228 51.68 L
91.662 51.809 L
92.096 51.937 L
92.53 52.065 L
92.964 52.194 L
93.398 52.322 L
93.832 52.45 L
94.266 52.579 L
94.7 52.707 L
95.134 52.835 L
95.568 52.963 L
96.002 53.092 L
96.436 53.22 L
96.87 53.348 L
97.304 53.477 L
97.738 53.605 L
98.172 53.733 L
98.606 53.862 L
99.04 53.99 L
99.474 54.118 L
99.908 54.247 L
100.342 54.375 L
100.776 54.503 L
101.21 54.631 L
101.644 54.76 L
102.078 54.888 L
102.512 55.016 L
102.946 55.145 L
103.38 55.273 L
103.814 55.401 L
104.248 55.53 L
104.682 55.658 L
105.116 55.786 L
105.55 55.915 L
105.984 56.043 L
106.418 56.171 L
106.852 56.299 L
107.286 56.428 L
107.72 56.556 L
108.154 56.684 L
108.588 56.813 L
109.022 56.941 L
109.456 57.069 L
109.89 57.198 L
110.324 57.326 L
110.758 57.454 L
111.192 57.583 L
111.626 57.711 L
112.06 57.839 L
112.494 57.967 L
112.928 58.096 L
113.362 58.224 L
113.796 58.352 L
114.23 58.481 L
114.664 58.609 L
115.098 58.737 L
115.532 58.866 L
115.966 58.994 L
116.4 59.122 L
116.834 59.251 L
117.268 59.379 L
117.702 59.507 L
118.136 59.636 L
118.57 59.764 L
119.004 59.892 L
119.438 60.02 L
119.872 60.149 L
120.306 60.277 L
120.74 60.405 L
121.174 60.534 L
121.608 60.662 L
122.042 60.79 L
122.476 60.919 L
122.91 61.047 L
123.344 61.175 L
123.778 61.304 L
124.212 61.432 L
124.646 61.56 L
125.08 61.688 L
125.514 61.817 L
125.948 61.945 L
126.382 62.073 L
126.816 62.202 L
127.25 62.33 L
127.684 62.458 L
128.118 62.587 L
128.552 62.715 L
128.986 62.843 L
129.42 62.972 L
129.854 63.1 L
130.288 63.228 L
130.722 63.356 L
131.156 63.485 L
131.59 63.613 L
132.024 63.741 L
132.458 63.87 L
132.892 63.998 L
133.326 64.126 L
133.76 64.255 L
134.194 64.383 L
134.628 64.511 L
135.062 64.64 L
135.496 64.768 L
135.93 64.896 L
136.364 65.024 L
136.798 65.153 L
137.232 65.281 L
137.666 65.409 L
138.1 65.538 L
138.534 65.666 L
138.968 65.794 L
139.402 65.923 L
139.836 66.051 L
140.27 66.179 L
140.704 66.308 L
141.138 66.436 L
141.572 66.564 L
142.006 66.693 L
142.44 66.821 L
142.874 66.949 L
143.308 67.077 L
143.742 67.206 L
144.176 67.334 L
144.61 67.462 L
145.044 67.591 L
145.478 67.719 L
145.912 67.847 L
146.346 67.976 L
146.78 68.104 L
147.214 68.232 L
147.648 68.361 L
148.082 68.489 L
148.516 68.617 L
148.95 68.745 L
149.384 68.874 L
149.818 69.002 L
150.252 69.13 L
150.686 69.259 L
151.12 69.387 L
151.554 69.515 L
151.988 69.644 L
152.422 69.772 L
152.856 69.9 L
153.29 70.029 L
153.724 70.157 L
154.158 70.285 L
154.592 70.413 L
155.026 70.542 L
155.46 70.67 L
155.894 70.798 L
156.328 70.927 L
156.762 71.055 L
157.196 71.183 L
157.63 71.312 L
158.064 71.44 L
158.498 71.568 L
158.932 71.697 L
159.366 71.825 L
159.8 71.953 L
160.234 72.081 L
160.668 72.21 L
161.102 72.338 L
161.536 72.466 L
161.97 72.595 L
162.404 72.723 L
162.838 72.851 L
163.272 72.98 L
163.706 73.108 L
164.14 73.236 L
164.574 73.365 L
165.008 73.493 L
165.442 73.621 L
165.876 73.75 L
166.31 73.878 L
166.744 74.006 L
167.178 74.134 L
167.612 74.263 L
168.046 74.391 L
168.48 74.519 L
168.914 74.648 L
169.348 74.776 L
169.782 74.904 L
170.216 75.033 L
170.65 75.161 L
171.084 75.289 L
171.518 75.418 L
171.952 75.546 L
172.386 75.674 L
172.82 75.802 L
173.254 75.931 L
173.688 76.059 L
174.122 76.187 L
174.556 76.316 L
174.99 76.444 L
175.424 76.572 L
175.858 76.701 L
176.292 76.829 L
176.726 76.957 L
177.16 77.086 L
177.594 77.214 L
178.028 77.342 L
178.462 77.47 L
178.896 77.599 L
179.33 77.727 L
179.764 77.855 L
180.198 77.984 L
180.632 78.112 L
181.066 78.24 L
181.5 78.369 L
181.934 78.497 L
182.368 78.625 L
182.802 78.754 L
183.236 78.882 L
183.67 79.01 L
184.104 79.138 L
184.538 79.267 L
184.972 79.395 L
185.406 79.523 L
185.84 79.652 L
186.274 79.78 L
186.708 79.908 L
187.142 80.037 L
187.576 80.165 L
188.01 80.293 L
188.444 80.422 L
188.878 80.55 L
189.312 80.678 L
189.746 80.806 L
190.18 80.935 L
190.614 81.063 L
191.048 81.191 L
191.482 81.32 L
191.916 81.448 L
192.35 81.576 L
192.784 81.705 L
193.218 81.833 L
193.652 81.961 L
194.086 82.09 L
194.52 82.218 L
194.954 82.346 L
195.388 82.475 L
195.822 82.603 L
196.256 82.731 L
196.69 82.859 L
197.124 82.988 L
197.558 83.116 L
197.992 83.244 L
198.426 83.373 L
198.86 83.501 L
199.294 83.629 L
199.728 83.758 L
200.162 83.886 L
200.596 84.014 L
201.03 84.143 L
201.464 84.271 L
201.898 84.399 L
202.332 84.527 L
202.766 84.656 L
203.2 84.784 L
203.634 84.912 L
204.068 85.041 L
204.502 85.169 L
204.936 85.297 L
205.37 85.426 L
205.804 85.554 L
206.238 85.682 L
206.672 85.811 L
207.106 85.939 L
207.54 86.067 L
207.974 86.195 L
208.408 86.324 L
208.842 86.452 L
209.276 86.58 L
209.71 86.709 L
210.144 86.837 L
210.578 86.965 L
211.012 87.094 L
211.446 87.222 L
211.88 87.35 L
212.314 87.479 L
212.748 87.607 L
213.182 87.735 L
213.616 87.863 L
214.05 87.992 L
214.484 88.12 L
214.918 88.248 L
215.352 88.377 L
215.786 88.505 L
216.22 88.633 L
216.654 88.762 L
217.088 88.89 L
217.522 89.018 L
217.956 89.147 L
218.39 89.275 L
218.824 89.403 L
219.258 89.532 L
219.692 89.66 L
220.126 89.788 L
220.56 89.916 L
220.994 90.045 L
221.428 90.173 L
221.862 90.301 L
222.296 90.43 L
222.73 90.558 L
223.164 90.686 L
223.598 90.815 L
224.032 90.943 L
224.466 91.071 L
224.9 91.2 L
225.334 91.328 L
225.768 91.456 L
226.202 91.584 L
226.636 91.713 L
227.07 91.841 L
227.504 91.969 L
227.938 92.098 L
228.372 92.226 L
228.806 92.354 L
229.24 92.483 L
229.674 92.611 L
230.108 92.739 L
230.542 92.868 L
230.976 92.996 L
231.41 93.124 L
231.844 93.252 L
232.278 93.381 L
232.712 93.509 L
233.146 93.637 L
233.58 93.766 L
234.014 93.894 L
234.448 94.022 L
234.882 94.151 L
235.316 94.279 L
235.75 94.407 L
236.184 94.536 L
236.618 94.664 L
237.052 94.792 L
237.486 94.92 L
237.92 95.049 L
238.354 95.177 L
238.788 95.305 L
239.222 95.434 L
239.656 95.562 L
240.09 95.69 L
240.524 95.819 L
240.958 95.947 L
241.392 96.075 L
241.826 96.204 L
242.26 96.332 L
242.694 96.46 L
243.128 96.589 L
243.562 96.717 L
243.996 96.845 L
244.43 96.973 L
244.864 97.102 L
245.298 97.23 L
245.732 97.358 L
246.166 97.487 L
246.6 97.615 L
247.034 97.743 L
247.468 97.872 L
247.902 98 L
248.336 98.128 L
248.77 98.257 L
249.204 98.385 L
249.638 98.513 L
250.072 98.641 L
250.506 98.77 L
250.94 98.898 L
251.374 99.026 L
251.808 99.155 L
252.242 99.283 L
252.676 99.411 L
253.11 99.54 L
253.544 99.668 L
253.978 99.796 L
254.412 99.925 L
254.846 100.053 L
255.28 100.181 L
255.714 100.309 L
256.148 100.438 L
256.582 100.566 L
257.016 100.694 L
257.45 100.823 L
257.884 100.951 L
258.318 101.079 L
258.752 101.208 L
259.186 101.336 L
259.62 101.464 L
260.054 101.593 L
260.488 101.721 L
260.922 101.849 L
261.356 101.977 L
261.79 102.106 L
262.224 102.234 L
262.658 102.362 L
263.092 102.491 L
263.526 102.619 L
263.96 102.747 L
264.394 102.876 L
264.828 103.004 L
265.262 103.132 L
265.696 103.261 L
266.13 103.389 L
266.564 103.517 L
266.998 103.646 L
267.432 103.774 L
267.866 103.902 L
268.3 104.03 L
268.734 104.159 L
269.168 104.287 L
269.602 104.415 L
270.036 104.544 L
270.47 104.672 L
270.904 104.8 L
271.338 104.929 L
271.772 105.057 L
272.206 105.185 L
272.64 105.314 L
273.074 105.442 L
273.508 105.57 L
273.942 105.698 L
274.376 105.827 L
274.81 105.955 L
275.244 106.083 L
275.678 106.212 L
276.112 106.34 L
276.546 106.468 L
276.98 106.597 L
277.414 106.725 L
277.848 106.853 L
278.282 106.982 L
278.716 107.11 L
279.15 107.238 L
279.584 107.366 L
280.018 107.495 L
280.452 107.623 L
280.886 107.751 L
281.32 107.88 L
281.754 108.008 L
282.188 108.136 L
282.622 108.265 L
283.056 108.393 L
283.49 108.521 L
283.924 108.65 L
284.358 108.778 L
284.792 108.906 L
285.226 109.034 L
285.66 109.163 L
286.094 109.291 L
286.528 109.419 L
286.962 109.548 L
287.396 109.676 L
287.83 109.804 L
288.264 109.933 L
288.698 110.061 L
289.132 110.189 L
289.566 110.318 L
290 110.446 L
290.434 110.574 L
290.868 110.702 L
291.302 110.831 L
291.736 110.959 L
292.17 111.087 L
292.604 111.216 L
293.038 111.344 L
293.472 111.472 L
293.906 111.601 L
294.34 111.729 L
294.774 111.857 L
295.208 111.986 L
295.642 112.114 L
296.076 112.242 L
296.51 112.371 L
296.944 112.499 L
297.378 112.627 L
297.812 112.755 L
298.246 112.884 L
298.68 113.012 L
299.114 113.14 L
299.548 113.269 L
299.982 113.397 L
300.416 113.525 L
300.85 113.654 L
301.284 113.782 L
301.718 113.91 L
302.152 114.039 L
302.586 114.167 L
303.02 114.295 L
303.454 114.423 L
303.888 114.552 L
304.322 114.68 L
304.756 114.808 L
305.19 114.937 L
305.624 115.065 L
306.058 115.193 L
306.492 115.322 L
306.926 115.45 L
307.36 115.578 L
307.794 115.707 L
308.228 115.835 L
308.662 115.963 L
309.096 116.091 L
309.53 116.22 L
309.964 116.348 L
310.398 116.476 L
310.832 116.605 L
311.266 116.733 L
311.7 116.861 L
312.134 116.99 L
312.568 117.118 L
313.002 117.246 L
313.436 117.375 L
313.87 117.503 L
314.304 117.631 L
314.738 117.759 L
315.172 117.888 L
315.606 118.016 L
316.04 118.144 L
316.474 118.273 L
316.908 118.401 L
317.342 118.529 L
317.776 118.658 L
318.21 118.786 L
318.644 118.914 L
319.078 119.043 L
319.512 119.171 L
319.946 119.299 L
320.38 119.428 L
320.814 119.556 L
321.248 119.684 L
321.682 119.812 L
322.116 119.941 L
322.55 120.069 L
322.984 120.197 L
323.418 120.326 L
323.852 120.454 L
324.286 120.582 L
324.72 120.711 L
325.154 120.839 L
325.588 120.967 L
326.022 121.096 L
326.456 121.224 L
326.89 121.352 L
327.324 121.48 L
327.758 121.609 L
328.192 121.737 L
328.626 121.865 L
329.06 121.994 L
329.494 122.122 L
329.928 122.25 L
330.362 122.379 L
330.796 122.507 L
331.23 122.635 L
331.664 122.764 L
332.098 122.892 L
332.532 123.02 L
332.966 123.148 L
333.4 123.277 L
333.834 123.405 L
334.268 123.533 L
334.702 123.662 L
335.136 123.79 L
335.57 123.918 L
336.004 124.047 L
336.438 124.175 L
336.872 124.303 L
337.306 124.432 L
337.74 124.56 L
338.174 124.688 L
338.608 124.816 L
339.042 124.945 L
339.476 125.073 L
339.91 125.201 L
340.344 125.33 L
340.778 125.458 L
341.212 125.586 L
341.646 125.715 L
342.08 125.843 L
342.514 125.971 L
342.948 126.1 L
343.382 126.228 L
343.816 126.356 L
344.25 126.484 L
344.684 126.613 L
345.118 126.741 L
345.552 126.869 L
345.986 126.998 L
346.42 127.126 L
346.854 127.254 L
347.288 127.383 L
347.722 127.511 L
348.156 127.639 L
348.59 127.768 L
349.024 127.896 L
349.458 128.024 L
349.892 128.153 L
350.326 128.281 L
350.76 128.409 L
351.194 128.537 L
351.628 128.666 L
352.062 128.794 L
352.496 128.922 L
352.93 129.051 L
353.364 129.179 L
353.798 129.307 L
354.232 129.436 L
354.666 129.564 L
355.1 129.692 L
355.534 129.821 L
355.968 129.949 L
356.402 130.077 L
356.836 130.205 L
357.27 130.334 L
357.704 130.462 L
358.138 130.59 L
358.572 130.719 L
359.006 130.847 L
359.44 130.975 L
359.874 131.104 L
360.308 131.232 L
360.742 131.36 L
361.176 131.489 L
361.61 131.617 L
362.044 131.745 L
362.478 131.873 L
362.912 132.002 L
363.346 132.13 L
363.78 132.258 L
364.214 132.387 L
364.648 132.515 L
365.082 132.643 L
365.516 132.772 L
365.95 132.9 L
366.384 133.028 L
366.818 133.157 L
367.252 133.285 L
367.686 133.413 L
368.12 133.541 L
368.554 133.67 L
368.988 133.798 L
369.422 133.926 L
369.856 134.055 L
370.29 134.183 L
370.724 134.311 L
371.158 134.44 L
371.592 134.568 L
372.026 134.696 L
372.46 134.825 L
372.894 134.953 L
373.328 135.081 L
373.762 135.21 L
374.196 135.338 L
374.63 135.466 L
375.064 135.594 L
375.498 135.723 L
375.932 135.851 L
376.366 135.979 L
376.8 136.108 L
377.234 136.236 L
377.668 136.364 L
378.102 136.493 L
378.536 136.621 L
378.97 136.749 L
379.404 136.878 L
379.838 137.006 L
380.272 137.134 L
380.706 137.262 L
381.14 137.391 L
381.574 137.519 L
382.008 137.647 L
382.442 137.776 L
382.876 137.904 L
383.31 138.032 L
383.744 138.161 L
384.178 138.289 L
384.612 138.417 L
385.046 138.546 L
385.48 138.674 L
385.914 138.802 L
386.348 138.93 L
386.782 139.059 L
387.216 139.187 L
387.65 139.315 L
388.084 139.444 L
388.518 139.572 L
388.952 139.7 L
389.386 139.829 L
389.82 139.957 L
390.254 140.085 L
390.688 140.214 L
391.122 140.342 L
391.556 140.47 L
391.99 140.598 L
392.424 140.727 L
392.858 140.855 L
393.292 140.983 L
393.726 141.112 L
394.16 141.24 L
394.594 141.368 L
395.028 141.497 L
395.462 141.625 L
395.896 141.753 L
396.33 141.882 L
396.764 142.01 L
397.198 142.138 L
397.632 142.267 L
398.066 142.395 L
398.5 142.523 L
398.934 142.651 L
399.368 142.78 L
399.802 142.908 L
400.236 143.036 L
400.67 143.165 L
401.104 143.293 L
401.538 143.421 L
401.972 143.55 L
402.406 143.678 L
402.84 143.806 L
403.274 143.935 L
403.708 144.063 L
404.142 144.191 L
404.576 144.319 L
405.01 144.448 L
405.444 144.576 L
405.878 144.704 L
406.312 144.833 L
406.746 144.961 L
407.18 145.089 L
407.614 145.218 L
408.048 145.346 L
408.482 145.474 L
408.916 145.603 L
409.35 145.731 L
409.784 145.859 L
410.218 145.987 L
410.652 146.116 L
411.086 146.244 L
411.52 146.372 L
411.954 146.501 L
412.388 146.629 L
412.822 146.757 L
413.256 146.886 L
413.69 147.014 L
414.124 147.142 L
414.558 147.271 L
414.992 147.399 L
415.426 147.527 L
415.86 147.655 L
416.294 147.784 L
416.728 147.912 L
417.162 148.04 L
417.596 148.169 L
418.03 148.297 L
418.464 148.425 L
418.898 148.554 L
419.332 148.682 L
419.766 148.81 L
420.2 148.939 L
420.634 149.067 L
421.068 149.195 L
421.502 149.324 L
421.936 149.452 L
422.37 149.58 L
422.804 149.708 L
423.238 149.837 L
423.672 149.965 L
424.106 150.093 L
424.54 150.222 L
424.974 150.35 L
425.408 150.478 L
425.842 150.607 L
426.276 150.735 L
426.71 150.863 L
427.144 150.992 L
427.578 151.12 L
428.012 151.248 L
428.446 151.376 L
428.88 151.505 L
429.314 151.633 L
429.748 151.761 L
430.182 151.89 L
430.616 152.018 L
431.05 152.146 L
431.484 152.275 L
431.918 152.403 L
432.352 152.531 L
432.786 152.66 L
433.22 152.788 L
433.654 152.916 L
434.088 153.044 L
434.522 153.173 L
434.956 153.301 L
435.39 153.429 L
435.824 153.558 L
436.258 153.686 L
436.692 153.814 L
437.126 153.943 L
437.56 154.071 L
437.994 154.199 L
438.428 154.328 L
438.862 154.456 L
439.296 154.584 L
439.73 154.712 L
440.164 154.841 L
440.598 154.969 L
441.032 155.097 L
441.466 155.226 L
441.9 155.354 L
442.334 155.482 L
442.768 155.611 L
443.202 155.739 L
443.636 155.867 L
444.07 155.996 L
444.504 156.124 L
444.938 156.252 L
445.372 156.38 L
445.806 156.509 L
446.24 156.637 L
446.674 156.765 L
447.108 156.894 L
447.542 157.022 L
447.976 157.15 L
448.41 157.279 L
448.844 157.407 L
449.278 157.535 L
449.712 157.664 L
450.146 157.792 L
450.58 157.92 L
451.014 158.049 L
451.448 158.177 L
451.882 158.305 L
452.316 158.433 L
452.75 158.562 L
453.184 158.69 L
453.618 158.818 L
454.052 158.947 L
454.486 159.075 L
454.92 159.203 L
455.354 159.332 L
455.788 159.46 L
456.222 159.588 L
456.656 159.717 L
457.09 159.845 L
457.524 159.973 L
457.958 160.101 L
458.392 160.23 L
458.826 160.358 L
459.26 160.486 L
459.694 160.615 L
460.128 160.743 L
460.562 160.871 L
460.996 161 L
461.43 161.128 L
461.864 161.256 L
462.298 161.385 L
462.732 161.513 L
463.166 161.641 L
463.6 161.769 L
464.034 161.898 L
464.468 162.026 L
464.902 162.154 L
465.336 162.283 L
465.77 162.411 L
466.204 162.539 L
466.638 162.668 L
467.072 162.796 L
467.506 162.924 L
467.94 163.053 L
468.374 163.181 L
468.808 163.309 L
469.242 163.437 L
469.676 163.566 L
470.11 163.694 L
470.544 163.822 L
470.978 163.951 L
471.412 164.079 L
471.846 164.207 L
472.28 164.336 L
472.714 164.464 L
473.148 164.592 L
473.582 164.721 L
474.016 164.849 L
474.45 164.977 L
474.884 165.105 L
475.318 165.234 L
475.752 165.362 L
476.186 165.49 L
476.62 165.619 L
477.054 165.747 L
477.488 165.875 L
477.922 166.004 L
478.356 166.132 L
478.79 166.26 L
479.224 166.389 L
479.658 166.517 L
480.092 166.645 L
480.526 166.774 L
480.96 166.902 L
481.394 167.03 L
481.828 167.158 L
482.262 167.287 L
482.696 167.415 L
483.13 167.543 L
483.564 167.672 L
483.998 167.8 L
484.432 167.928 L
484.866 168.057 L
485.3 168.185 L
485.734 168.313 L
486.168 168.442 L
486.602 168.57 L
487.036 168.698 L
487.47 168.826 L
487.904 168.955 L
488.338 169.083 L
488.772 169.211 L
489.206 169.34 L
489.64 169.468 L
490.074 169.596 L
490.508 169.725 L
490.942 169.853 L
491.376 169.981 L
491.81 170.11 L
492.244 170.238 L
492.678 170.366 L
493.112 170.494 L
493.546 170.623 L
493.98 170.751 L
494.414 170.879 L
494.848 171.008 L
495.282 171.136 L
495.716 171.264 L
496.15 171.393 L
496.584 171.521 L
497.018 171.649 L
497.452 171.778 L
497.886 171.906 L
498.32 172.034 L
498.754 172.162 L
499.188 172.291 L
499.622 172.419 L
500.056 172.547 L
500.49 172.676 L
500.924 172.804 L
501.358 172.932 L
501.792 173.061 L
502.226 173.189 L
502.66 173.317 L
503.094 173.446 L
503.528 173.574 L
503.962 173.702 L
504.396 173.831 L
504.83 173.959 L
505.264 174.087 L
505.698 174.215 L
506.132 174.344 L
506.566 174.472 L
507 174.6 L
S
GR
GS
1 GC
N
406 63 M
406 37 L
500 37 L
500 63 L
cp
f
GR
GS
[1 0 0 1 443 44.35849] CT
/Helvetica 9 F
GS
[1 0 0 1 0 0] CT
0 3.5 moveto 
1 -1 scale
(Error data) t 
GR
GR
GS
[1 0 0 1 425 44.35849] CT
0 0 1 RC
N
2.667 0 M
2.667 1.473 1.473 2.667 0 2.667 C
-1.473 2.667 -2.667 1.473 -2.667 0 C
-2.667 -1.473 -1.473 -2.667 0 -2.667 C
1.473 -2.667 2.667 -1.473 2.667 0 C
cp
f
GR
GS
[1 0 0 1 443 55.64151] CT
/Helvetica 9 F
GS
[1 0 0 1 0 0] CT
0 3.5 moveto 
1 -1 scale
(Linear model) t 
GR
GR
GS
1 0 0 RC
1 LJ
N
410 55.642 M
440 55.642 L
S
GR
GS
0.149 GC
10.0 ML
0.5 LW
N
406 63 M
406 37 L
500 37 L
500 63 L
cp
S
GR
GS
1 GC
N
73 374 M
507 374 L
507 231 L
73 231 L
cp
f
GR
GS
0.873 GC
1 LJ
0.5 LW
N
73 374 M
73 231 L
S
GR
GS
0.873 GC
1 LJ
0.5 LW
N
116.4 374 M
116.4 231 L
S
GR
GS
0.873 GC
1 LJ
0.5 LW
N
159.8 374 M
159.8 231 L
S
GR
GS
0.873 GC
1 LJ
0.5 LW
N
203.2 374 M
203.2 231 L
S
GR
GS
0.873 GC
1 LJ
0.5 LW
N
246.6 374 M
246.6 231 L
S
GR
GS
0.873 GC
1 LJ
0.5 LW
N
290 374 M
290 231 L
S
GR
GS
0.873 GC
1 LJ
0.5 LW
N
333.4 374 M
333.4 231 L
S
GR
GS
0.873 GC
1 LJ
0.5 LW
N
376.8 374 M
376.8 231 L
S
GR
GS
0.873 GC
1 LJ
0.5 LW
N
420.2 374 M
420.2 231 L
S
GR
GS
0.873 GC
1 LJ
0.5 LW
N
463.6 374 M
463.6 231 L
S
GR
GS
0.873 GC
1 LJ
0.5 LW
N
507 374 M
507 231 L
S
GR
GS
0.873 GC
1 LJ
0.5 LW
N
507 374 M
73 374 L
S
GR
GS
0.873 GC
1 LJ
0.5 LW
N
507 350.167 M
73 350.167 L
S
GR
GS
0.873 GC
1 LJ
0.5 LW
N
507 326.333 M
73 326.333 L
S
GR
GS
0.873 GC
1 LJ
0.5 LW
N
507 302.5 M
73 302.5 L
S
GR
GS
0.873 GC
1 LJ
0.5 LW
N
507 278.667 M
73 278.667 L
S
GR
GS
0.873 GC
1 LJ
0.5 LW
N
507 254.833 M
73 254.833 L
S
GR
GS
0.873 GC
1 LJ
0.5 LW
N
507 231 M
73 231 L
S
GR
GS
0.149 GC
2 setlinecap
1 LJ
0.5 LW
N
73 374 M
507 374 L
S
GR
GS
0.149 GC
2 setlinecap
1 LJ
0.5 LW
N
73 231 M
507 231 L
S
GR
GS
0.149 GC
2 setlinecap
1 LJ
0.5 LW
N
73 374 M
73 369.66 L
S
GR
GS
0.149 GC
2 setlinecap
1 LJ
0.5 LW
N
116.4 374 M
116.4 369.66 L
S
GR
GS
0.149 GC
2 setlinecap
1 LJ
0.5 LW
N
159.8 374 M
159.8 369.66 L
S
GR
GS
0.149 GC
2 setlinecap
1 LJ
0.5 LW
N
203.2 374 M
203.2 369.66 L
S
GR
GS
0.149 GC
2 setlinecap
1 LJ
0.5 LW
N
246.6 374 M
246.6 369.66 L
S
GR
GS
0.149 GC
2 setlinecap
1 LJ
0.5 LW
N
290 374 M
290 369.66 L
S
GR
GS
0.149 GC
2 setlinecap
1 LJ
0.5 LW
N
333.4 374 M
333.4 369.66 L
S
GR
GS
0.149 GC
2 setlinecap
1 LJ
0.5 LW
N
376.8 374 M
376.8 369.66 L
S
GR
GS
0.149 GC
2 setlinecap
1 LJ
0.5 LW
N
420.2 374 M
420.2 369.66 L
S
GR
GS
0.149 GC
2 setlinecap
1 LJ
0.5 LW
N
463.6 374 M
463.6 369.66 L
S
GR
GS
0.149 GC
2 setlinecap
1 LJ
0.5 LW
N
507 374 M
507 369.66 L
S
GR
GS
0.149 GC
2 setlinecap
1 LJ
0.5 LW
N
73 231 M
73 235.34 L
S
GR
GS
0.149 GC
2 setlinecap
1 LJ
0.5 LW
N
116.4 231 M
116.4 235.34 L
S
GR
GS
0.149 GC
2 setlinecap
1 LJ
0.5 LW
N
159.8 231 M
159.8 235.34 L
S
GR
GS
0.149 GC
2 setlinecap
1 LJ
0.5 LW
N
203.2 231 M
203.2 235.34 L
S
GR
GS
0.149 GC
2 setlinecap
1 LJ
0.5 LW
N
246.6 231 M
246.6 235.34 L
S
GR
GS
0.149 GC
2 setlinecap
1 LJ
0.5 LW
N
290 231 M
290 235.34 L
S
GR
GS
0.149 GC
2 setlinecap
1 LJ
0.5 LW
N
333.4 231 M
333.4 235.34 L
S
GR
GS
0.149 GC
2 setlinecap
1 LJ
0.5 LW
N
376.8 231 M
376.8 235.34 L
S
GR
GS
0.149 GC
2 setlinecap
1 LJ
0.5 LW
N
420.2 231 M
420.2 235.34 L
S
GR
GS
0.149 GC
2 setlinecap
1 LJ
0.5 LW
N
463.6 231 M
463.6 235.34 L
S
GR
GS
0.149 GC
2 setlinecap
1 LJ
0.5 LW
N
507 231 M
507 235.34 L
S
GR
GS
[1 0 0 1 73 378] CT
0.149 GC
/Helvetica 10 F
GS
[1 0 0 1 0 0] CT
-10.5 10 moveto 
1 -1 scale
(-100) t 
GR
GR
GS
[1 0 0 1 116.4 378] CT
0.149 GC
/Helvetica 10 F
GS
[1 0 0 1 0 0] CT
-8 10 moveto 
1 -1 scale
(-90) t 
GR
GR
GS
[1 0 0 1 159.8 378] CT
0.149 GC
/Helvetica 10 F
GS
[1 0 0 1 0 0] CT
-8 10 moveto 
1 -1 scale
(-80) t 
GR
GR
GS
[1 0 0 1 203.2 378] CT
0.149 GC
/Helvetica 10 F
GS
[1 0 0 1 0 0] CT
-8 10 moveto 
1 -1 scale
(-70) t 
GR
GR
GS
[1 0 0 1 246.60001 378] CT
0.149 GC
/Helvetica 10 F
GS
[1 0 0 1 0 0] CT
-8 10 moveto 
1 -1 scale
(-60) t 
GR
GR
GS
[1 0 0 1 290 378] CT
0.149 GC
/Helvetica 10 F
GS
[1 0 0 1 0 0] CT
-8 10 moveto 
1 -1 scale
(-50) t 
GR
GR
GS
[1 0 0 1 333.39999 378] CT
0.149 GC
/Helvetica 10 F
GS
[1 0 0 1 0 0] CT
-8 10 moveto 
1 -1 scale
(-40) t 
GR
GR
GS
[1 0 0 1 376.79999 378] CT
0.149 GC
/Helvetica 10 F
GS
[1 0 0 1 0 0] CT
-8 10 moveto 
1 -1 scale
(-30) t 
GR
GR
GS
[1 0 0 1 420.20001 378] CT
0.149 GC
/Helvetica 10 F
GS
[1 0 0 1 0 0] CT
-8 10 moveto 
1 -1 scale
(-20) t 
GR
GR
GS
[1 0 0 1 463.60001 378] CT
0.149 GC
/Helvetica 10 F
GS
[1 0 0 1 0 0] CT
-8 10 moveto 
1 -1 scale
(-10) t 
GR
GR
GS
[1 0 0 1 507 378] CT
0.149 GC
/Helvetica 10 F
GS
[1 0 0 1 0 0] CT
-3 10 moveto 
1 -1 scale
(0) t 
GR
GR
GS
[1 0 0 1 290.00021 392] CT
0.149 GC
/Helvetica-Bold 12 F
GS
[1 0 0 1 0 0] CT
-78 12 moveto 
1 -1 scale
(Camera translation \(in mm\)) t 
GR
GR
GS
0.149 GC
2 setlinecap
1 LJ
0.5 LW
N
73 374 M
73 231 L
S
GR
GS
0.149 GC
2 setlinecap
1 LJ
0.5 LW
N
507 374 M
507 231 L
S
GR
GS
0.149 GC
2 setlinecap
1 LJ
0.5 LW
N
73 374 M
77.34 374 L
S
GR
GS
0.149 GC
2 setlinecap
1 LJ
0.5 LW
N
73 350.167 M
77.34 350.167 L
S
GR
GS
0.149 GC
2 setlinecap
1 LJ
0.5 LW
N
73 326.333 M
77.34 326.333 L
S
GR
GS
0.149 GC
2 setlinecap
1 LJ
0.5 LW
N
73 302.5 M
77.34 302.5 L
S
GR
GS
0.149 GC
2 setlinecap
1 LJ
0.5 LW
N
73 278.667 M
77.34 278.667 L
S
GR
GS
0.149 GC
2 setlinecap
1 LJ
0.5 LW
N
73 254.833 M
77.34 254.833 L
S
GR
GS
0.149 GC
2 setlinecap
1 LJ
0.5 LW
N
73 231 M
77.34 231 L
S
GR
GS
0.149 GC
2 setlinecap
1 LJ
0.5 LW
N
507 374 M
502.66 374 L
S
GR
GS
0.149 GC
2 setlinecap
1 LJ
0.5 LW
N
507 350.167 M
502.66 350.167 L
S
GR
GS
0.149 GC
2 setlinecap
1 LJ
0.5 LW
N
507 326.333 M
502.66 326.333 L
S
GR
GS
0.149 GC
2 setlinecap
1 LJ
0.5 LW
N
507 302.5 M
502.66 302.5 L
S
GR
GS
0.149 GC
2 setlinecap
1 LJ
0.5 LW
N
507 278.667 M
502.66 278.667 L
S
GR
GS
0.149 GC
2 setlinecap
1 LJ
0.5 LW
N
507 254.833 M
502.66 254.833 L
S
GR
GS
0.149 GC
2 setlinecap
1 LJ
0.5 LW
N
507 231 M
502.66 231 L
S
GR
GS
[1 0 0 1 68.99999 374] CT
0.149 GC
/Helvetica 10 F
GS
[1 0 0 1 0 0] CT
-24 3.5 moveto 
1 -1 scale
(-0.03) t 
GR
GR
GS
[1 0 0 1 68.99999 350.16666] CT
0.149 GC
/Helvetica 10 F
GS
[1 0 0 1 0 0] CT
-24 3.5 moveto 
1 -1 scale
(-0.02) t 
GR
GR
GS
[1 0 0 1 68.99999 326.33334] CT
0.149 GC
/Helvetica 10 F
GS
[1 0 0 1 0 0] CT
-24 3.5 moveto 
1 -1 scale
(-0.01) t 
GR
GR
GS
[1 0 0 1 68.99999 302.5] CT
0.149 GC
/Helvetica 10 F
GS
[1 0 0 1 0 0] CT
-6 3.5 moveto 
1 -1 scale
(0) t 
GR
GR
GS
[1 0 0 1 68.99999 278.66666] CT
0.149 GC
/Helvetica 10 F
GS
[1 0 0 1 0 0] CT
-20 3.5 moveto 
1 -1 scale
(0.01) t 
GR
GR
GS
[1 0 0 1 68.99999 254.83333] CT
0.149 GC
/Helvetica 10 F
GS
[1 0 0 1 0 0] CT
-20 3.5 moveto 
1 -1 scale
(0.02) t 
GR
GR
GS
[1 0 0 1 68.99999 231] CT
0.149 GC
/Helvetica 10 F
GS
[1 0 0 1 0 0] CT
-20 3.5 moveto 
1 -1 scale
(0.03) t 
GR
GR
GS
[0 -1 1 0 41.99998 302.49994] CT
0.149 GC
/Helvetica-Bold 12 F
GS
[1 0 0 1 0 0] CT
-55.5 -3 moveto 
1 -1 scale
(Width error \(in mm\)) t 
GR
GR
GS
[1 0 0 1 73 313.8284] CT
0 0 1 RC
N
2.667 0 M
2.667 1.473 1.473 2.667 0 2.667 C
-1.473 2.667 -2.667 1.473 -2.667 0 C
-2.667 -1.473 -1.473 -2.667 0 -2.667 C
1.473 -2.667 2.667 -1.473 2.667 0 C
cp
f
GR
GS
[1 0 0 1 77.34 324.5531] CT
0 0 1 RC
N
2.667 0 M
2.667 1.473 1.473 2.667 0 2.667 C
-1.473 2.667 -2.667 1.473 -2.667 0 C
-2.667 -1.473 -1.473 -2.667 0 -2.667 C
1.473 -2.667 2.667 -1.473 2.667 0 C
cp
f
GR
GS
[1 0 0 1 81.68 320.40256] CT
0 0 1 RC
N
2.667 0 M
2.667 1.473 1.473 2.667 0 2.667 C
-1.473 2.667 -2.667 1.473 -2.667 0 C
-2.667 -1.473 -1.473 -2.667 0 -2.667 C
1.473 -2.667 2.667 -1.473 2.667 0 C
cp
f
GR
GS
[1 0 0 1 86.02 318.23297] CT
0 0 1 RC
N
2.667 0 M
2.667 1.473 1.473 2.667 0 2.667 C
-1.473 2.667 -2.667 1.473 -2.667 0 C
-2.667 -1.473 -1.473 -2.667 0 -2.667 C
1.473 -2.667 2.667 -1.473 2.667 0 C
cp
f
GR
GS
[1 0 0 1 90.36 245.75864] CT
0 0 1 RC
N
2.667 0 M
2.667 1.473 1.473 2.667 0 2.667 C
-1.473 2.667 -2.667 1.473 -2.667 0 C
-2.667 -1.473 -1.473 -2.667 0 -2.667 C
1.473 -2.667 2.667 -1.473 2.667 0 C
cp
f
GR
GS
[1 0 0 1 94.7 258.19531] CT
0 0 1 RC
N
2.667 0 M
2.667 1.473 1.473 2.667 0 2.667 C
-1.473 2.667 -2.667 1.473 -2.667 0 C
-2.667 -1.473 -1.473 -2.667 0 -2.667 C
1.473 -2.667 2.667 -1.473 2.667 0 C
cp
f
GR
GS
[1 0 0 1 99.04 297.49103] CT
0 0 1 RC
N
2.667 0 M
2.667 1.473 1.473 2.667 0 2.667 C
-1.473 2.667 -2.667 1.473 -2.667 0 C
-2.667 -1.473 -1.473 -2.667 0 -2.667 C
1.473 -2.667 2.667 -1.473 2.667 0 C
cp
f
GR
GS
[1 0 0 1 103.38 311.20111] CT
0 0 1 RC
N
2.667 0 M
2.667 1.473 1.473 2.667 0 2.667 C
-1.473 2.667 -2.667 1.473 -2.667 0 C
-2.667 -1.473 -1.473 -2.667 0 -2.667 C
1.473 -2.667 2.667 -1.473 2.667 0 C
cp
f
GR
GS
[1 0 0 1 107.72 290.61047] CT
0 0 1 RC
N
2.667 0 M
2.667 1.473 1.473 2.667 0 2.667 C
-1.473 2.667 -2.667 1.473 -2.667 0 C
-2.667 -1.473 -1.473 -2.667 0 -2.667 C
1.473 -2.667 2.667 -1.473 2.667 0 C
cp
f
GR
GS
[1 0 0 1 112.06 362.03445] CT
0 0 1 RC
N
2.667 0 M
2.667 1.473 1.473 2.667 0 2.667 C
-1.473 2.667 -2.667 1.473 -2.667 0 C
-2.667 -1.473 -1.473 -2.667 0 -2.667 C
1.473 -2.667 2.667 -1.473 2.667 0 C
cp
f
GR
GS
[1 0 0 1 116.4 304.41284] CT
0 0 1 RC
N
2.667 0 M
2.667 1.473 1.473 2.667 0 2.667 C
-1.473 2.667 -2.667 1.473 -2.667 0 C
-2.667 -1.473 -1.473 -2.667 0 -2.667 C
1.473 -2.667 2.667 -1.473 2.667 0 C
cp
f
GR
GS
[1 0 0 1 120.74 295.60828] CT
0 0 1 RC
N
2.667 0 M
2.667 1.473 1.473 2.667 0 2.667 C
-1.473 2.667 -2.667 1.473 -2.667 0 C
-2.667 -1.473 -1.473 -2.667 0 -2.667 C
1.473 -2.667 2.667 -1.473 2.667 0 C
cp
f
GR
GS
[1 0 0 1 125.08 341.8605] CT
0 0 1 RC
N
2.667 0 M
2.667 1.473 1.473 2.667 0 2.667 C
-1.473 2.667 -2.667 1.473 -2.667 0 C
-2.667 -1.473 -1.473 -2.667 0 -2.667 C
1.473 -2.667 2.667 -1.473 2.667 0 C
cp
f
GR
GS
[1 0 0 1 129.42 285.74915] CT
0 0 1 RC
N
2.667 0 M
2.667 1.473 1.473 2.667 0 2.667 C
-1.473 2.667 -2.667 1.473 -2.667 0 C
-2.667 -1.473 -1.473 -2.667 0 -2.667 C
1.473 -2.667 2.667 -1.473 2.667 0 C
cp
f
GR
GS
[1 0 0 1 133.75999 313.7182] CT
0 0 1 RC
N
2.667 0 M
2.667 1.473 1.473 2.667 0 2.667 C
-1.473 2.667 -2.667 1.473 -2.667 0 C
-2.667 -1.473 -1.473 -2.667 0 -2.667 C
1.473 -2.667 2.667 -1.473 2.667 0 C
cp
f
GR
GS
[1 0 0 1 138.10001 321.80487] CT
0 0 1 RC
N
2.667 0 M
2.667 1.473 1.473 2.667 0 2.667 C
-1.473 2.667 -2.667 1.473 -2.667 0 C
-2.667 -1.473 -1.473 -2.667 0 -2.667 C
1.473 -2.667 2.667 -1.473 2.667 0 C
cp
f
GR
GS
[1 0 0 1 142.44 311.03671] CT
0 0 1 RC
N
2.667 0 M
2.667 1.473 1.473 2.667 0 2.667 C
-1.473 2.667 -2.667 1.473 -2.667 0 C
-2.667 -1.473 -1.473 -2.667 0 -2.667 C
1.473 -2.667 2.667 -1.473 2.667 0 C
cp
f
GR
GS
[1 0 0 1 146.78 301.16025] CT
0 0 1 RC
N
2.667 0 M
2.667 1.473 1.473 2.667 0 2.667 C
-1.473 2.667 -2.667 1.473 -2.667 0 C
-2.667 -1.473 -1.473 -2.667 0 -2.667 C
1.473 -2.667 2.667 -1.473 2.667 0 C
cp
f
GR
GS
[1 0 0 1 151.12 307.15063] CT
0 0 1 RC
N
2.667 0 M
2.667 1.473 1.473 2.667 0 2.667 C
-1.473 2.667 -2.667 1.473 -2.667 0 C
-2.667 -1.473 -1.473 -2.667 0 -2.667 C
1.473 -2.667 2.667 -1.473 2.667 0 C
cp
f
GR
GS
[1 0 0 1 155.46001 314.53284] CT
0 0 1 RC
N
2.667 0 M
2.667 1.473 1.473 2.667 0 2.667 C
-1.473 2.667 -2.667 1.473 -2.667 0 C
-2.667 -1.473 -1.473 -2.667 0 -2.667 C
1.473 -2.667 2.667 -1.473 2.667 0 C
cp
f
GR
GS
[1 0 0 1 159.8 313.16705] CT
0 0 1 RC
N
2.667 0 M
2.667 1.473 1.473 2.667 0 2.667 C
-1.473 2.667 -2.667 1.473 -2.667 0 C
-2.667 -1.473 -1.473 -2.667 0 -2.667 C
1.473 -2.667 2.667 -1.473 2.667 0 C
cp
f
GR
GS
[1 0 0 1 164.14 338.75229] CT
0 0 1 RC
N
2.667 0 M
2.667 1.473 1.473 2.667 0 2.667 C
-1.473 2.667 -2.667 1.473 -2.667 0 C
-2.667 -1.473 -1.473 -2.667 0 -2.667 C
1.473 -2.667 2.667 -1.473 2.667 0 C
cp
f
GR
GS
[1 0 0 1 168.48 305.43777] CT
0 0 1 RC
N
2.667 0 M
2.667 1.473 1.473 2.667 0 2.667 C
-1.473 2.667 -2.667 1.473 -2.667 0 C
-2.667 -1.473 -1.473 -2.667 0 -2.667 C
1.473 -2.667 2.667 -1.473 2.667 0 C
cp
f
GR
GS
[1 0 0 1 172.82001 284.56982] CT
0 0 1 RC
N
2.667 0 M
2.667 1.473 1.473 2.667 0 2.667 C
-1.473 2.667 -2.667 1.473 -2.667 0 C
-2.667 -1.473 -1.473 -2.667 0 -2.667 C
1.473 -2.667 2.667 -1.473 2.667 0 C
cp
f
GR
GS
[1 0 0 1 177.16 307.82605] CT
0 0 1 RC
N
2.667 0 M
2.667 1.473 1.473 2.667 0 2.667 C
-1.473 2.667 -2.667 1.473 -2.667 0 C
-2.667 -1.473 -1.473 -2.667 0 -2.667 C
1.473 -2.667 2.667 -1.473 2.667 0 C
cp
f
GR
GS
[1 0 0 1 181.5 277.12137] CT
0 0 1 RC
N
2.667 0 M
2.667 1.473 1.473 2.667 0 2.667 C
-1.473 2.667 -2.667 1.473 -2.667 0 C
-2.667 -1.473 -1.473 -2.667 0 -2.667 C
1.473 -2.667 2.667 -1.473 2.667 0 C
cp
f
GR
GS
[1 0 0 1 185.84 366.79941] CT
0 0 1 RC
N
2.667 0 M
2.667 1.473 1.473 2.667 0 2.667 C
-1.473 2.667 -2.667 1.473 -2.667 0 C
-2.667 -1.473 -1.473 -2.667 0 -2.667 C
1.473 -2.667 2.667 -1.473 2.667 0 C
cp
f
GR
GS
[1 0 0 1 190.17999 312.96027] CT
0 0 1 RC
N
2.667 0 M
2.667 1.473 1.473 2.667 0 2.667 C
-1.473 2.667 -2.667 1.473 -2.667 0 C
-2.667 -1.473 -1.473 -2.667 0 -2.667 C
1.473 -2.667 2.667 -1.473 2.667 0 C
cp
f
GR
GS
[1 0 0 1 194.52 288.25278] CT
0 0 1 RC
N
2.667 0 M
2.667 1.473 1.473 2.667 0 2.667 C
-1.473 2.667 -2.667 1.473 -2.667 0 C
-2.667 -1.473 -1.473 -2.667 0 -2.667 C
1.473 -2.667 2.667 -1.473 2.667 0 C
cp
f
GR
GS
[1 0 0 1 198.86 311.82761] CT
0 0 1 RC
N
2.667 0 M
2.667 1.473 1.473 2.667 0 2.667 C
-1.473 2.667 -2.667 1.473 -2.667 0 C
-2.667 -1.473 -1.473 -2.667 0 -2.667 C
1.473 -2.667 2.667 -1.473 2.667 0 C
cp
f
GR
GS
[1 0 0 1 203.2 247.43816] CT
0 0 1 RC
N
2.667 0 M
2.667 1.473 1.473 2.667 0 2.667 C
-1.473 2.667 -2.667 1.473 -2.667 0 C
-2.667 -1.473 -1.473 -2.667 0 -2.667 C
1.473 -2.667 2.667 -1.473 2.667 0 C
cp
f
GR
GS
[1 0 0 1 207.53999 279.35394] CT
0 0 1 RC
N
2.667 0 M
2.667 1.473 1.473 2.667 0 2.667 C
-1.473 2.667 -2.667 1.473 -2.667 0 C
-2.667 -1.473 -1.473 -2.667 0 -2.667 C
1.473 -2.667 2.667 -1.473 2.667 0 C
cp
f
GR
GS
[1 0 0 1 211.88 285.91675] CT
0 0 1 RC
N
2.667 0 M
2.667 1.473 1.473 2.667 0 2.667 C
-1.473 2.667 -2.667 1.473 -2.667 0 C
-2.667 -1.473 -1.473 -2.667 0 -2.667 C
1.473 -2.667 2.667 -1.473 2.667 0 C
cp
f
GR
GS
[1 0 0 1 216.22 286.97623] CT
0 0 1 RC
N
2.667 0 M
2.667 1.473 1.473 2.667 0 2.667 C
-1.473 2.667 -2.667 1.473 -2.667 0 C
-2.667 -1.473 -1.473 -2.667 0 -2.667 C
1.473 -2.667 2.667 -1.473 2.667 0 C
cp
f
GR
GS
[1 0 0 1 220.56 294.67099] CT
0 0 1 RC
N
2.667 0 M
2.667 1.473 1.473 2.667 0 2.667 C
-1.473 2.667 -2.667 1.473 -2.667 0 C
-2.667 -1.473 -1.473 -2.667 0 -2.667 C
1.473 -2.667 2.667 -1.473 2.667 0 C
cp
f
GR
GS
[1 0 0 1 224.89999 314.36426] CT
0 0 1 RC
N
2.667 0 M
2.667 1.473 1.473 2.667 0 2.667 C
-1.473 2.667 -2.667 1.473 -2.667 0 C
-2.667 -1.473 -1.473 -2.667 0 -2.667 C
1.473 -2.667 2.667 -1.473 2.667 0 C
cp
f
GR
GS
[1 0 0 1 229.24001 282.23398] CT
0 0 1 RC
N
2.667 0 M
2.667 1.473 1.473 2.667 0 2.667 C
-1.473 2.667 -2.667 1.473 -2.667 0 C
-2.667 -1.473 -1.473 -2.667 0 -2.667 C
1.473 -2.667 2.667 -1.473 2.667 0 C
cp
f
GR
GS
[1 0 0 1 233.58 286.55469] CT
0 0 1 RC
N
2.667 0 M
2.667 1.473 1.473 2.667 0 2.667 C
-1.473 2.667 -2.667 1.473 -2.667 0 C
-2.667 -1.473 -1.473 -2.667 0 -2.667 C
1.473 -2.667 2.667 -1.473 2.667 0 C
cp
f
GR
GS
[1 0 0 1 237.92 262.43777] CT
0 0 1 RC
N
2.667 0 M
2.667 1.473 1.473 2.667 0 2.667 C
-1.473 2.667 -2.667 1.473 -2.667 0 C
-2.667 -1.473 -1.473 -2.667 0 -2.667 C
1.473 -2.667 2.667 -1.473 2.667 0 C
cp
f
GR
GS
[1 0 0 1 242.25999 317.93445] CT
0 0 1 RC
N
2.667 0 M
2.667 1.473 1.473 2.667 0 2.667 C
-1.473 2.667 -2.667 1.473 -2.667 0 C
-2.667 -1.473 -1.473 -2.667 0 -2.667 C
1.473 -2.667 2.667 -1.473 2.667 0 C
cp
f
GR
GS
[1 0 0 1 246.60001 276.5863] CT
0 0 1 RC
N
2.667 0 M
2.667 1.473 1.473 2.667 0 2.667 C
-1.473 2.667 -2.667 1.473 -2.667 0 C
-2.667 -1.473 -1.473 -2.667 0 -2.667 C
1.473 -2.667 2.667 -1.473 2.667 0 C
cp
f
GR
GS
[1 0 0 1 250.94 291.92859] CT
0 0 1 RC
N
2.667 0 M
2.667 1.473 1.473 2.667 0 2.667 C
-1.473 2.667 -2.667 1.473 -2.667 0 C
-2.667 -1.473 -1.473 -2.667 0 -2.667 C
1.473 -2.667 2.667 -1.473 2.667 0 C
cp
f
GR
GS
[1 0 0 1 255.28 299.10452] CT
0 0 1 RC
N
2.667 0 M
2.667 1.473 1.473 2.667 0 2.667 C
-1.473 2.667 -2.667 1.473 -2.667 0 C
-2.667 -1.473 -1.473 -2.667 0 -2.667 C
1.473 -2.667 2.667 -1.473 2.667 0 C
cp
f
GR
GS
[1 0 0 1 259.62 320.06833] CT
0 0 1 RC
N
2.667 0 M
2.667 1.473 1.473 2.667 0 2.667 C
-1.473 2.667 -2.667 1.473 -2.667 0 C
-2.667 -1.473 -1.473 -2.667 0 -2.667 C
1.473 -2.667 2.667 -1.473 2.667 0 C
cp
f
GR
GS
[1 0 0 1 263.95999 313.77792] CT
0 0 1 RC
N
2.667 0 M
2.667 1.473 1.473 2.667 0 2.667 C
-1.473 2.667 -2.667 1.473 -2.667 0 C
-2.667 -1.473 -1.473 -2.667 0 -2.667 C
1.473 -2.667 2.667 -1.473 2.667 0 C
cp
f
GR
GS
[1 0 0 1 268.29999 309.8573] CT
0 0 1 RC
N
2.667 0 M
2.667 1.473 1.473 2.667 0 2.667 C
-1.473 2.667 -2.667 1.473 -2.667 0 C
-2.667 -1.473 -1.473 -2.667 0 -2.667 C
1.473 -2.667 2.667 -1.473 2.667 0 C
cp
f
GR
GS
[1 0 0 1 272.64001 269.80124] CT
0 0 1 RC
N
2.667 0 M
2.667 1.473 1.473 2.667 0 2.667 C
-1.473 2.667 -2.667 1.473 -2.667 0 C
-2.667 -1.473 -1.473 -2.667 0 -2.667 C
1.473 -2.667 2.667 -1.473 2.667 0 C
cp
f
GR
GS
[1 0 0 1 276.98001 288.80963] CT
0 0 1 RC
N
2.667 0 M
2.667 1.473 1.473 2.667 0 2.667 C
-1.473 2.667 -2.667 1.473 -2.667 0 C
-2.667 -1.473 -1.473 -2.667 0 -2.667 C
1.473 -2.667 2.667 -1.473 2.667 0 C
cp
f
GR
GS
[1 0 0 1 281.32001 309.89438] CT
0 0 1 RC
N
2.667 0 M
2.667 1.473 1.473 2.667 0 2.667 C
-1.473 2.667 -2.667 1.473 -2.667 0 C
-2.667 -1.473 -1.473 -2.667 0 -2.667 C
1.473 -2.667 2.667 -1.473 2.667 0 C
cp
f
GR
GS
[1 0 0 1 285.66 308.74149] CT
0 0 1 RC
N
2.667 0 M
2.667 1.473 1.473 2.667 0 2.667 C
-1.473 2.667 -2.667 1.473 -2.667 0 C
-2.667 -1.473 -1.473 -2.667 0 -2.667 C
1.473 -2.667 2.667 -1.473 2.667 0 C
cp
f
GR
GS
[1 0 0 1 290 307.95517] CT
0 0 1 RC
N
2.667 0 M
2.667 1.473 1.473 2.667 0 2.667 C
-1.473 2.667 -2.667 1.473 -2.667 0 C
-2.667 -1.473 -1.473 -2.667 0 -2.667 C
1.473 -2.667 2.667 -1.473 2.667 0 C
cp
f
GR
GS
[1 0 0 1 294.34 317.66312] CT
0 0 1 RC
N
2.667 0 M
2.667 1.473 1.473 2.667 0 2.667 C
-1.473 2.667 -2.667 1.473 -2.667 0 C
-2.667 -1.473 -1.473 -2.667 0 -2.667 C
1.473 -2.667 2.667 -1.473 2.667 0 C
cp
f
GR
GS
[1 0 0 1 298.67999 307.79468] CT
0 0 1 RC
N
2.667 0 M
2.667 1.473 1.473 2.667 0 2.667 C
-1.473 2.667 -2.667 1.473 -2.667 0 C
-2.667 -1.473 -1.473 -2.667 0 -2.667 C
1.473 -2.667 2.667 -1.473 2.667 0 C
cp
f
GR
GS
[1 0 0 1 303.01999 277.57968] CT
0 0 1 RC
N
2.667 0 M
2.667 1.473 1.473 2.667 0 2.667 C
-1.473 2.667 -2.667 1.473 -2.667 0 C
-2.667 -1.473 -1.473 -2.667 0 -2.667 C
1.473 -2.667 2.667 -1.473 2.667 0 C
cp
f
GR
GS
[1 0 0 1 307.35999 288.68423] CT
0 0 1 RC
N
2.667 0 M
2.667 1.473 1.473 2.667 0 2.667 C
-1.473 2.667 -2.667 1.473 -2.667 0 C
-2.667 -1.473 -1.473 -2.667 0 -2.667 C
1.473 -2.667 2.667 -1.473 2.667 0 C
cp
f
GR
GS
[1 0 0 1 311.70001 310.39536] CT
0 0 1 RC
N
2.667 0 M
2.667 1.473 1.473 2.667 0 2.667 C
-1.473 2.667 -2.667 1.473 -2.667 0 C
-2.667 -1.473 -1.473 -2.667 0 -2.667 C
1.473 -2.667 2.667 -1.473 2.667 0 C
cp
f
GR
GS
[1 0 0 1 316.04001 280.83884] CT
0 0 1 RC
N
2.667 0 M
2.667 1.473 1.473 2.667 0 2.667 C
-1.473 2.667 -2.667 1.473 -2.667 0 C
-2.667 -1.473 -1.473 -2.667 0 -2.667 C
1.473 -2.667 2.667 -1.473 2.667 0 C
cp
f
GR
GS
[1 0 0 1 320.38 340.13971] CT
0 0 1 RC
N
2.667 0 M
2.667 1.473 1.473 2.667 0 2.667 C
-1.473 2.667 -2.667 1.473 -2.667 0 C
-2.667 -1.473 -1.473 -2.667 0 -2.667 C
1.473 -2.667 2.667 -1.473 2.667 0 C
cp
f
GR
GS
[1 0 0 1 324.72 286.51556] CT
0 0 1 RC
N
2.667 0 M
2.667 1.473 1.473 2.667 0 2.667 C
-1.473 2.667 -2.667 1.473 -2.667 0 C
-2.667 -1.473 -1.473 -2.667 0 -2.667 C
1.473 -2.667 2.667 -1.473 2.667 0 C
cp
f
GR
GS
[1 0 0 1 329.06 283.41779] CT
0 0 1 RC
N
2.667 0 M
2.667 1.473 1.473 2.667 0 2.667 C
-1.473 2.667 -2.667 1.473 -2.667 0 C
-2.667 -1.473 -1.473 -2.667 0 -2.667 C
1.473 -2.667 2.667 -1.473 2.667 0 C
cp
f
GR
GS
[1 0 0 1 333.39999 286.57047] CT
0 0 1 RC
N
2.667 0 M
2.667 1.473 1.473 2.667 0 2.667 C
-1.473 2.667 -2.667 1.473 -2.667 0 C
-2.667 -1.473 -1.473 -2.667 0 -2.667 C
1.473 -2.667 2.667 -1.473 2.667 0 C
cp
f
GR
GS
[1 0 0 1 337.73999 302.24246] CT
0 0 1 RC
N
2.667 0 M
2.667 1.473 1.473 2.667 0 2.667 C
-1.473 2.667 -2.667 1.473 -2.667 0 C
-2.667 -1.473 -1.473 -2.667 0 -2.667 C
1.473 -2.667 2.667 -1.473 2.667 0 C
cp
f
GR
GS
[1 0 0 1 342.07999 295.68231] CT
0 0 1 RC
N
2.667 0 M
2.667 1.473 1.473 2.667 0 2.667 C
-1.473 2.667 -2.667 1.473 -2.667 0 C
-2.667 -1.473 -1.473 -2.667 0 -2.667 C
1.473 -2.667 2.667 -1.473 2.667 0 C
cp
f
GR
GS
[1 0 0 1 346.42001 302.21045] CT
0 0 1 RC
N
2.667 0 M
2.667 1.473 1.473 2.667 0 2.667 C
-1.473 2.667 -2.667 1.473 -2.667 0 C
-2.667 -1.473 -1.473 -2.667 0 -2.667 C
1.473 -2.667 2.667 -1.473 2.667 0 C
cp
f
GR
GS
[1 0 0 1 350.76001 283.58401] CT
0 0 1 RC
N
2.667 0 M
2.667 1.473 1.473 2.667 0 2.667 C
-1.473 2.667 -2.667 1.473 -2.667 0 C
-2.667 -1.473 -1.473 -2.667 0 -2.667 C
1.473 -2.667 2.667 -1.473 2.667 0 C
cp
f
GR
GS
[1 0 0 1 355.10001 304.39877] CT
0 0 1 RC
N
2.667 0 M
2.667 1.473 1.473 2.667 0 2.667 C
-1.473 2.667 -2.667 1.473 -2.667 0 C
-2.667 -1.473 -1.473 -2.667 0 -2.667 C
1.473 -2.667 2.667 -1.473 2.667 0 C
cp
f
GR
GS
[1 0 0 1 359.44 294.03687] CT
0 0 1 RC
N
2.667 0 M
2.667 1.473 1.473 2.667 0 2.667 C
-1.473 2.667 -2.667 1.473 -2.667 0 C
-2.667 -1.473 -1.473 -2.667 0 -2.667 C
1.473 -2.667 2.667 -1.473 2.667 0 C
cp
f
GR
GS
[1 0 0 1 363.78 312.617] CT
0 0 1 RC
N
2.667 0 M
2.667 1.473 1.473 2.667 0 2.667 C
-1.473 2.667 -2.667 1.473 -2.667 0 C
-2.667 -1.473 -1.473 -2.667 0 -2.667 C
1.473 -2.667 2.667 -1.473 2.667 0 C
cp
f
GR
GS
[1 0 0 1 368.12 307.61993] CT
0 0 1 RC
N
2.667 0 M
2.667 1.473 1.473 2.667 0 2.667 C
-1.473 2.667 -2.667 1.473 -2.667 0 C
-2.667 -1.473 -1.473 -2.667 0 -2.667 C
1.473 -2.667 2.667 -1.473 2.667 0 C
cp
f
GR
GS
[1 0 0 1 372.45999 306.05173] CT
0 0 1 RC
N
2.667 0 M
2.667 1.473 1.473 2.667 0 2.667 C
-1.473 2.667 -2.667 1.473 -2.667 0 C
-2.667 -1.473 -1.473 -2.667 0 -2.667 C
1.473 -2.667 2.667 -1.473 2.667 0 C
cp
f
GR
GS
[1 0 0 1 376.79999 297.84174] CT
0 0 1 RC
N
2.667 0 M
2.667 1.473 1.473 2.667 0 2.667 C
-1.473 2.667 -2.667 1.473 -2.667 0 C
-2.667 -1.473 -1.473 -2.667 0 -2.667 C
1.473 -2.667 2.667 -1.473 2.667 0 C
cp
f
GR
GS
[1 0 0 1 381.14001 315.37827] CT
0 0 1 RC
N
2.667 0 M
2.667 1.473 1.473 2.667 0 2.667 C
-1.473 2.667 -2.667 1.473 -2.667 0 C
-2.667 -1.473 -1.473 -2.667 0 -2.667 C
1.473 -2.667 2.667 -1.473 2.667 0 C
cp
f
GR
GS
[1 0 0 1 385.48001 289.4675] CT
0 0 1 RC
N
2.667 0 M
2.667 1.473 1.473 2.667 0 2.667 C
-1.473 2.667 -2.667 1.473 -2.667 0 C
-2.667 -1.473 -1.473 -2.667 0 -2.667 C
1.473 -2.667 2.667 -1.473 2.667 0 C
cp
f
GR
GS
[1 0 0 1 389.82001 282.22238] CT
0 0 1 RC
N
2.667 0 M
2.667 1.473 1.473 2.667 0 2.667 C
-1.473 2.667 -2.667 1.473 -2.667 0 C
-2.667 -1.473 -1.473 -2.667 0 -2.667 C
1.473 -2.667 2.667 -1.473 2.667 0 C
cp
f
GR
GS
[1 0 0 1 394.16 310.80182] CT
0 0 1 RC
N
2.667 0 M
2.667 1.473 1.473 2.667 0 2.667 C
-1.473 2.667 -2.667 1.473 -2.667 0 C
-2.667 -1.473 -1.473 -2.667 0 -2.667 C
1.473 -2.667 2.667 -1.473 2.667 0 C
cp
f
GR
GS
[1 0 0 1 398.5 317.67078] CT
0 0 1 RC
N
2.667 0 M
2.667 1.473 1.473 2.667 0 2.667 C
-1.473 2.667 -2.667 1.473 -2.667 0 C
-2.667 -1.473 -1.473 -2.667 0 -2.667 C
1.473 -2.667 2.667 -1.473 2.667 0 C
cp
f
GR
GS
[1 0 0 1 402.84 306.49268] CT
0 0 1 RC
N
2.667 0 M
2.667 1.473 1.473 2.667 0 2.667 C
-1.473 2.667 -2.667 1.473 -2.667 0 C
-2.667 -1.473 -1.473 -2.667 0 -2.667 C
1.473 -2.667 2.667 -1.473 2.667 0 C
cp
f
GR
GS
[1 0 0 1 407.17999 306.04565] CT
0 0 1 RC
N
2.667 0 M
2.667 1.473 1.473 2.667 0 2.667 C
-1.473 2.667 -2.667 1.473 -2.667 0 C
-2.667 -1.473 -1.473 -2.667 0 -2.667 C
1.473 -2.667 2.667 -1.473 2.667 0 C
cp
f
GR
GS
[1 0 0 1 411.51999 304.44226] CT
0 0 1 RC
N
2.667 0 M
2.667 1.473 1.473 2.667 0 2.667 C
-1.473 2.667 -2.667 1.473 -2.667 0 C
-2.667 -1.473 -1.473 -2.667 0 -2.667 C
1.473 -2.667 2.667 -1.473 2.667 0 C
cp
f
GR
GS
[1 0 0 1 415.85999 306.4346] CT
0 0 1 RC
N
2.667 0 M
2.667 1.473 1.473 2.667 0 2.667 C
-1.473 2.667 -2.667 1.473 -2.667 0 C
-2.667 -1.473 -1.473 -2.667 0 -2.667 C
1.473 -2.667 2.667 -1.473 2.667 0 C
cp
f
GR
GS
[1 0 0 1 420.20001 302.94052] CT
0 0 1 RC
N
2.667 0 M
2.667 1.473 1.473 2.667 0 2.667 C
-1.473 2.667 -2.667 1.473 -2.667 0 C
-2.667 -1.473 -1.473 -2.667 0 -2.667 C
1.473 -2.667 2.667 -1.473 2.667 0 C
cp
f
GR
GS
[1 0 0 1 424.54001 304.44238] CT
0 0 1 RC
N
2.667 0 M
2.667 1.473 1.473 2.667 0 2.667 C
-1.473 2.667 -2.667 1.473 -2.667 0 C
-2.667 -1.473 -1.473 -2.667 0 -2.667 C
1.473 -2.667 2.667 -1.473 2.667 0 C
cp
f
GR
GS
[1 0 0 1 428.88 301.05914] CT
0 0 1 RC
N
2.667 0 M
2.667 1.473 1.473 2.667 0 2.667 C
-1.473 2.667 -2.667 1.473 -2.667 0 C
-2.667 -1.473 -1.473 -2.667 0 -2.667 C
1.473 -2.667 2.667 -1.473 2.667 0 C
cp
f
GR
GS
[1 0 0 1 433.22 313.6153] CT
0 0 1 RC
N
2.667 0 M
2.667 1.473 1.473 2.667 0 2.667 C
-1.473 2.667 -2.667 1.473 -2.667 0 C
-2.667 -1.473 -1.473 -2.667 0 -2.667 C
1.473 -2.667 2.667 -1.473 2.667 0 C
cp
f
GR
GS
[1 0 0 1 437.56 300.94965] CT
0 0 1 RC
N
2.667 0 M
2.667 1.473 1.473 2.667 0 2.667 C
-1.473 2.667 -2.667 1.473 -2.667 0 C
-2.667 -1.473 -1.473 -2.667 0 -2.667 C
1.473 -2.667 2.667 -1.473 2.667 0 C
cp
f
GR
GS
[1 0 0 1 441.89999 306.96973] CT
0 0 1 RC
N
2.667 0 M
2.667 1.473 1.473 2.667 0 2.667 C
-1.473 2.667 -2.667 1.473 -2.667 0 C
-2.667 -1.473 -1.473 -2.667 0 -2.667 C
1.473 -2.667 2.667 -1.473 2.667 0 C
cp
f
GR
GS
[1 0 0 1 446.23999 307.65671] CT
0 0 1 RC
N
2.667 0 M
2.667 1.473 1.473 2.667 0 2.667 C
-1.473 2.667 -2.667 1.473 -2.667 0 C
-2.667 -1.473 -1.473 -2.667 0 -2.667 C
1.473 -2.667 2.667 -1.473 2.667 0 C
cp
f
GR
GS
[1 0 0 1 450.57999 299.7897] CT
0 0 1 RC
N
2.667 0 M
2.667 1.473 1.473 2.667 0 2.667 C
-1.473 2.667 -2.667 1.473 -2.667 0 C
-2.667 -1.473 -1.473 -2.667 0 -2.667 C
1.473 -2.667 2.667 -1.473 2.667 0 C
cp
f
GR
GS
[1 0 0 1 454.92001 308.0531] CT
0 0 1 RC
N
2.667 0 M
2.667 1.473 1.473 2.667 0 2.667 C
-1.473 2.667 -2.667 1.473 -2.667 0 C
-2.667 -1.473 -1.473 -2.667 0 -2.667 C
1.473 -2.667 2.667 -1.473 2.667 0 C
cp
f
GR
GS
[1 0 0 1 459.26001 302.00595] CT
0 0 1 RC
N
2.667 0 M
2.667 1.473 1.473 2.667 0 2.667 C
-1.473 2.667 -2.667 1.473 -2.667 0 C
-2.667 -1.473 -1.473 -2.667 0 -2.667 C
1.473 -2.667 2.667 -1.473 2.667 0 C
cp
f
GR
GS
[1 0 0 1 463.60001 296.82147] CT
0 0 1 RC
N
2.667 0 M
2.667 1.473 1.473 2.667 0 2.667 C
-1.473 2.667 -2.667 1.473 -2.667 0 C
-2.667 -1.473 -1.473 -2.667 0 -2.667 C
1.473 -2.667 2.667 -1.473 2.667 0 C
cp
f
GR
GS
[1 0 0 1 467.94 306.94022] CT
0 0 1 RC
N
2.667 0 M
2.667 1.473 1.473 2.667 0 2.667 C
-1.473 2.667 -2.667 1.473 -2.667 0 C
-2.667 -1.473 -1.473 -2.667 0 -2.667 C
1.473 -2.667 2.667 -1.473 2.667 0 C
cp
f
GR
GS
[1 0 0 1 472.28 304.03891] CT
0 0 1 RC
N
2.667 0 M
2.667 1.473 1.473 2.667 0 2.667 C
-1.473 2.667 -2.667 1.473 -2.667 0 C
-2.667 -1.473 -1.473 -2.667 0 -2.667 C
1.473 -2.667 2.667 -1.473 2.667 0 C
cp
f
GR
GS
[1 0 0 1 476.62 304.8916] CT
0 0 1 RC
N
2.667 0 M
2.667 1.473 1.473 2.667 0 2.667 C
-1.473 2.667 -2.667 1.473 -2.667 0 C
-2.667 -1.473 -1.473 -2.667 0 -2.667 C
1.473 -2.667 2.667 -1.473 2.667 0 C
cp
f
GR
GS
[1 0 0 1 480.95999 307.54089] CT
0 0 1 RC
N
2.667 0 M
2.667 1.473 1.473 2.667 0 2.667 C
-1.473 2.667 -2.667 1.473 -2.667 0 C
-2.667 -1.473 -1.473 -2.667 0 -2.667 C
1.473 -2.667 2.667 -1.473 2.667 0 C
cp
f
GR
GS
[1 0 0 1 485.29999 304.18646] CT
0 0 1 RC
N
2.667 0 M
2.667 1.473 1.473 2.667 0 2.667 C
-1.473 2.667 -2.667 1.473 -2.667 0 C
-2.667 -1.473 -1.473 -2.667 0 -2.667 C
1.473 -2.667 2.667 -1.473 2.667 0 C
cp
f
GR
GS
[1 0 0 1 489.64001 306.07507] CT
0 0 1 RC
N
2.667 0 M
2.667 1.473 1.473 2.667 0 2.667 C
-1.473 2.667 -2.667 1.473 -2.667 0 C
-2.667 -1.473 -1.473 -2.667 0 -2.667 C
1.473 -2.667 2.667 -1.473 2.667 0 C
cp
f
GR
GS
[1 0 0 1 493.98001 305.82858] CT
0 0 1 RC
N
2.667 0 M
2.667 1.473 1.473 2.667 0 2.667 C
-1.473 2.667 -2.667 1.473 -2.667 0 C
-2.667 -1.473 -1.473 -2.667 0 -2.667 C
1.473 -2.667 2.667 -1.473 2.667 0 C
cp
f
GR
GS
[1 0 0 1 498.32001 306.22903] CT
0 0 1 RC
N
2.667 0 M
2.667 1.473 1.473 2.667 0 2.667 C
-1.473 2.667 -2.667 1.473 -2.667 0 C
-2.667 -1.473 -1.473 -2.667 0 -2.667 C
1.473 -2.667 2.667 -1.473 2.667 0 C
cp
f
GR
GS
[1 0 0 1 502.66 307.65964] CT
0 0 1 RC
N
2.667 0 M
2.667 1.473 1.473 2.667 0 2.667 C
-1.473 2.667 -2.667 1.473 -2.667 0 C
-2.667 -1.473 -1.473 -2.667 0 -2.667 C
1.473 -2.667 2.667 -1.473 2.667 0 C
cp
f
GR
GS
[1 0 0 1 507 307.79141] CT
0 0 1 RC
N
2.667 0 M
2.667 1.473 1.473 2.667 0 2.667 C
-1.473 2.667 -2.667 1.473 -2.667 0 C
-2.667 -1.473 -1.473 -2.667 0 -2.667 C
1.473 -2.667 2.667 -1.473 2.667 0 C
cp
f
GR
GS
1 0 0 RC
1 LJ
N
73 302.5 M
73.434 302.5 L
73.868 302.5 L
74.302 302.5 L
74.736 302.5 L
75.17 302.5 L
75.604 302.5 L
76.038 302.5 L
76.472 302.5 L
76.906 302.5 L
77.34 302.5 L
77.774 302.5 L
78.208 302.5 L
78.642 302.5 L
79.076 302.5 L
79.51 302.5 L
79.944 302.5 L
80.378 302.5 L
80.812 302.5 L
81.246 302.5 L
81.68 302.5 L
82.114 302.5 L
82.548 302.5 L
82.982 302.5 L
83.416 302.5 L
83.85 302.5 L
84.284 302.5 L
84.718 302.5 L
85.152 302.5 L
85.586 302.5 L
86.02 302.5 L
86.454 302.5 L
86.888 302.5 L
87.322 302.5 L
87.756 302.5 L
88.19 302.5 L
88.624 302.5 L
89.058 302.5 L
89.492 302.5 L
89.926 302.5 L
90.36 302.5 L
90.794 302.5 L
91.228 302.5 L
91.662 302.5 L
92.096 302.5 L
92.53 302.5 L
92.964 302.5 L
93.398 302.5 L
93.832 302.5 L
94.266 302.5 L
94.7 302.5 L
95.134 302.5 L
95.568 302.5 L
96.002 302.5 L
96.436 302.5 L
96.87 302.5 L
97.304 302.5 L
97.738 302.5 L
98.172 302.5 L
98.606 302.5 L
99.04 302.5 L
99.474 302.5 L
99.908 302.5 L
100.342 302.5 L
100.776 302.5 L
101.21 302.5 L
101.644 302.5 L
102.078 302.5 L
102.512 302.5 L
102.946 302.5 L
103.38 302.5 L
103.814 302.5 L
104.248 302.5 L
104.682 302.5 L
105.116 302.5 L
105.55 302.5 L
105.984 302.5 L
106.418 302.5 L
106.852 302.5 L
107.286 302.5 L
107.72 302.5 L
108.154 302.5 L
108.588 302.5 L
109.022 302.5 L
109.456 302.5 L
109.89 302.5 L
110.324 302.5 L
110.758 302.5 L
111.192 302.5 L
111.626 302.5 L
112.06 302.5 L
112.494 302.5 L
112.928 302.5 L
113.362 302.5 L
113.796 302.5 L
114.23 302.5 L
114.664 302.5 L
115.098 302.5 L
115.532 302.5 L
115.966 302.5 L
116.4 302.5 L
116.834 302.5 L
117.268 302.5 L
117.702 302.5 L
118.136 302.5 L
118.57 302.5 L
119.004 302.5 L
119.438 302.5 L
119.872 302.5 L
120.306 302.5 L
120.74 302.5 L
121.174 302.5 L
121.608 302.5 L
122.042 302.5 L
122.476 302.5 L
122.91 302.5 L
123.344 302.5 L
123.778 302.5 L
124.212 302.5 L
124.646 302.5 L
125.08 302.5 L
125.514 302.5 L
125.948 302.5 L
126.382 302.5 L
126.816 302.5 L
127.25 302.5 L
127.684 302.5 L
128.118 302.5 L
128.552 302.5 L
128.986 302.5 L
129.42 302.5 L
129.854 302.5 L
130.288 302.5 L
130.722 302.5 L
131.156 302.5 L
131.59 302.5 L
132.024 302.5 L
132.458 302.5 L
132.892 302.5 L
133.326 302.5 L
133.76 302.5 L
134.194 302.5 L
134.628 302.5 L
135.062 302.5 L
135.496 302.5 L
135.93 302.5 L
136.364 302.5 L
136.798 302.5 L
137.232 302.5 L
137.666 302.5 L
138.1 302.5 L
138.534 302.5 L
138.968 302.5 L
139.402 302.5 L
139.836 302.5 L
140.27 302.5 L
140.704 302.5 L
141.138 302.5 L
141.572 302.5 L
142.006 302.5 L
142.44 302.5 L
142.874 302.5 L
143.308 302.5 L
143.742 302.5 L
144.176 302.5 L
144.61 302.5 L
145.044 302.5 L
145.478 302.5 L
145.912 302.5 L
146.346 302.5 L
146.78 302.5 L
147.214 302.5 L
147.648 302.5 L
148.082 302.5 L
148.516 302.5 L
148.95 302.5 L
149.384 302.5 L
149.818 302.5 L
150.252 302.5 L
150.686 302.5 L
151.12 302.5 L
151.554 302.5 L
151.988 302.5 L
152.422 302.5 L
152.856 302.5 L
153.29 302.5 L
153.724 302.5 L
154.158 302.5 L
154.592 302.5 L
155.026 302.5 L
155.46 302.5 L
155.894 302.5 L
156.328 302.5 L
156.762 302.5 L
157.196 302.5 L
157.63 302.5 L
158.064 302.5 L
158.498 302.5 L
158.932 302.5 L
159.366 302.5 L
159.8 302.5 L
160.234 302.5 L
160.668 302.5 L
161.102 302.5 L
161.536 302.5 L
161.97 302.5 L
162.404 302.5 L
162.838 302.5 L
163.272 302.5 L
163.706 302.5 L
164.14 302.5 L
164.574 302.5 L
165.008 302.5 L
165.442 302.5 L
165.876 302.5 L
166.31 302.5 L
166.744 302.5 L
167.178 302.5 L
167.612 302.5 L
168.046 302.5 L
168.48 302.5 L
168.914 302.5 L
169.348 302.5 L
169.782 302.5 L
170.216 302.5 L
170.65 302.5 L
171.084 302.5 L
171.518 302.5 L
171.952 302.5 L
172.386 302.5 L
172.82 302.5 L
173.254 302.5 L
173.688 302.5 L
174.122 302.5 L
174.556 302.5 L
174.99 302.5 L
175.424 302.5 L
175.858 302.5 L
176.292 302.5 L
176.726 302.5 L
177.16 302.5 L
177.594 302.5 L
178.028 302.5 L
178.462 302.5 L
178.896 302.5 L
179.33 302.5 L
179.764 302.5 L
180.198 302.5 L
180.632 302.5 L
181.066 302.5 L
181.5 302.5 L
181.934 302.5 L
182.368 302.5 L
182.802 302.5 L
183.236 302.5 L
183.67 302.5 L
184.104 302.5 L
184.538 302.5 L
184.972 302.5 L
185.406 302.5 L
185.84 302.5 L
186.274 302.5 L
186.708 302.5 L
187.142 302.5 L
187.576 302.5 L
188.01 302.5 L
188.444 302.5 L
188.878 302.5 L
189.312 302.5 L
189.746 302.5 L
190.18 302.5 L
190.614 302.5 L
191.048 302.5 L
191.482 302.5 L
191.916 302.5 L
192.35 302.5 L
192.784 302.5 L
193.218 302.5 L
193.652 302.5 L
194.086 302.5 L
194.52 302.5 L
194.954 302.5 L
195.388 302.5 L
195.822 302.5 L
196.256 302.5 L
196.69 302.5 L
197.124 302.5 L
197.558 302.5 L
197.992 302.5 L
198.426 302.5 L
198.86 302.5 L
199.294 302.5 L
199.728 302.5 L
200.162 302.5 L
200.596 302.5 L
201.03 302.5 L
201.464 302.5 L
201.898 302.5 L
202.332 302.5 L
202.766 302.5 L
203.2 302.5 L
203.634 302.5 L
204.068 302.5 L
204.502 302.5 L
204.936 302.5 L
205.37 302.5 L
205.804 302.5 L
206.238 302.5 L
206.672 302.5 L
207.106 302.5 L
207.54 302.5 L
207.974 302.5 L
208.408 302.5 L
208.842 302.5 L
209.276 302.5 L
209.71 302.5 L
210.144 302.5 L
210.578 302.5 L
211.012 302.5 L
211.446 302.5 L
211.88 302.5 L
212.314 302.5 L
212.748 302.5 L
213.182 302.5 L
213.616 302.5 L
214.05 302.5 L
214.484 302.5 L
214.918 302.5 L
215.352 302.5 L
215.786 302.5 L
216.22 302.5 L
216.654 302.5 L
217.088 302.5 L
217.522 302.5 L
217.956 302.5 L
218.39 302.5 L
218.824 302.5 L
219.258 302.5 L
219.692 302.5 L
220.126 302.5 L
220.56 302.5 L
220.994 302.5 L
221.428 302.5 L
221.862 302.5 L
222.296 302.5 L
222.73 302.5 L
223.164 302.5 L
223.598 302.5 L
224.032 302.5 L
224.466 302.5 L
224.9 302.5 L
225.334 302.5 L
225.768 302.5 L
226.202 302.5 L
226.636 302.5 L
227.07 302.5 L
227.504 302.5 L
227.938 302.5 L
228.372 302.5 L
228.806 302.5 L
229.24 302.5 L
229.674 302.5 L
230.108 302.5 L
230.542 302.5 L
230.976 302.5 L
231.41 302.5 L
231.844 302.5 L
232.278 302.5 L
232.712 302.5 L
233.146 302.5 L
233.58 302.5 L
234.014 302.5 L
234.448 302.5 L
234.882 302.5 L
235.316 302.5 L
235.75 302.5 L
236.184 302.5 L
236.618 302.5 L
237.052 302.5 L
237.486 302.5 L
237.92 302.5 L
238.354 302.5 L
238.788 302.5 L
239.222 302.5 L
239.656 302.5 L
240.09 302.5 L
240.524 302.5 L
240.958 302.5 L
241.392 302.5 L
241.826 302.5 L
242.26 302.5 L
242.694 302.5 L
243.128 302.5 L
243.562 302.5 L
243.996 302.5 L
244.43 302.5 L
244.864 302.5 L
245.298 302.5 L
245.732 302.5 L
246.166 302.5 L
246.6 302.5 L
247.034 302.5 L
247.468 302.5 L
247.902 302.5 L
248.336 302.5 L
248.77 302.5 L
249.204 302.5 L
249.638 302.5 L
250.072 302.5 L
250.506 302.5 L
250.94 302.5 L
251.374 302.5 L
251.808 302.5 L
252.242 302.5 L
252.676 302.5 L
253.11 302.5 L
253.544 302.5 L
253.978 302.5 L
254.412 302.5 L
254.846 302.5 L
255.28 302.5 L
255.714 302.5 L
256.148 302.5 L
256.582 302.5 L
257.016 302.5 L
257.45 302.5 L
257.884 302.5 L
258.318 302.5 L
258.752 302.5 L
259.186 302.5 L
259.62 302.5 L
260.054 302.5 L
260.488 302.5 L
260.922 302.5 L
261.356 302.5 L
261.79 302.5 L
262.224 302.5 L
262.658 302.5 L
263.092 302.5 L
263.526 302.5 L
263.96 302.5 L
264.394 302.5 L
264.828 302.5 L
265.262 302.5 L
265.696 302.5 L
266.13 302.5 L
266.564 302.5 L
266.998 302.5 L
267.432 302.5 L
267.866 302.5 L
268.3 302.5 L
268.734 302.5 L
269.168 302.5 L
269.602 302.5 L
270.036 302.5 L
270.47 302.5 L
270.904 302.5 L
271.338 302.5 L
271.772 302.5 L
272.206 302.5 L
272.64 302.5 L
273.074 302.5 L
273.508 302.5 L
273.942 302.5 L
274.376 302.5 L
274.81 302.5 L
275.244 302.5 L
275.678 302.5 L
276.112 302.5 L
276.546 302.5 L
276.98 302.5 L
277.414 302.5 L
277.848 302.5 L
278.282 302.5 L
278.716 302.5 L
279.15 302.5 L
279.584 302.5 L
280.018 302.5 L
280.452 302.5 L
280.886 302.5 L
281.32 302.5 L
281.754 302.5 L
282.188 302.5 L
282.622 302.5 L
283.056 302.5 L
283.49 302.5 L
283.924 302.5 L
284.358 302.5 L
284.792 302.5 L
285.226 302.5 L
285.66 302.5 L
286.094 302.5 L
286.528 302.5 L
286.962 302.5 L
287.396 302.5 L
287.83 302.5 L
288.264 302.5 L
288.698 302.5 L
289.132 302.5 L
289.566 302.5 L
290 302.5 L
290.434 302.5 L
290.868 302.5 L
291.302 302.5 L
291.736 302.5 L
292.17 302.5 L
292.604 302.5 L
293.038 302.5 L
293.472 302.5 L
293.906 302.5 L
294.34 302.5 L
294.774 302.5 L
295.208 302.5 L
295.642 302.5 L
296.076 302.5 L
296.51 302.5 L
296.944 302.5 L
297.378 302.5 L
297.812 302.5 L
298.246 302.5 L
298.68 302.5 L
299.114 302.5 L
299.548 302.5 L
299.982 302.5 L
300.416 302.5 L
300.85 302.5 L
301.284 302.5 L
301.718 302.5 L
302.152 302.5 L
302.586 302.5 L
303.02 302.5 L
303.454 302.5 L
303.888 302.5 L
304.322 302.5 L
304.756 302.5 L
305.19 302.5 L
305.624 302.5 L
306.058 302.5 L
306.492 302.5 L
306.926 302.5 L
307.36 302.5 L
307.794 302.5 L
308.228 302.5 L
308.662 302.5 L
309.096 302.5 L
309.53 302.5 L
309.964 302.5 L
310.398 302.5 L
310.832 302.5 L
311.266 302.5 L
311.7 302.5 L
312.134 302.5 L
312.568 302.5 L
313.002 302.5 L
313.436 302.5 L
313.87 302.5 L
314.304 302.5 L
314.738 302.5 L
315.172 302.5 L
315.606 302.5 L
316.04 302.5 L
316.474 302.5 L
316.908 302.5 L
317.342 302.5 L
317.776 302.5 L
318.21 302.5 L
318.644 302.5 L
319.078 302.5 L
319.512 302.5 L
319.946 302.5 L
320.38 302.5 L
320.814 302.5 L
321.248 302.5 L
321.682 302.5 L
322.116 302.5 L
322.55 302.5 L
322.984 302.5 L
323.418 302.5 L
323.852 302.5 L
324.286 302.5 L
324.72 302.5 L
325.154 302.5 L
325.588 302.5 L
326.022 302.5 L
326.456 302.5 L
326.89 302.5 L
327.324 302.5 L
327.758 302.5 L
328.192 302.5 L
328.626 302.5 L
329.06 302.5 L
329.494 302.5 L
329.928 302.5 L
330.362 302.5 L
330.796 302.5 L
331.23 302.5 L
331.664 302.5 L
332.098 302.5 L
332.532 302.5 L
332.966 302.5 L
333.4 302.5 L
333.834 302.5 L
334.268 302.5 L
334.702 302.5 L
335.136 302.5 L
335.57 302.5 L
336.004 302.5 L
336.438 302.5 L
336.872 302.5 L
337.306 302.5 L
337.74 302.5 L
338.174 302.5 L
338.608 302.5 L
339.042 302.5 L
339.476 302.5 L
339.91 302.5 L
340.344 302.5 L
340.778 302.5 L
341.212 302.5 L
341.646 302.5 L
342.08 302.5 L
342.514 302.5 L
342.948 302.5 L
343.382 302.5 L
343.816 302.5 L
344.25 302.5 L
344.684 302.5 L
345.118 302.5 L
345.552 302.5 L
345.986 302.5 L
346.42 302.5 L
346.854 302.5 L
347.288 302.5 L
347.722 302.5 L
348.156 302.5 L
348.59 302.5 L
349.024 302.5 L
349.458 302.5 L
349.892 302.5 L
350.326 302.5 L
350.76 302.5 L
351.194 302.5 L
351.628 302.5 L
352.062 302.5 L
352.496 302.5 L
352.93 302.5 L
353.364 302.5 L
353.798 302.5 L
354.232 302.5 L
354.666 302.5 L
355.1 302.5 L
355.534 302.5 L
355.968 302.5 L
356.402 302.5 L
356.836 302.5 L
357.27 302.5 L
357.704 302.5 L
358.138 302.5 L
358.572 302.5 L
359.006 302.5 L
359.44 302.5 L
359.874 302.5 L
360.308 302.5 L
360.742 302.5 L
361.176 302.5 L
361.61 302.5 L
362.044 302.5 L
362.478 302.5 L
362.912 302.5 L
363.346 302.5 L
363.78 302.5 L
364.214 302.5 L
364.648 302.5 L
365.082 302.5 L
365.516 302.5 L
365.95 302.5 L
366.384 302.5 L
366.818 302.5 L
367.252 302.5 L
367.686 302.5 L
368.12 302.5 L
368.554 302.5 L
368.988 302.5 L
369.422 302.5 L
369.856 302.5 L
370.29 302.5 L
370.724 302.5 L
371.158 302.5 L
371.592 302.5 L
372.026 302.5 L
372.46 302.5 L
372.894 302.5 L
373.328 302.5 L
373.762 302.5 L
374.196 302.5 L
374.63 302.5 L
375.064 302.5 L
375.498 302.5 L
375.932 302.5 L
376.366 302.5 L
376.8 302.5 L
377.234 302.5 L
377.668 302.5 L
378.102 302.5 L
378.536 302.5 L
378.97 302.5 L
379.404 302.5 L
379.838 302.5 L
380.272 302.5 L
380.706 302.5 L
381.14 302.5 L
381.574 302.5 L
382.008 302.5 L
382.442 302.5 L
382.876 302.5 L
383.31 302.5 L
383.744 302.5 L
384.178 302.5 L
384.612 302.5 L
385.046 302.5 L
385.48 302.5 L
385.914 302.5 L
386.348 302.5 L
386.782 302.5 L
387.216 302.5 L
387.65 302.5 L
388.084 302.5 L
388.518 302.5 L
388.952 302.5 L
389.386 302.5 L
389.82 302.5 L
390.254 302.5 L
390.688 302.5 L
391.122 302.5 L
391.556 302.5 L
391.99 302.5 L
392.424 302.5 L
392.858 302.5 L
393.292 302.5 L
393.726 302.5 L
394.16 302.5 L
394.594 302.5 L
395.028 302.5 L
395.462 302.5 L
395.896 302.5 L
396.33 302.5 L
396.764 302.5 L
397.198 302.5 L
397.632 302.5 L
398.066 302.5 L
398.5 302.5 L
398.934 302.5 L
399.368 302.5 L
399.802 302.5 L
400.236 302.5 L
400.67 302.5 L
401.104 302.5 L
401.538 302.5 L
401.972 302.5 L
402.406 302.5 L
402.84 302.5 L
403.274 302.5 L
403.708 302.5 L
404.142 302.5 L
404.576 302.5 L
405.01 302.5 L
405.444 302.5 L
405.878 302.5 L
406.312 302.5 L
406.746 302.5 L
407.18 302.5 L
407.614 302.5 L
408.048 302.5 L
408.482 302.5 L
408.916 302.5 L
409.35 302.5 L
409.784 302.5 L
410.218 302.5 L
410.652 302.5 L
411.086 302.5 L
411.52 302.5 L
411.954 302.5 L
412.388 302.5 L
412.822 302.5 L
413.256 302.5 L
413.69 302.5 L
414.124 302.5 L
414.558 302.5 L
414.992 302.5 L
415.426 302.5 L
415.86 302.5 L
416.294 302.5 L
416.728 302.5 L
417.162 302.5 L
417.596 302.5 L
418.03 302.5 L
418.464 302.5 L
418.898 302.5 L
419.332 302.5 L
419.766 302.5 L
420.2 302.5 L
420.634 302.5 L
421.068 302.5 L
421.502 302.5 L
421.936 302.5 L
422.37 302.5 L
422.804 302.5 L
423.238 302.5 L
423.672 302.5 L
424.106 302.5 L
424.54 302.5 L
424.974 302.5 L
425.408 302.5 L
425.842 302.5 L
426.276 302.5 L
426.71 302.5 L
427.144 302.5 L
427.578 302.5 L
428.012 302.5 L
428.446 302.5 L
428.88 302.5 L
429.314 302.5 L
429.748 302.5 L
430.182 302.5 L
430.616 302.5 L
431.05 302.5 L
431.484 302.5 L
431.918 302.5 L
432.352 302.5 L
432.786 302.5 L
433.22 302.5 L
433.654 302.5 L
434.088 302.5 L
434.522 302.5 L
434.956 302.5 L
435.39 302.5 L
435.824 302.5 L
436.258 302.5 L
436.692 302.5 L
437.126 302.5 L
437.56 302.5 L
437.994 302.5 L
438.428 302.5 L
438.862 302.5 L
439.296 302.5 L
439.73 302.5 L
440.164 302.5 L
440.598 302.5 L
441.032 302.5 L
441.466 302.5 L
441.9 302.5 L
442.334 302.5 L
442.768 302.5 L
443.202 302.5 L
443.636 302.5 L
444.07 302.5 L
444.504 302.5 L
444.938 302.5 L
445.372 302.5 L
445.806 302.5 L
446.24 302.5 L
446.674 302.5 L
447.108 302.5 L
447.542 302.5 L
447.976 302.5 L
448.41 302.5 L
448.844 302.5 L
449.278 302.5 L
449.712 302.5 L
450.146 302.5 L
450.58 302.5 L
451.014 302.5 L
451.448 302.5 L
451.882 302.5 L
452.316 302.5 L
452.75 302.5 L
453.184 302.5 L
453.618 302.5 L
454.052 302.5 L
454.486 302.5 L
454.92 302.5 L
455.354 302.5 L
455.788 302.5 L
456.222 302.5 L
456.656 302.5 L
457.09 302.5 L
457.524 302.5 L
457.958 302.5 L
458.392 302.5 L
458.826 302.5 L
459.26 302.5 L
459.694 302.5 L
460.128 302.5 L
460.562 302.5 L
460.996 302.5 L
461.43 302.5 L
461.864 302.5 L
462.298 302.5 L
462.732 302.5 L
463.166 302.5 L
463.6 302.5 L
464.034 302.5 L
464.468 302.5 L
464.902 302.5 L
465.336 302.5 L
465.77 302.5 L
466.204 302.5 L
466.638 302.5 L
467.072 302.5 L
467.506 302.5 L
467.94 302.5 L
468.374 302.5 L
468.808 302.5 L
469.242 302.5 L
469.676 302.5 L
470.11 302.5 L
470.544 302.5 L
470.978 302.5 L
471.412 302.5 L
471.846 302.5 L
472.28 302.5 L
472.714 302.5 L
473.148 302.5 L
473.582 302.5 L
474.016 302.5 L
474.45 302.5 L
474.884 302.5 L
475.318 302.5 L
475.752 302.5 L
476.186 302.5 L
476.62 302.5 L
477.054 302.5 L
477.488 302.5 L
477.922 302.5 L
478.356 302.5 L
478.79 302.5 L
479.224 302.5 L
479.658 302.5 L
480.092 302.5 L
480.526 302.5 L
480.96 302.5 L
481.394 302.5 L
481.828 302.5 L
482.262 302.5 L
482.696 302.5 L
483.13 302.5 L
483.564 302.5 L
483.998 302.5 L
484.432 302.5 L
484.866 302.5 L
485.3 302.5 L
485.734 302.5 L
486.168 302.5 L
486.602 302.5 L
487.036 302.5 L
487.47 302.5 L
487.904 302.5 L
488.338 302.5 L
488.772 302.5 L
489.206 302.5 L
489.64 302.5 L
490.074 302.5 L
490.508 302.5 L
490.942 302.5 L
491.376 302.5 L
491.81 302.5 L
492.244 302.5 L
492.678 302.5 L
493.112 302.5 L
493.546 302.5 L
493.98 302.5 L
494.414 302.5 L
494.848 302.5 L
495.282 302.5 L
495.716 302.5 L
496.15 302.5 L
496.584 302.5 L
497.018 302.5 L
497.452 302.5 L
497.886 302.5 L
498.32 302.5 L
498.754 302.5 L
499.188 302.5 L
499.622 302.5 L
500.056 302.5 L
500.49 302.5 L
500.924 302.5 L
501.358 302.5 L
501.792 302.5 L
502.226 302.5 L
502.66 302.5 L
503.094 302.5 L
503.528 302.5 L
503.962 302.5 L
504.396 302.5 L
504.83 302.5 L
505.264 302.5 L
505.698 302.5 L
506.132 302.5 L
506.566 302.5 L
507 302.5 L
S
GR
GS
1 GC
N
362 264 M
362 237 L
500 237 L
500 264 L
cp
f
GR
GS
[1 0 0 1 399 244.64151] CT
/Helvetica 9 F
GS
[1 0 0 1 0 0] CT
0 3.5 moveto 
1 -1 scale
(Linear model - residuals) t 
GR
GR
GS
[1 0 0 1 381 244.64151] CT
0 0 1 RC
N
2.667 0 M
2.667 1.473 1.473 2.667 0 2.667 C
-1.473 2.667 -2.667 1.473 -2.667 0 C
-2.667 -1.473 -1.473 -2.667 0 -2.667 C
1.473 -2.667 2.667 -1.473 2.667 0 C
cp
f
GR
GS
[1 0 0 1 399 256.35849] CT
/Helvetica 9 F
GS
[1 0 0 1 0 0] CT
0 3.5 moveto 
1 -1 scale
(Zero Line) t 
GR
GR
GS
1 0 0 RC
1 LJ
N
366 256.358 M
396 256.358 L
S
GR
GS
0.149 GC
10.0 ML
0.5 LW
N
362 264 M
362 237 L
500 237 L
500 264 L
cp
S
GR
%%Trailer
%%Pages: 1
%%EOF
