%!PS-Adobe-3.0 EPSF-3.0
%%Creator: (MATLAB, The Mathworks, Inc. Version 9.0.0.341360 \(R2016a\). Operating System: Mac OS X)
%%Title: /Users/deepak/Documents/MATLAB/matlabprojects/singleCalib_IH/source/wtzn.eps
%%CreationDate: 2016-11-26T23:28:04
%%Pages: (atend)
%%BoundingBox: 0 0 560 420
%%LanguageLevel: 3
%%EndComments
%%BeginProlog
%%BeginResource: procset (Apache XML Graphics Std ProcSet) 1.2 0
%%Version: 1.2 0
%%Copyright: (Copyright 2001-2003,2010 The Apache Software Foundation. License terms: http://www.apache.org/licenses/LICENSE-2.0)
/bd{bind def}bind def
/ld{load def}bd
/GR/grestore ld
/M/moveto ld
/LJ/setlinejoin ld
/C/curveto ld
/f/fill ld
/LW/setlinewidth ld
/GC/setgray ld
/t/show ld
/N/newpath ld
/CT/concat ld
/cp/closepath ld
/S/stroke ld
/L/lineto ld
/CC/setcmykcolor ld
/A/ashow ld
/GS/gsave ld
/RC/setrgbcolor ld
/RM/rmoveto ld
/ML/setmiterlimit ld
/re {4 2 roll M
1 index 0 rlineto
0 exch rlineto
neg 0 rlineto
cp } bd
/_ctm matrix def
/_tm matrix def
/BT { _ctm currentmatrix pop matrix _tm copy pop 0 0 moveto } bd
/ET { _ctm setmatrix } bd
/iTm { _ctm setmatrix _tm concat } bd
/Tm { _tm astore pop iTm 0 0 moveto } bd
/ux 0.0 def
/uy 0.0 def
/F {
  /Tp exch def
  /Tf exch def
  Tf findfont Tp scalefont setfont
  /cf Tf def  /cs Tp def
} bd
/ULS {currentpoint /uy exch def /ux exch def} bd
/ULE {
  /Tcx currentpoint pop def
  gsave
  newpath
  cf findfont cs scalefont dup
  /FontMatrix get 0 get /Ts exch def /FontInfo get dup
  /UnderlinePosition get Ts mul /To exch def
  /UnderlineThickness get Ts mul /Tt exch def
  ux uy To add moveto  Tcx uy To add lineto
  Tt setlinewidth stroke
  grestore
} bd
/OLE {
  /Tcx currentpoint pop def
  gsave
  newpath
  cf findfont cs scalefont dup
  /FontMatrix get 0 get /Ts exch def /FontInfo get dup
  /UnderlinePosition get Ts mul /To exch def
  /UnderlineThickness get Ts mul /Tt exch def
  ux uy To add cs add moveto Tcx uy To add cs add lineto
  Tt setlinewidth stroke
  grestore
} bd
/SOE {
  /Tcx currentpoint pop def
  gsave
  newpath
  cf findfont cs scalefont dup
  /FontMatrix get 0 get /Ts exch def /FontInfo get dup
  /UnderlinePosition get Ts mul /To exch def
  /UnderlineThickness get Ts mul /Tt exch def
  ux uy To add cs 10 mul 26 idiv add moveto Tcx uy To add cs 10 mul 26 idiv add lineto
  Tt setlinewidth stroke
  grestore
} bd
/QT {
/Y22 exch store
/X22 exch store
/Y21 exch store
/X21 exch store
currentpoint
/Y21 load 2 mul add 3 div exch
/X21 load 2 mul add 3 div exch
/X21 load 2 mul /X22 load add 3 div
/Y21 load 2 mul /Y22 load add 3 div
/X22 load /Y22 load curveto
} bd
/SSPD {
dup length /d exch dict def
{
/v exch def
/k exch def
currentpagedevice k known {
/cpdv currentpagedevice k get def
v cpdv ne {
/upd false def
/nullv v type /nulltype eq def
/nullcpdv cpdv type /nulltype eq def
nullv nullcpdv or
{
/upd true def
} {
/sametype v type cpdv type eq def
sametype {
v type /arraytype eq {
/vlen v length def
/cpdvlen cpdv length def
vlen cpdvlen eq {
0 1 vlen 1 sub {
/i exch def
/obj v i get def
/cpdobj cpdv i get def
obj cpdobj ne {
/upd true def
exit
} if
} for
} {
/upd true def
} ifelse
} {
v type /dicttype eq {
v {
/dv exch def
/dk exch def
/cpddv cpdv dk get def
dv cpddv ne {
/upd true def
exit
} if
} forall
} {
/upd true def
} ifelse
} ifelse
} if
} ifelse
upd true eq {
d k v put
} if
} if
} if
} forall
d length 0 gt {
d setpagedevice
} if
} bd
%%EndResource
%%BeginResource: procset (Apache XML Graphics EPS ProcSet) 1.0 0
%%Version: 1.0 0
%%Copyright: (Copyright 2002-2003 The Apache Software Foundation. License terms: http://www.apache.org/licenses/LICENSE-2.0)
/BeginEPSF { %def
/b4_Inc_state save def         % Save state for cleanup
/dict_count countdictstack def % Count objects on dict stack
/op_count count 1 sub def      % Count objects on operand stack
userdict begin                 % Push userdict on dict stack
/showpage { } def              % Redefine showpage, { } = null proc
0 setgray 0 setlinecap         % Prepare graphics state
1 setlinewidth 0 setlinejoin
10 setmiterlimit [ ] 0 setdash newpath
/languagelevel where           % If level not equal to 1 then
{pop languagelevel             % set strokeadjust and
1 ne                           % overprint to their defaults.
{false setstrokeadjust false setoverprint
} if
} if
} bd
/EndEPSF { %def
count op_count sub {pop} repeat            % Clean up stacks
countdictstack dict_count sub {end} repeat
b4_Inc_state restore
} bd
%%EndResource
%FOPBeginFontDict
%%IncludeResource: font Courier-Bold
%%IncludeResource: font Helvetica
%%IncludeResource: font Courier-BoldOblique
%%IncludeResource: font Courier-Oblique
%%IncludeResource: font Times-Roman
%%IncludeResource: font Helvetica-BoldOblique
%%IncludeResource: font Helvetica-Bold
%%IncludeResource: font Helvetica-Oblique
%%IncludeResource: font Times-BoldItalic
%%IncludeResource: font Courier
%%IncludeResource: font Times-Italic
%%IncludeResource: font Times-Bold
%%IncludeResource: font Symbol
%%IncludeResource: font ZapfDingbats
%FOPEndFontDict
%%BeginResource: encoding WinAnsiEncoding
/WinAnsiEncoding [
/.notdef /.notdef /.notdef /.notdef /.notdef
/.notdef /.notdef /.notdef /.notdef /.notdef
/.notdef /.notdef /.notdef /.notdef /.notdef
/.notdef /.notdef /.notdef /.notdef /.notdef
/.notdef /.notdef /.notdef /.notdef /.notdef
/.notdef /.notdef /.notdef /.notdef /.notdef
/.notdef /.notdef /space /exclam /quotedbl
/numbersign /dollar /percent /ampersand /quotesingle
/parenleft /parenright /asterisk /plus /comma
/hyphen /period /slash /zero /one
/two /three /four /five /six
/seven /eight /nine /colon /semicolon
/less /equal /greater /question /at
/A /B /C /D /E
/F /G /H /I /J
/K /L /M /N /O
/P /Q /R /S /T
/U /V /W /X /Y
/Z /bracketleft /backslash /bracketright /asciicircum
/underscore /quoteleft /a /b /c
/d /e /f /g /h
/i /j /k /l /m
/n /o /p /q /r
/s /t /u /v /w
/x /y /z /braceleft /bar
/braceright /asciitilde /bullet /Euro /bullet
/quotesinglbase /florin /quotedblbase /ellipsis /dagger
/daggerdbl /circumflex /perthousand /Scaron /guilsinglleft
/OE /bullet /Zcaron /bullet /bullet
/quoteleft /quoteright /quotedblleft /quotedblright /bullet
/endash /emdash /asciitilde /trademark /scaron
/guilsinglright /oe /bullet /zcaron /Ydieresis
/space /exclamdown /cent /sterling /currency
/yen /brokenbar /section /dieresis /copyright
/ordfeminine /guillemotleft /logicalnot /sfthyphen /registered
/macron /degree /plusminus /twosuperior /threesuperior
/acute /mu /paragraph /middot /cedilla
/onesuperior /ordmasculine /guillemotright /onequarter /onehalf
/threequarters /questiondown /Agrave /Aacute /Acircumflex
/Atilde /Adieresis /Aring /AE /Ccedilla
/Egrave /Eacute /Ecircumflex /Edieresis /Igrave
/Iacute /Icircumflex /Idieresis /Eth /Ntilde
/Ograve /Oacute /Ocircumflex /Otilde /Odieresis
/multiply /Oslash /Ugrave /Uacute /Ucircumflex
/Udieresis /Yacute /Thorn /germandbls /agrave
/aacute /acircumflex /atilde /adieresis /aring
/ae /ccedilla /egrave /eacute /ecircumflex
/edieresis /igrave /iacute /icircumflex /idieresis
/eth /ntilde /ograve /oacute /ocircumflex
/otilde /odieresis /divide /oslash /ugrave
/uacute /ucircumflex /udieresis /yacute /thorn
/ydieresis
] def
%%EndResource
%FOPBeginFontReencode
/Courier-Bold findfont
dup length dict begin
  {1 index /FID ne {def} {pop pop} ifelse} forall
  /Encoding WinAnsiEncoding def
  currentdict
end
/Courier-Bold exch definefont pop
/Helvetica findfont
dup length dict begin
  {1 index /FID ne {def} {pop pop} ifelse} forall
  /Encoding WinAnsiEncoding def
  currentdict
end
/Helvetica exch definefont pop
/Courier-BoldOblique findfont
dup length dict begin
  {1 index /FID ne {def} {pop pop} ifelse} forall
  /Encoding WinAnsiEncoding def
  currentdict
end
/Courier-BoldOblique exch definefont pop
/Courier-Oblique findfont
dup length dict begin
  {1 index /FID ne {def} {pop pop} ifelse} forall
  /Encoding WinAnsiEncoding def
  currentdict
end
/Courier-Oblique exch definefont pop
/Times-Roman findfont
dup length dict begin
  {1 index /FID ne {def} {pop pop} ifelse} forall
  /Encoding WinAnsiEncoding def
  currentdict
end
/Times-Roman exch definefont pop
/Helvetica-BoldOblique findfont
dup length dict begin
  {1 index /FID ne {def} {pop pop} ifelse} forall
  /Encoding WinAnsiEncoding def
  currentdict
end
/Helvetica-BoldOblique exch definefont pop
/Helvetica-Bold findfont
dup length dict begin
  {1 index /FID ne {def} {pop pop} ifelse} forall
  /Encoding WinAnsiEncoding def
  currentdict
end
/Helvetica-Bold exch definefont pop
/Helvetica-Oblique findfont
dup length dict begin
  {1 index /FID ne {def} {pop pop} ifelse} forall
  /Encoding WinAnsiEncoding def
  currentdict
end
/Helvetica-Oblique exch definefont pop
/Times-BoldItalic findfont
dup length dict begin
  {1 index /FID ne {def} {pop pop} ifelse} forall
  /Encoding WinAnsiEncoding def
  currentdict
end
/Times-BoldItalic exch definefont pop
/Courier findfont
dup length dict begin
  {1 index /FID ne {def} {pop pop} ifelse} forall
  /Encoding WinAnsiEncoding def
  currentdict
end
/Courier exch definefont pop
/Times-Italic findfont
dup length dict begin
  {1 index /FID ne {def} {pop pop} ifelse} forall
  /Encoding WinAnsiEncoding def
  currentdict
end
/Times-Italic exch definefont pop
/Times-Bold findfont
dup length dict begin
  {1 index /FID ne {def} {pop pop} ifelse} forall
  /Encoding WinAnsiEncoding def
  currentdict
end
/Times-Bold exch definefont pop
%FOPEndFontReencode
%%EndProlog
%%Page: 1 1
%%PageBoundingBox: 0 0 560 420
%%BeginPageSetup
[1 0 0 -1 0 420] CT
%%EndPageSetup
GS
1 GC
N
0 0 560 420 re
f
GR
GS
1 GC
N
0 0 560 420 re
f
GR
GS
1 GC
N
73 175 M
507 175 L
507 31 L
73 31 L
cp
f
GR
GS
0.873 GC
1 LJ
0.5 LW
N
73 175 M
73 31 L
S
GR
GS
0.873 GC
1 LJ
0.5 LW
N
116.4 175 M
116.4 31 L
S
GR
GS
0.873 GC
1 LJ
0.5 LW
N
159.8 175 M
159.8 31 L
S
GR
GS
0.873 GC
1 LJ
0.5 LW
N
203.2 175 M
203.2 31 L
S
GR
GS
0.873 GC
1 LJ
0.5 LW
N
246.6 175 M
246.6 31 L
S
GR
GS
0.873 GC
1 LJ
0.5 LW
N
290 175 M
290 31 L
S
GR
GS
0.873 GC
1 LJ
0.5 LW
N
333.4 175 M
333.4 31 L
S
GR
GS
0.873 GC
1 LJ
0.5 LW
N
376.8 175 M
376.8 31 L
S
GR
GS
0.873 GC
1 LJ
0.5 LW
N
420.2 175 M
420.2 31 L
S
GR
GS
0.873 GC
1 LJ
0.5 LW
N
463.6 175 M
463.6 31 L
S
GR
GS
0.873 GC
1 LJ
0.5 LW
N
507 175 M
507 31 L
S
GR
GS
0.873 GC
1 LJ
0.5 LW
N
507 175 M
73 175 L
S
GR
GS
0.873 GC
1 LJ
0.5 LW
N
507 151 M
73 151 L
S
GR
GS
0.873 GC
1 LJ
0.5 LW
N
507 127 M
73 127 L
S
GR
GS
0.873 GC
1 LJ
0.5 LW
N
507 103 M
73 103 L
S
GR
GS
0.873 GC
1 LJ
0.5 LW
N
507 79 M
73 79 L
S
GR
GS
0.873 GC
1 LJ
0.5 LW
N
507 55 M
73 55 L
S
GR
GS
0.873 GC
1 LJ
0.5 LW
N
507 31 M
73 31 L
S
GR
GS
0.149 GC
2 setlinecap
1 LJ
0.5 LW
N
73 175 M
507 175 L
S
GR
GS
0.149 GC
2 setlinecap
1 LJ
0.5 LW
N
73 31 M
507 31 L
S
GR
GS
0.149 GC
2 setlinecap
1 LJ
0.5 LW
N
73 175 M
73 170.66 L
S
GR
GS
0.149 GC
2 setlinecap
1 LJ
0.5 LW
N
116.4 175 M
116.4 170.66 L
S
GR
GS
0.149 GC
2 setlinecap
1 LJ
0.5 LW
N
159.8 175 M
159.8 170.66 L
S
GR
GS
0.149 GC
2 setlinecap
1 LJ
0.5 LW
N
203.2 175 M
203.2 170.66 L
S
GR
GS
0.149 GC
2 setlinecap
1 LJ
0.5 LW
N
246.6 175 M
246.6 170.66 L
S
GR
GS
0.149 GC
2 setlinecap
1 LJ
0.5 LW
N
290 175 M
290 170.66 L
S
GR
GS
0.149 GC
2 setlinecap
1 LJ
0.5 LW
N
333.4 175 M
333.4 170.66 L
S
GR
GS
0.149 GC
2 setlinecap
1 LJ
0.5 LW
N
376.8 175 M
376.8 170.66 L
S
GR
GS
0.149 GC
2 setlinecap
1 LJ
0.5 LW
N
420.2 175 M
420.2 170.66 L
S
GR
GS
0.149 GC
2 setlinecap
1 LJ
0.5 LW
N
463.6 175 M
463.6 170.66 L
S
GR
GS
0.149 GC
2 setlinecap
1 LJ
0.5 LW
N
507 175 M
507 170.66 L
S
GR
GS
0.149 GC
2 setlinecap
1 LJ
0.5 LW
N
73 31 M
73 35.34 L
S
GR
GS
0.149 GC
2 setlinecap
1 LJ
0.5 LW
N
116.4 31 M
116.4 35.34 L
S
GR
GS
0.149 GC
2 setlinecap
1 LJ
0.5 LW
N
159.8 31 M
159.8 35.34 L
S
GR
GS
0.149 GC
2 setlinecap
1 LJ
0.5 LW
N
203.2 31 M
203.2 35.34 L
S
GR
GS
0.149 GC
2 setlinecap
1 LJ
0.5 LW
N
246.6 31 M
246.6 35.34 L
S
GR
GS
0.149 GC
2 setlinecap
1 LJ
0.5 LW
N
290 31 M
290 35.34 L
S
GR
GS
0.149 GC
2 setlinecap
1 LJ
0.5 LW
N
333.4 31 M
333.4 35.34 L
S
GR
GS
0.149 GC
2 setlinecap
1 LJ
0.5 LW
N
376.8 31 M
376.8 35.34 L
S
GR
GS
0.149 GC
2 setlinecap
1 LJ
0.5 LW
N
420.2 31 M
420.2 35.34 L
S
GR
GS
0.149 GC
2 setlinecap
1 LJ
0.5 LW
N
463.6 31 M
463.6 35.34 L
S
GR
GS
0.149 GC
2 setlinecap
1 LJ
0.5 LW
N
507 31 M
507 35.34 L
S
GR
GS
[1 0 0 1 73 179] CT
0.149 GC
/Helvetica 10 F
GS
[1 0 0 1 0 0] CT
-10.5 10 moveto 
1 -1 scale
(-100) t 
GR
GR
GS
[1 0 0 1 116.4 179] CT
0.149 GC
/Helvetica 10 F
GS
[1 0 0 1 0 0] CT
-8 10 moveto 
1 -1 scale
(-90) t 
GR
GR
GS
[1 0 0 1 159.8 179] CT
0.149 GC
/Helvetica 10 F
GS
[1 0 0 1 0 0] CT
-8 10 moveto 
1 -1 scale
(-80) t 
GR
GR
GS
[1 0 0 1 203.2 179] CT
0.149 GC
/Helvetica 10 F
GS
[1 0 0 1 0 0] CT
-8 10 moveto 
1 -1 scale
(-70) t 
GR
GR
GS
[1 0 0 1 246.60001 179] CT
0.149 GC
/Helvetica 10 F
GS
[1 0 0 1 0 0] CT
-8 10 moveto 
1 -1 scale
(-60) t 
GR
GR
GS
[1 0 0 1 290 179] CT
0.149 GC
/Helvetica 10 F
GS
[1 0 0 1 0 0] CT
-8 10 moveto 
1 -1 scale
(-50) t 
GR
GR
GS
[1 0 0 1 333.39999 179] CT
0.149 GC
/Helvetica 10 F
GS
[1 0 0 1 0 0] CT
-8 10 moveto 
1 -1 scale
(-40) t 
GR
GR
GS
[1 0 0 1 376.79999 179] CT
0.149 GC
/Helvetica 10 F
GS
[1 0 0 1 0 0] CT
-8 10 moveto 
1 -1 scale
(-30) t 
GR
GR
GS
[1 0 0 1 420.20001 179] CT
0.149 GC
/Helvetica 10 F
GS
[1 0 0 1 0 0] CT
-8 10 moveto 
1 -1 scale
(-20) t 
GR
GR
GS
[1 0 0 1 463.60001 179] CT
0.149 GC
/Helvetica 10 F
GS
[1 0 0 1 0 0] CT
-8 10 moveto 
1 -1 scale
(-10) t 
GR
GR
GS
[1 0 0 1 507 179] CT
0.149 GC
/Helvetica 10 F
GS
[1 0 0 1 0 0] CT
-3 10 moveto 
1 -1 scale
(0) t 
GR
GR
GS
[1 0 0 1 290.00021 193] CT
0.149 GC
/Helvetica-Bold 12 F
GS
[1 0 0 1 0 0] CT
-78 12 moveto 
1 -1 scale
(Camera translation \(in mm\)) t 
GR
GR
GS
0.149 GC
2 setlinecap
1 LJ
0.5 LW
N
73 175 M
73 31 L
S
GR
GS
0.149 GC
2 setlinecap
1 LJ
0.5 LW
N
507 175 M
507 31 L
S
GR
GS
0.149 GC
2 setlinecap
1 LJ
0.5 LW
N
73 175 M
77.34 175 L
S
GR
GS
0.149 GC
2 setlinecap
1 LJ
0.5 LW
N
73 151 M
77.34 151 L
S
GR
GS
0.149 GC
2 setlinecap
1 LJ
0.5 LW
N
73 127 M
77.34 127 L
S
GR
GS
0.149 GC
2 setlinecap
1 LJ
0.5 LW
N
73 103 M
77.34 103 L
S
GR
GS
0.149 GC
2 setlinecap
1 LJ
0.5 LW
N
73 79 M
77.34 79 L
S
GR
GS
0.149 GC
2 setlinecap
1 LJ
0.5 LW
N
73 55 M
77.34 55 L
S
GR
GS
0.149 GC
2 setlinecap
1 LJ
0.5 LW
N
73 31 M
77.34 31 L
S
GR
GS
0.149 GC
2 setlinecap
1 LJ
0.5 LW
N
507 175 M
502.66 175 L
S
GR
GS
0.149 GC
2 setlinecap
1 LJ
0.5 LW
N
507 151 M
502.66 151 L
S
GR
GS
0.149 GC
2 setlinecap
1 LJ
0.5 LW
N
507 127 M
502.66 127 L
S
GR
GS
0.149 GC
2 setlinecap
1 LJ
0.5 LW
N
507 103 M
502.66 103 L
S
GR
GS
0.149 GC
2 setlinecap
1 LJ
0.5 LW
N
507 79 M
502.66 79 L
S
GR
GS
0.149 GC
2 setlinecap
1 LJ
0.5 LW
N
507 55 M
502.66 55 L
S
GR
GS
0.149 GC
2 setlinecap
1 LJ
0.5 LW
N
507 31 M
502.66 31 L
S
GR
GS
[1 0 0 1 68.99999 175] CT
0.149 GC
/Helvetica 10 F
GS
[1 0 0 1 0 0] CT
-18 3.5 moveto 
1 -1 scale
(-0.2) t 
GR
GR
GS
[1 0 0 1 68.99999 151] CT
0.149 GC
/Helvetica 10 F
GS
[1 0 0 1 0 0] CT
-6 3.5 moveto 
1 -1 scale
(0) t 
GR
GR
GS
[1 0 0 1 68.99999 127] CT
0.149 GC
/Helvetica 10 F
GS
[1 0 0 1 0 0] CT
-14 3.5 moveto 
1 -1 scale
(0.2) t 
GR
GR
GS
[1 0 0 1 68.99999 103] CT
0.149 GC
/Helvetica 10 F
GS
[1 0 0 1 0 0] CT
-14 3.5 moveto 
1 -1 scale
(0.4) t 
GR
GR
GS
[1 0 0 1 68.99999 79] CT
0.149 GC
/Helvetica 10 F
GS
[1 0 0 1 0 0] CT
-14 3.5 moveto 
1 -1 scale
(0.6) t 
GR
GR
GS
[1 0 0 1 68.99999 55] CT
0.149 GC
/Helvetica 10 F
GS
[1 0 0 1 0 0] CT
-14 3.5 moveto 
1 -1 scale
(0.8) t 
GR
GR
GS
[1 0 0 1 68.99999 31] CT
0.149 GC
/Helvetica 10 F
GS
[1 0 0 1 0 0] CT
-6 3.5 moveto 
1 -1 scale
(1) t 
GR
GR
GS
[0 -1 1 0 48 102.99993] CT
0.149 GC
/Helvetica-Bold 12 F
GS
[1 0 0 1 0 0] CT
-55.5 -3 moveto 
1 -1 scale
(Width error \(in mm\)) t 
GR
GR
GS
[1 0 0 1 73 43.85078] CT
0 0 1 RC
N
2.667 0 M
2.667 1.473 1.473 2.667 0 2.667 C
-1.473 2.667 -2.667 1.473 -2.667 0 C
-2.667 -1.473 -1.473 -2.667 0 -2.667 C
1.473 -2.667 2.667 -1.473 2.667 0 C
cp
f
GR
GS
[1 0 0 1 77.34 42.24651] CT
0 0 1 RC
N
2.667 0 M
2.667 1.473 1.473 2.667 0 2.667 C
-1.473 2.667 -2.667 1.473 -2.667 0 C
-2.667 -1.473 -1.473 -2.667 0 -2.667 C
1.473 -2.667 2.667 -1.473 2.667 0 C
cp
f
GR
GS
[1 0 0 1 81.68 46.83218] CT
0 0 1 RC
N
2.667 0 M
2.667 1.473 1.473 2.667 0 2.667 C
-1.473 2.667 -2.667 1.473 -2.667 0 C
-2.667 -1.473 -1.473 -2.667 0 -2.667 C
1.473 -2.667 2.667 -1.473 2.667 0 C
cp
f
GR
GS
[1 0 0 1 86.02 43.38692] CT
0 0 1 RC
N
2.667 0 M
2.667 1.473 1.473 2.667 0 2.667 C
-1.473 2.667 -2.667 1.473 -2.667 0 C
-2.667 -1.473 -1.473 -2.667 0 -2.667 C
1.473 -2.667 2.667 -1.473 2.667 0 C
cp
f
GR
GS
[1 0 0 1 90.36 46.46146] CT
0 0 1 RC
N
2.667 0 M
2.667 1.473 1.473 2.667 0 2.667 C
-1.473 2.667 -2.667 1.473 -2.667 0 C
-2.667 -1.473 -1.473 -2.667 0 -2.667 C
1.473 -2.667 2.667 -1.473 2.667 0 C
cp
f
GR
GS
[1 0 0 1 94.7 49.96623] CT
0 0 1 RC
N
2.667 0 M
2.667 1.473 1.473 2.667 0 2.667 C
-1.473 2.667 -2.667 1.473 -2.667 0 C
-2.667 -1.473 -1.473 -2.667 0 -2.667 C
1.473 -2.667 2.667 -1.473 2.667 0 C
cp
f
GR
GS
[1 0 0 1 99.04 50.72845] CT
0 0 1 RC
N
2.667 0 M
2.667 1.473 1.473 2.667 0 2.667 C
-1.473 2.667 -2.667 1.473 -2.667 0 C
-2.667 -1.473 -1.473 -2.667 0 -2.667 C
1.473 -2.667 2.667 -1.473 2.667 0 C
cp
f
GR
GS
[1 0 0 1 103.38 51.26576] CT
0 0 1 RC
N
2.667 0 M
2.667 1.473 1.473 2.667 0 2.667 C
-1.473 2.667 -2.667 1.473 -2.667 0 C
-2.667 -1.473 -1.473 -2.667 0 -2.667 C
1.473 -2.667 2.667 -1.473 2.667 0 C
cp
f
GR
GS
[1 0 0 1 107.72 53.82378] CT
0 0 1 RC
N
2.667 0 M
2.667 1.473 1.473 2.667 0 2.667 C
-1.473 2.667 -2.667 1.473 -2.667 0 C
-2.667 -1.473 -1.473 -2.667 0 -2.667 C
1.473 -2.667 2.667 -1.473 2.667 0 C
cp
f
GR
GS
[1 0 0 1 112.06 54.0278] CT
0 0 1 RC
N
2.667 0 M
2.667 1.473 1.473 2.667 0 2.667 C
-1.473 2.667 -2.667 1.473 -2.667 0 C
-2.667 -1.473 -1.473 -2.667 0 -2.667 C
1.473 -2.667 2.667 -1.473 2.667 0 C
cp
f
GR
GS
[1 0 0 1 116.4 53.70471] CT
0 0 1 RC
N
2.667 0 M
2.667 1.473 1.473 2.667 0 2.667 C
-1.473 2.667 -2.667 1.473 -2.667 0 C
-2.667 -1.473 -1.473 -2.667 0 -2.667 C
1.473 -2.667 2.667 -1.473 2.667 0 C
cp
f
GR
GS
[1 0 0 1 120.74 55.82072] CT
0 0 1 RC
N
2.667 0 M
2.667 1.473 1.473 2.667 0 2.667 C
-1.473 2.667 -2.667 1.473 -2.667 0 C
-2.667 -1.473 -1.473 -2.667 0 -2.667 C
1.473 -2.667 2.667 -1.473 2.667 0 C
cp
f
GR
GS
[1 0 0 1 125.08 56.84165] CT
0 0 1 RC
N
2.667 0 M
2.667 1.473 1.473 2.667 0 2.667 C
-1.473 2.667 -2.667 1.473 -2.667 0 C
-2.667 -1.473 -1.473 -2.667 0 -2.667 C
1.473 -2.667 2.667 -1.473 2.667 0 C
cp
f
GR
GS
[1 0 0 1 129.42 59.92713] CT
0 0 1 RC
N
2.667 0 M
2.667 1.473 1.473 2.667 0 2.667 C
-1.473 2.667 -2.667 1.473 -2.667 0 C
-2.667 -1.473 -1.473 -2.667 0 -2.667 C
1.473 -2.667 2.667 -1.473 2.667 0 C
cp
f
GR
GS
[1 0 0 1 133.75999 57.57371] CT
0 0 1 RC
N
2.667 0 M
2.667 1.473 1.473 2.667 0 2.667 C
-1.473 2.667 -2.667 1.473 -2.667 0 C
-2.667 -1.473 -1.473 -2.667 0 -2.667 C
1.473 -2.667 2.667 -1.473 2.667 0 C
cp
f
GR
GS
[1 0 0 1 138.10001 62.23804] CT
0 0 1 RC
N
2.667 0 M
2.667 1.473 1.473 2.667 0 2.667 C
-1.473 2.667 -2.667 1.473 -2.667 0 C
-2.667 -1.473 -1.473 -2.667 0 -2.667 C
1.473 -2.667 2.667 -1.473 2.667 0 C
cp
f
GR
GS
[1 0 0 1 142.44 60.62383] CT
0 0 1 RC
N
2.667 0 M
2.667 1.473 1.473 2.667 0 2.667 C
-1.473 2.667 -2.667 1.473 -2.667 0 C
-2.667 -1.473 -1.473 -2.667 0 -2.667 C
1.473 -2.667 2.667 -1.473 2.667 0 C
cp
f
GR
GS
[1 0 0 1 146.78 61.26916] CT
0 0 1 RC
N
2.667 0 M
2.667 1.473 1.473 2.667 0 2.667 C
-1.473 2.667 -2.667 1.473 -2.667 0 C
-2.667 -1.473 -1.473 -2.667 0 -2.667 C
1.473 -2.667 2.667 -1.473 2.667 0 C
cp
f
GR
GS
[1 0 0 1 151.12 64.62984] CT
0 0 1 RC
N
2.667 0 M
2.667 1.473 1.473 2.667 0 2.667 C
-1.473 2.667 -2.667 1.473 -2.667 0 C
-2.667 -1.473 -1.473 -2.667 0 -2.667 C
1.473 -2.667 2.667 -1.473 2.667 0 C
cp
f
GR
GS
[1 0 0 1 155.46001 66.84701] CT
0 0 1 RC
N
2.667 0 M
2.667 1.473 1.473 2.667 0 2.667 C
-1.473 2.667 -2.667 1.473 -2.667 0 C
-2.667 -1.473 -1.473 -2.667 0 -2.667 C
1.473 -2.667 2.667 -1.473 2.667 0 C
cp
f
GR
GS
[1 0 0 1 159.8 65.13563] CT
0 0 1 RC
N
2.667 0 M
2.667 1.473 1.473 2.667 0 2.667 C
-1.473 2.667 -2.667 1.473 -2.667 0 C
-2.667 -1.473 -1.473 -2.667 0 -2.667 C
1.473 -2.667 2.667 -1.473 2.667 0 C
cp
f
GR
GS
[1 0 0 1 164.14 68.7942] CT
0 0 1 RC
N
2.667 0 M
2.667 1.473 1.473 2.667 0 2.667 C
-1.473 2.667 -2.667 1.473 -2.667 0 C
-2.667 -1.473 -1.473 -2.667 0 -2.667 C
1.473 -2.667 2.667 -1.473 2.667 0 C
cp
f
GR
GS
[1 0 0 1 168.48 68.05365] CT
0 0 1 RC
N
2.667 0 M
2.667 1.473 1.473 2.667 0 2.667 C
-1.473 2.667 -2.667 1.473 -2.667 0 C
-2.667 -1.473 -1.473 -2.667 0 -2.667 C
1.473 -2.667 2.667 -1.473 2.667 0 C
cp
f
GR
GS
[1 0 0 1 172.82001 69.16901] CT
0 0 1 RC
N
2.667 0 M
2.667 1.473 1.473 2.667 0 2.667 C
-1.473 2.667 -2.667 1.473 -2.667 0 C
-2.667 -1.473 -1.473 -2.667 0 -2.667 C
1.473 -2.667 2.667 -1.473 2.667 0 C
cp
f
GR
GS
[1 0 0 1 177.16 68.99485] CT
0 0 1 RC
N
2.667 0 M
2.667 1.473 1.473 2.667 0 2.667 C
-1.473 2.667 -2.667 1.473 -2.667 0 C
-2.667 -1.473 -1.473 -2.667 0 -2.667 C
1.473 -2.667 2.667 -1.473 2.667 0 C
cp
f
GR
GS
[1 0 0 1 181.5 69.4012] CT
0 0 1 RC
N
2.667 0 M
2.667 1.473 1.473 2.667 0 2.667 C
-1.473 2.667 -2.667 1.473 -2.667 0 C
-2.667 -1.473 -1.473 -2.667 0 -2.667 C
1.473 -2.667 2.667 -1.473 2.667 0 C
cp
f
GR
GS
[1 0 0 1 185.84 74.10748] CT
0 0 1 RC
N
2.667 0 M
2.667 1.473 1.473 2.667 0 2.667 C
-1.473 2.667 -2.667 1.473 -2.667 0 C
-2.667 -1.473 -1.473 -2.667 0 -2.667 C
1.473 -2.667 2.667 -1.473 2.667 0 C
cp
f
GR
GS
[1 0 0 1 190.17999 75.79669] CT
0 0 1 RC
N
2.667 0 M
2.667 1.473 1.473 2.667 0 2.667 C
-1.473 2.667 -2.667 1.473 -2.667 0 C
-2.667 -1.473 -1.473 -2.667 0 -2.667 C
1.473 -2.667 2.667 -1.473 2.667 0 C
cp
f
GR
GS
[1 0 0 1 194.52 73.89902] CT
0 0 1 RC
N
2.667 0 M
2.667 1.473 1.473 2.667 0 2.667 C
-1.473 2.667 -2.667 1.473 -2.667 0 C
-2.667 -1.473 -1.473 -2.667 0 -2.667 C
1.473 -2.667 2.667 -1.473 2.667 0 C
cp
f
GR
GS
[1 0 0 1 198.86 77.49174] CT
0 0 1 RC
N
2.667 0 M
2.667 1.473 1.473 2.667 0 2.667 C
-1.473 2.667 -2.667 1.473 -2.667 0 C
-2.667 -1.473 -1.473 -2.667 0 -2.667 C
1.473 -2.667 2.667 -1.473 2.667 0 C
cp
f
GR
GS
[1 0 0 1 203.2 75.63495] CT
0 0 1 RC
N
2.667 0 M
2.667 1.473 1.473 2.667 0 2.667 C
-1.473 2.667 -2.667 1.473 -2.667 0 C
-2.667 -1.473 -1.473 -2.667 0 -2.667 C
1.473 -2.667 2.667 -1.473 2.667 0 C
cp
f
GR
GS
[1 0 0 1 207.53999 78.07175] CT
0 0 1 RC
N
2.667 0 M
2.667 1.473 1.473 2.667 0 2.667 C
-1.473 2.667 -2.667 1.473 -2.667 0 C
-2.667 -1.473 -1.473 -2.667 0 -2.667 C
1.473 -2.667 2.667 -1.473 2.667 0 C
cp
f
GR
GS
[1 0 0 1 211.88 77.06433] CT
0 0 1 RC
N
2.667 0 M
2.667 1.473 1.473 2.667 0 2.667 C
-1.473 2.667 -2.667 1.473 -2.667 0 C
-2.667 -1.473 -1.473 -2.667 0 -2.667 C
1.473 -2.667 2.667 -1.473 2.667 0 C
cp
f
GR
GS
[1 0 0 1 216.22 79.47663] CT
0 0 1 RC
N
2.667 0 M
2.667 1.473 1.473 2.667 0 2.667 C
-1.473 2.667 -2.667 1.473 -2.667 0 C
-2.667 -1.473 -1.473 -2.667 0 -2.667 C
1.473 -2.667 2.667 -1.473 2.667 0 C
cp
f
GR
GS
[1 0 0 1 220.56 83.31044] CT
0 0 1 RC
N
2.667 0 M
2.667 1.473 1.473 2.667 0 2.667 C
-1.473 2.667 -2.667 1.473 -2.667 0 C
-2.667 -1.473 -1.473 -2.667 0 -2.667 C
1.473 -2.667 2.667 -1.473 2.667 0 C
cp
f
GR
GS
[1 0 0 1 224.89999 82.06956] CT
0 0 1 RC
N
2.667 0 M
2.667 1.473 1.473 2.667 0 2.667 C
-1.473 2.667 -2.667 1.473 -2.667 0 C
-2.667 -1.473 -1.473 -2.667 0 -2.667 C
1.473 -2.667 2.667 -1.473 2.667 0 C
cp
f
GR
GS
[1 0 0 1 229.24001 82.13337] CT
0 0 1 RC
N
2.667 0 M
2.667 1.473 1.473 2.667 0 2.667 C
-1.473 2.667 -2.667 1.473 -2.667 0 C
-2.667 -1.473 -1.473 -2.667 0 -2.667 C
1.473 -2.667 2.667 -1.473 2.667 0 C
cp
f
GR
GS
[1 0 0 1 233.58 83.06696] CT
0 0 1 RC
N
2.667 0 M
2.667 1.473 1.473 2.667 0 2.667 C
-1.473 2.667 -2.667 1.473 -2.667 0 C
-2.667 -1.473 -1.473 -2.667 0 -2.667 C
1.473 -2.667 2.667 -1.473 2.667 0 C
cp
f
GR
GS
[1 0 0 1 237.92 86.77274] CT
0 0 1 RC
N
2.667 0 M
2.667 1.473 1.473 2.667 0 2.667 C
-1.473 2.667 -2.667 1.473 -2.667 0 C
-2.667 -1.473 -1.473 -2.667 0 -2.667 C
1.473 -2.667 2.667 -1.473 2.667 0 C
cp
f
GR
GS
[1 0 0 1 242.25999 85.40781] CT
0 0 1 RC
N
2.667 0 M
2.667 1.473 1.473 2.667 0 2.667 C
-1.473 2.667 -2.667 1.473 -2.667 0 C
-2.667 -1.473 -1.473 -2.667 0 -2.667 C
1.473 -2.667 2.667 -1.473 2.667 0 C
cp
f
GR
GS
[1 0 0 1 246.60001 87.10412] CT
0 0 1 RC
N
2.667 0 M
2.667 1.473 1.473 2.667 0 2.667 C
-1.473 2.667 -2.667 1.473 -2.667 0 C
-2.667 -1.473 -1.473 -2.667 0 -2.667 C
1.473 -2.667 2.667 -1.473 2.667 0 C
cp
f
GR
GS
[1 0 0 1 250.94 89.04153] CT
0 0 1 RC
N
2.667 0 M
2.667 1.473 1.473 2.667 0 2.667 C
-1.473 2.667 -2.667 1.473 -2.667 0 C
-2.667 -1.473 -1.473 -2.667 0 -2.667 C
1.473 -2.667 2.667 -1.473 2.667 0 C
cp
f
GR
GS
[1 0 0 1 255.28 88.82777] CT
0 0 1 RC
N
2.667 0 M
2.667 1.473 1.473 2.667 0 2.667 C
-1.473 2.667 -2.667 1.473 -2.667 0 C
-2.667 -1.473 -1.473 -2.667 0 -2.667 C
1.473 -2.667 2.667 -1.473 2.667 0 C
cp
f
GR
GS
[1 0 0 1 259.62 90.58047] CT
0 0 1 RC
N
2.667 0 M
2.667 1.473 1.473 2.667 0 2.667 C
-1.473 2.667 -2.667 1.473 -2.667 0 C
-2.667 -1.473 -1.473 -2.667 0 -2.667 C
1.473 -2.667 2.667 -1.473 2.667 0 C
cp
f
GR
GS
[1 0 0 1 263.95999 91.24233] CT
0 0 1 RC
N
2.667 0 M
2.667 1.473 1.473 2.667 0 2.667 C
-1.473 2.667 -2.667 1.473 -2.667 0 C
-2.667 -1.473 -1.473 -2.667 0 -2.667 C
1.473 -2.667 2.667 -1.473 2.667 0 C
cp
f
GR
GS
[1 0 0 1 268.29999 91.39032] CT
0 0 1 RC
N
2.667 0 M
2.667 1.473 1.473 2.667 0 2.667 C
-1.473 2.667 -2.667 1.473 -2.667 0 C
-2.667 -1.473 -1.473 -2.667 0 -2.667 C
1.473 -2.667 2.667 -1.473 2.667 0 C
cp
f
GR
GS
[1 0 0 1 272.64001 94.30035] CT
0 0 1 RC
N
2.667 0 M
2.667 1.473 1.473 2.667 0 2.667 C
-1.473 2.667 -2.667 1.473 -2.667 0 C
-2.667 -1.473 -1.473 -2.667 0 -2.667 C
1.473 -2.667 2.667 -1.473 2.667 0 C
cp
f
GR
GS
[1 0 0 1 276.98001 93.87076] CT
0 0 1 RC
N
2.667 0 M
2.667 1.473 1.473 2.667 0 2.667 C
-1.473 2.667 -2.667 1.473 -2.667 0 C
-2.667 -1.473 -1.473 -2.667 0 -2.667 C
1.473 -2.667 2.667 -1.473 2.667 0 C
cp
f
GR
GS
[1 0 0 1 281.32001 95.97988] CT
0 0 1 RC
N
2.667 0 M
2.667 1.473 1.473 2.667 0 2.667 C
-1.473 2.667 -2.667 1.473 -2.667 0 C
-2.667 -1.473 -1.473 -2.667 0 -2.667 C
1.473 -2.667 2.667 -1.473 2.667 0 C
cp
f
GR
GS
[1 0 0 1 285.66 96.41289] CT
0 0 1 RC
N
2.667 0 M
2.667 1.473 1.473 2.667 0 2.667 C
-1.473 2.667 -2.667 1.473 -2.667 0 C
-2.667 -1.473 -1.473 -2.667 0 -2.667 C
1.473 -2.667 2.667 -1.473 2.667 0 C
cp
f
GR
GS
[1 0 0 1 290 97.99778] CT
0 0 1 RC
N
2.667 0 M
2.667 1.473 1.473 2.667 0 2.667 C
-1.473 2.667 -2.667 1.473 -2.667 0 C
-2.667 -1.473 -1.473 -2.667 0 -2.667 C
1.473 -2.667 2.667 -1.473 2.667 0 C
cp
f
GR
GS
[1 0 0 1 294.34 97.6727] CT
0 0 1 RC
N
2.667 0 M
2.667 1.473 1.473 2.667 0 2.667 C
-1.473 2.667 -2.667 1.473 -2.667 0 C
-2.667 -1.473 -1.473 -2.667 0 -2.667 C
1.473 -2.667 2.667 -1.473 2.667 0 C
cp
f
GR
GS
[1 0 0 1 298.67999 98.76681] CT
0 0 1 RC
N
2.667 0 M
2.667 1.473 1.473 2.667 0 2.667 C
-1.473 2.667 -2.667 1.473 -2.667 0 C
-2.667 -1.473 -1.473 -2.667 0 -2.667 C
1.473 -2.667 2.667 -1.473 2.667 0 C
cp
f
GR
GS
[1 0 0 1 303.01999 100.96815] CT
0 0 1 RC
N
2.667 0 M
2.667 1.473 1.473 2.667 0 2.667 C
-1.473 2.667 -2.667 1.473 -2.667 0 C
-2.667 -1.473 -1.473 -2.667 0 -2.667 C
1.473 -2.667 2.667 -1.473 2.667 0 C
cp
f
GR
GS
[1 0 0 1 307.35999 102.90852] CT
0 0 1 RC
N
2.667 0 M
2.667 1.473 1.473 2.667 0 2.667 C
-1.473 2.667 -2.667 1.473 -2.667 0 C
-2.667 -1.473 -1.473 -2.667 0 -2.667 C
1.473 -2.667 2.667 -1.473 2.667 0 C
cp
f
GR
GS
[1 0 0 1 311.70001 103.39255] CT
0 0 1 RC
N
2.667 0 M
2.667 1.473 1.473 2.667 0 2.667 C
-1.473 2.667 -2.667 1.473 -2.667 0 C
-2.667 -1.473 -1.473 -2.667 0 -2.667 C
1.473 -2.667 2.667 -1.473 2.667 0 C
cp
f
GR
GS
[1 0 0 1 316.04001 104.0508] CT
0 0 1 RC
N
2.667 0 M
2.667 1.473 1.473 2.667 0 2.667 C
-1.473 2.667 -2.667 1.473 -2.667 0 C
-2.667 -1.473 -1.473 -2.667 0 -2.667 C
1.473 -2.667 2.667 -1.473 2.667 0 C
cp
f
GR
GS
[1 0 0 1 320.38 105.3018] CT
0 0 1 RC
N
2.667 0 M
2.667 1.473 1.473 2.667 0 2.667 C
-1.473 2.667 -2.667 1.473 -2.667 0 C
-2.667 -1.473 -1.473 -2.667 0 -2.667 C
1.473 -2.667 2.667 -1.473 2.667 0 C
cp
f
GR
GS
[1 0 0 1 324.72 107.25669] CT
0 0 1 RC
N
2.667 0 M
2.667 1.473 1.473 2.667 0 2.667 C
-1.473 2.667 -2.667 1.473 -2.667 0 C
-2.667 -1.473 -1.473 -2.667 0 -2.667 C
1.473 -2.667 2.667 -1.473 2.667 0 C
cp
f
GR
GS
[1 0 0 1 329.06 109.24934] CT
0 0 1 RC
N
2.667 0 M
2.667 1.473 1.473 2.667 0 2.667 C
-1.473 2.667 -2.667 1.473 -2.667 0 C
-2.667 -1.473 -1.473 -2.667 0 -2.667 C
1.473 -2.667 2.667 -1.473 2.667 0 C
cp
f
GR
GS
[1 0 0 1 333.39999 108.79001] CT
0 0 1 RC
N
2.667 0 M
2.667 1.473 1.473 2.667 0 2.667 C
-1.473 2.667 -2.667 1.473 -2.667 0 C
-2.667 -1.473 -1.473 -2.667 0 -2.667 C
1.473 -2.667 2.667 -1.473 2.667 0 C
cp
f
GR
GS
[1 0 0 1 337.73999 109.6988] CT
0 0 1 RC
N
2.667 0 M
2.667 1.473 1.473 2.667 0 2.667 C
-1.473 2.667 -2.667 1.473 -2.667 0 C
-2.667 -1.473 -1.473 -2.667 0 -2.667 C
1.473 -2.667 2.667 -1.473 2.667 0 C
cp
f
GR
GS
[1 0 0 1 342.07999 110.67101] CT
0 0 1 RC
N
2.667 0 M
2.667 1.473 1.473 2.667 0 2.667 C
-1.473 2.667 -2.667 1.473 -2.667 0 C
-2.667 -1.473 -1.473 -2.667 0 -2.667 C
1.473 -2.667 2.667 -1.473 2.667 0 C
cp
f
GR
GS
[1 0 0 1 346.42001 111.96062] CT
0 0 1 RC
N
2.667 0 M
2.667 1.473 1.473 2.667 0 2.667 C
-1.473 2.667 -2.667 1.473 -2.667 0 C
-2.667 -1.473 -1.473 -2.667 0 -2.667 C
1.473 -2.667 2.667 -1.473 2.667 0 C
cp
f
GR
GS
[1 0 0 1 350.76001 113.46134] CT
0 0 1 RC
N
2.667 0 M
2.667 1.473 1.473 2.667 0 2.667 C
-1.473 2.667 -2.667 1.473 -2.667 0 C
-2.667 -1.473 -1.473 -2.667 0 -2.667 C
1.473 -2.667 2.667 -1.473 2.667 0 C
cp
f
GR
GS
[1 0 0 1 355.10001 115.3278] CT
0 0 1 RC
N
2.667 0 M
2.667 1.473 1.473 2.667 0 2.667 C
-1.473 2.667 -2.667 1.473 -2.667 0 C
-2.667 -1.473 -1.473 -2.667 0 -2.667 C
1.473 -2.667 2.667 -1.473 2.667 0 C
cp
f
GR
GS
[1 0 0 1 359.44 115.64704] CT
0 0 1 RC
N
2.667 0 M
2.667 1.473 1.473 2.667 0 2.667 C
-1.473 2.667 -2.667 1.473 -2.667 0 C
-2.667 -1.473 -1.473 -2.667 0 -2.667 C
1.473 -2.667 2.667 -1.473 2.667 0 C
cp
f
GR
GS
[1 0 0 1 363.78 116.73393] CT
0 0 1 RC
N
2.667 0 M
2.667 1.473 1.473 2.667 0 2.667 C
-1.473 2.667 -2.667 1.473 -2.667 0 C
-2.667 -1.473 -1.473 -2.667 0 -2.667 C
1.473 -2.667 2.667 -1.473 2.667 0 C
cp
f
GR
GS
[1 0 0 1 368.12 117.64433] CT
0 0 1 RC
N
2.667 0 M
2.667 1.473 1.473 2.667 0 2.667 C
-1.473 2.667 -2.667 1.473 -2.667 0 C
-2.667 -1.473 -1.473 -2.667 0 -2.667 C
1.473 -2.667 2.667 -1.473 2.667 0 C
cp
f
GR
GS
[1 0 0 1 372.45999 118.47031] CT
0 0 1 RC
N
2.667 0 M
2.667 1.473 1.473 2.667 0 2.667 C
-1.473 2.667 -2.667 1.473 -2.667 0 C
-2.667 -1.473 -1.473 -2.667 0 -2.667 C
1.473 -2.667 2.667 -1.473 2.667 0 C
cp
f
GR
GS
[1 0 0 1 376.79999 119.80606] CT
0 0 1 RC
N
2.667 0 M
2.667 1.473 1.473 2.667 0 2.667 C
-1.473 2.667 -2.667 1.473 -2.667 0 C
-2.667 -1.473 -1.473 -2.667 0 -2.667 C
1.473 -2.667 2.667 -1.473 2.667 0 C
cp
f
GR
GS
[1 0 0 1 381.14001 120.81403] CT
0 0 1 RC
N
2.667 0 M
2.667 1.473 1.473 2.667 0 2.667 C
-1.473 2.667 -2.667 1.473 -2.667 0 C
-2.667 -1.473 -1.473 -2.667 0 -2.667 C
1.473 -2.667 2.667 -1.473 2.667 0 C
cp
f
GR
GS
[1 0 0 1 385.48001 122.45615] CT
0 0 1 RC
N
2.667 0 M
2.667 1.473 1.473 2.667 0 2.667 C
-1.473 2.667 -2.667 1.473 -2.667 0 C
-2.667 -1.473 -1.473 -2.667 0 -2.667 C
1.473 -2.667 2.667 -1.473 2.667 0 C
cp
f
GR
GS
[1 0 0 1 389.82001 123.21754] CT
0 0 1 RC
N
2.667 0 M
2.667 1.473 1.473 2.667 0 2.667 C
-1.473 2.667 -2.667 1.473 -2.667 0 C
-2.667 -1.473 -1.473 -2.667 0 -2.667 C
1.473 -2.667 2.667 -1.473 2.667 0 C
cp
f
GR
GS
[1 0 0 1 394.16 123.60081] CT
0 0 1 RC
N
2.667 0 M
2.667 1.473 1.473 2.667 0 2.667 C
-1.473 2.667 -2.667 1.473 -2.667 0 C
-2.667 -1.473 -1.473 -2.667 0 -2.667 C
1.473 -2.667 2.667 -1.473 2.667 0 C
cp
f
GR
GS
[1 0 0 1 398.5 125.43322] CT
0 0 1 RC
N
2.667 0 M
2.667 1.473 1.473 2.667 0 2.667 C
-1.473 2.667 -2.667 1.473 -2.667 0 C
-2.667 -1.473 -1.473 -2.667 0 -2.667 C
1.473 -2.667 2.667 -1.473 2.667 0 C
cp
f
GR
GS
[1 0 0 1 402.84 125.65752] CT
0 0 1 RC
N
2.667 0 M
2.667 1.473 1.473 2.667 0 2.667 C
-1.473 2.667 -2.667 1.473 -2.667 0 C
-2.667 -1.473 -1.473 -2.667 0 -2.667 C
1.473 -2.667 2.667 -1.473 2.667 0 C
cp
f
GR
GS
[1 0 0 1 407.17999 127.36493] CT
0 0 1 RC
N
2.667 0 M
2.667 1.473 1.473 2.667 0 2.667 C
-1.473 2.667 -2.667 1.473 -2.667 0 C
-2.667 -1.473 -1.473 -2.667 0 -2.667 C
1.473 -2.667 2.667 -1.473 2.667 0 C
cp
f
GR
GS
[1 0 0 1 411.51999 127.90371] CT
0 0 1 RC
N
2.667 0 M
2.667 1.473 1.473 2.667 0 2.667 C
-1.473 2.667 -2.667 1.473 -2.667 0 C
-2.667 -1.473 -1.473 -2.667 0 -2.667 C
1.473 -2.667 2.667 -1.473 2.667 0 C
cp
f
GR
GS
[1 0 0 1 415.85999 129.85896] CT
0 0 1 RC
N
2.667 0 M
2.667 1.473 1.473 2.667 0 2.667 C
-1.473 2.667 -2.667 1.473 -2.667 0 C
-2.667 -1.473 -1.473 -2.667 0 -2.667 C
1.473 -2.667 2.667 -1.473 2.667 0 C
cp
f
GR
GS
[1 0 0 1 420.20001 129.86938] CT
0 0 1 RC
N
2.667 0 M
2.667 1.473 1.473 2.667 0 2.667 C
-1.473 2.667 -2.667 1.473 -2.667 0 C
-2.667 -1.473 -1.473 -2.667 0 -2.667 C
1.473 -2.667 2.667 -1.473 2.667 0 C
cp
f
GR
GS
[1 0 0 1 424.54001 130.37895] CT
0 0 1 RC
N
2.667 0 M
2.667 1.473 1.473 2.667 0 2.667 C
-1.473 2.667 -2.667 1.473 -2.667 0 C
-2.667 -1.473 -1.473 -2.667 0 -2.667 C
1.473 -2.667 2.667 -1.473 2.667 0 C
cp
f
GR
GS
[1 0 0 1 428.88 132.29333] CT
0 0 1 RC
N
2.667 0 M
2.667 1.473 1.473 2.667 0 2.667 C
-1.473 2.667 -2.667 1.473 -2.667 0 C
-2.667 -1.473 -1.473 -2.667 0 -2.667 C
1.473 -2.667 2.667 -1.473 2.667 0 C
cp
f
GR
GS
[1 0 0 1 433.22 133.42453] CT
0 0 1 RC
N
2.667 0 M
2.667 1.473 1.473 2.667 0 2.667 C
-1.473 2.667 -2.667 1.473 -2.667 0 C
-2.667 -1.473 -1.473 -2.667 0 -2.667 C
1.473 -2.667 2.667 -1.473 2.667 0 C
cp
f
GR
GS
[1 0 0 1 437.56 134.57463] CT
0 0 1 RC
N
2.667 0 M
2.667 1.473 1.473 2.667 0 2.667 C
-1.473 2.667 -2.667 1.473 -2.667 0 C
-2.667 -1.473 -1.473 -2.667 0 -2.667 C
1.473 -2.667 2.667 -1.473 2.667 0 C
cp
f
GR
GS
[1 0 0 1 441.89999 135.09042] CT
0 0 1 RC
N
2.667 0 M
2.667 1.473 1.473 2.667 0 2.667 C
-1.473 2.667 -2.667 1.473 -2.667 0 C
-2.667 -1.473 -1.473 -2.667 0 -2.667 C
1.473 -2.667 2.667 -1.473 2.667 0 C
cp
f
GR
GS
[1 0 0 1 446.23999 136.15552] CT
0 0 1 RC
N
2.667 0 M
2.667 1.473 1.473 2.667 0 2.667 C
-1.473 2.667 -2.667 1.473 -2.667 0 C
-2.667 -1.473 -1.473 -2.667 0 -2.667 C
1.473 -2.667 2.667 -1.473 2.667 0 C
cp
f
GR
GS
[1 0 0 1 450.57999 137.43129] CT
0 0 1 RC
N
2.667 0 M
2.667 1.473 1.473 2.667 0 2.667 C
-1.473 2.667 -2.667 1.473 -2.667 0 C
-2.667 -1.473 -1.473 -2.667 0 -2.667 C
1.473 -2.667 2.667 -1.473 2.667 0 C
cp
f
GR
GS
[1 0 0 1 454.92001 138.30078] CT
0 0 1 RC
N
2.667 0 M
2.667 1.473 1.473 2.667 0 2.667 C
-1.473 2.667 -2.667 1.473 -2.667 0 C
-2.667 -1.473 -1.473 -2.667 0 -2.667 C
1.473 -2.667 2.667 -1.473 2.667 0 C
cp
f
GR
GS
[1 0 0 1 459.26001 139.35843] CT
0 0 1 RC
N
2.667 0 M
2.667 1.473 1.473 2.667 0 2.667 C
-1.473 2.667 -2.667 1.473 -2.667 0 C
-2.667 -1.473 -1.473 -2.667 0 -2.667 C
1.473 -2.667 2.667 -1.473 2.667 0 C
cp
f
GR
GS
[1 0 0 1 463.60001 140.45172] CT
0 0 1 RC
N
2.667 0 M
2.667 1.473 1.473 2.667 0 2.667 C
-1.473 2.667 -2.667 1.473 -2.667 0 C
-2.667 -1.473 -1.473 -2.667 0 -2.667 C
1.473 -2.667 2.667 -1.473 2.667 0 C
cp
f
GR
GS
[1 0 0 1 467.94 141.76056] CT
0 0 1 RC
N
2.667 0 M
2.667 1.473 1.473 2.667 0 2.667 C
-1.473 2.667 -2.667 1.473 -2.667 0 C
-2.667 -1.473 -1.473 -2.667 0 -2.667 C
1.473 -2.667 2.667 -1.473 2.667 0 C
cp
f
GR
GS
[1 0 0 1 472.28 142.70502] CT
0 0 1 RC
N
2.667 0 M
2.667 1.473 1.473 2.667 0 2.667 C
-1.473 2.667 -2.667 1.473 -2.667 0 C
-2.667 -1.473 -1.473 -2.667 0 -2.667 C
1.473 -2.667 2.667 -1.473 2.667 0 C
cp
f
GR
GS
[1 0 0 1 476.62 143.51331] CT
0 0 1 RC
N
2.667 0 M
2.667 1.473 1.473 2.667 0 2.667 C
-1.473 2.667 -2.667 1.473 -2.667 0 C
-2.667 -1.473 -1.473 -2.667 0 -2.667 C
1.473 -2.667 2.667 -1.473 2.667 0 C
cp
f
GR
GS
[1 0 0 1 480.95999 144.77612] CT
0 0 1 RC
N
2.667 0 M
2.667 1.473 1.473 2.667 0 2.667 C
-1.473 2.667 -2.667 1.473 -2.667 0 C
-2.667 -1.473 -1.473 -2.667 0 -2.667 C
1.473 -2.667 2.667 -1.473 2.667 0 C
cp
f
GR
GS
[1 0 0 1 485.29999 145.74327] CT
0 0 1 RC
N
2.667 0 M
2.667 1.473 1.473 2.667 0 2.667 C
-1.473 2.667 -2.667 1.473 -2.667 0 C
-2.667 -1.473 -1.473 -2.667 0 -2.667 C
1.473 -2.667 2.667 -1.473 2.667 0 C
cp
f
GR
GS
[1 0 0 1 489.64001 146.9536] CT
0 0 1 RC
N
2.667 0 M
2.667 1.473 1.473 2.667 0 2.667 C
-1.473 2.667 -2.667 1.473 -2.667 0 C
-2.667 -1.473 -1.473 -2.667 0 -2.667 C
1.473 -2.667 2.667 -1.473 2.667 0 C
cp
f
GR
GS
[1 0 0 1 493.98001 147.89798] CT
0 0 1 RC
N
2.667 0 M
2.667 1.473 1.473 2.667 0 2.667 C
-1.473 2.667 -2.667 1.473 -2.667 0 C
-2.667 -1.473 -1.473 -2.667 0 -2.667 C
1.473 -2.667 2.667 -1.473 2.667 0 C
cp
f
GR
GS
[1 0 0 1 498.32001 148.91553] CT
0 0 1 RC
N
2.667 0 M
2.667 1.473 1.473 2.667 0 2.667 C
-1.473 2.667 -2.667 1.473 -2.667 0 C
-2.667 -1.473 -1.473 -2.667 0 -2.667 C
1.473 -2.667 2.667 -1.473 2.667 0 C
cp
f
GR
GS
[1 0 0 1 502.66 149.95366] CT
0 0 1 RC
N
2.667 0 M
2.667 1.473 1.473 2.667 0 2.667 C
-1.473 2.667 -2.667 1.473 -2.667 0 C
-2.667 -1.473 -1.473 -2.667 0 -2.667 C
1.473 -2.667 2.667 -1.473 2.667 0 C
cp
f
GR
GS
[1 0 0 1 507 151] CT
0 0 1 RC
N
2.667 0 M
2.667 1.473 1.473 2.667 0 2.667 C
-1.473 2.667 -2.667 1.473 -2.667 0 C
-2.667 -1.473 -1.473 -2.667 0 -2.667 C
1.473 -2.667 2.667 -1.473 2.667 0 C
cp
f
GR
GS
1 0 0 RC
1 LJ
N
73 44.262 M
73.434 44.369 L
73.868 44.476 L
74.302 44.584 L
74.736 44.691 L
75.17 44.798 L
75.604 44.905 L
76.038 45.013 L
76.472 45.12 L
76.906 45.227 L
77.34 45.334 L
77.774 45.442 L
78.208 45.549 L
78.642 45.656 L
79.076 45.763 L
79.51 45.87 L
79.944 45.978 L
80.378 46.085 L
80.812 46.192 L
81.246 46.299 L
81.68 46.407 L
82.114 46.514 L
82.548 46.621 L
82.982 46.728 L
83.416 46.835 L
83.85 46.943 L
84.284 47.05 L
84.718 47.157 L
85.152 47.264 L
85.586 47.372 L
86.02 47.479 L
86.454 47.586 L
86.888 47.693 L
87.322 47.8 L
87.756 47.908 L
88.19 48.015 L
88.624 48.122 L
89.058 48.229 L
89.492 48.337 L
89.926 48.444 L
90.36 48.551 L
90.794 48.658 L
91.228 48.765 L
91.662 48.873 L
92.096 48.98 L
92.53 49.087 L
92.964 49.194 L
93.398 49.302 L
93.832 49.409 L
94.266 49.516 L
94.7 49.623 L
95.134 49.73 L
95.568 49.838 L
96.002 49.945 L
96.436 50.052 L
96.87 50.159 L
97.304 50.267 L
97.738 50.374 L
98.172 50.481 L
98.606 50.588 L
99.04 50.695 L
99.474 50.803 L
99.908 50.91 L
100.342 51.017 L
100.776 51.124 L
101.21 51.232 L
101.644 51.339 L
102.078 51.446 L
102.512 51.553 L
102.946 51.66 L
103.38 51.768 L
103.814 51.875 L
104.248 51.982 L
104.682 52.089 L
105.116 52.197 L
105.55 52.304 L
105.984 52.411 L
106.418 52.518 L
106.852 52.625 L
107.286 52.733 L
107.72 52.84 L
108.154 52.947 L
108.588 53.054 L
109.022 53.162 L
109.456 53.269 L
109.89 53.376 L
110.324 53.483 L
110.758 53.59 L
111.192 53.698 L
111.626 53.805 L
112.06 53.912 L
112.494 54.019 L
112.928 54.127 L
113.362 54.234 L
113.796 54.341 L
114.23 54.448 L
114.664 54.555 L
115.098 54.663 L
115.532 54.77 L
115.966 54.877 L
116.4 54.984 L
116.834 55.092 L
117.268 55.199 L
117.702 55.306 L
118.136 55.413 L
118.57 55.52 L
119.004 55.628 L
119.438 55.735 L
119.872 55.842 L
120.306 55.949 L
120.74 56.057 L
121.174 56.164 L
121.608 56.271 L
122.042 56.378 L
122.476 56.486 L
122.91 56.593 L
123.344 56.7 L
123.778 56.807 L
124.212 56.914 L
124.646 57.022 L
125.08 57.129 L
125.514 57.236 L
125.948 57.343 L
126.382 57.451 L
126.816 57.558 L
127.25 57.665 L
127.684 57.772 L
128.118 57.879 L
128.552 57.987 L
128.986 58.094 L
129.42 58.201 L
129.854 58.308 L
130.288 58.416 L
130.722 58.523 L
131.156 58.63 L
131.59 58.737 L
132.024 58.844 L
132.458 58.952 L
132.892 59.059 L
133.326 59.166 L
133.76 59.273 L
134.194 59.381 L
134.628 59.488 L
135.062 59.595 L
135.496 59.702 L
135.93 59.809 L
136.364 59.917 L
136.798 60.024 L
137.232 60.131 L
137.666 60.238 L
138.1 60.346 L
138.534 60.453 L
138.968 60.56 L
139.402 60.667 L
139.836 60.774 L
140.27 60.882 L
140.704 60.989 L
141.138 61.096 L
141.572 61.203 L
142.006 61.311 L
142.44 61.418 L
142.874 61.525 L
143.308 61.632 L
143.742 61.739 L
144.176 61.847 L
144.61 61.954 L
145.044 62.061 L
145.478 62.168 L
145.912 62.276 L
146.346 62.383 L
146.78 62.49 L
147.214 62.597 L
147.648 62.704 L
148.082 62.812 L
148.516 62.919 L
148.95 63.026 L
149.384 63.133 L
149.818 63.241 L
150.252 63.348 L
150.686 63.455 L
151.12 63.562 L
151.554 63.669 L
151.988 63.777 L
152.422 63.884 L
152.856 63.991 L
153.29 64.098 L
153.724 64.206 L
154.158 64.313 L
154.592 64.42 L
155.026 64.527 L
155.46 64.634 L
155.894 64.742 L
156.328 64.849 L
156.762 64.956 L
157.196 65.063 L
157.63 65.171 L
158.064 65.278 L
158.498 65.385 L
158.932 65.492 L
159.366 65.599 L
159.8 65.707 L
160.234 65.814 L
160.668 65.921 L
161.102 66.028 L
161.536 66.136 L
161.97 66.243 L
162.404 66.35 L
162.838 66.457 L
163.272 66.564 L
163.706 66.672 L
164.14 66.779 L
164.574 66.886 L
165.008 66.993 L
165.442 67.101 L
165.876 67.208 L
166.31 67.315 L
166.744 67.422 L
167.178 67.53 L
167.612 67.637 L
168.046 67.744 L
168.48 67.851 L
168.914 67.958 L
169.348 68.066 L
169.782 68.173 L
170.216 68.28 L
170.65 68.387 L
171.084 68.495 L
171.518 68.602 L
171.952 68.709 L
172.386 68.816 L
172.82 68.923 L
173.254 69.031 L
173.688 69.138 L
174.122 69.245 L
174.556 69.352 L
174.99 69.46 L
175.424 69.567 L
175.858 69.674 L
176.292 69.781 L
176.726 69.888 L
177.16 69.996 L
177.594 70.103 L
178.028 70.21 L
178.462 70.317 L
178.896 70.425 L
179.33 70.532 L
179.764 70.639 L
180.198 70.746 L
180.632 70.853 L
181.066 70.961 L
181.5 71.068 L
181.934 71.175 L
182.368 71.282 L
182.802 71.39 L
183.236 71.497 L
183.67 71.604 L
184.104 71.711 L
184.538 71.818 L
184.972 71.926 L
185.406 72.033 L
185.84 72.14 L
186.274 72.247 L
186.708 72.355 L
187.142 72.462 L
187.576 72.569 L
188.01 72.676 L
188.444 72.783 L
188.878 72.891 L
189.312 72.998 L
189.746 73.105 L
190.18 73.212 L
190.614 73.32 L
191.048 73.427 L
191.482 73.534 L
191.916 73.641 L
192.35 73.748 L
192.784 73.856 L
193.218 73.963 L
193.652 74.07 L
194.086 74.177 L
194.52 74.285 L
194.954 74.392 L
195.388 74.499 L
195.822 74.606 L
196.256 74.713 L
196.69 74.821 L
197.124 74.928 L
197.558 75.035 L
197.992 75.142 L
198.426 75.25 L
198.86 75.357 L
199.294 75.464 L
199.728 75.571 L
200.162 75.678 L
200.596 75.786 L
201.03 75.893 L
201.464 76 L
201.898 76.107 L
202.332 76.215 L
202.766 76.322 L
203.2 76.429 L
203.634 76.536 L
204.068 76.643 L
204.502 76.751 L
204.936 76.858 L
205.37 76.965 L
205.804 77.072 L
206.238 77.18 L
206.672 77.287 L
207.106 77.394 L
207.54 77.501 L
207.974 77.609 L
208.408 77.716 L
208.842 77.823 L
209.276 77.93 L
209.71 78.037 L
210.144 78.145 L
210.578 78.252 L
211.012 78.359 L
211.446 78.466 L
211.88 78.574 L
212.314 78.681 L
212.748 78.788 L
213.182 78.895 L
213.616 79.002 L
214.05 79.11 L
214.484 79.217 L
214.918 79.324 L
215.352 79.431 L
215.786 79.539 L
216.22 79.646 L
216.654 79.753 L
217.088 79.86 L
217.522 79.967 L
217.956 80.075 L
218.39 80.182 L
218.824 80.289 L
219.258 80.396 L
219.692 80.504 L
220.126 80.611 L
220.56 80.718 L
220.994 80.825 L
221.428 80.932 L
221.862 81.04 L
222.296 81.147 L
222.73 81.254 L
223.164 81.361 L
223.598 81.469 L
224.032 81.576 L
224.466 81.683 L
224.9 81.79 L
225.334 81.897 L
225.768 82.005 L
226.202 82.112 L
226.636 82.219 L
227.07 82.326 L
227.504 82.434 L
227.938 82.541 L
228.372 82.648 L
228.806 82.755 L
229.24 82.862 L
229.674 82.97 L
230.108 83.077 L
230.542 83.184 L
230.976 83.291 L
231.41 83.399 L
231.844 83.506 L
232.278 83.613 L
232.712 83.72 L
233.146 83.827 L
233.58 83.935 L
234.014 84.042 L
234.448 84.149 L
234.882 84.256 L
235.316 84.364 L
235.75 84.471 L
236.184 84.578 L
236.618 84.685 L
237.052 84.792 L
237.486 84.9 L
237.92 85.007 L
238.354 85.114 L
238.788 85.221 L
239.222 85.329 L
239.656 85.436 L
240.09 85.543 L
240.524 85.65 L
240.958 85.757 L
241.392 85.865 L
241.826 85.972 L
242.26 86.079 L
242.694 86.186 L
243.128 86.294 L
243.562 86.401 L
243.996 86.508 L
244.43 86.615 L
244.864 86.722 L
245.298 86.83 L
245.732 86.937 L
246.166 87.044 L
246.6 87.151 L
247.034 87.259 L
247.468 87.366 L
247.902 87.473 L
248.336 87.58 L
248.77 87.687 L
249.204 87.795 L
249.638 87.902 L
250.072 88.009 L
250.506 88.116 L
250.94 88.224 L
251.374 88.331 L
251.808 88.438 L
252.242 88.545 L
252.676 88.653 L
253.11 88.76 L
253.544 88.867 L
253.978 88.974 L
254.412 89.081 L
254.846 89.189 L
255.28 89.296 L
255.714 89.403 L
256.148 89.51 L
256.582 89.618 L
257.016 89.725 L
257.45 89.832 L
257.884 89.939 L
258.318 90.046 L
258.752 90.154 L
259.186 90.261 L
259.62 90.368 L
260.054 90.475 L
260.488 90.583 L
260.922 90.69 L
261.356 90.797 L
261.79 90.904 L
262.224 91.011 L
262.658 91.119 L
263.092 91.226 L
263.526 91.333 L
263.96 91.44 L
264.394 91.548 L
264.828 91.655 L
265.262 91.762 L
265.696 91.869 L
266.13 91.976 L
266.564 92.084 L
266.998 92.191 L
267.432 92.298 L
267.866 92.405 L
268.3 92.513 L
268.734 92.62 L
269.168 92.727 L
269.602 92.834 L
270.036 92.941 L
270.47 93.049 L
270.904 93.156 L
271.338 93.263 L
271.772 93.37 L
272.206 93.478 L
272.64 93.585 L
273.074 93.692 L
273.508 93.799 L
273.942 93.906 L
274.376 94.014 L
274.81 94.121 L
275.244 94.228 L
275.678 94.335 L
276.112 94.443 L
276.546 94.55 L
276.98 94.657 L
277.414 94.764 L
277.848 94.871 L
278.282 94.979 L
278.716 95.086 L
279.15 95.193 L
279.584 95.3 L
280.018 95.408 L
280.452 95.515 L
280.886 95.622 L
281.32 95.729 L
281.754 95.836 L
282.188 95.944 L
282.622 96.051 L
283.056 96.158 L
283.49 96.265 L
283.924 96.373 L
284.358 96.48 L
284.792 96.587 L
285.226 96.694 L
285.66 96.801 L
286.094 96.909 L
286.528 97.016 L
286.962 97.123 L
287.396 97.23 L
287.83 97.338 L
288.264 97.445 L
288.698 97.552 L
289.132 97.659 L
289.566 97.766 L
290 97.874 L
290.434 97.981 L
290.868 98.088 L
291.302 98.195 L
291.736 98.303 L
292.17 98.41 L
292.604 98.517 L
293.038 98.624 L
293.472 98.731 L
293.906 98.839 L
294.34 98.946 L
294.774 99.053 L
295.208 99.16 L
295.642 99.268 L
296.076 99.375 L
296.51 99.482 L
296.944 99.589 L
297.378 99.697 L
297.812 99.804 L
298.246 99.911 L
298.68 100.018 L
299.114 100.125 L
299.548 100.233 L
299.982 100.34 L
300.416 100.447 L
300.85 100.554 L
301.284 100.662 L
301.718 100.769 L
302.152 100.876 L
302.586 100.983 L
303.02 101.09 L
303.454 101.198 L
303.888 101.305 L
304.322 101.412 L
304.756 101.519 L
305.19 101.627 L
305.624 101.734 L
306.058 101.841 L
306.492 101.948 L
306.926 102.055 L
307.36 102.163 L
307.794 102.27 L
308.228 102.377 L
308.662 102.484 L
309.096 102.592 L
309.53 102.699 L
309.964 102.806 L
310.398 102.913 L
310.832 103.02 L
311.266 103.128 L
311.7 103.235 L
312.134 103.342 L
312.568 103.449 L
313.002 103.557 L
313.436 103.664 L
313.87 103.771 L
314.304 103.878 L
314.738 103.985 L
315.172 104.093 L
315.606 104.2 L
316.04 104.307 L
316.474 104.414 L
316.908 104.522 L
317.342 104.629 L
317.776 104.736 L
318.21 104.843 L
318.644 104.95 L
319.078 105.058 L
319.512 105.165 L
319.946 105.272 L
320.38 105.379 L
320.814 105.487 L
321.248 105.594 L
321.682 105.701 L
322.116 105.808 L
322.55 105.915 L
322.984 106.023 L
323.418 106.13 L
323.852 106.237 L
324.286 106.344 L
324.72 106.452 L
325.154 106.559 L
325.588 106.666 L
326.022 106.773 L
326.456 106.88 L
326.89 106.988 L
327.324 107.095 L
327.758 107.202 L
328.192 107.309 L
328.626 107.417 L
329.06 107.524 L
329.494 107.631 L
329.928 107.738 L
330.362 107.845 L
330.796 107.953 L
331.23 108.06 L
331.664 108.167 L
332.098 108.274 L
332.532 108.382 L
332.966 108.489 L
333.4 108.596 L
333.834 108.703 L
334.268 108.81 L
334.702 108.918 L
335.136 109.025 L
335.57 109.132 L
336.004 109.239 L
336.438 109.347 L
336.872 109.454 L
337.306 109.561 L
337.74 109.668 L
338.174 109.775 L
338.608 109.883 L
339.042 109.99 L
339.476 110.097 L
339.91 110.204 L
340.344 110.312 L
340.778 110.419 L
341.212 110.526 L
341.646 110.633 L
342.08 110.741 L
342.514 110.848 L
342.948 110.955 L
343.382 111.062 L
343.816 111.169 L
344.25 111.277 L
344.684 111.384 L
345.118 111.491 L
345.552 111.598 L
345.986 111.706 L
346.42 111.813 L
346.854 111.92 L
347.288 112.027 L
347.722 112.134 L
348.156 112.242 L
348.59 112.349 L
349.024 112.456 L
349.458 112.563 L
349.892 112.671 L
350.326 112.778 L
350.76 112.885 L
351.194 112.992 L
351.628 113.099 L
352.062 113.207 L
352.496 113.314 L
352.93 113.421 L
353.364 113.528 L
353.798 113.636 L
354.232 113.743 L
354.666 113.85 L
355.1 113.957 L
355.534 114.064 L
355.968 114.172 L
356.402 114.279 L
356.836 114.386 L
357.27 114.493 L
357.704 114.601 L
358.138 114.708 L
358.572 114.815 L
359.006 114.922 L
359.44 115.029 L
359.874 115.137 L
360.308 115.244 L
360.742 115.351 L
361.176 115.458 L
361.61 115.566 L
362.044 115.673 L
362.478 115.78 L
362.912 115.887 L
363.346 115.994 L
363.78 116.102 L
364.214 116.209 L
364.648 116.316 L
365.082 116.423 L
365.516 116.531 L
365.95 116.638 L
366.384 116.745 L
366.818 116.852 L
367.252 116.959 L
367.686 117.067 L
368.12 117.174 L
368.554 117.281 L
368.988 117.388 L
369.422 117.496 L
369.856 117.603 L
370.29 117.71 L
370.724 117.817 L
371.158 117.924 L
371.592 118.032 L
372.026 118.139 L
372.46 118.246 L
372.894 118.353 L
373.328 118.461 L
373.762 118.568 L
374.196 118.675 L
374.63 118.782 L
375.064 118.889 L
375.498 118.997 L
375.932 119.104 L
376.366 119.211 L
376.8 119.318 L
377.234 119.426 L
377.668 119.533 L
378.102 119.64 L
378.536 119.747 L
378.97 119.854 L
379.404 119.962 L
379.838 120.069 L
380.272 120.176 L
380.706 120.283 L
381.14 120.391 L
381.574 120.498 L
382.008 120.605 L
382.442 120.712 L
382.876 120.82 L
383.31 120.927 L
383.744 121.034 L
384.178 121.141 L
384.612 121.248 L
385.046 121.356 L
385.48 121.463 L
385.914 121.57 L
386.348 121.677 L
386.782 121.785 L
387.216 121.892 L
387.65 121.999 L
388.084 122.106 L
388.518 122.213 L
388.952 122.321 L
389.386 122.428 L
389.82 122.535 L
390.254 122.642 L
390.688 122.75 L
391.122 122.857 L
391.556 122.964 L
391.99 123.071 L
392.424 123.178 L
392.858 123.286 L
393.292 123.393 L
393.726 123.5 L
394.16 123.607 L
394.594 123.715 L
395.028 123.822 L
395.462 123.929 L
395.896 124.036 L
396.33 124.143 L
396.764 124.251 L
397.198 124.358 L
397.632 124.465 L
398.066 124.572 L
398.5 124.68 L
398.934 124.787 L
399.368 124.894 L
399.802 125.001 L
400.236 125.108 L
400.67 125.216 L
401.104 125.323 L
401.538 125.43 L
401.972 125.537 L
402.406 125.645 L
402.84 125.752 L
403.274 125.859 L
403.708 125.966 L
404.142 126.073 L
404.576 126.181 L
405.01 126.288 L
405.444 126.395 L
405.878 126.502 L
406.312 126.61 L
406.746 126.717 L
407.18 126.824 L
407.614 126.931 L
408.048 127.038 L
408.482 127.146 L
408.916 127.253 L
409.35 127.36 L
409.784 127.467 L
410.218 127.575 L
410.652 127.682 L
411.086 127.789 L
411.52 127.896 L
411.954 128.003 L
412.388 128.111 L
412.822 128.218 L
413.256 128.325 L
413.69 128.432 L
414.124 128.54 L
414.558 128.647 L
414.992 128.754 L
415.426 128.861 L
415.86 128.968 L
416.294 129.076 L
416.728 129.183 L
417.162 129.29 L
417.596 129.397 L
418.03 129.505 L
418.464 129.612 L
418.898 129.719 L
419.332 129.826 L
419.766 129.933 L
420.2 130.041 L
420.634 130.148 L
421.068 130.255 L
421.502 130.362 L
421.936 130.47 L
422.37 130.577 L
422.804 130.684 L
423.238 130.791 L
423.672 130.898 L
424.106 131.006 L
424.54 131.113 L
424.974 131.22 L
425.408 131.327 L
425.842 131.435 L
426.276 131.542 L
426.71 131.649 L
427.144 131.756 L
427.578 131.864 L
428.012 131.971 L
428.446 132.078 L
428.88 132.185 L
429.314 132.292 L
429.748 132.4 L
430.182 132.507 L
430.616 132.614 L
431.05 132.721 L
431.484 132.829 L
431.918 132.936 L
432.352 133.043 L
432.786 133.15 L
433.22 133.257 L
433.654 133.365 L
434.088 133.472 L
434.522 133.579 L
434.956 133.686 L
435.39 133.794 L
435.824 133.901 L
436.258 134.008 L
436.692 134.115 L
437.126 134.222 L
437.56 134.33 L
437.994 134.437 L
438.428 134.544 L
438.862 134.651 L
439.296 134.759 L
439.73 134.866 L
440.164 134.973 L
440.598 135.08 L
441.032 135.187 L
441.466 135.295 L
441.9 135.402 L
442.334 135.509 L
442.768 135.616 L
443.202 135.724 L
443.636 135.831 L
444.07 135.938 L
444.504 136.045 L
444.938 136.152 L
445.372 136.26 L
445.806 136.367 L
446.24 136.474 L
446.674 136.581 L
447.108 136.689 L
447.542 136.796 L
447.976 136.903 L
448.41 137.01 L
448.844 137.117 L
449.278 137.225 L
449.712 137.332 L
450.146 137.439 L
450.58 137.546 L
451.014 137.654 L
451.448 137.761 L
451.882 137.868 L
452.316 137.975 L
452.75 138.082 L
453.184 138.19 L
453.618 138.297 L
454.052 138.404 L
454.486 138.511 L
454.92 138.619 L
455.354 138.726 L
455.788 138.833 L
456.222 138.94 L
456.656 139.047 L
457.09 139.155 L
457.524 139.262 L
457.958 139.369 L
458.392 139.476 L
458.826 139.584 L
459.26 139.691 L
459.694 139.798 L
460.128 139.905 L
460.562 140.012 L
460.996 140.12 L
461.43 140.227 L
461.864 140.334 L
462.298 140.441 L
462.732 140.549 L
463.166 140.656 L
463.6 140.763 L
464.034 140.87 L
464.468 140.977 L
464.902 141.085 L
465.336 141.192 L
465.77 141.299 L
466.204 141.406 L
466.638 141.514 L
467.072 141.621 L
467.506 141.728 L
467.94 141.835 L
468.374 141.943 L
468.808 142.05 L
469.242 142.157 L
469.676 142.264 L
470.11 142.371 L
470.544 142.479 L
470.978 142.586 L
471.412 142.693 L
471.846 142.8 L
472.28 142.908 L
472.714 143.015 L
473.148 143.122 L
473.582 143.229 L
474.016 143.336 L
474.45 143.444 L
474.884 143.551 L
475.318 143.658 L
475.752 143.765 L
476.186 143.873 L
476.62 143.98 L
477.054 144.087 L
477.488 144.194 L
477.922 144.301 L
478.356 144.409 L
478.79 144.516 L
479.224 144.623 L
479.658 144.73 L
480.092 144.838 L
480.526 144.945 L
480.96 145.052 L
481.394 145.159 L
481.828 145.266 L
482.262 145.374 L
482.696 145.481 L
483.13 145.588 L
483.564 145.695 L
483.998 145.803 L
484.432 145.91 L
484.866 146.017 L
485.3 146.124 L
485.734 146.231 L
486.168 146.339 L
486.602 146.446 L
487.036 146.553 L
487.47 146.66 L
487.904 146.768 L
488.338 146.875 L
488.772 146.982 L
489.206 147.089 L
489.64 147.196 L
490.074 147.304 L
490.508 147.411 L
490.942 147.518 L
491.376 147.625 L
491.81 147.733 L
492.244 147.84 L
492.678 147.947 L
493.112 148.054 L
493.546 148.161 L
493.98 148.269 L
494.414 148.376 L
494.848 148.483 L
495.282 148.59 L
495.716 148.698 L
496.15 148.805 L
496.584 148.912 L
497.018 149.019 L
497.452 149.126 L
497.886 149.234 L
498.32 149.341 L
498.754 149.448 L
499.188 149.555 L
499.622 149.663 L
500.056 149.77 L
500.49 149.877 L
500.924 149.984 L
501.358 150.091 L
501.792 150.199 L
502.226 150.306 L
502.66 150.413 L
503.094 150.52 L
503.528 150.628 L
503.962 150.735 L
504.396 150.842 L
504.83 150.949 L
505.264 151.056 L
505.698 151.164 L
506.132 151.271 L
506.566 151.378 L
507 151.485 L
S
GR
GS
1 GC
N
406 63 M
406 37 L
500 37 L
500 63 L
cp
f
GR
GS
[1 0 0 1 443 44.35849] CT
/Helvetica 9 F
GS
[1 0 0 1 0 0] CT
0 3.5 moveto 
1 -1 scale
(Error data) t 
GR
GR
GS
[1 0 0 1 425 44.35849] CT
0 0 1 RC
N
2.667 0 M
2.667 1.473 1.473 2.667 0 2.667 C
-1.473 2.667 -2.667 1.473 -2.667 0 C
-2.667 -1.473 -1.473 -2.667 0 -2.667 C
1.473 -2.667 2.667 -1.473 2.667 0 C
cp
f
GR
GS
[1 0 0 1 443 55.64151] CT
/Helvetica 9 F
GS
[1 0 0 1 0 0] CT
0 3.5 moveto 
1 -1 scale
(Linear model) t 
GR
GR
GS
1 0 0 RC
1 LJ
N
410 55.642 M
440 55.642 L
S
GR
GS
0.149 GC
10.0 ML
0.5 LW
N
406 63 M
406 37 L
500 37 L
500 63 L
cp
S
GR
GS
1 GC
N
73 374 M
507 374 L
507 231 L
73 231 L
cp
f
GR
GS
0.873 GC
1 LJ
0.5 LW
N
73 374 M
73 231 L
S
GR
GS
0.873 GC
1 LJ
0.5 LW
N
116.4 374 M
116.4 231 L
S
GR
GS
0.873 GC
1 LJ
0.5 LW
N
159.8 374 M
159.8 231 L
S
GR
GS
0.873 GC
1 LJ
0.5 LW
N
203.2 374 M
203.2 231 L
S
GR
GS
0.873 GC
1 LJ
0.5 LW
N
246.6 374 M
246.6 231 L
S
GR
GS
0.873 GC
1 LJ
0.5 LW
N
290 374 M
290 231 L
S
GR
GS
0.873 GC
1 LJ
0.5 LW
N
333.4 374 M
333.4 231 L
S
GR
GS
0.873 GC
1 LJ
0.5 LW
N
376.8 374 M
376.8 231 L
S
GR
GS
0.873 GC
1 LJ
0.5 LW
N
420.2 374 M
420.2 231 L
S
GR
GS
0.873 GC
1 LJ
0.5 LW
N
463.6 374 M
463.6 231 L
S
GR
GS
0.873 GC
1 LJ
0.5 LW
N
507 374 M
507 231 L
S
GR
GS
0.873 GC
1 LJ
0.5 LW
N
507 374 M
73 374 L
S
GR
GS
0.873 GC
1 LJ
0.5 LW
N
507 338.25 M
73 338.25 L
S
GR
GS
0.873 GC
1 LJ
0.5 LW
N
507 302.5 M
73 302.5 L
S
GR
GS
0.873 GC
1 LJ
0.5 LW
N
507 266.75 M
73 266.75 L
S
GR
GS
0.873 GC
1 LJ
0.5 LW
N
507 231 M
73 231 L
S
GR
GS
0.149 GC
2 setlinecap
1 LJ
0.5 LW
N
73 374 M
507 374 L
S
GR
GS
0.149 GC
2 setlinecap
1 LJ
0.5 LW
N
73 231 M
507 231 L
S
GR
GS
0.149 GC
2 setlinecap
1 LJ
0.5 LW
N
73 374 M
73 369.66 L
S
GR
GS
0.149 GC
2 setlinecap
1 LJ
0.5 LW
N
116.4 374 M
116.4 369.66 L
S
GR
GS
0.149 GC
2 setlinecap
1 LJ
0.5 LW
N
159.8 374 M
159.8 369.66 L
S
GR
GS
0.149 GC
2 setlinecap
1 LJ
0.5 LW
N
203.2 374 M
203.2 369.66 L
S
GR
GS
0.149 GC
2 setlinecap
1 LJ
0.5 LW
N
246.6 374 M
246.6 369.66 L
S
GR
GS
0.149 GC
2 setlinecap
1 LJ
0.5 LW
N
290 374 M
290 369.66 L
S
GR
GS
0.149 GC
2 setlinecap
1 LJ
0.5 LW
N
333.4 374 M
333.4 369.66 L
S
GR
GS
0.149 GC
2 setlinecap
1 LJ
0.5 LW
N
376.8 374 M
376.8 369.66 L
S
GR
GS
0.149 GC
2 setlinecap
1 LJ
0.5 LW
N
420.2 374 M
420.2 369.66 L
S
GR
GS
0.149 GC
2 setlinecap
1 LJ
0.5 LW
N
463.6 374 M
463.6 369.66 L
S
GR
GS
0.149 GC
2 setlinecap
1 LJ
0.5 LW
N
507 374 M
507 369.66 L
S
GR
GS
0.149 GC
2 setlinecap
1 LJ
0.5 LW
N
73 231 M
73 235.34 L
S
GR
GS
0.149 GC
2 setlinecap
1 LJ
0.5 LW
N
116.4 231 M
116.4 235.34 L
S
GR
GS
0.149 GC
2 setlinecap
1 LJ
0.5 LW
N
159.8 231 M
159.8 235.34 L
S
GR
GS
0.149 GC
2 setlinecap
1 LJ
0.5 LW
N
203.2 231 M
203.2 235.34 L
S
GR
GS
0.149 GC
2 setlinecap
1 LJ
0.5 LW
N
246.6 231 M
246.6 235.34 L
S
GR
GS
0.149 GC
2 setlinecap
1 LJ
0.5 LW
N
290 231 M
290 235.34 L
S
GR
GS
0.149 GC
2 setlinecap
1 LJ
0.5 LW
N
333.4 231 M
333.4 235.34 L
S
GR
GS
0.149 GC
2 setlinecap
1 LJ
0.5 LW
N
376.8 231 M
376.8 235.34 L
S
GR
GS
0.149 GC
2 setlinecap
1 LJ
0.5 LW
N
420.2 231 M
420.2 235.34 L
S
GR
GS
0.149 GC
2 setlinecap
1 LJ
0.5 LW
N
463.6 231 M
463.6 235.34 L
S
GR
GS
0.149 GC
2 setlinecap
1 LJ
0.5 LW
N
507 231 M
507 235.34 L
S
GR
GS
[1 0 0 1 73 378] CT
0.149 GC
/Helvetica 10 F
GS
[1 0 0 1 0 0] CT
-10.5 10 moveto 
1 -1 scale
(-100) t 
GR
GR
GS
[1 0 0 1 116.4 378] CT
0.149 GC
/Helvetica 10 F
GS
[1 0 0 1 0 0] CT
-8 10 moveto 
1 -1 scale
(-90) t 
GR
GR
GS
[1 0 0 1 159.8 378] CT
0.149 GC
/Helvetica 10 F
GS
[1 0 0 1 0 0] CT
-8 10 moveto 
1 -1 scale
(-80) t 
GR
GR
GS
[1 0 0 1 203.2 378] CT
0.149 GC
/Helvetica 10 F
GS
[1 0 0 1 0 0] CT
-8 10 moveto 
1 -1 scale
(-70) t 
GR
GR
GS
[1 0 0 1 246.60001 378] CT
0.149 GC
/Helvetica 10 F
GS
[1 0 0 1 0 0] CT
-8 10 moveto 
1 -1 scale
(-60) t 
GR
GR
GS
[1 0 0 1 290 378] CT
0.149 GC
/Helvetica 10 F
GS
[1 0 0 1 0 0] CT
-8 10 moveto 
1 -1 scale
(-50) t 
GR
GR
GS
[1 0 0 1 333.39999 378] CT
0.149 GC
/Helvetica 10 F
GS
[1 0 0 1 0 0] CT
-8 10 moveto 
1 -1 scale
(-40) t 
GR
GR
GS
[1 0 0 1 376.79999 378] CT
0.149 GC
/Helvetica 10 F
GS
[1 0 0 1 0 0] CT
-8 10 moveto 
1 -1 scale
(-30) t 
GR
GR
GS
[1 0 0 1 420.20001 378] CT
0.149 GC
/Helvetica 10 F
GS
[1 0 0 1 0 0] CT
-8 10 moveto 
1 -1 scale
(-20) t 
GR
GR
GS
[1 0 0 1 463.60001 378] CT
0.149 GC
/Helvetica 10 F
GS
[1 0 0 1 0 0] CT
-8 10 moveto 
1 -1 scale
(-10) t 
GR
GR
GS
[1 0 0 1 507 378] CT
0.149 GC
/Helvetica 10 F
GS
[1 0 0 1 0 0] CT
-3 10 moveto 
1 -1 scale
(0) t 
GR
GR
GS
[1 0 0 1 290.00021 392] CT
0.149 GC
/Helvetica-Bold 12 F
GS
[1 0 0 1 0 0] CT
-78 12 moveto 
1 -1 scale
(Camera translation \(in mm\)) t 
GR
GR
GS
0.149 GC
2 setlinecap
1 LJ
0.5 LW
N
73 374 M
73 231 L
S
GR
GS
0.149 GC
2 setlinecap
1 LJ
0.5 LW
N
507 374 M
507 231 L
S
GR
GS
0.149 GC
2 setlinecap
1 LJ
0.5 LW
N
73 374 M
77.34 374 L
S
GR
GS
0.149 GC
2 setlinecap
1 LJ
0.5 LW
N
73 338.25 M
77.34 338.25 L
S
GR
GS
0.149 GC
2 setlinecap
1 LJ
0.5 LW
N
73 302.5 M
77.34 302.5 L
S
GR
GS
0.149 GC
2 setlinecap
1 LJ
0.5 LW
N
73 266.75 M
77.34 266.75 L
S
GR
GS
0.149 GC
2 setlinecap
1 LJ
0.5 LW
N
73 231 M
77.34 231 L
S
GR
GS
0.149 GC
2 setlinecap
1 LJ
0.5 LW
N
507 374 M
502.66 374 L
S
GR
GS
0.149 GC
2 setlinecap
1 LJ
0.5 LW
N
507 338.25 M
502.66 338.25 L
S
GR
GS
0.149 GC
2 setlinecap
1 LJ
0.5 LW
N
507 302.5 M
502.66 302.5 L
S
GR
GS
0.149 GC
2 setlinecap
1 LJ
0.5 LW
N
507 266.75 M
502.66 266.75 L
S
GR
GS
0.149 GC
2 setlinecap
1 LJ
0.5 LW
N
507 231 M
502.66 231 L
S
GR
GS
[1 0 0 1 68.99999 374] CT
0.149 GC
/Helvetica 10 F
GS
[1 0 0 1 0 0] CT
-24 3.5 moveto 
1 -1 scale
(-0.04) t 
GR
GR
GS
[1 0 0 1 68.99999 338.25] CT
0.149 GC
/Helvetica 10 F
GS
[1 0 0 1 0 0] CT
-24 3.5 moveto 
1 -1 scale
(-0.02) t 
GR
GR
GS
[1 0 0 1 68.99999 302.5] CT
0.149 GC
/Helvetica 10 F
GS
[1 0 0 1 0 0] CT
-6 3.5 moveto 
1 -1 scale
(0) t 
GR
GR
GS
[1 0 0 1 68.99999 266.75] CT
0.149 GC
/Helvetica 10 F
GS
[1 0 0 1 0 0] CT
-20 3.5 moveto 
1 -1 scale
(0.02) t 
GR
GR
GS
[1 0 0 1 68.99999 231] CT
0.149 GC
/Helvetica 10 F
GS
[1 0 0 1 0 0] CT
-20 3.5 moveto 
1 -1 scale
(0.04) t 
GR
GR
GS
[0 -1 1 0 41.99998 302.49994] CT
0.149 GC
/Helvetica-Bold 12 F
GS
[1 0 0 1 0 0] CT
-55.5 -3 moveto 
1 -1 scale
(Width error \(in mm\)) t 
GR
GR
GS
[1 0 0 1 73 296.37378] CT
0 0 1 RC
N
2.667 0 M
2.667 1.473 1.473 2.667 0 2.667 C
-1.473 2.667 -2.667 1.473 -2.667 0 C
-2.667 -1.473 -1.473 -2.667 0 -2.667 C
1.473 -2.667 2.667 -1.473 2.667 0 C
cp
f
GR
GS
[1 0 0 1 77.34 256.50504] CT
0 0 1 RC
N
2.667 0 M
2.667 1.473 1.473 2.667 0 2.667 C
-1.473 2.667 -2.667 1.473 -2.667 0 C
-2.667 -1.473 -1.473 -2.667 0 -2.667 C
1.473 -2.667 2.667 -1.473 2.667 0 C
cp
f
GR
GS
[1 0 0 1 81.68 308.84058] CT
0 0 1 RC
N
2.667 0 M
2.667 1.473 1.473 2.667 0 2.667 C
-1.473 2.667 -2.667 1.473 -2.667 0 C
-2.667 -1.473 -1.473 -2.667 0 -2.667 C
1.473 -2.667 2.667 -1.473 2.667 0 C
cp
f
GR
GS
[1 0 0 1 86.02 241.54881] CT
0 0 1 RC
N
2.667 0 M
2.667 1.473 1.473 2.667 0 2.667 C
-1.473 2.667 -2.667 1.473 -2.667 0 C
-2.667 -1.473 -1.473 -2.667 0 -2.667 C
1.473 -2.667 2.667 -1.473 2.667 0 C
cp
f
GR
GS
[1 0 0 1 90.36 271.37494] CT
0 0 1 RC
N
2.667 0 M
2.667 1.473 1.473 2.667 0 2.667 C
-1.473 2.667 -2.667 1.473 -2.667 0 C
-2.667 -1.473 -1.473 -2.667 0 -2.667 C
1.473 -2.667 2.667 -1.473 2.667 0 C
cp
f
GR
GS
[1 0 0 1 94.7 307.60956] CT
0 0 1 RC
N
2.667 0 M
2.667 1.473 1.473 2.667 0 2.667 C
-1.473 2.667 -2.667 1.473 -2.667 0 C
-2.667 -1.473 -1.473 -2.667 0 -2.667 C
1.473 -2.667 2.667 -1.473 2.667 0 C
cp
f
GR
GS
[1 0 0 1 99.04 302.99158] CT
0 0 1 RC
N
2.667 0 M
2.667 1.473 1.473 2.667 0 2.667 C
-1.473 2.667 -2.667 1.473 -2.667 0 C
-2.667 -1.473 -1.473 -2.667 0 -2.667 C
1.473 -2.667 2.667 -1.473 2.667 0 C
cp
f
GR
GS
[1 0 0 1 103.38 295.02359] CT
0 0 1 RC
N
2.667 0 M
2.667 1.473 1.473 2.667 0 2.667 C
-1.473 2.667 -2.667 1.473 -2.667 0 C
-2.667 -1.473 -1.473 -2.667 0 -2.667 C
1.473 -2.667 2.667 -1.473 2.667 0 C
cp
f
GR
GS
[1 0 0 1 107.72 317.15543] CT
0 0 1 RC
N
2.667 0 M
2.667 1.473 1.473 2.667 0 2.667 C
-1.473 2.667 -2.667 1.473 -2.667 0 C
-2.667 -1.473 -1.473 -2.667 0 -2.667 C
1.473 -2.667 2.667 -1.473 2.667 0 C
cp
f
GR
GS
[1 0 0 1 112.06 304.22275] CT
0 0 1 RC
N
2.667 0 M
2.667 1.473 1.473 2.667 0 2.667 C
-1.473 2.667 -2.667 1.473 -2.667 0 C
-2.667 -1.473 -1.473 -2.667 0 -2.667 C
1.473 -2.667 2.667 -1.473 2.667 0 C
cp
f
GR
GS
[1 0 0 1 116.4 283.43817] CT
0 0 1 RC
N
2.667 0 M
2.667 1.473 1.473 2.667 0 2.667 C
-1.473 2.667 -2.667 1.473 -2.667 0 C
-2.667 -1.473 -1.473 -2.667 0 -2.667 C
1.473 -2.667 2.667 -1.473 2.667 0 C
cp
f
GR
GS
[1 0 0 1 120.74 298.98618] CT
0 0 1 RC
N
2.667 0 M
2.667 1.473 1.473 2.667 0 2.667 C
-1.473 2.667 -2.667 1.473 -2.667 0 C
-2.667 -1.473 -1.473 -2.667 0 -2.667 C
1.473 -2.667 2.667 -1.473 2.667 0 C
cp
f
GR
GS
[1 0 0 1 125.08 298.22202] CT
0 0 1 RC
N
2.667 0 M
2.667 1.473 1.473 2.667 0 2.667 C
-1.473 2.667 -2.667 1.473 -2.667 0 C
-2.667 -1.473 -1.473 -2.667 0 -2.667 C
1.473 -2.667 2.667 -1.473 2.667 0 C
cp
f
GR
GS
[1 0 0 1 129.42 328.21097] CT
0 0 1 RC
N
2.667 0 M
2.667 1.473 1.473 2.667 0 2.667 C
-1.473 2.667 -2.667 1.473 -2.667 0 C
-2.667 -1.473 -1.473 -2.667 0 -2.667 C
1.473 -2.667 2.667 -1.473 2.667 0 C
cp
f
GR
GS
[1 0 0 1 133.75999 277.18298] CT
0 0 1 RC
N
2.667 0 M
2.667 1.473 1.473 2.667 0 2.667 C
-1.473 2.667 -2.667 1.473 -2.667 0 C
-2.667 -1.473 -1.473 -2.667 0 -2.667 C
1.473 -2.667 2.667 -1.473 2.667 0 C
cp
f
GR
GS
[1 0 0 1 138.10001 330.69034] CT
0 0 1 RC
N
2.667 0 M
2.667 1.473 1.473 2.667 0 2.667 C
-1.473 2.667 -2.667 1.473 -2.667 0 C
-2.667 -1.473 -1.473 -2.667 0 -2.667 C
1.473 -2.667 2.667 -1.473 2.667 0 C
cp
f
GR
GS
[1 0 0 1 142.44 290.67352] CT
0 0 1 RC
N
2.667 0 M
2.667 1.473 1.473 2.667 0 2.667 C
-1.473 2.667 -2.667 1.473 -2.667 0 C
-2.667 -1.473 -1.473 -2.667 0 -2.667 C
1.473 -2.667 2.667 -1.473 2.667 0 C
cp
f
GR
GS
[1 0 0 1 146.78 284.3143] CT
0 0 1 RC
N
2.667 0 M
2.667 1.473 1.473 2.667 0 2.667 C
-1.473 2.667 -2.667 1.473 -2.667 0 C
-2.667 -1.473 -1.473 -2.667 0 -2.667 C
1.473 -2.667 2.667 -1.473 2.667 0 C
cp
f
GR
GS
[1 0 0 1 151.12 318.40274] CT
0 0 1 RC
N
2.667 0 M
2.667 1.473 1.473 2.667 0 2.667 C
-1.473 2.667 -2.667 1.473 -2.667 0 C
-2.667 -1.473 -1.473 -2.667 0 -2.667 C
1.473 -2.667 2.667 -1.473 2.667 0 C
cp
f
GR
GS
[1 0 0 1 155.46001 335.45743] CT
0 0 1 RC
N
2.667 0 M
2.667 1.473 1.473 2.667 0 2.667 C
-1.473 2.667 -2.667 1.473 -2.667 0 C
-2.667 -1.473 -1.473 -2.667 0 -2.667 C
1.473 -2.667 2.667 -1.473 2.667 0 C
cp
f
GR
GS
[1 0 0 1 159.8 293.99323] CT
0 0 1 RC
N
2.667 0 M
2.667 1.473 1.473 2.667 0 2.667 C
-1.473 2.667 -2.667 1.473 -2.667 0 C
-2.667 -1.473 -1.473 -2.667 0 -2.667 C
1.473 -2.667 2.667 -1.473 2.667 0 C
cp
f
GR
GS
[1 0 0 1 164.14 332.51889] CT
0 0 1 RC
N
2.667 0 M
2.667 1.473 1.473 2.667 0 2.667 C
-1.473 2.667 -2.667 1.473 -2.667 0 C
-2.667 -1.473 -1.473 -2.667 0 -2.667 C
1.473 -2.667 2.667 -1.473 2.667 0 C
cp
f
GR
GS
[1 0 0 1 168.48 305.51602] CT
0 0 1 RC
N
2.667 0 M
2.667 1.473 1.473 2.667 0 2.667 C
-1.473 2.667 -2.667 1.473 -2.667 0 C
-2.667 -1.473 -1.473 -2.667 0 -2.667 C
1.473 -2.667 2.667 -1.473 2.667 0 C
cp
f
GR
GS
[1 0 0 1 172.82001 306.15833] CT
0 0 1 RC
N
2.667 0 M
2.667 1.473 1.473 2.667 0 2.667 C
-1.473 2.667 -2.667 1.473 -2.667 0 C
-2.667 -1.473 -1.473 -2.667 0 -2.667 C
1.473 -2.667 2.667 -1.473 2.667 0 C
cp
f
GR
GS
[1 0 0 1 177.16 287.59232] CT
0 0 1 RC
N
2.667 0 M
2.667 1.473 1.473 2.667 0 2.667 C
-1.473 2.667 -2.667 1.473 -2.667 0 C
-2.667 -1.473 -1.473 -2.667 0 -2.667 C
1.473 -2.667 2.667 -1.473 2.667 0 C
cp
f
GR
GS
[1 0 0 1 181.5 277.67343] CT
0 0 1 RC
N
2.667 0 M
2.667 1.473 1.473 2.667 0 2.667 C
-1.473 2.667 -2.667 1.473 -2.667 0 C
-2.667 -1.473 -1.473 -2.667 0 -2.667 C
1.473 -2.667 2.667 -1.473 2.667 0 C
cp
f
GR
GS
[1 0 0 1 185.84 331.80563] CT
0 0 1 RC
N
2.667 0 M
2.667 1.473 1.473 2.667 0 2.667 C
-1.473 2.667 -2.667 1.473 -2.667 0 C
-2.667 -1.473 -1.473 -2.667 0 -2.667 C
1.473 -2.667 2.667 -1.473 2.667 0 C
cp
f
GR
GS
[1 0 0 1 190.17999 340.99597] CT
0 0 1 RC
N
2.667 0 M
2.667 1.473 1.473 2.667 0 2.667 C
-1.473 2.667 -2.667 1.473 -2.667 0 C
-2.667 -1.473 -1.473 -2.667 0 -2.667 C
1.473 -2.667 2.667 -1.473 2.667 0 C
cp
f
GR
GS
[1 0 0 1 194.52 296.75677] CT
0 0 1 RC
N
2.667 0 M
2.667 1.473 1.473 2.667 0 2.667 C
-1.473 2.667 -2.667 1.473 -2.667 0 C
-2.667 -1.473 -1.473 -2.667 0 -2.667 C
1.473 -2.667 2.667 -1.473 2.667 0 C
cp
f
GR
GS
[1 0 0 1 198.86 334.30157] CT
0 0 1 RC
N
2.667 0 M
2.667 1.473 1.473 2.667 0 2.667 C
-1.473 2.667 -2.667 1.473 -2.667 0 C
-2.667 -1.473 -1.473 -2.667 0 -2.667 C
1.473 -2.667 2.667 -1.473 2.667 0 C
cp
f
GR
GS
[1 0 0 1 203.2 290.6713] CT
0 0 1 RC
N
2.667 0 M
2.667 1.473 1.473 2.667 0 2.667 C
-1.473 2.667 -2.667 1.473 -2.667 0 C
-2.667 -1.473 -1.473 -2.667 0 -2.667 C
1.473 -2.667 2.667 -1.473 2.667 0 C
cp
f
GR
GS
[1 0 0 1 207.53999 310.99759] CT
0 0 1 RC
N
2.667 0 M
2.667 1.473 1.473 2.667 0 2.667 C
-1.473 2.667 -2.667 1.473 -2.667 0 C
-2.667 -1.473 -1.473 -2.667 0 -2.667 C
1.473 -2.667 2.667 -1.473 2.667 0 C
cp
f
GR
GS
[1 0 0 1 211.88 280.01947] CT
0 0 1 RC
N
2.667 0 M
2.667 1.473 1.473 2.667 0 2.667 C
-1.473 2.667 -2.667 1.473 -2.667 0 C
-2.667 -1.473 -1.473 -2.667 0 -2.667 C
1.473 -2.667 2.667 -1.473 2.667 0 C
cp
f
GR
GS
[1 0 0 1 216.22 299.98083] CT
0 0 1 RC
N
2.667 0 M
2.667 1.473 1.473 2.667 0 2.667 C
-1.473 2.667 -2.667 1.473 -2.667 0 C
-2.667 -1.473 -1.473 -2.667 0 -2.667 C
1.473 -2.667 2.667 -1.473 2.667 0 C
cp
f
GR
GS
[1 0 0 1 220.56 341.11697] CT
0 0 1 RC
N
2.667 0 M
2.667 1.473 1.473 2.667 0 2.667 C
-1.473 2.667 -2.667 1.473 -2.667 0 C
-2.667 -1.473 -1.473 -2.667 0 -2.667 C
1.473 -2.667 2.667 -1.473 2.667 0 C
cp
f
GR
GS
[1 0 0 1 224.89999 306.66116] CT
0 0 1 RC
N
2.667 0 M
2.667 1.473 1.473 2.667 0 2.667 C
-1.473 2.667 -2.667 1.473 -2.667 0 C
-2.667 -1.473 -1.473 -2.667 0 -2.667 C
1.473 -2.667 2.667 -1.473 2.667 0 C
cp
f
GR
GS
[1 0 0 1 229.24001 291.6398] CT
0 0 1 RC
N
2.667 0 M
2.667 1.473 1.473 2.667 0 2.667 C
-1.473 2.667 -2.667 1.473 -2.667 0 C
-2.667 -1.473 -1.473 -2.667 0 -2.667 C
1.473 -2.667 2.667 -1.473 2.667 0 C
cp
f
GR
GS
[1 0 0 1 233.58 289.57462] CT
0 0 1 RC
N
2.667 0 M
2.667 1.473 1.473 2.667 0 2.667 C
-1.473 2.667 -2.667 1.473 -2.667 0 C
-2.667 -1.473 -1.473 -2.667 0 -2.667 C
1.473 -2.667 2.667 -1.473 2.667 0 C
cp
f
GR
GS
[1 0 0 1 237.92 328.80353] CT
0 0 1 RC
N
2.667 0 M
2.667 1.473 1.473 2.667 0 2.667 C
-1.473 2.667 -2.667 1.473 -2.667 0 C
-2.667 -1.473 -1.473 -2.667 0 -2.667 C
1.473 -2.667 2.667 -1.473 2.667 0 C
cp
f
GR
GS
[1 0 0 1 242.25999 292.49997] CT
0 0 1 RC
N
2.667 0 M
2.667 1.473 1.473 2.667 0 2.667 C
-1.473 2.667 -2.667 1.473 -2.667 0 C
-2.667 -1.473 -1.473 -2.667 0 -2.667 C
1.473 -2.667 2.667 -1.473 2.667 0 C
cp
f
GR
GS
[1 0 0 1 246.60001 301.79605] CT
0 0 1 RC
N
2.667 0 M
2.667 1.473 1.473 2.667 0 2.667 C
-1.473 2.667 -2.667 1.473 -2.667 0 C
-2.667 -1.473 -1.473 -2.667 0 -2.667 C
1.473 -2.667 2.667 -1.473 2.667 0 C
cp
f
GR
GS
[1 0 0 1 250.94 314.68359] CT
0 0 1 RC
N
2.667 0 M
2.667 1.473 1.473 2.667 0 2.667 C
-1.473 2.667 -2.667 1.473 -2.667 0 C
-2.667 -1.473 -1.473 -2.667 0 -2.667 C
1.473 -2.667 2.667 -1.473 2.667 0 C
cp
f
GR
GS
[1 0 0 1 255.28 295.52774] CT
0 0 1 RC
N
2.667 0 M
2.667 1.473 1.473 2.667 0 2.667 C
-1.473 2.667 -2.667 1.473 -2.667 0 C
-2.667 -1.473 -1.473 -2.667 0 -2.667 C
1.473 -2.667 2.667 -1.473 2.667 0 C
cp
f
GR
GS
[1 0 0 1 259.62 305.66382] CT
0 0 1 RC
N
2.667 0 M
2.667 1.473 1.473 2.667 0 2.667 C
-1.473 2.667 -2.667 1.473 -2.667 0 C
-2.667 -1.473 -1.473 -2.667 0 -2.667 C
1.473 -2.667 2.667 -1.473 2.667 0 C
cp
f
GR
GS
[1 0 0 1 263.95999 299.55096] CT
0 0 1 RC
N
2.667 0 M
2.667 1.473 1.473 2.667 0 2.667 C
-1.473 2.667 -2.667 1.473 -2.667 0 C
-2.667 -1.473 -1.473 -2.667 0 -2.667 C
1.473 -2.667 2.667 -1.473 2.667 0 C
cp
f
GR
GS
[1 0 0 1 268.29999 285.78351] CT
0 0 1 RC
N
2.667 0 M
2.667 1.473 1.473 2.667 0 2.667 C
-1.473 2.667 -2.667 1.473 -2.667 0 C
-2.667 -1.473 -1.473 -2.667 0 -2.667 C
1.473 -2.667 2.667 -1.473 2.667 0 C
cp
f
GR
GS
[1 0 0 1 272.64001 313.159] CT
0 0 1 RC
N
2.667 0 M
2.667 1.473 1.473 2.667 0 2.667 C
-1.473 2.667 -2.667 1.473 -2.667 0 C
-2.667 -1.473 -1.473 -2.667 0 -2.667 C
1.473 -2.667 2.667 -1.473 2.667 0 C
cp
f
GR
GS
[1 0 0 1 276.98001 290.78815] CT
0 0 1 RC
N
2.667 0 M
2.667 1.473 1.473 2.667 0 2.667 C
-1.473 2.667 -2.667 1.473 -2.667 0 C
-2.667 -1.473 -1.473 -2.667 0 -2.667 C
1.473 -2.667 2.667 -1.473 2.667 0 C
cp
f
GR
GS
[1 0 0 1 281.32001 306.23349] CT
0 0 1 RC
N
2.667 0 M
2.667 1.473 1.473 2.667 0 2.667 C
-1.473 2.667 -2.667 1.473 -2.667 0 C
-2.667 -1.473 -1.473 -2.667 0 -2.667 C
1.473 -2.667 2.667 -1.473 2.667 0 C
cp
f
GR
GS
[1 0 0 1 285.66 296.71164] CT
0 0 1 RC
N
2.667 0 M
2.667 1.473 1.473 2.667 0 2.667 C
-1.473 2.667 -2.667 1.473 -2.667 0 C
-2.667 -1.473 -1.473 -2.667 0 -2.667 C
1.473 -2.667 2.667 -1.473 2.667 0 C
cp
f
GR
GS
[1 0 0 1 290 304.34818] CT
0 0 1 RC
N
2.667 0 M
2.667 1.473 1.473 2.667 0 2.667 C
-1.473 2.667 -2.667 1.473 -2.667 0 C
-2.667 -1.473 -1.473 -2.667 0 -2.667 C
1.473 -2.667 2.667 -1.473 2.667 0 C
cp
f
GR
GS
[1 0 0 1 294.34 283.534] CT
0 0 1 RC
N
2.667 0 M
2.667 1.473 1.473 2.667 0 2.667 C
-1.473 2.667 -2.667 1.473 -2.667 0 C
-2.667 -1.473 -1.473 -2.667 0 -2.667 C
1.473 -2.667 2.667 -1.473 2.667 0 C
cp
f
GR
GS
[1 0 0 1 298.67999 283.85983] CT
0 0 1 RC
N
2.667 0 M
2.667 1.473 1.473 2.667 0 2.667 C
-1.473 2.667 -2.667 1.473 -2.667 0 C
-2.667 -1.473 -1.473 -2.667 0 -2.667 C
1.473 -2.667 2.667 -1.473 2.667 0 C
cp
f
GR
GS
[1 0 0 1 303.01999 300.67877] CT
0 0 1 RC
N
2.667 0 M
2.667 1.473 1.473 2.667 0 2.667 C
-1.473 2.667 -2.667 1.473 -2.667 0 C
-2.667 -1.473 -1.473 -2.667 0 -2.667 C
1.473 -2.667 2.667 -1.473 2.667 0 C
cp
f
GR
GS
[1 0 0 1 307.35999 313.61038] CT
0 0 1 RC
N
2.667 0 M
2.667 1.473 1.473 2.667 0 2.667 C
-1.473 2.667 -2.667 1.473 -2.667 0 C
-2.667 -1.473 -1.473 -2.667 0 -2.667 C
1.473 -2.667 2.667 -1.473 2.667 0 C
cp
f
GR
GS
[1 0 0 1 311.70001 304.84869] CT
0 0 1 RC
N
2.667 0 M
2.667 1.473 1.473 2.667 0 2.667 C
-1.473 2.667 -2.667 1.473 -2.667 0 C
-2.667 -1.473 -1.473 -2.667 0 -2.667 C
1.473 -2.667 2.667 -1.473 2.667 0 C
cp
f
GR
GS
[1 0 0 1 316.04001 298.68213] CT
0 0 1 RC
N
2.667 0 M
2.667 1.473 1.473 2.667 0 2.667 C
-1.473 2.667 -2.667 1.473 -2.667 0 C
-2.667 -1.473 -1.473 -2.667 0 -2.667 C
1.473 -2.667 2.667 -1.473 2.667 0 C
cp
f
GR
GS
[1 0 0 1 320.38 301.34488] CT
0 0 1 RC
N
2.667 0 M
2.667 1.473 1.473 2.667 0 2.667 C
-1.473 2.667 -2.667 1.473 -2.667 0 C
-2.667 -1.473 -1.473 -2.667 0 -2.667 C
1.473 -2.667 2.667 -1.473 2.667 0 C
cp
f
GR
GS
[1 0 0 1 324.72 314.49289] CT
0 0 1 RC
N
2.667 0 M
2.667 1.473 1.473 2.667 0 2.667 C
-1.473 2.667 -2.667 1.473 -2.667 0 C
-2.667 -1.473 -1.473 -2.667 0 -2.667 C
1.473 -2.667 2.667 -1.473 2.667 0 C
cp
f
GR
GS
[1 0 0 1 329.06 328.20322] CT
0 0 1 RC
N
2.667 0 M
2.667 1.473 1.473 2.667 0 2.667 C
-1.473 2.667 -2.667 1.473 -2.667 0 C
-2.667 -1.473 -1.473 -2.667 0 -2.667 C
1.473 -2.667 2.667 -1.473 2.667 0 C
cp
f
GR
GS
[1 0 0 1 333.39999 305.38922] CT
0 0 1 RC
N
2.667 0 M
2.667 1.473 1.473 2.667 0 2.667 C
-1.473 2.667 -2.667 1.473 -2.667 0 C
-2.667 -1.473 -1.473 -2.667 0 -2.667 C
1.473 -2.667 2.667 -1.473 2.667 0 C
cp
f
GR
GS
[1 0 0 1 337.73999 302.95471] CT
0 0 1 RC
N
2.667 0 M
2.667 1.473 1.473 2.667 0 2.667 C
-1.473 2.667 -2.667 1.473 -2.667 0 C
-2.667 -1.473 -1.473 -2.667 0 -2.667 C
1.473 -2.667 2.667 -1.473 2.667 0 C
cp
f
GR
GS
[1 0 0 1 342.07999 301.46478] CT
0 0 1 RC
N
2.667 0 M
2.667 1.473 1.473 2.667 0 2.667 C
-1.473 2.667 -2.667 1.473 -2.667 0 C
-2.667 -1.473 -1.473 -2.667 0 -2.667 C
1.473 -2.667 2.667 -1.473 2.667 0 C
cp
f
GR
GS
[1 0 0 1 346.42001 304.70285] CT
0 0 1 RC
N
2.667 0 M
2.667 1.473 1.473 2.667 0 2.667 C
-1.473 2.667 -2.667 1.473 -2.667 0 C
-2.667 -1.473 -1.473 -2.667 0 -2.667 C
1.473 -2.667 2.667 -1.473 2.667 0 C
cp
f
GR
GS
[1 0 0 1 350.76001 311.08548] CT
0 0 1 RC
N
2.667 0 M
2.667 1.473 1.473 2.667 0 2.667 C
-1.473 2.667 -2.667 1.473 -2.667 0 C
-2.667 -1.473 -1.473 -2.667 0 -2.667 C
1.473 -2.667 2.667 -1.473 2.667 0 C
cp
f
GR
GS
[1 0 0 1 355.10001 322.91595] CT
0 0 1 RC
N
2.667 0 M
2.667 1.473 1.473 2.667 0 2.667 C
-1.473 2.667 -2.667 1.473 -2.667 0 C
-2.667 -1.473 -1.473 -2.667 0 -2.667 C
1.473 -2.667 2.667 -1.473 2.667 0 C
cp
f
GR
GS
[1 0 0 1 359.44 311.69965] CT
0 0 1 RC
N
2.667 0 M
2.667 1.473 1.473 2.667 0 2.667 C
-1.473 2.667 -2.667 1.473 -2.667 0 C
-2.667 -1.473 -1.473 -2.667 0 -2.667 C
1.473 -2.667 2.667 -1.473 2.667 0 C
cp
f
GR
GS
[1 0 0 1 363.78 311.91806] CT
0 0 1 RC
N
2.667 0 M
2.667 1.473 1.473 2.667 0 2.667 C
-1.473 2.667 -2.667 1.473 -2.667 0 C
-2.667 -1.473 -1.473 -2.667 0 -2.667 C
1.473 -2.667 2.667 -1.473 2.667 0 C
cp
f
GR
GS
[1 0 0 1 368.12 309.5072] CT
0 0 1 RC
N
2.667 0 M
2.667 1.473 1.473 2.667 0 2.667 C
-1.473 2.667 -2.667 1.473 -2.667 0 C
-2.667 -1.473 -1.473 -2.667 0 -2.667 C
1.473 -2.667 2.667 -1.473 2.667 0 C
cp
f
GR
GS
[1 0 0 1 372.45999 305.83923] CT
0 0 1 RC
N
2.667 0 M
2.667 1.473 1.473 2.667 0 2.667 C
-1.473 2.667 -2.667 1.473 -2.667 0 C
-2.667 -1.473 -1.473 -2.667 0 -2.667 C
1.473 -2.667 2.667 -1.473 2.667 0 C
cp
f
GR
GS
[1 0 0 1 376.79999 309.7645] CT
0 0 1 RC
N
2.667 0 M
2.667 1.473 1.473 2.667 0 2.667 C
-1.473 2.667 -2.667 1.473 -2.667 0 C
-2.667 -1.473 -1.473 -2.667 0 -2.667 C
1.473 -2.667 2.667 -1.473 2.667 0 C
cp
f
GR
GS
[1 0 0 1 381.14001 308.80722] CT
0 0 1 RC
N
2.667 0 M
2.667 1.473 1.473 2.667 0 2.667 C
-1.473 2.667 -2.667 1.473 -2.667 0 C
-2.667 -1.473 -1.473 -2.667 0 -2.667 C
1.473 -2.667 2.667 -1.473 2.667 0 C
cp
f
GR
GS
[1 0 0 1 385.48001 317.29617] CT
0 0 1 RC
N
2.667 0 M
2.667 1.473 1.473 2.667 0 2.667 C
-1.473 2.667 -2.667 1.473 -2.667 0 C
-2.667 -1.473 -1.473 -2.667 0 -2.667 C
1.473 -2.667 2.667 -1.473 2.667 0 C
cp
f
GR
GS
[1 0 0 1 389.82001 312.66595] CT
0 0 1 RC
N
2.667 0 M
2.667 1.473 1.473 2.667 0 2.667 C
-1.473 2.667 -2.667 1.473 -2.667 0 C
-2.667 -1.473 -1.473 -2.667 0 -2.667 C
1.473 -2.667 2.667 -1.473 2.667 0 C
cp
f
GR
GS
[1 0 0 1 394.16 302.40326] CT
0 0 1 RC
N
2.667 0 M
2.667 1.473 1.473 2.667 0 2.667 C
-1.473 2.667 -2.667 1.473 -2.667 0 C
-2.667 -1.473 -1.473 -2.667 0 -2.667 C
1.473 -2.667 2.667 -1.473 2.667 0 C
cp
f
GR
GS
[1 0 0 1 398.5 313.72665] CT
0 0 1 RC
N
2.667 0 M
2.667 1.473 1.473 2.667 0 2.667 C
-1.473 2.667 -2.667 1.473 -2.667 0 C
-2.667 -1.473 -1.473 -2.667 0 -2.667 C
1.473 -2.667 2.667 -1.473 2.667 0 C
cp
f
GR
GS
[1 0 0 1 402.84 301.09601] CT
0 0 1 RC
N
2.667 0 M
2.667 1.473 1.473 2.667 0 2.667 C
-1.473 2.667 -2.667 1.473 -2.667 0 C
-2.667 -1.473 -1.473 -2.667 0 -2.667 C
1.473 -2.667 2.667 -1.473 2.667 0 C
cp
f
GR
GS
[1 0 0 1 407.17999 310.55746] CT
0 0 1 RC
N
2.667 0 M
2.667 1.473 1.473 2.667 0 2.667 C
-1.473 2.667 -2.667 1.473 -2.667 0 C
-2.667 -1.473 -1.473 -2.667 0 -2.667 C
1.473 -2.667 2.667 -1.473 2.667 0 C
cp
f
GR
GS
[1 0 0 1 411.51999 302.61124] CT
0 0 1 RC
N
2.667 0 M
2.667 1.473 1.473 2.667 0 2.667 C
-1.473 2.667 -2.667 1.473 -2.667 0 C
-2.667 -1.473 -1.473 -2.667 0 -2.667 C
1.473 -2.667 2.667 -1.473 2.667 0 C
cp
f
GR
GS
[1 0 0 1 415.85999 315.76465] CT
0 0 1 RC
N
2.667 0 M
2.667 1.473 1.473 2.667 0 2.667 C
-1.473 2.667 -2.667 1.473 -2.667 0 C
-2.667 -1.473 -1.473 -2.667 0 -2.667 C
1.473 -2.667 2.667 -1.473 2.667 0 C
cp
f
GR
GS
[1 0 0 1 420.20001 299.94791] CT
0 0 1 RC
N
2.667 0 M
2.667 1.473 1.473 2.667 0 2.667 C
-1.473 2.667 -2.667 1.473 -2.667 0 C
-2.667 -1.473 -1.473 -2.667 0 -2.667 C
1.473 -2.667 2.667 -1.473 2.667 0 C
cp
f
GR
GS
[1 0 0 1 424.54001 291.56662] CT
0 0 1 RC
N
2.667 0 M
2.667 1.473 1.473 2.667 0 2.667 C
-1.473 2.667 -2.667 1.473 -2.667 0 C
-2.667 -1.473 -1.473 -2.667 0 -2.667 C
1.473 -2.667 2.667 -1.473 2.667 0 C
cp
f
GR
GS
[1 0 0 1 428.88 304.11121] CT
0 0 1 RC
N
2.667 0 M
2.667 1.473 1.473 2.667 0 2.667 C
-1.473 2.667 -2.667 1.473 -2.667 0 C
-2.667 -1.473 -1.473 -2.667 0 -2.667 C
1.473 -2.667 2.667 -1.473 2.667 0 C
cp
f
GR
GS
[1 0 0 1 433.22 304.98938] CT
0 0 1 RC
N
2.667 0 M
2.667 1.473 1.473 2.667 0 2.667 C
-1.473 2.667 -2.667 1.473 -2.667 0 C
-2.667 -1.473 -1.473 -2.667 0 -2.667 C
1.473 -2.667 2.667 -1.473 2.667 0 C
cp
f
GR
GS
[1 0 0 1 437.56 306.14932] CT
0 0 1 RC
N
2.667 0 M
2.667 1.473 1.473 2.667 0 2.667 C
-1.473 2.667 -2.667 1.473 -2.667 0 C
-2.667 -1.473 -1.473 -2.667 0 -2.667 C
1.473 -2.667 2.667 -1.473 2.667 0 C
cp
f
GR
GS
[1 0 0 1 441.89999 297.86069] CT
0 0 1 RC
N
2.667 0 M
2.667 1.473 1.473 2.667 0 2.667 C
-1.473 2.667 -2.667 1.473 -2.667 0 C
-2.667 -1.473 -1.473 -2.667 0 -2.667 C
1.473 -2.667 2.667 -1.473 2.667 0 C
cp
f
GR
GS
[1 0 0 1 446.23999 297.75439] CT
0 0 1 RC
N
2.667 0 M
2.667 1.473 1.473 2.667 0 2.667 C
-1.473 2.667 -2.667 1.473 -2.667 0 C
-2.667 -1.473 -1.473 -2.667 0 -2.667 C
1.473 -2.667 2.667 -1.473 2.667 0 C
cp
f
GR
GS
[1 0 0 1 450.57999 300.78625] CT
0 0 1 RC
N
2.667 0 M
2.667 1.473 1.473 2.667 0 2.667 C
-1.473 2.667 -2.667 1.473 -2.667 0 C
-2.667 -1.473 -1.473 -2.667 0 -2.667 C
1.473 -2.667 2.667 -1.473 2.667 0 C
cp
f
GR
GS
[1 0 0 1 454.92001 297.76624] CT
0 0 1 RC
N
2.667 0 M
2.667 1.473 1.473 2.667 0 2.667 C
-1.473 2.667 -2.667 1.473 -2.667 0 C
-2.667 -1.473 -1.473 -2.667 0 -2.667 C
1.473 -2.667 2.667 -1.473 2.667 0 C
cp
f
GR
GS
[1 0 0 1 459.26001 297.54898] CT
0 0 1 RC
N
2.667 0 M
2.667 1.473 1.473 2.667 0 2.667 C
-1.473 2.667 -2.667 1.473 -2.667 0 C
-2.667 -1.473 -1.473 -2.667 0 -2.667 C
1.473 -2.667 2.667 -1.473 2.667 0 C
cp
f
GR
GS
[1 0 0 1 463.60001 297.86267] CT
0 0 1 RC
N
2.667 0 M
2.667 1.473 1.473 2.667 0 2.667 C
-1.473 2.667 -2.667 1.473 -2.667 0 C
-2.667 -1.473 -1.473 -2.667 0 -2.667 C
1.473 -2.667 2.667 -1.473 2.667 0 C
cp
f
GR
GS
[1 0 0 1 467.94 301.38699] CT
0 0 1 RC
N
2.667 0 M
2.667 1.473 1.473 2.667 0 2.667 C
-1.473 2.667 -2.667 1.473 -2.667 0 C
-2.667 -1.473 -1.473 -2.667 0 -2.667 C
1.473 -2.667 2.667 -1.473 2.667 0 C
cp
f
GR
GS
[1 0 0 1 472.28 299.4838] CT
0 0 1 RC
N
2.667 0 M
2.667 1.473 1.473 2.667 0 2.667 C
-1.473 2.667 -2.667 1.473 -2.667 0 C
-2.667 -1.473 -1.473 -2.667 0 -2.667 C
1.473 -2.667 2.667 -1.473 2.667 0 C
cp
f
GR
GS
[1 0 0 1 476.62 295.55209] CT
0 0 1 RC
N
2.667 0 M
2.667 1.473 1.473 2.667 0 2.667 C
-1.473 2.667 -2.667 1.473 -2.667 0 C
-2.667 -1.473 -1.473 -2.667 0 -2.667 C
1.473 -2.667 2.667 -1.473 2.667 0 C
cp
f
GR
GS
[1 0 0 1 480.95999 298.39093] CT
0 0 1 RC
N
2.667 0 M
2.667 1.473 1.473 2.667 0 2.667 C
-1.473 2.667 -2.667 1.473 -2.667 0 C
-2.667 -1.473 -1.473 -2.667 0 -2.667 C
1.473 -2.667 2.667 -1.473 2.667 0 C
cp
f
GR
GS
[1 0 0 1 485.29999 296.82562] CT
0 0 1 RC
N
2.667 0 M
2.667 1.473 1.473 2.667 0 2.667 C
-1.473 2.667 -2.667 1.473 -2.667 0 C
-2.667 -1.473 -1.473 -2.667 0 -2.667 C
1.473 -2.667 2.667 -1.473 2.667 0 C
cp
f
GR
GS
[1 0 0 1 489.64001 298.88254] CT
0 0 1 RC
N
2.667 0 M
2.667 1.473 1.473 2.667 0 2.667 C
-1.473 2.667 -2.667 1.473 -2.667 0 C
-2.667 -1.473 -1.473 -2.667 0 -2.667 C
1.473 -2.667 2.667 -1.473 2.667 0 C
cp
f
GR
GS
[1 0 0 1 493.98001 296.97818] CT
0 0 1 RC
N
2.667 0 M
2.667 1.473 1.473 2.667 0 2.667 C
-1.473 2.667 -2.667 1.473 -2.667 0 C
-2.667 -1.473 -1.473 -2.667 0 -2.667 C
1.473 -2.667 2.667 -1.473 2.667 0 C
cp
f
GR
GS
[1 0 0 1 498.32001 296.16367] CT
0 0 1 RC
N
2.667 0 M
2.667 1.473 1.473 2.667 0 2.667 C
-1.473 2.667 -2.667 1.473 -2.667 0 C
-2.667 -1.473 -1.473 -2.667 0 -2.667 C
1.473 -2.667 2.667 -1.473 2.667 0 C
cp
f
GR
GS
[1 0 0 1 502.66 295.65564] CT
0 0 1 RC
N
2.667 0 M
2.667 1.473 1.473 2.667 0 2.667 C
-1.473 2.667 -2.667 1.473 -2.667 0 C
-2.667 -1.473 -1.473 -2.667 0 -2.667 C
1.473 -2.667 2.667 -1.473 2.667 0 C
cp
f
GR
GS
[1 0 0 1 507 295.26996] CT
0 0 1 RC
N
2.667 0 M
2.667 1.473 1.473 2.667 0 2.667 C
-1.473 2.667 -2.667 1.473 -2.667 0 C
-2.667 -1.473 -1.473 -2.667 0 -2.667 C
1.473 -2.667 2.667 -1.473 2.667 0 C
cp
f
GR
GS
1 0 0 RC
1 LJ
N
73 302.5 M
73.434 302.5 L
73.868 302.5 L
74.302 302.5 L
74.736 302.5 L
75.17 302.5 L
75.604 302.5 L
76.038 302.5 L
76.472 302.5 L
76.906 302.5 L
77.34 302.5 L
77.774 302.5 L
78.208 302.5 L
78.642 302.5 L
79.076 302.5 L
79.51 302.5 L
79.944 302.5 L
80.378 302.5 L
80.812 302.5 L
81.246 302.5 L
81.68 302.5 L
82.114 302.5 L
82.548 302.5 L
82.982 302.5 L
83.416 302.5 L
83.85 302.5 L
84.284 302.5 L
84.718 302.5 L
85.152 302.5 L
85.586 302.5 L
86.02 302.5 L
86.454 302.5 L
86.888 302.5 L
87.322 302.5 L
87.756 302.5 L
88.19 302.5 L
88.624 302.5 L
89.058 302.5 L
89.492 302.5 L
89.926 302.5 L
90.36 302.5 L
90.794 302.5 L
91.228 302.5 L
91.662 302.5 L
92.096 302.5 L
92.53 302.5 L
92.964 302.5 L
93.398 302.5 L
93.832 302.5 L
94.266 302.5 L
94.7 302.5 L
95.134 302.5 L
95.568 302.5 L
96.002 302.5 L
96.436 302.5 L
96.87 302.5 L
97.304 302.5 L
97.738 302.5 L
98.172 302.5 L
98.606 302.5 L
99.04 302.5 L
99.474 302.5 L
99.908 302.5 L
100.342 302.5 L
100.776 302.5 L
101.21 302.5 L
101.644 302.5 L
102.078 302.5 L
102.512 302.5 L
102.946 302.5 L
103.38 302.5 L
103.814 302.5 L
104.248 302.5 L
104.682 302.5 L
105.116 302.5 L
105.55 302.5 L
105.984 302.5 L
106.418 302.5 L
106.852 302.5 L
107.286 302.5 L
107.72 302.5 L
108.154 302.5 L
108.588 302.5 L
109.022 302.5 L
109.456 302.5 L
109.89 302.5 L
110.324 302.5 L
110.758 302.5 L
111.192 302.5 L
111.626 302.5 L
112.06 302.5 L
112.494 302.5 L
112.928 302.5 L
113.362 302.5 L
113.796 302.5 L
114.23 302.5 L
114.664 302.5 L
115.098 302.5 L
115.532 302.5 L
115.966 302.5 L
116.4 302.5 L
116.834 302.5 L
117.268 302.5 L
117.702 302.5 L
118.136 302.5 L
118.57 302.5 L
119.004 302.5 L
119.438 302.5 L
119.872 302.5 L
120.306 302.5 L
120.74 302.5 L
121.174 302.5 L
121.608 302.5 L
122.042 302.5 L
122.476 302.5 L
122.91 302.5 L
123.344 302.5 L
123.778 302.5 L
124.212 302.5 L
124.646 302.5 L
125.08 302.5 L
125.514 302.5 L
125.948 302.5 L
126.382 302.5 L
126.816 302.5 L
127.25 302.5 L
127.684 302.5 L
128.118 302.5 L
128.552 302.5 L
128.986 302.5 L
129.42 302.5 L
129.854 302.5 L
130.288 302.5 L
130.722 302.5 L
131.156 302.5 L
131.59 302.5 L
132.024 302.5 L
132.458 302.5 L
132.892 302.5 L
133.326 302.5 L
133.76 302.5 L
134.194 302.5 L
134.628 302.5 L
135.062 302.5 L
135.496 302.5 L
135.93 302.5 L
136.364 302.5 L
136.798 302.5 L
137.232 302.5 L
137.666 302.5 L
138.1 302.5 L
138.534 302.5 L
138.968 302.5 L
139.402 302.5 L
139.836 302.5 L
140.27 302.5 L
140.704 302.5 L
141.138 302.5 L
141.572 302.5 L
142.006 302.5 L
142.44 302.5 L
142.874 302.5 L
143.308 302.5 L
143.742 302.5 L
144.176 302.5 L
144.61 302.5 L
145.044 302.5 L
145.478 302.5 L
145.912 302.5 L
146.346 302.5 L
146.78 302.5 L
147.214 302.5 L
147.648 302.5 L
148.082 302.5 L
148.516 302.5 L
148.95 302.5 L
149.384 302.5 L
149.818 302.5 L
150.252 302.5 L
150.686 302.5 L
151.12 302.5 L
151.554 302.5 L
151.988 302.5 L
152.422 302.5 L
152.856 302.5 L
153.29 302.5 L
153.724 302.5 L
154.158 302.5 L
154.592 302.5 L
155.026 302.5 L
155.46 302.5 L
155.894 302.5 L
156.328 302.5 L
156.762 302.5 L
157.196 302.5 L
157.63 302.5 L
158.064 302.5 L
158.498 302.5 L
158.932 302.5 L
159.366 302.5 L
159.8 302.5 L
160.234 302.5 L
160.668 302.5 L
161.102 302.5 L
161.536 302.5 L
161.97 302.5 L
162.404 302.5 L
162.838 302.5 L
163.272 302.5 L
163.706 302.5 L
164.14 302.5 L
164.574 302.5 L
165.008 302.5 L
165.442 302.5 L
165.876 302.5 L
166.31 302.5 L
166.744 302.5 L
167.178 302.5 L
167.612 302.5 L
168.046 302.5 L
168.48 302.5 L
168.914 302.5 L
169.348 302.5 L
169.782 302.5 L
170.216 302.5 L
170.65 302.5 L
171.084 302.5 L
171.518 302.5 L
171.952 302.5 L
172.386 302.5 L
172.82 302.5 L
173.254 302.5 L
173.688 302.5 L
174.122 302.5 L
174.556 302.5 L
174.99 302.5 L
175.424 302.5 L
175.858 302.5 L
176.292 302.5 L
176.726 302.5 L
177.16 302.5 L
177.594 302.5 L
178.028 302.5 L
178.462 302.5 L
178.896 302.5 L
179.33 302.5 L
179.764 302.5 L
180.198 302.5 L
180.632 302.5 L
181.066 302.5 L
181.5 302.5 L
181.934 302.5 L
182.368 302.5 L
182.802 302.5 L
183.236 302.5 L
183.67 302.5 L
184.104 302.5 L
184.538 302.5 L
184.972 302.5 L
185.406 302.5 L
185.84 302.5 L
186.274 302.5 L
186.708 302.5 L
187.142 302.5 L
187.576 302.5 L
188.01 302.5 L
188.444 302.5 L
188.878 302.5 L
189.312 302.5 L
189.746 302.5 L
190.18 302.5 L
190.614 302.5 L
191.048 302.5 L
191.482 302.5 L
191.916 302.5 L
192.35 302.5 L
192.784 302.5 L
193.218 302.5 L
193.652 302.5 L
194.086 302.5 L
194.52 302.5 L
194.954 302.5 L
195.388 302.5 L
195.822 302.5 L
196.256 302.5 L
196.69 302.5 L
197.124 302.5 L
197.558 302.5 L
197.992 302.5 L
198.426 302.5 L
198.86 302.5 L
199.294 302.5 L
199.728 302.5 L
200.162 302.5 L
200.596 302.5 L
201.03 302.5 L
201.464 302.5 L
201.898 302.5 L
202.332 302.5 L
202.766 302.5 L
203.2 302.5 L
203.634 302.5 L
204.068 302.5 L
204.502 302.5 L
204.936 302.5 L
205.37 302.5 L
205.804 302.5 L
206.238 302.5 L
206.672 302.5 L
207.106 302.5 L
207.54 302.5 L
207.974 302.5 L
208.408 302.5 L
208.842 302.5 L
209.276 302.5 L
209.71 302.5 L
210.144 302.5 L
210.578 302.5 L
211.012 302.5 L
211.446 302.5 L
211.88 302.5 L
212.314 302.5 L
212.748 302.5 L
213.182 302.5 L
213.616 302.5 L
214.05 302.5 L
214.484 302.5 L
214.918 302.5 L
215.352 302.5 L
215.786 302.5 L
216.22 302.5 L
216.654 302.5 L
217.088 302.5 L
217.522 302.5 L
217.956 302.5 L
218.39 302.5 L
218.824 302.5 L
219.258 302.5 L
219.692 302.5 L
220.126 302.5 L
220.56 302.5 L
220.994 302.5 L
221.428 302.5 L
221.862 302.5 L
222.296 302.5 L
222.73 302.5 L
223.164 302.5 L
223.598 302.5 L
224.032 302.5 L
224.466 302.5 L
224.9 302.5 L
225.334 302.5 L
225.768 302.5 L
226.202 302.5 L
226.636 302.5 L
227.07 302.5 L
227.504 302.5 L
227.938 302.5 L
228.372 302.5 L
228.806 302.5 L
229.24 302.5 L
229.674 302.5 L
230.108 302.5 L
230.542 302.5 L
230.976 302.5 L
231.41 302.5 L
231.844 302.5 L
232.278 302.5 L
232.712 302.5 L
233.146 302.5 L
233.58 302.5 L
234.014 302.5 L
234.448 302.5 L
234.882 302.5 L
235.316 302.5 L
235.75 302.5 L
236.184 302.5 L
236.618 302.5 L
237.052 302.5 L
237.486 302.5 L
237.92 302.5 L
238.354 302.5 L
238.788 302.5 L
239.222 302.5 L
239.656 302.5 L
240.09 302.5 L
240.524 302.5 L
240.958 302.5 L
241.392 302.5 L
241.826 302.5 L
242.26 302.5 L
242.694 302.5 L
243.128 302.5 L
243.562 302.5 L
243.996 302.5 L
244.43 302.5 L
244.864 302.5 L
245.298 302.5 L
245.732 302.5 L
246.166 302.5 L
246.6 302.5 L
247.034 302.5 L
247.468 302.5 L
247.902 302.5 L
248.336 302.5 L
248.77 302.5 L
249.204 302.5 L
249.638 302.5 L
250.072 302.5 L
250.506 302.5 L
250.94 302.5 L
251.374 302.5 L
251.808 302.5 L
252.242 302.5 L
252.676 302.5 L
253.11 302.5 L
253.544 302.5 L
253.978 302.5 L
254.412 302.5 L
254.846 302.5 L
255.28 302.5 L
255.714 302.5 L
256.148 302.5 L
256.582 302.5 L
257.016 302.5 L
257.45 302.5 L
257.884 302.5 L
258.318 302.5 L
258.752 302.5 L
259.186 302.5 L
259.62 302.5 L
260.054 302.5 L
260.488 302.5 L
260.922 302.5 L
261.356 302.5 L
261.79 302.5 L
262.224 302.5 L
262.658 302.5 L
263.092 302.5 L
263.526 302.5 L
263.96 302.5 L
264.394 302.5 L
264.828 302.5 L
265.262 302.5 L
265.696 302.5 L
266.13 302.5 L
266.564 302.5 L
266.998 302.5 L
267.432 302.5 L
267.866 302.5 L
268.3 302.5 L
268.734 302.5 L
269.168 302.5 L
269.602 302.5 L
270.036 302.5 L
270.47 302.5 L
270.904 302.5 L
271.338 302.5 L
271.772 302.5 L
272.206 302.5 L
272.64 302.5 L
273.074 302.5 L
273.508 302.5 L
273.942 302.5 L
274.376 302.5 L
274.81 302.5 L
275.244 302.5 L
275.678 302.5 L
276.112 302.5 L
276.546 302.5 L
276.98 302.5 L
277.414 302.5 L
277.848 302.5 L
278.282 302.5 L
278.716 302.5 L
279.15 302.5 L
279.584 302.5 L
280.018 302.5 L
280.452 302.5 L
280.886 302.5 L
281.32 302.5 L
281.754 302.5 L
282.188 302.5 L
282.622 302.5 L
283.056 302.5 L
283.49 302.5 L
283.924 302.5 L
284.358 302.5 L
284.792 302.5 L
285.226 302.5 L
285.66 302.5 L
286.094 302.5 L
286.528 302.5 L
286.962 302.5 L
287.396 302.5 L
287.83 302.5 L
288.264 302.5 L
288.698 302.5 L
289.132 302.5 L
289.566 302.5 L
290 302.5 L
290.434 302.5 L
290.868 302.5 L
291.302 302.5 L
291.736 302.5 L
292.17 302.5 L
292.604 302.5 L
293.038 302.5 L
293.472 302.5 L
293.906 302.5 L
294.34 302.5 L
294.774 302.5 L
295.208 302.5 L
295.642 302.5 L
296.076 302.5 L
296.51 302.5 L
296.944 302.5 L
297.378 302.5 L
297.812 302.5 L
298.246 302.5 L
298.68 302.5 L
299.114 302.5 L
299.548 302.5 L
299.982 302.5 L
300.416 302.5 L
300.85 302.5 L
301.284 302.5 L
301.718 302.5 L
302.152 302.5 L
302.586 302.5 L
303.02 302.5 L
303.454 302.5 L
303.888 302.5 L
304.322 302.5 L
304.756 302.5 L
305.19 302.5 L
305.624 302.5 L
306.058 302.5 L
306.492 302.5 L
306.926 302.5 L
307.36 302.5 L
307.794 302.5 L
308.228 302.5 L
308.662 302.5 L
309.096 302.5 L
309.53 302.5 L
309.964 302.5 L
310.398 302.5 L
310.832 302.5 L
311.266 302.5 L
311.7 302.5 L
312.134 302.5 L
312.568 302.5 L
313.002 302.5 L
313.436 302.5 L
313.87 302.5 L
314.304 302.5 L
314.738 302.5 L
315.172 302.5 L
315.606 302.5 L
316.04 302.5 L
316.474 302.5 L
316.908 302.5 L
317.342 302.5 L
317.776 302.5 L
318.21 302.5 L
318.644 302.5 L
319.078 302.5 L
319.512 302.5 L
319.946 302.5 L
320.38 302.5 L
320.814 302.5 L
321.248 302.5 L
321.682 302.5 L
322.116 302.5 L
322.55 302.5 L
322.984 302.5 L
323.418 302.5 L
323.852 302.5 L
324.286 302.5 L
324.72 302.5 L
325.154 302.5 L
325.588 302.5 L
326.022 302.5 L
326.456 302.5 L
326.89 302.5 L
327.324 302.5 L
327.758 302.5 L
328.192 302.5 L
328.626 302.5 L
329.06 302.5 L
329.494 302.5 L
329.928 302.5 L
330.362 302.5 L
330.796 302.5 L
331.23 302.5 L
331.664 302.5 L
332.098 302.5 L
332.532 302.5 L
332.966 302.5 L
333.4 302.5 L
333.834 302.5 L
334.268 302.5 L
334.702 302.5 L
335.136 302.5 L
335.57 302.5 L
336.004 302.5 L
336.438 302.5 L
336.872 302.5 L
337.306 302.5 L
337.74 302.5 L
338.174 302.5 L
338.608 302.5 L
339.042 302.5 L
339.476 302.5 L
339.91 302.5 L
340.344 302.5 L
340.778 302.5 L
341.212 302.5 L
341.646 302.5 L
342.08 302.5 L
342.514 302.5 L
342.948 302.5 L
343.382 302.5 L
343.816 302.5 L
344.25 302.5 L
344.684 302.5 L
345.118 302.5 L
345.552 302.5 L
345.986 302.5 L
346.42 302.5 L
346.854 302.5 L
347.288 302.5 L
347.722 302.5 L
348.156 302.5 L
348.59 302.5 L
349.024 302.5 L
349.458 302.5 L
349.892 302.5 L
350.326 302.5 L
350.76 302.5 L
351.194 302.5 L
351.628 302.5 L
352.062 302.5 L
352.496 302.5 L
352.93 302.5 L
353.364 302.5 L
353.798 302.5 L
354.232 302.5 L
354.666 302.5 L
355.1 302.5 L
355.534 302.5 L
355.968 302.5 L
356.402 302.5 L
356.836 302.5 L
357.27 302.5 L
357.704 302.5 L
358.138 302.5 L
358.572 302.5 L
359.006 302.5 L
359.44 302.5 L
359.874 302.5 L
360.308 302.5 L
360.742 302.5 L
361.176 302.5 L
361.61 302.5 L
362.044 302.5 L
362.478 302.5 L
362.912 302.5 L
363.346 302.5 L
363.78 302.5 L
364.214 302.5 L
364.648 302.5 L
365.082 302.5 L
365.516 302.5 L
365.95 302.5 L
366.384 302.5 L
366.818 302.5 L
367.252 302.5 L
367.686 302.5 L
368.12 302.5 L
368.554 302.5 L
368.988 302.5 L
369.422 302.5 L
369.856 302.5 L
370.29 302.5 L
370.724 302.5 L
371.158 302.5 L
371.592 302.5 L
372.026 302.5 L
372.46 302.5 L
372.894 302.5 L
373.328 302.5 L
373.762 302.5 L
374.196 302.5 L
374.63 302.5 L
375.064 302.5 L
375.498 302.5 L
375.932 302.5 L
376.366 302.5 L
376.8 302.5 L
377.234 302.5 L
377.668 302.5 L
378.102 302.5 L
378.536 302.5 L
378.97 302.5 L
379.404 302.5 L
379.838 302.5 L
380.272 302.5 L
380.706 302.5 L
381.14 302.5 L
381.574 302.5 L
382.008 302.5 L
382.442 302.5 L
382.876 302.5 L
383.31 302.5 L
383.744 302.5 L
384.178 302.5 L
384.612 302.5 L
385.046 302.5 L
385.48 302.5 L
385.914 302.5 L
386.348 302.5 L
386.782 302.5 L
387.216 302.5 L
387.65 302.5 L
388.084 302.5 L
388.518 302.5 L
388.952 302.5 L
389.386 302.5 L
389.82 302.5 L
390.254 302.5 L
390.688 302.5 L
391.122 302.5 L
391.556 302.5 L
391.99 302.5 L
392.424 302.5 L
392.858 302.5 L
393.292 302.5 L
393.726 302.5 L
394.16 302.5 L
394.594 302.5 L
395.028 302.5 L
395.462 302.5 L
395.896 302.5 L
396.33 302.5 L
396.764 302.5 L
397.198 302.5 L
397.632 302.5 L
398.066 302.5 L
398.5 302.5 L
398.934 302.5 L
399.368 302.5 L
399.802 302.5 L
400.236 302.5 L
400.67 302.5 L
401.104 302.5 L
401.538 302.5 L
401.972 302.5 L
402.406 302.5 L
402.84 302.5 L
403.274 302.5 L
403.708 302.5 L
404.142 302.5 L
404.576 302.5 L
405.01 302.5 L
405.444 302.5 L
405.878 302.5 L
406.312 302.5 L
406.746 302.5 L
407.18 302.5 L
407.614 302.5 L
408.048 302.5 L
408.482 302.5 L
408.916 302.5 L
409.35 302.5 L
409.784 302.5 L
410.218 302.5 L
410.652 302.5 L
411.086 302.5 L
411.52 302.5 L
411.954 302.5 L
412.388 302.5 L
412.822 302.5 L
413.256 302.5 L
413.69 302.5 L
414.124 302.5 L
414.558 302.5 L
414.992 302.5 L
415.426 302.5 L
415.86 302.5 L
416.294 302.5 L
416.728 302.5 L
417.162 302.5 L
417.596 302.5 L
418.03 302.5 L
418.464 302.5 L
418.898 302.5 L
419.332 302.5 L
419.766 302.5 L
420.2 302.5 L
420.634 302.5 L
421.068 302.5 L
421.502 302.5 L
421.936 302.5 L
422.37 302.5 L
422.804 302.5 L
423.238 302.5 L
423.672 302.5 L
424.106 302.5 L
424.54 302.5 L
424.974 302.5 L
425.408 302.5 L
425.842 302.5 L
426.276 302.5 L
426.71 302.5 L
427.144 302.5 L
427.578 302.5 L
428.012 302.5 L
428.446 302.5 L
428.88 302.5 L
429.314 302.5 L
429.748 302.5 L
430.182 302.5 L
430.616 302.5 L
431.05 302.5 L
431.484 302.5 L
431.918 302.5 L
432.352 302.5 L
432.786 302.5 L
433.22 302.5 L
433.654 302.5 L
434.088 302.5 L
434.522 302.5 L
434.956 302.5 L
435.39 302.5 L
435.824 302.5 L
436.258 302.5 L
436.692 302.5 L
437.126 302.5 L
437.56 302.5 L
437.994 302.5 L
438.428 302.5 L
438.862 302.5 L
439.296 302.5 L
439.73 302.5 L
440.164 302.5 L
440.598 302.5 L
441.032 302.5 L
441.466 302.5 L
441.9 302.5 L
442.334 302.5 L
442.768 302.5 L
443.202 302.5 L
443.636 302.5 L
444.07 302.5 L
444.504 302.5 L
444.938 302.5 L
445.372 302.5 L
445.806 302.5 L
446.24 302.5 L
446.674 302.5 L
447.108 302.5 L
447.542 302.5 L
447.976 302.5 L
448.41 302.5 L
448.844 302.5 L
449.278 302.5 L
449.712 302.5 L
450.146 302.5 L
450.58 302.5 L
451.014 302.5 L
451.448 302.5 L
451.882 302.5 L
452.316 302.5 L
452.75 302.5 L
453.184 302.5 L
453.618 302.5 L
454.052 302.5 L
454.486 302.5 L
454.92 302.5 L
455.354 302.5 L
455.788 302.5 L
456.222 302.5 L
456.656 302.5 L
457.09 302.5 L
457.524 302.5 L
457.958 302.5 L
458.392 302.5 L
458.826 302.5 L
459.26 302.5 L
459.694 302.5 L
460.128 302.5 L
460.562 302.5 L
460.996 302.5 L
461.43 302.5 L
461.864 302.5 L
462.298 302.5 L
462.732 302.5 L
463.166 302.5 L
463.6 302.5 L
464.034 302.5 L
464.468 302.5 L
464.902 302.5 L
465.336 302.5 L
465.77 302.5 L
466.204 302.5 L
466.638 302.5 L
467.072 302.5 L
467.506 302.5 L
467.94 302.5 L
468.374 302.5 L
468.808 302.5 L
469.242 302.5 L
469.676 302.5 L
470.11 302.5 L
470.544 302.5 L
470.978 302.5 L
471.412 302.5 L
471.846 302.5 L
472.28 302.5 L
472.714 302.5 L
473.148 302.5 L
473.582 302.5 L
474.016 302.5 L
474.45 302.5 L
474.884 302.5 L
475.318 302.5 L
475.752 302.5 L
476.186 302.5 L
476.62 302.5 L
477.054 302.5 L
477.488 302.5 L
477.922 302.5 L
478.356 302.5 L
478.79 302.5 L
479.224 302.5 L
479.658 302.5 L
480.092 302.5 L
480.526 302.5 L
480.96 302.5 L
481.394 302.5 L
481.828 302.5 L
482.262 302.5 L
482.696 302.5 L
483.13 302.5 L
483.564 302.5 L
483.998 302.5 L
484.432 302.5 L
484.866 302.5 L
485.3 302.5 L
485.734 302.5 L
486.168 302.5 L
486.602 302.5 L
487.036 302.5 L
487.47 302.5 L
487.904 302.5 L
488.338 302.5 L
488.772 302.5 L
489.206 302.5 L
489.64 302.5 L
490.074 302.5 L
490.508 302.5 L
490.942 302.5 L
491.376 302.5 L
491.81 302.5 L
492.244 302.5 L
492.678 302.5 L
493.112 302.5 L
493.546 302.5 L
493.98 302.5 L
494.414 302.5 L
494.848 302.5 L
495.282 302.5 L
495.716 302.5 L
496.15 302.5 L
496.584 302.5 L
497.018 302.5 L
497.452 302.5 L
497.886 302.5 L
498.32 302.5 L
498.754 302.5 L
499.188 302.5 L
499.622 302.5 L
500.056 302.5 L
500.49 302.5 L
500.924 302.5 L
501.358 302.5 L
501.792 302.5 L
502.226 302.5 L
502.66 302.5 L
503.094 302.5 L
503.528 302.5 L
503.962 302.5 L
504.396 302.5 L
504.83 302.5 L
505.264 302.5 L
505.698 302.5 L
506.132 302.5 L
506.566 302.5 L
507 302.5 L
S
GR
GS
1 GC
N
364 264 M
364 237 L
502 237 L
502 264 L
cp
f
GR
GS
[1 0 0 1 401 244.64151] CT
/Helvetica 9 F
GS
[1 0 0 1 0 0] CT
0 3.5 moveto 
1 -1 scale
(Linear model - residuals) t 
GR
GR
GS
[1 0 0 1 383 244.64151] CT
0 0 1 RC
N
2.667 0 M
2.667 1.473 1.473 2.667 0 2.667 C
-1.473 2.667 -2.667 1.473 -2.667 0 C
-2.667 -1.473 -1.473 -2.667 0 -2.667 C
1.473 -2.667 2.667 -1.473 2.667 0 C
cp
f
GR
GS
[1 0 0 1 401 256.35849] CT
/Helvetica 9 F
GS
[1 0 0 1 0 0] CT
0 3.5 moveto 
1 -1 scale
(Zero Line) t 
GR
GR
GS
1 0 0 RC
1 LJ
N
368 256.358 M
398 256.358 L
S
GR
GS
0.149 GC
10.0 ML
0.5 LW
N
364 264 M
364 237 L
502 237 L
502 264 L
cp
S
GR
%%Trailer
%%Pages: 1
%%EOF
