%!PS-Adobe-3.0 EPSF-3.0
%%Creator: (MATLAB, The Mathworks, Inc. Version 9.0.0.341360 \(R2016a\). Operating System: Mac OS X)
%%Title: /Users/deepak/Documents/MATLAB/matlabprojects/singleCalib_IH/source/wtzp.eps
%%CreationDate: 2016-11-26T23:23:29
%%Pages: (atend)
%%BoundingBox: 0 0 560 420
%%LanguageLevel: 3
%%EndComments
%%BeginProlog
%%BeginResource: procset (Apache XML Graphics Std ProcSet) 1.2 0
%%Version: 1.2 0
%%Copyright: (Copyright 2001-2003,2010 The Apache Software Foundation. License terms: http://www.apache.org/licenses/LICENSE-2.0)
/bd{bind def}bind def
/ld{load def}bd
/GR/grestore ld
/M/moveto ld
/LJ/setlinejoin ld
/C/curveto ld
/f/fill ld
/LW/setlinewidth ld
/GC/setgray ld
/t/show ld
/N/newpath ld
/CT/concat ld
/cp/closepath ld
/S/stroke ld
/L/lineto ld
/CC/setcmykcolor ld
/A/ashow ld
/GS/gsave ld
/RC/setrgbcolor ld
/RM/rmoveto ld
/ML/setmiterlimit ld
/re {4 2 roll M
1 index 0 rlineto
0 exch rlineto
neg 0 rlineto
cp } bd
/_ctm matrix def
/_tm matrix def
/BT { _ctm currentmatrix pop matrix _tm copy pop 0 0 moveto } bd
/ET { _ctm setmatrix } bd
/iTm { _ctm setmatrix _tm concat } bd
/Tm { _tm astore pop iTm 0 0 moveto } bd
/ux 0.0 def
/uy 0.0 def
/F {
  /Tp exch def
  /Tf exch def
  Tf findfont Tp scalefont setfont
  /cf Tf def  /cs Tp def
} bd
/ULS {currentpoint /uy exch def /ux exch def} bd
/ULE {
  /Tcx currentpoint pop def
  gsave
  newpath
  cf findfont cs scalefont dup
  /FontMatrix get 0 get /Ts exch def /FontInfo get dup
  /UnderlinePosition get Ts mul /To exch def
  /UnderlineThickness get Ts mul /Tt exch def
  ux uy To add moveto  Tcx uy To add lineto
  Tt setlinewidth stroke
  grestore
} bd
/OLE {
  /Tcx currentpoint pop def
  gsave
  newpath
  cf findfont cs scalefont dup
  /FontMatrix get 0 get /Ts exch def /FontInfo get dup
  /UnderlinePosition get Ts mul /To exch def
  /UnderlineThickness get Ts mul /Tt exch def
  ux uy To add cs add moveto Tcx uy To add cs add lineto
  Tt setlinewidth stroke
  grestore
} bd
/SOE {
  /Tcx currentpoint pop def
  gsave
  newpath
  cf findfont cs scalefont dup
  /FontMatrix get 0 get /Ts exch def /FontInfo get dup
  /UnderlinePosition get Ts mul /To exch def
  /UnderlineThickness get Ts mul /Tt exch def
  ux uy To add cs 10 mul 26 idiv add moveto Tcx uy To add cs 10 mul 26 idiv add lineto
  Tt setlinewidth stroke
  grestore
} bd
/QT {
/Y22 exch store
/X22 exch store
/Y21 exch store
/X21 exch store
currentpoint
/Y21 load 2 mul add 3 div exch
/X21 load 2 mul add 3 div exch
/X21 load 2 mul /X22 load add 3 div
/Y21 load 2 mul /Y22 load add 3 div
/X22 load /Y22 load curveto
} bd
/SSPD {
dup length /d exch dict def
{
/v exch def
/k exch def
currentpagedevice k known {
/cpdv currentpagedevice k get def
v cpdv ne {
/upd false def
/nullv v type /nulltype eq def
/nullcpdv cpdv type /nulltype eq def
nullv nullcpdv or
{
/upd true def
} {
/sametype v type cpdv type eq def
sametype {
v type /arraytype eq {
/vlen v length def
/cpdvlen cpdv length def
vlen cpdvlen eq {
0 1 vlen 1 sub {
/i exch def
/obj v i get def
/cpdobj cpdv i get def
obj cpdobj ne {
/upd true def
exit
} if
} for
} {
/upd true def
} ifelse
} {
v type /dicttype eq {
v {
/dv exch def
/dk exch def
/cpddv cpdv dk get def
dv cpddv ne {
/upd true def
exit
} if
} forall
} {
/upd true def
} ifelse
} ifelse
} if
} ifelse
upd true eq {
d k v put
} if
} if
} if
} forall
d length 0 gt {
d setpagedevice
} if
} bd
%%EndResource
%%BeginResource: procset (Apache XML Graphics EPS ProcSet) 1.0 0
%%Version: 1.0 0
%%Copyright: (Copyright 2002-2003 The Apache Software Foundation. License terms: http://www.apache.org/licenses/LICENSE-2.0)
/BeginEPSF { %def
/b4_Inc_state save def         % Save state for cleanup
/dict_count countdictstack def % Count objects on dict stack
/op_count count 1 sub def      % Count objects on operand stack
userdict begin                 % Push userdict on dict stack
/showpage { } def              % Redefine showpage, { } = null proc
0 setgray 0 setlinecap         % Prepare graphics state
1 setlinewidth 0 setlinejoin
10 setmiterlimit [ ] 0 setdash newpath
/languagelevel where           % If level not equal to 1 then
{pop languagelevel             % set strokeadjust and
1 ne                           % overprint to their defaults.
{false setstrokeadjust false setoverprint
} if
} if
} bd
/EndEPSF { %def
count op_count sub {pop} repeat            % Clean up stacks
countdictstack dict_count sub {end} repeat
b4_Inc_state restore
} bd
%%EndResource
%FOPBeginFontDict
%%IncludeResource: font Courier-Bold
%%IncludeResource: font Helvetica
%%IncludeResource: font Courier-BoldOblique
%%IncludeResource: font Courier-Oblique
%%IncludeResource: font Times-Roman
%%IncludeResource: font Helvetica-BoldOblique
%%IncludeResource: font Helvetica-Bold
%%IncludeResource: font Helvetica-Oblique
%%IncludeResource: font Times-BoldItalic
%%IncludeResource: font Courier
%%IncludeResource: font Times-Italic
%%IncludeResource: font Times-Bold
%%IncludeResource: font Symbol
%%IncludeResource: font ZapfDingbats
%FOPEndFontDict
%%BeginResource: encoding WinAnsiEncoding
/WinAnsiEncoding [
/.notdef /.notdef /.notdef /.notdef /.notdef
/.notdef /.notdef /.notdef /.notdef /.notdef
/.notdef /.notdef /.notdef /.notdef /.notdef
/.notdef /.notdef /.notdef /.notdef /.notdef
/.notdef /.notdef /.notdef /.notdef /.notdef
/.notdef /.notdef /.notdef /.notdef /.notdef
/.notdef /.notdef /space /exclam /quotedbl
/numbersign /dollar /percent /ampersand /quotesingle
/parenleft /parenright /asterisk /plus /comma
/hyphen /period /slash /zero /one
/two /three /four /five /six
/seven /eight /nine /colon /semicolon
/less /equal /greater /question /at
/A /B /C /D /E
/F /G /H /I /J
/K /L /M /N /O
/P /Q /R /S /T
/U /V /W /X /Y
/Z /bracketleft /backslash /bracketright /asciicircum
/underscore /quoteleft /a /b /c
/d /e /f /g /h
/i /j /k /l /m
/n /o /p /q /r
/s /t /u /v /w
/x /y /z /braceleft /bar
/braceright /asciitilde /bullet /Euro /bullet
/quotesinglbase /florin /quotedblbase /ellipsis /dagger
/daggerdbl /circumflex /perthousand /Scaron /guilsinglleft
/OE /bullet /Zcaron /bullet /bullet
/quoteleft /quoteright /quotedblleft /quotedblright /bullet
/endash /emdash /asciitilde /trademark /scaron
/guilsinglright /oe /bullet /zcaron /Ydieresis
/space /exclamdown /cent /sterling /currency
/yen /brokenbar /section /dieresis /copyright
/ordfeminine /guillemotleft /logicalnot /sfthyphen /registered
/macron /degree /plusminus /twosuperior /threesuperior
/acute /mu /paragraph /middot /cedilla
/onesuperior /ordmasculine /guillemotright /onequarter /onehalf
/threequarters /questiondown /Agrave /Aacute /Acircumflex
/Atilde /Adieresis /Aring /AE /Ccedilla
/Egrave /Eacute /Ecircumflex /Edieresis /Igrave
/Iacute /Icircumflex /Idieresis /Eth /Ntilde
/Ograve /Oacute /Ocircumflex /Otilde /Odieresis
/multiply /Oslash /Ugrave /Uacute /Ucircumflex
/Udieresis /Yacute /Thorn /germandbls /agrave
/aacute /acircumflex /atilde /adieresis /aring
/ae /ccedilla /egrave /eacute /ecircumflex
/edieresis /igrave /iacute /icircumflex /idieresis
/eth /ntilde /ograve /oacute /ocircumflex
/otilde /odieresis /divide /oslash /ugrave
/uacute /ucircumflex /udieresis /yacute /thorn
/ydieresis
] def
%%EndResource
%FOPBeginFontReencode
/Courier-Bold findfont
dup length dict begin
  {1 index /FID ne {def} {pop pop} ifelse} forall
  /Encoding WinAnsiEncoding def
  currentdict
end
/Courier-Bold exch definefont pop
/Helvetica findfont
dup length dict begin
  {1 index /FID ne {def} {pop pop} ifelse} forall
  /Encoding WinAnsiEncoding def
  currentdict
end
/Helvetica exch definefont pop
/Courier-BoldOblique findfont
dup length dict begin
  {1 index /FID ne {def} {pop pop} ifelse} forall
  /Encoding WinAnsiEncoding def
  currentdict
end
/Courier-BoldOblique exch definefont pop
/Courier-Oblique findfont
dup length dict begin
  {1 index /FID ne {def} {pop pop} ifelse} forall
  /Encoding WinAnsiEncoding def
  currentdict
end
/Courier-Oblique exch definefont pop
/Times-Roman findfont
dup length dict begin
  {1 index /FID ne {def} {pop pop} ifelse} forall
  /Encoding WinAnsiEncoding def
  currentdict
end
/Times-Roman exch definefont pop
/Helvetica-BoldOblique findfont
dup length dict begin
  {1 index /FID ne {def} {pop pop} ifelse} forall
  /Encoding WinAnsiEncoding def
  currentdict
end
/Helvetica-BoldOblique exch definefont pop
/Helvetica-Bold findfont
dup length dict begin
  {1 index /FID ne {def} {pop pop} ifelse} forall
  /Encoding WinAnsiEncoding def
  currentdict
end
/Helvetica-Bold exch definefont pop
/Helvetica-Oblique findfont
dup length dict begin
  {1 index /FID ne {def} {pop pop} ifelse} forall
  /Encoding WinAnsiEncoding def
  currentdict
end
/Helvetica-Oblique exch definefont pop
/Times-BoldItalic findfont
dup length dict begin
  {1 index /FID ne {def} {pop pop} ifelse} forall
  /Encoding WinAnsiEncoding def
  currentdict
end
/Times-BoldItalic exch definefont pop
/Courier findfont
dup length dict begin
  {1 index /FID ne {def} {pop pop} ifelse} forall
  /Encoding WinAnsiEncoding def
  currentdict
end
/Courier exch definefont pop
/Times-Italic findfont
dup length dict begin
  {1 index /FID ne {def} {pop pop} ifelse} forall
  /Encoding WinAnsiEncoding def
  currentdict
end
/Times-Italic exch definefont pop
/Times-Bold findfont
dup length dict begin
  {1 index /FID ne {def} {pop pop} ifelse} forall
  /Encoding WinAnsiEncoding def
  currentdict
end
/Times-Bold exch definefont pop
%FOPEndFontReencode
%%EndProlog
%%Page: 1 1
%%PageBoundingBox: 0 0 560 420
%%BeginPageSetup
[1 0 0 -1 0 420] CT
%%EndPageSetup
GS
1 GC
N
0 0 560 420 re
f
GR
GS
1 GC
N
0 0 560 420 re
f
GR
GS
1 GC
N
73 175 M
507 175 L
507 31 L
73 31 L
cp
f
GR
GS
0.873 GC
1 LJ
0.5 LW
N
73 175 M
73 31 L
S
GR
GS
0.873 GC
1 LJ
0.5 LW
N
116.4 175 M
116.4 31 L
S
GR
GS
0.873 GC
1 LJ
0.5 LW
N
159.8 175 M
159.8 31 L
S
GR
GS
0.873 GC
1 LJ
0.5 LW
N
203.2 175 M
203.2 31 L
S
GR
GS
0.873 GC
1 LJ
0.5 LW
N
246.6 175 M
246.6 31 L
S
GR
GS
0.873 GC
1 LJ
0.5 LW
N
290 175 M
290 31 L
S
GR
GS
0.873 GC
1 LJ
0.5 LW
N
333.4 175 M
333.4 31 L
S
GR
GS
0.873 GC
1 LJ
0.5 LW
N
376.8 175 M
376.8 31 L
S
GR
GS
0.873 GC
1 LJ
0.5 LW
N
420.2 175 M
420.2 31 L
S
GR
GS
0.873 GC
1 LJ
0.5 LW
N
463.6 175 M
463.6 31 L
S
GR
GS
0.873 GC
1 LJ
0.5 LW
N
507 175 M
507 31 L
S
GR
GS
0.873 GC
1 LJ
0.5 LW
N
507 175 M
73 175 L
S
GR
GS
0.873 GC
1 LJ
0.5 LW
N
507 146.2 M
73 146.2 L
S
GR
GS
0.873 GC
1 LJ
0.5 LW
N
507 117.4 M
73 117.4 L
S
GR
GS
0.873 GC
1 LJ
0.5 LW
N
507 88.6 M
73 88.6 L
S
GR
GS
0.873 GC
1 LJ
0.5 LW
N
507 59.8 M
73 59.8 L
S
GR
GS
0.873 GC
1 LJ
0.5 LW
N
507 31 M
73 31 L
S
GR
GS
0.149 GC
2 setlinecap
1 LJ
0.5 LW
N
73 175 M
507 175 L
S
GR
GS
0.149 GC
2 setlinecap
1 LJ
0.5 LW
N
73 31 M
507 31 L
S
GR
GS
0.149 GC
2 setlinecap
1 LJ
0.5 LW
N
73 175 M
73 170.66 L
S
GR
GS
0.149 GC
2 setlinecap
1 LJ
0.5 LW
N
116.4 175 M
116.4 170.66 L
S
GR
GS
0.149 GC
2 setlinecap
1 LJ
0.5 LW
N
159.8 175 M
159.8 170.66 L
S
GR
GS
0.149 GC
2 setlinecap
1 LJ
0.5 LW
N
203.2 175 M
203.2 170.66 L
S
GR
GS
0.149 GC
2 setlinecap
1 LJ
0.5 LW
N
246.6 175 M
246.6 170.66 L
S
GR
GS
0.149 GC
2 setlinecap
1 LJ
0.5 LW
N
290 175 M
290 170.66 L
S
GR
GS
0.149 GC
2 setlinecap
1 LJ
0.5 LW
N
333.4 175 M
333.4 170.66 L
S
GR
GS
0.149 GC
2 setlinecap
1 LJ
0.5 LW
N
376.8 175 M
376.8 170.66 L
S
GR
GS
0.149 GC
2 setlinecap
1 LJ
0.5 LW
N
420.2 175 M
420.2 170.66 L
S
GR
GS
0.149 GC
2 setlinecap
1 LJ
0.5 LW
N
463.6 175 M
463.6 170.66 L
S
GR
GS
0.149 GC
2 setlinecap
1 LJ
0.5 LW
N
507 175 M
507 170.66 L
S
GR
GS
0.149 GC
2 setlinecap
1 LJ
0.5 LW
N
73 31 M
73 35.34 L
S
GR
GS
0.149 GC
2 setlinecap
1 LJ
0.5 LW
N
116.4 31 M
116.4 35.34 L
S
GR
GS
0.149 GC
2 setlinecap
1 LJ
0.5 LW
N
159.8 31 M
159.8 35.34 L
S
GR
GS
0.149 GC
2 setlinecap
1 LJ
0.5 LW
N
203.2 31 M
203.2 35.34 L
S
GR
GS
0.149 GC
2 setlinecap
1 LJ
0.5 LW
N
246.6 31 M
246.6 35.34 L
S
GR
GS
0.149 GC
2 setlinecap
1 LJ
0.5 LW
N
290 31 M
290 35.34 L
S
GR
GS
0.149 GC
2 setlinecap
1 LJ
0.5 LW
N
333.4 31 M
333.4 35.34 L
S
GR
GS
0.149 GC
2 setlinecap
1 LJ
0.5 LW
N
376.8 31 M
376.8 35.34 L
S
GR
GS
0.149 GC
2 setlinecap
1 LJ
0.5 LW
N
420.2 31 M
420.2 35.34 L
S
GR
GS
0.149 GC
2 setlinecap
1 LJ
0.5 LW
N
463.6 31 M
463.6 35.34 L
S
GR
GS
0.149 GC
2 setlinecap
1 LJ
0.5 LW
N
507 31 M
507 35.34 L
S
GR
GS
[1 0 0 1 73 179] CT
0.149 GC
/Helvetica 10 F
GS
[1 0 0 1 0 0] CT
-3 10 moveto 
1 -1 scale
(0) t 
GR
GR
GS
[1 0 0 1 116.4 179] CT
0.149 GC
/Helvetica 10 F
GS
[1 0 0 1 0 0] CT
-6 10 moveto 
1 -1 scale
(10) t 
GR
GR
GS
[1 0 0 1 159.8 179] CT
0.149 GC
/Helvetica 10 F
GS
[1 0 0 1 0 0] CT
-6 10 moveto 
1 -1 scale
(20) t 
GR
GR
GS
[1 0 0 1 203.2 179] CT
0.149 GC
/Helvetica 10 F
GS
[1 0 0 1 0 0] CT
-6 10 moveto 
1 -1 scale
(30) t 
GR
GR
GS
[1 0 0 1 246.60001 179] CT
0.149 GC
/Helvetica 10 F
GS
[1 0 0 1 0 0] CT
-6 10 moveto 
1 -1 scale
(40) t 
GR
GR
GS
[1 0 0 1 290 179] CT
0.149 GC
/Helvetica 10 F
GS
[1 0 0 1 0 0] CT
-6 10 moveto 
1 -1 scale
(50) t 
GR
GR
GS
[1 0 0 1 333.39999 179] CT
0.149 GC
/Helvetica 10 F
GS
[1 0 0 1 0 0] CT
-6 10 moveto 
1 -1 scale
(60) t 
GR
GR
GS
[1 0 0 1 376.79999 179] CT
0.149 GC
/Helvetica 10 F
GS
[1 0 0 1 0 0] CT
-6 10 moveto 
1 -1 scale
(70) t 
GR
GR
GS
[1 0 0 1 420.20001 179] CT
0.149 GC
/Helvetica 10 F
GS
[1 0 0 1 0 0] CT
-6 10 moveto 
1 -1 scale
(80) t 
GR
GR
GS
[1 0 0 1 463.60001 179] CT
0.149 GC
/Helvetica 10 F
GS
[1 0 0 1 0 0] CT
-6 10 moveto 
1 -1 scale
(90) t 
GR
GR
GS
[1 0 0 1 507 179] CT
0.149 GC
/Helvetica 10 F
GS
[1 0 0 1 0 0] CT
-8.5 10 moveto 
1 -1 scale
(100) t 
GR
GR
GS
[1 0 0 1 290.00021 193] CT
0.149 GC
/Helvetica-Bold 12 F
GS
[1 0 0 1 0 0] CT
-78 12 moveto 
1 -1 scale
(Camera translation \(in mm\)) t 
GR
GR
GS
0.149 GC
2 setlinecap
1 LJ
0.5 LW
N
73 175 M
73 31 L
S
GR
GS
0.149 GC
2 setlinecap
1 LJ
0.5 LW
N
507 175 M
507 31 L
S
GR
GS
0.149 GC
2 setlinecap
1 LJ
0.5 LW
N
73 175 M
77.34 175 L
S
GR
GS
0.149 GC
2 setlinecap
1 LJ
0.5 LW
N
73 146.2 M
77.34 146.2 L
S
GR
GS
0.149 GC
2 setlinecap
1 LJ
0.5 LW
N
73 117.4 M
77.34 117.4 L
S
GR
GS
0.149 GC
2 setlinecap
1 LJ
0.5 LW
N
73 88.6 M
77.34 88.6 L
S
GR
GS
0.149 GC
2 setlinecap
1 LJ
0.5 LW
N
73 59.8 M
77.34 59.8 L
S
GR
GS
0.149 GC
2 setlinecap
1 LJ
0.5 LW
N
73 31 M
77.34 31 L
S
GR
GS
0.149 GC
2 setlinecap
1 LJ
0.5 LW
N
507 175 M
502.66 175 L
S
GR
GS
0.149 GC
2 setlinecap
1 LJ
0.5 LW
N
507 146.2 M
502.66 146.2 L
S
GR
GS
0.149 GC
2 setlinecap
1 LJ
0.5 LW
N
507 117.4 M
502.66 117.4 L
S
GR
GS
0.149 GC
2 setlinecap
1 LJ
0.5 LW
N
507 88.6 M
502.66 88.6 L
S
GR
GS
0.149 GC
2 setlinecap
1 LJ
0.5 LW
N
507 59.8 M
502.66 59.8 L
S
GR
GS
0.149 GC
2 setlinecap
1 LJ
0.5 LW
N
507 31 M
502.66 31 L
S
GR
GS
[1 0 0 1 69 175] CT
0.149 GC
/Helvetica 10 F
GS
[1 0 0 1 0 0] CT
-6 3.5 moveto 
1 -1 scale
(0) t 
GR
GR
GS
[1 0 0 1 69 146.2] CT
0.149 GC
/Helvetica 10 F
GS
[1 0 0 1 0 0] CT
-14 3.5 moveto 
1 -1 scale
(0.2) t 
GR
GR
GS
[1 0 0 1 69 117.4] CT
0.149 GC
/Helvetica 10 F
GS
[1 0 0 1 0 0] CT
-14 3.5 moveto 
1 -1 scale
(0.4) t 
GR
GR
GS
[1 0 0 1 69 88.6] CT
0.149 GC
/Helvetica 10 F
GS
[1 0 0 1 0 0] CT
-14 3.5 moveto 
1 -1 scale
(0.6) t 
GR
GR
GS
[1 0 0 1 69 59.8] CT
0.149 GC
/Helvetica 10 F
GS
[1 0 0 1 0 0] CT
-14 3.5 moveto 
1 -1 scale
(0.8) t 
GR
GR
GS
[1 0 0 1 69 31] CT
0.149 GC
/Helvetica 10 F
GS
[1 0 0 1 0 0] CT
-6 3.5 moveto 
1 -1 scale
(1) t 
GR
GR
GS
[0 -1 1 0 52 102.99993] CT
0.149 GC
/Helvetica-Bold 12 F
GS
[1 0 0 1 0 0] CT
-55.5 -3 moveto 
1 -1 scale
(Width error \(in mm\)) t 
GR
GR
GS
[1 0 0 1 73 175] CT
0 0 1 RC
N
2.667 0 M
2.667 1.473 1.473 2.667 0 2.667 C
-1.473 2.667 -2.667 1.473 -2.667 0 C
-2.667 -1.473 -1.473 -2.667 0 -2.667 C
1.473 -2.667 2.667 -1.473 2.667 0 C
cp
f
GR
GS
[1 0 0 1 77.34 173.71399] CT
0 0 1 RC
N
2.667 0 M
2.667 1.473 1.473 2.667 0 2.667 C
-1.473 2.667 -2.667 1.473 -2.667 0 C
-2.667 -1.473 -1.473 -2.667 0 -2.667 C
1.473 -2.667 2.667 -1.473 2.667 0 C
cp
f
GR
GS
[1 0 0 1 81.68 172.46608] CT
0 0 1 RC
N
2.667 0 M
2.667 1.473 1.473 2.667 0 2.667 C
-1.473 2.667 -2.667 1.473 -2.667 0 C
-2.667 -1.473 -1.473 -2.667 0 -2.667 C
1.473 -2.667 2.667 -1.473 2.667 0 C
cp
f
GR
GS
[1 0 0 1 86.02 171.32515] CT
0 0 1 RC
N
2.667 0 M
2.667 1.473 1.473 2.667 0 2.667 C
-1.473 2.667 -2.667 1.473 -2.667 0 C
-2.667 -1.473 -1.473 -2.667 0 -2.667 C
1.473 -2.667 2.667 -1.473 2.667 0 C
cp
f
GR
GS
[1 0 0 1 90.36 170.05872] CT
0 0 1 RC
N
2.667 0 M
2.667 1.473 1.473 2.667 0 2.667 C
-1.473 2.667 -2.667 1.473 -2.667 0 C
-2.667 -1.473 -1.473 -2.667 0 -2.667 C
1.473 -2.667 2.667 -1.473 2.667 0 C
cp
f
GR
GS
[1 0 0 1 94.7 168.6969] CT
0 0 1 RC
N
2.667 0 M
2.667 1.473 1.473 2.667 0 2.667 C
-1.473 2.667 -2.667 1.473 -2.667 0 C
-2.667 -1.473 -1.473 -2.667 0 -2.667 C
1.473 -2.667 2.667 -1.473 2.667 0 C
cp
f
GR
GS
[1 0 0 1 99.04 167.35745] CT
0 0 1 RC
N
2.667 0 M
2.667 1.473 1.473 2.667 0 2.667 C
-1.473 2.667 -2.667 1.473 -2.667 0 C
-2.667 -1.473 -1.473 -2.667 0 -2.667 C
1.473 -2.667 2.667 -1.473 2.667 0 C
cp
f
GR
GS
[1 0 0 1 103.38 166.23686] CT
0 0 1 RC
N
2.667 0 M
2.667 1.473 1.473 2.667 0 2.667 C
-1.473 2.667 -2.667 1.473 -2.667 0 C
-2.667 -1.473 -1.473 -2.667 0 -2.667 C
1.473 -2.667 2.667 -1.473 2.667 0 C
cp
f
GR
GS
[1 0 0 1 107.72 165.31055] CT
0 0 1 RC
N
2.667 0 M
2.667 1.473 1.473 2.667 0 2.667 C
-1.473 2.667 -2.667 1.473 -2.667 0 C
-2.667 -1.473 -1.473 -2.667 0 -2.667 C
1.473 -2.667 2.667 -1.473 2.667 0 C
cp
f
GR
GS
[1 0 0 1 112.06 163.79283] CT
0 0 1 RC
N
2.667 0 M
2.667 1.473 1.473 2.667 0 2.667 C
-1.473 2.667 -2.667 1.473 -2.667 0 C
-2.667 -1.473 -1.473 -2.667 0 -2.667 C
1.473 -2.667 2.667 -1.473 2.667 0 C
cp
f
GR
GS
[1 0 0 1 116.4 162.49654] CT
0 0 1 RC
N
2.667 0 M
2.667 1.473 1.473 2.667 0 2.667 C
-1.473 2.667 -2.667 1.473 -2.667 0 C
-2.667 -1.473 -1.473 -2.667 0 -2.667 C
1.473 -2.667 2.667 -1.473 2.667 0 C
cp
f
GR
GS
[1 0 0 1 120.74 161.24438] CT
0 0 1 RC
N
2.667 0 M
2.667 1.473 1.473 2.667 0 2.667 C
-1.473 2.667 -2.667 1.473 -2.667 0 C
-2.667 -1.473 -1.473 -2.667 0 -2.667 C
1.473 -2.667 2.667 -1.473 2.667 0 C
cp
f
GR
GS
[1 0 0 1 125.08 160.00974] CT
0 0 1 RC
N
2.667 0 M
2.667 1.473 1.473 2.667 0 2.667 C
-1.473 2.667 -2.667 1.473 -2.667 0 C
-2.667 -1.473 -1.473 -2.667 0 -2.667 C
1.473 -2.667 2.667 -1.473 2.667 0 C
cp
f
GR
GS
[1 0 0 1 129.42 158.23157] CT
0 0 1 RC
N
2.667 0 M
2.667 1.473 1.473 2.667 0 2.667 C
-1.473 2.667 -2.667 1.473 -2.667 0 C
-2.667 -1.473 -1.473 -2.667 0 -2.667 C
1.473 -2.667 2.667 -1.473 2.667 0 C
cp
f
GR
GS
[1 0 0 1 133.75999 157.38428] CT
0 0 1 RC
N
2.667 0 M
2.667 1.473 1.473 2.667 0 2.667 C
-1.473 2.667 -2.667 1.473 -2.667 0 C
-2.667 -1.473 -1.473 -2.667 0 -2.667 C
1.473 -2.667 2.667 -1.473 2.667 0 C
cp
f
GR
GS
[1 0 0 1 138.10001 155.8389] CT
0 0 1 RC
N
2.667 0 M
2.667 1.473 1.473 2.667 0 2.667 C
-1.473 2.667 -2.667 1.473 -2.667 0 C
-2.667 -1.473 -1.473 -2.667 0 -2.667 C
1.473 -2.667 2.667 -1.473 2.667 0 C
cp
f
GR
GS
[1 0 0 1 142.44 154.85696] CT
0 0 1 RC
N
2.667 0 M
2.667 1.473 1.473 2.667 0 2.667 C
-1.473 2.667 -2.667 1.473 -2.667 0 C
-2.667 -1.473 -1.473 -2.667 0 -2.667 C
1.473 -2.667 2.667 -1.473 2.667 0 C
cp
f
GR
GS
[1 0 0 1 146.78 154.43019] CT
0 0 1 RC
N
2.667 0 M
2.667 1.473 1.473 2.667 0 2.667 C
-1.473 2.667 -2.667 1.473 -2.667 0 C
-2.667 -1.473 -1.473 -2.667 0 -2.667 C
1.473 -2.667 2.667 -1.473 2.667 0 C
cp
f
GR
GS
[1 0 0 1 151.12 152.87701] CT
0 0 1 RC
N
2.667 0 M
2.667 1.473 1.473 2.667 0 2.667 C
-1.473 2.667 -2.667 1.473 -2.667 0 C
-2.667 -1.473 -1.473 -2.667 0 -2.667 C
1.473 -2.667 2.667 -1.473 2.667 0 C
cp
f
GR
GS
[1 0 0 1 155.46001 151.12357] CT
0 0 1 RC
N
2.667 0 M
2.667 1.473 1.473 2.667 0 2.667 C
-1.473 2.667 -2.667 1.473 -2.667 0 C
-2.667 -1.473 -1.473 -2.667 0 -2.667 C
1.473 -2.667 2.667 -1.473 2.667 0 C
cp
f
GR
GS
[1 0 0 1 159.8 150.21152] CT
0 0 1 RC
N
2.667 0 M
2.667 1.473 1.473 2.667 0 2.667 C
-1.473 2.667 -2.667 1.473 -2.667 0 C
-2.667 -1.473 -1.473 -2.667 0 -2.667 C
1.473 -2.667 2.667 -1.473 2.667 0 C
cp
f
GR
GS
[1 0 0 1 164.14 148.8403] CT
0 0 1 RC
N
2.667 0 M
2.667 1.473 1.473 2.667 0 2.667 C
-1.473 2.667 -2.667 1.473 -2.667 0 C
-2.667 -1.473 -1.473 -2.667 0 -2.667 C
1.473 -2.667 2.667 -1.473 2.667 0 C
cp
f
GR
GS
[1 0 0 1 168.48 147.46631] CT
0 0 1 RC
N
2.667 0 M
2.667 1.473 1.473 2.667 0 2.667 C
-1.473 2.667 -2.667 1.473 -2.667 0 C
-2.667 -1.473 -1.473 -2.667 0 -2.667 C
1.473 -2.667 2.667 -1.473 2.667 0 C
cp
f
GR
GS
[1 0 0 1 172.82001 146.4501] CT
0 0 1 RC
N
2.667 0 M
2.667 1.473 1.473 2.667 0 2.667 C
-1.473 2.667 -2.667 1.473 -2.667 0 C
-2.667 -1.473 -1.473 -2.667 0 -2.667 C
1.473 -2.667 2.667 -1.473 2.667 0 C
cp
f
GR
GS
[1 0 0 1 177.16 146.1729] CT
0 0 1 RC
N
2.667 0 M
2.667 1.473 1.473 2.667 0 2.667 C
-1.473 2.667 -2.667 1.473 -2.667 0 C
-2.667 -1.473 -1.473 -2.667 0 -2.667 C
1.473 -2.667 2.667 -1.473 2.667 0 C
cp
f
GR
GS
[1 0 0 1 181.5 144.19891] CT
0 0 1 RC
N
2.667 0 M
2.667 1.473 1.473 2.667 0 2.667 C
-1.473 2.667 -2.667 1.473 -2.667 0 C
-2.667 -1.473 -1.473 -2.667 0 -2.667 C
1.473 -2.667 2.667 -1.473 2.667 0 C
cp
f
GR
GS
[1 0 0 1 185.84 142.2742] CT
0 0 1 RC
N
2.667 0 M
2.667 1.473 1.473 2.667 0 2.667 C
-1.473 2.667 -2.667 1.473 -2.667 0 C
-2.667 -1.473 -1.473 -2.667 0 -2.667 C
1.473 -2.667 2.667 -1.473 2.667 0 C
cp
f
GR
GS
[1 0 0 1 190.17999 141.06557] CT
0 0 1 RC
N
2.667 0 M
2.667 1.473 1.473 2.667 0 2.667 C
-1.473 2.667 -2.667 1.473 -2.667 0 C
-2.667 -1.473 -1.473 -2.667 0 -2.667 C
1.473 -2.667 2.667 -1.473 2.667 0 C
cp
f
GR
GS
[1 0 0 1 194.52 140.00742] CT
0 0 1 RC
N
2.667 0 M
2.667 1.473 1.473 2.667 0 2.667 C
-1.473 2.667 -2.667 1.473 -2.667 0 C
-2.667 -1.473 -1.473 -2.667 0 -2.667 C
1.473 -2.667 2.667 -1.473 2.667 0 C
cp
f
GR
GS
[1 0 0 1 198.86 139.168] CT
0 0 1 RC
N
2.667 0 M
2.667 1.473 1.473 2.667 0 2.667 C
-1.473 2.667 -2.667 1.473 -2.667 0 C
-2.667 -1.473 -1.473 -2.667 0 -2.667 C
1.473 -2.667 2.667 -1.473 2.667 0 C
cp
f
GR
GS
[1 0 0 1 203.2 138.51347] CT
0 0 1 RC
N
2.667 0 M
2.667 1.473 1.473 2.667 0 2.667 C
-1.473 2.667 -2.667 1.473 -2.667 0 C
-2.667 -1.473 -1.473 -2.667 0 -2.667 C
1.473 -2.667 2.667 -1.473 2.667 0 C
cp
f
GR
GS
[1 0 0 1 207.53999 137.60052] CT
0 0 1 RC
N
2.667 0 M
2.667 1.473 1.473 2.667 0 2.667 C
-1.473 2.667 -2.667 1.473 -2.667 0 C
-2.667 -1.473 -1.473 -2.667 0 -2.667 C
1.473 -2.667 2.667 -1.473 2.667 0 C
cp
f
GR
GS
[1 0 0 1 211.88 135.51543] CT
0 0 1 RC
N
2.667 0 M
2.667 1.473 1.473 2.667 0 2.667 C
-1.473 2.667 -2.667 1.473 -2.667 0 C
-2.667 -1.473 -1.473 -2.667 0 -2.667 C
1.473 -2.667 2.667 -1.473 2.667 0 C
cp
f
GR
GS
[1 0 0 1 216.22 134.27417] CT
0 0 1 RC
N
2.667 0 M
2.667 1.473 1.473 2.667 0 2.667 C
-1.473 2.667 -2.667 1.473 -2.667 0 C
-2.667 -1.473 -1.473 -2.667 0 -2.667 C
1.473 -2.667 2.667 -1.473 2.667 0 C
cp
f
GR
GS
[1 0 0 1 220.56 132.97823] CT
0 0 1 RC
N
2.667 0 M
2.667 1.473 1.473 2.667 0 2.667 C
-1.473 2.667 -2.667 1.473 -2.667 0 C
-2.667 -1.473 -1.473 -2.667 0 -2.667 C
1.473 -2.667 2.667 -1.473 2.667 0 C
cp
f
GR
GS
[1 0 0 1 224.89999 131.81677] CT
0 0 1 RC
N
2.667 0 M
2.667 1.473 1.473 2.667 0 2.667 C
-1.473 2.667 -2.667 1.473 -2.667 0 C
-2.667 -1.473 -1.473 -2.667 0 -2.667 C
1.473 -2.667 2.667 -1.473 2.667 0 C
cp
f
GR
GS
[1 0 0 1 229.24001 131.72722] CT
0 0 1 RC
N
2.667 0 M
2.667 1.473 1.473 2.667 0 2.667 C
-1.473 2.667 -2.667 1.473 -2.667 0 C
-2.667 -1.473 -1.473 -2.667 0 -2.667 C
1.473 -2.667 2.667 -1.473 2.667 0 C
cp
f
GR
GS
[1 0 0 1 233.58 128.97717] CT
0 0 1 RC
N
2.667 0 M
2.667 1.473 1.473 2.667 0 2.667 C
-1.473 2.667 -2.667 1.473 -2.667 0 C
-2.667 -1.473 -1.473 -2.667 0 -2.667 C
1.473 -2.667 2.667 -1.473 2.667 0 C
cp
f
GR
GS
[1 0 0 1 237.92 128.61324] CT
0 0 1 RC
N
2.667 0 M
2.667 1.473 1.473 2.667 0 2.667 C
-1.473 2.667 -2.667 1.473 -2.667 0 C
-2.667 -1.473 -1.473 -2.667 0 -2.667 C
1.473 -2.667 2.667 -1.473 2.667 0 C
cp
f
GR
GS
[1 0 0 1 242.25999 127.31357] CT
0 0 1 RC
N
2.667 0 M
2.667 1.473 1.473 2.667 0 2.667 C
-1.473 2.667 -2.667 1.473 -2.667 0 C
-2.667 -1.473 -1.473 -2.667 0 -2.667 C
1.473 -2.667 2.667 -1.473 2.667 0 C
cp
f
GR
GS
[1 0 0 1 246.60001 126.59097] CT
0 0 1 RC
N
2.667 0 M
2.667 1.473 1.473 2.667 0 2.667 C
-1.473 2.667 -2.667 1.473 -2.667 0 C
-2.667 -1.473 -1.473 -2.667 0 -2.667 C
1.473 -2.667 2.667 -1.473 2.667 0 C
cp
f
GR
GS
[1 0 0 1 250.94 126.01627] CT
0 0 1 RC
N
2.667 0 M
2.667 1.473 1.473 2.667 0 2.667 C
-1.473 2.667 -2.667 1.473 -2.667 0 C
-2.667 -1.473 -1.473 -2.667 0 -2.667 C
1.473 -2.667 2.667 -1.473 2.667 0 C
cp
f
GR
GS
[1 0 0 1 255.28 124.17314] CT
0 0 1 RC
N
2.667 0 M
2.667 1.473 1.473 2.667 0 2.667 C
-1.473 2.667 -2.667 1.473 -2.667 0 C
-2.667 -1.473 -1.473 -2.667 0 -2.667 C
1.473 -2.667 2.667 -1.473 2.667 0 C
cp
f
GR
GS
[1 0 0 1 259.62 122.81992] CT
0 0 1 RC
N
2.667 0 M
2.667 1.473 1.473 2.667 0 2.667 C
-1.473 2.667 -2.667 1.473 -2.667 0 C
-2.667 -1.473 -1.473 -2.667 0 -2.667 C
1.473 -2.667 2.667 -1.473 2.667 0 C
cp
f
GR
GS
[1 0 0 1 263.95999 119.5726] CT
0 0 1 RC
N
2.667 0 M
2.667 1.473 1.473 2.667 0 2.667 C
-1.473 2.667 -2.667 1.473 -2.667 0 C
-2.667 -1.473 -1.473 -2.667 0 -2.667 C
1.473 -2.667 2.667 -1.473 2.667 0 C
cp
f
GR
GS
[1 0 0 1 268.29999 119.74216] CT
0 0 1 RC
N
2.667 0 M
2.667 1.473 1.473 2.667 0 2.667 C
-1.473 2.667 -2.667 1.473 -2.667 0 C
-2.667 -1.473 -1.473 -2.667 0 -2.667 C
1.473 -2.667 2.667 -1.473 2.667 0 C
cp
f
GR
GS
[1 0 0 1 272.64001 118.06013] CT
0 0 1 RC
N
2.667 0 M
2.667 1.473 1.473 2.667 0 2.667 C
-1.473 2.667 -2.667 1.473 -2.667 0 C
-2.667 -1.473 -1.473 -2.667 0 -2.667 C
1.473 -2.667 2.667 -1.473 2.667 0 C
cp
f
GR
GS
[1 0 0 1 276.98001 116.78903] CT
0 0 1 RC
N
2.667 0 M
2.667 1.473 1.473 2.667 0 2.667 C
-1.473 2.667 -2.667 1.473 -2.667 0 C
-2.667 -1.473 -1.473 -2.667 0 -2.667 C
1.473 -2.667 2.667 -1.473 2.667 0 C
cp
f
GR
GS
[1 0 0 1 281.32001 116.31936] CT
0 0 1 RC
N
2.667 0 M
2.667 1.473 1.473 2.667 0 2.667 C
-1.473 2.667 -2.667 1.473 -2.667 0 C
-2.667 -1.473 -1.473 -2.667 0 -2.667 C
1.473 -2.667 2.667 -1.473 2.667 0 C
cp
f
GR
GS
[1 0 0 1 285.66 113.90076] CT
0 0 1 RC
N
2.667 0 M
2.667 1.473 1.473 2.667 0 2.667 C
-1.473 2.667 -2.667 1.473 -2.667 0 C
-2.667 -1.473 -1.473 -2.667 0 -2.667 C
1.473 -2.667 2.667 -1.473 2.667 0 C
cp
f
GR
GS
[1 0 0 1 290 113.72965] CT
0 0 1 RC
N
2.667 0 M
2.667 1.473 1.473 2.667 0 2.667 C
-1.473 2.667 -2.667 1.473 -2.667 0 C
-2.667 -1.473 -1.473 -2.667 0 -2.667 C
1.473 -2.667 2.667 -1.473 2.667 0 C
cp
f
GR
GS
[1 0 0 1 294.34 113.49725] CT
0 0 1 RC
N
2.667 0 M
2.667 1.473 1.473 2.667 0 2.667 C
-1.473 2.667 -2.667 1.473 -2.667 0 C
-2.667 -1.473 -1.473 -2.667 0 -2.667 C
1.473 -2.667 2.667 -1.473 2.667 0 C
cp
f
GR
GS
[1 0 0 1 298.67999 112.43176] CT
0 0 1 RC
N
2.667 0 M
2.667 1.473 1.473 2.667 0 2.667 C
-1.473 2.667 -2.667 1.473 -2.667 0 C
-2.667 -1.473 -1.473 -2.667 0 -2.667 C
1.473 -2.667 2.667 -1.473 2.667 0 C
cp
f
GR
GS
[1 0 0 1 303.01999 111.79506] CT
0 0 1 RC
N
2.667 0 M
2.667 1.473 1.473 2.667 0 2.667 C
-1.473 2.667 -2.667 1.473 -2.667 0 C
-2.667 -1.473 -1.473 -2.667 0 -2.667 C
1.473 -2.667 2.667 -1.473 2.667 0 C
cp
f
GR
GS
[1 0 0 1 307.35999 110.28564] CT
0 0 1 RC
N
2.667 0 M
2.667 1.473 1.473 2.667 0 2.667 C
-1.473 2.667 -2.667 1.473 -2.667 0 C
-2.667 -1.473 -1.473 -2.667 0 -2.667 C
1.473 -2.667 2.667 -1.473 2.667 0 C
cp
f
GR
GS
[1 0 0 1 311.70001 106.73441] CT
0 0 1 RC
N
2.667 0 M
2.667 1.473 1.473 2.667 0 2.667 C
-1.473 2.667 -2.667 1.473 -2.667 0 C
-2.667 -1.473 -1.473 -2.667 0 -2.667 C
1.473 -2.667 2.667 -1.473 2.667 0 C
cp
f
GR
GS
[1 0 0 1 316.04001 107.26111] CT
0 0 1 RC
N
2.667 0 M
2.667 1.473 1.473 2.667 0 2.667 C
-1.473 2.667 -2.667 1.473 -2.667 0 C
-2.667 -1.473 -1.473 -2.667 0 -2.667 C
1.473 -2.667 2.667 -1.473 2.667 0 C
cp
f
GR
GS
[1 0 0 1 320.38 107.24434] CT
0 0 1 RC
N
2.667 0 M
2.667 1.473 1.473 2.667 0 2.667 C
-1.473 2.667 -2.667 1.473 -2.667 0 C
-2.667 -1.473 -1.473 -2.667 0 -2.667 C
1.473 -2.667 2.667 -1.473 2.667 0 C
cp
f
GR
GS
[1 0 0 1 324.72 104.54631] CT
0 0 1 RC
N
2.667 0 M
2.667 1.473 1.473 2.667 0 2.667 C
-1.473 2.667 -2.667 1.473 -2.667 0 C
-2.667 -1.473 -1.473 -2.667 0 -2.667 C
1.473 -2.667 2.667 -1.473 2.667 0 C
cp
f
GR
GS
[1 0 0 1 329.06 102.5303] CT
0 0 1 RC
N
2.667 0 M
2.667 1.473 1.473 2.667 0 2.667 C
-1.473 2.667 -2.667 1.473 -2.667 0 C
-2.667 -1.473 -1.473 -2.667 0 -2.667 C
1.473 -2.667 2.667 -1.473 2.667 0 C
cp
f
GR
GS
[1 0 0 1 333.39999 102.69417] CT
0 0 1 RC
N
2.667 0 M
2.667 1.473 1.473 2.667 0 2.667 C
-1.473 2.667 -2.667 1.473 -2.667 0 C
-2.667 -1.473 -1.473 -2.667 0 -2.667 C
1.473 -2.667 2.667 -1.473 2.667 0 C
cp
f
GR
GS
[1 0 0 1 337.73999 102.80128] CT
0 0 1 RC
N
2.667 0 M
2.667 1.473 1.473 2.667 0 2.667 C
-1.473 2.667 -2.667 1.473 -2.667 0 C
-2.667 -1.473 -1.473 -2.667 0 -2.667 C
1.473 -2.667 2.667 -1.473 2.667 0 C
cp
f
GR
GS
[1 0 0 1 342.07999 100.18774] CT
0 0 1 RC
N
2.667 0 M
2.667 1.473 1.473 2.667 0 2.667 C
-1.473 2.667 -2.667 1.473 -2.667 0 C
-2.667 -1.473 -1.473 -2.667 0 -2.667 C
1.473 -2.667 2.667 -1.473 2.667 0 C
cp
f
GR
GS
[1 0 0 1 346.42001 97.12158] CT
0 0 1 RC
N
2.667 0 M
2.667 1.473 1.473 2.667 0 2.667 C
-1.473 2.667 -2.667 1.473 -2.667 0 C
-2.667 -1.473 -1.473 -2.667 0 -2.667 C
1.473 -2.667 2.667 -1.473 2.667 0 C
cp
f
GR
GS
[1 0 0 1 350.76001 98.85621] CT
0 0 1 RC
N
2.667 0 M
2.667 1.473 1.473 2.667 0 2.667 C
-1.473 2.667 -2.667 1.473 -2.667 0 C
-2.667 -1.473 -1.473 -2.667 0 -2.667 C
1.473 -2.667 2.667 -1.473 2.667 0 C
cp
f
GR
GS
[1 0 0 1 355.10001 95.91133] CT
0 0 1 RC
N
2.667 0 M
2.667 1.473 1.473 2.667 0 2.667 C
-1.473 2.667 -2.667 1.473 -2.667 0 C
-2.667 -1.473 -1.473 -2.667 0 -2.667 C
1.473 -2.667 2.667 -1.473 2.667 0 C
cp
f
GR
GS
[1 0 0 1 359.44 97.07597] CT
0 0 1 RC
N
2.667 0 M
2.667 1.473 1.473 2.667 0 2.667 C
-1.473 2.667 -2.667 1.473 -2.667 0 C
-2.667 -1.473 -1.473 -2.667 0 -2.667 C
1.473 -2.667 2.667 -1.473 2.667 0 C
cp
f
GR
GS
[1 0 0 1 363.78 92.07664] CT
0 0 1 RC
N
2.667 0 M
2.667 1.473 1.473 2.667 0 2.667 C
-1.473 2.667 -2.667 1.473 -2.667 0 C
-2.667 -1.473 -1.473 -2.667 0 -2.667 C
1.473 -2.667 2.667 -1.473 2.667 0 C
cp
f
GR
GS
[1 0 0 1 368.12 92.67669] CT
0 0 1 RC
N
2.667 0 M
2.667 1.473 1.473 2.667 0 2.667 C
-1.473 2.667 -2.667 1.473 -2.667 0 C
-2.667 -1.473 -1.473 -2.667 0 -2.667 C
1.473 -2.667 2.667 -1.473 2.667 0 C
cp
f
GR
GS
[1 0 0 1 372.45999 93.46196] CT
0 0 1 RC
N
2.667 0 M
2.667 1.473 1.473 2.667 0 2.667 C
-1.473 2.667 -2.667 1.473 -2.667 0 C
-2.667 -1.473 -1.473 -2.667 0 -2.667 C
1.473 -2.667 2.667 -1.473 2.667 0 C
cp
f
GR
GS
[1 0 0 1 376.79999 87.78786] CT
0 0 1 RC
N
2.667 0 M
2.667 1.473 1.473 2.667 0 2.667 C
-1.473 2.667 -2.667 1.473 -2.667 0 C
-2.667 -1.473 -1.473 -2.667 0 -2.667 C
1.473 -2.667 2.667 -1.473 2.667 0 C
cp
f
GR
GS
[1 0 0 1 381.14001 89.97117] CT
0 0 1 RC
N
2.667 0 M
2.667 1.473 1.473 2.667 0 2.667 C
-1.473 2.667 -2.667 1.473 -2.667 0 C
-2.667 -1.473 -1.473 -2.667 0 -2.667 C
1.473 -2.667 2.667 -1.473 2.667 0 C
cp
f
GR
GS
[1 0 0 1 385.48001 90.34026] CT
0 0 1 RC
N
2.667 0 M
2.667 1.473 1.473 2.667 0 2.667 C
-1.473 2.667 -2.667 1.473 -2.667 0 C
-2.667 -1.473 -1.473 -2.667 0 -2.667 C
1.473 -2.667 2.667 -1.473 2.667 0 C
cp
f
GR
GS
[1 0 0 1 389.82001 85.62733] CT
0 0 1 RC
N
2.667 0 M
2.667 1.473 1.473 2.667 0 2.667 C
-1.473 2.667 -2.667 1.473 -2.667 0 C
-2.667 -1.473 -1.473 -2.667 0 -2.667 C
1.473 -2.667 2.667 -1.473 2.667 0 C
cp
f
GR
GS
[1 0 0 1 394.16 85.83977] CT
0 0 1 RC
N
2.667 0 M
2.667 1.473 1.473 2.667 0 2.667 C
-1.473 2.667 -2.667 1.473 -2.667 0 C
-2.667 -1.473 -1.473 -2.667 0 -2.667 C
1.473 -2.667 2.667 -1.473 2.667 0 C
cp
f
GR
GS
[1 0 0 1 398.5 82.23252] CT
0 0 1 RC
N
2.667 0 M
2.667 1.473 1.473 2.667 0 2.667 C
-1.473 2.667 -2.667 1.473 -2.667 0 C
-2.667 -1.473 -1.473 -2.667 0 -2.667 C
1.473 -2.667 2.667 -1.473 2.667 0 C
cp
f
GR
GS
[1 0 0 1 402.84 83.64659] CT
0 0 1 RC
N
2.667 0 M
2.667 1.473 1.473 2.667 0 2.667 C
-1.473 2.667 -2.667 1.473 -2.667 0 C
-2.667 -1.473 -1.473 -2.667 0 -2.667 C
1.473 -2.667 2.667 -1.473 2.667 0 C
cp
f
GR
GS
[1 0 0 1 407.17999 79.8599] CT
0 0 1 RC
N
2.667 0 M
2.667 1.473 1.473 2.667 0 2.667 C
-1.473 2.667 -2.667 1.473 -2.667 0 C
-2.667 -1.473 -1.473 -2.667 0 -2.667 C
1.473 -2.667 2.667 -1.473 2.667 0 C
cp
f
GR
GS
[1 0 0 1 411.51999 80.67834] CT
0 0 1 RC
N
2.667 0 M
2.667 1.473 1.473 2.667 0 2.667 C
-1.473 2.667 -2.667 1.473 -2.667 0 C
-2.667 -1.473 -1.473 -2.667 0 -2.667 C
1.473 -2.667 2.667 -1.473 2.667 0 C
cp
f
GR
GS
[1 0 0 1 415.85999 79.75246] CT
0 0 1 RC
N
2.667 0 M
2.667 1.473 1.473 2.667 0 2.667 C
-1.473 2.667 -2.667 1.473 -2.667 0 C
-2.667 -1.473 -1.473 -2.667 0 -2.667 C
1.473 -2.667 2.667 -1.473 2.667 0 C
cp
f
GR
GS
[1 0 0 1 420.20001 78.66937] CT
0 0 1 RC
N
2.667 0 M
2.667 1.473 1.473 2.667 0 2.667 C
-1.473 2.667 -2.667 1.473 -2.667 0 C
-2.667 -1.473 -1.473 -2.667 0 -2.667 C
1.473 -2.667 2.667 -1.473 2.667 0 C
cp
f
GR
GS
[1 0 0 1 424.54001 77.81582] CT
0 0 1 RC
N
2.667 0 M
2.667 1.473 1.473 2.667 0 2.667 C
-1.473 2.667 -2.667 1.473 -2.667 0 C
-2.667 -1.473 -1.473 -2.667 0 -2.667 C
1.473 -2.667 2.667 -1.473 2.667 0 C
cp
f
GR
GS
[1 0 0 1 428.88 74.72952] CT
0 0 1 RC
N
2.667 0 M
2.667 1.473 1.473 2.667 0 2.667 C
-1.473 2.667 -2.667 1.473 -2.667 0 C
-2.667 -1.473 -1.473 -2.667 0 -2.667 C
1.473 -2.667 2.667 -1.473 2.667 0 C
cp
f
GR
GS
[1 0 0 1 433.22 70.90537] CT
0 0 1 RC
N
2.667 0 M
2.667 1.473 1.473 2.667 0 2.667 C
-1.473 2.667 -2.667 1.473 -2.667 0 C
-2.667 -1.473 -1.473 -2.667 0 -2.667 C
1.473 -2.667 2.667 -1.473 2.667 0 C
cp
f
GR
GS
[1 0 0 1 437.56 73.3964] CT
0 0 1 RC
N
2.667 0 M
2.667 1.473 1.473 2.667 0 2.667 C
-1.473 2.667 -2.667 1.473 -2.667 0 C
-2.667 -1.473 -1.473 -2.667 0 -2.667 C
1.473 -2.667 2.667 -1.473 2.667 0 C
cp
f
GR
GS
[1 0 0 1 441.89999 72.86147] CT
0 0 1 RC
N
2.667 0 M
2.667 1.473 1.473 2.667 0 2.667 C
-1.473 2.667 -2.667 1.473 -2.667 0 C
-2.667 -1.473 -1.473 -2.667 0 -2.667 C
1.473 -2.667 2.667 -1.473 2.667 0 C
cp
f
GR
GS
[1 0 0 1 446.23999 71.24772] CT
0 0 1 RC
N
2.667 0 M
2.667 1.473 1.473 2.667 0 2.667 C
-1.473 2.667 -2.667 1.473 -2.667 0 C
-2.667 -1.473 -1.473 -2.667 0 -2.667 C
1.473 -2.667 2.667 -1.473 2.667 0 C
cp
f
GR
GS
[1 0 0 1 450.57999 72.11797] CT
0 0 1 RC
N
2.667 0 M
2.667 1.473 1.473 2.667 0 2.667 C
-1.473 2.667 -2.667 1.473 -2.667 0 C
-2.667 -1.473 -1.473 -2.667 0 -2.667 C
1.473 -2.667 2.667 -1.473 2.667 0 C
cp
f
GR
GS
[1 0 0 1 454.92001 73.01444] CT
0 0 1 RC
N
2.667 0 M
2.667 1.473 1.473 2.667 0 2.667 C
-1.473 2.667 -2.667 1.473 -2.667 0 C
-2.667 -1.473 -1.473 -2.667 0 -2.667 C
1.473 -2.667 2.667 -1.473 2.667 0 C
cp
f
GR
GS
[1 0 0 1 459.26001 69.4791] CT
0 0 1 RC
N
2.667 0 M
2.667 1.473 1.473 2.667 0 2.667 C
-1.473 2.667 -2.667 1.473 -2.667 0 C
-2.667 -1.473 -1.473 -2.667 0 -2.667 C
1.473 -2.667 2.667 -1.473 2.667 0 C
cp
f
GR
GS
[1 0 0 1 463.60001 65.39457] CT
0 0 1 RC
N
2.667 0 M
2.667 1.473 1.473 2.667 0 2.667 C
-1.473 2.667 -2.667 1.473 -2.667 0 C
-2.667 -1.473 -1.473 -2.667 0 -2.667 C
1.473 -2.667 2.667 -1.473 2.667 0 C
cp
f
GR
GS
[1 0 0 1 467.94 64.99246] CT
0 0 1 RC
N
2.667 0 M
2.667 1.473 1.473 2.667 0 2.667 C
-1.473 2.667 -2.667 1.473 -2.667 0 C
-2.667 -1.473 -1.473 -2.667 0 -2.667 C
1.473 -2.667 2.667 -1.473 2.667 0 C
cp
f
GR
GS
[1 0 0 1 472.28 63.49734] CT
0 0 1 RC
N
2.667 0 M
2.667 1.473 1.473 2.667 0 2.667 C
-1.473 2.667 -2.667 1.473 -2.667 0 C
-2.667 -1.473 -1.473 -2.667 0 -2.667 C
1.473 -2.667 2.667 -1.473 2.667 0 C
cp
f
GR
GS
[1 0 0 1 476.62 65.42928] CT
0 0 1 RC
N
2.667 0 M
2.667 1.473 1.473 2.667 0 2.667 C
-1.473 2.667 -2.667 1.473 -2.667 0 C
-2.667 -1.473 -1.473 -2.667 0 -2.667 C
1.473 -2.667 2.667 -1.473 2.667 0 C
cp
f
GR
GS
[1 0 0 1 480.95999 58.36354] CT
0 0 1 RC
N
2.667 0 M
2.667 1.473 1.473 2.667 0 2.667 C
-1.473 2.667 -2.667 1.473 -2.667 0 C
-2.667 -1.473 -1.473 -2.667 0 -2.667 C
1.473 -2.667 2.667 -1.473 2.667 0 C
cp
f
GR
GS
[1 0 0 1 485.29999 62.99473] CT
0 0 1 RC
N
2.667 0 M
2.667 1.473 1.473 2.667 0 2.667 C
-1.473 2.667 -2.667 1.473 -2.667 0 C
-2.667 -1.473 -1.473 -2.667 0 -2.667 C
1.473 -2.667 2.667 -1.473 2.667 0 C
cp
f
GR
GS
[1 0 0 1 489.64001 56.80872] CT
0 0 1 RC
N
2.667 0 M
2.667 1.473 1.473 2.667 0 2.667 C
-1.473 2.667 -2.667 1.473 -2.667 0 C
-2.667 -1.473 -1.473 -2.667 0 -2.667 C
1.473 -2.667 2.667 -1.473 2.667 0 C
cp
f
GR
GS
[1 0 0 1 493.98001 56.11021] CT
0 0 1 RC
N
2.667 0 M
2.667 1.473 1.473 2.667 0 2.667 C
-1.473 2.667 -2.667 1.473 -2.667 0 C
-2.667 -1.473 -1.473 -2.667 0 -2.667 C
1.473 -2.667 2.667 -1.473 2.667 0 C
cp
f
GR
GS
[1 0 0 1 498.32001 56.24281] CT
0 0 1 RC
N
2.667 0 M
2.667 1.473 1.473 2.667 0 2.667 C
-1.473 2.667 -2.667 1.473 -2.667 0 C
-2.667 -1.473 -1.473 -2.667 0 -2.667 C
1.473 -2.667 2.667 -1.473 2.667 0 C
cp
f
GR
GS
[1 0 0 1 502.66 55.63892] CT
0 0 1 RC
N
2.667 0 M
2.667 1.473 1.473 2.667 0 2.667 C
-1.473 2.667 -2.667 1.473 -2.667 0 C
-2.667 -1.473 -1.473 -2.667 0 -2.667 C
1.473 -2.667 2.667 -1.473 2.667 0 C
cp
f
GR
GS
[1 0 0 1 507 51.63473] CT
0 0 1 RC
N
2.667 0 M
2.667 1.473 1.473 2.667 0 2.667 C
-1.473 2.667 -2.667 1.473 -2.667 0 C
-2.667 -1.473 -1.473 -2.667 0 -2.667 C
1.473 -2.667 2.667 -1.473 2.667 0 C
cp
f
GR
GS
1 0 0 RC
1 LJ
N
73 174.446 M
73.434 174.326 L
73.868 174.205 L
74.302 174.085 L
74.736 173.964 L
75.17 173.844 L
75.604 173.723 L
76.038 173.603 L
76.472 173.482 L
76.906 173.362 L
77.34 173.241 L
77.774 173.121 L
78.208 173 L
78.642 172.88 L
79.076 172.759 L
79.51 172.639 L
79.944 172.518 L
80.378 172.398 L
80.812 172.277 L
81.246 172.157 L
81.68 172.036 L
82.114 171.916 L
82.548 171.795 L
82.982 171.675 L
83.416 171.554 L
83.85 171.434 L
84.284 171.313 L
84.718 171.193 L
85.152 171.073 L
85.586 170.952 L
86.02 170.832 L
86.454 170.711 L
86.888 170.591 L
87.322 170.47 L
87.756 170.35 L
88.19 170.229 L
88.624 170.109 L
89.058 169.988 L
89.492 169.868 L
89.926 169.747 L
90.36 169.627 L
90.794 169.506 L
91.228 169.386 L
91.662 169.265 L
92.096 169.145 L
92.53 169.024 L
92.964 168.904 L
93.398 168.783 L
93.832 168.663 L
94.266 168.542 L
94.7 168.422 L
95.134 168.301 L
95.568 168.181 L
96.002 168.06 L
96.436 167.94 L
96.87 167.819 L
97.304 167.699 L
97.738 167.578 L
98.172 167.458 L
98.606 167.337 L
99.04 167.217 L
99.474 167.096 L
99.908 166.976 L
100.342 166.855 L
100.776 166.735 L
101.21 166.614 L
101.644 166.494 L
102.078 166.374 L
102.512 166.253 L
102.946 166.133 L
103.38 166.012 L
103.814 165.892 L
104.248 165.771 L
104.682 165.651 L
105.116 165.53 L
105.55 165.41 L
105.984 165.289 L
106.418 165.169 L
106.852 165.048 L
107.286 164.928 L
107.72 164.807 L
108.154 164.687 L
108.588 164.566 L
109.022 164.446 L
109.456 164.325 L
109.89 164.205 L
110.324 164.084 L
110.758 163.964 L
111.192 163.843 L
111.626 163.723 L
112.06 163.602 L
112.494 163.482 L
112.928 163.361 L
113.362 163.241 L
113.796 163.12 L
114.23 163 L
114.664 162.879 L
115.098 162.759 L
115.532 162.638 L
115.966 162.518 L
116.4 162.397 L
116.834 162.277 L
117.268 162.156 L
117.702 162.036 L
118.136 161.915 L
118.57 161.795 L
119.004 161.674 L
119.438 161.554 L
119.872 161.434 L
120.306 161.313 L
120.74 161.193 L
121.174 161.072 L
121.608 160.952 L
122.042 160.831 L
122.476 160.711 L
122.91 160.59 L
123.344 160.47 L
123.778 160.349 L
124.212 160.229 L
124.646 160.108 L
125.08 159.988 L
125.514 159.867 L
125.948 159.747 L
126.382 159.626 L
126.816 159.506 L
127.25 159.385 L
127.684 159.265 L
128.118 159.144 L
128.552 159.024 L
128.986 158.903 L
129.42 158.783 L
129.854 158.662 L
130.288 158.542 L
130.722 158.421 L
131.156 158.301 L
131.59 158.18 L
132.024 158.06 L
132.458 157.939 L
132.892 157.819 L
133.326 157.698 L
133.76 157.578 L
134.194 157.457 L
134.628 157.337 L
135.062 157.216 L
135.496 157.096 L
135.93 156.975 L
136.364 156.855 L
136.798 156.735 L
137.232 156.614 L
137.666 156.494 L
138.1 156.373 L
138.534 156.253 L
138.968 156.132 L
139.402 156.012 L
139.836 155.891 L
140.27 155.771 L
140.704 155.65 L
141.138 155.53 L
141.572 155.409 L
142.006 155.289 L
142.44 155.168 L
142.874 155.048 L
143.308 154.927 L
143.742 154.807 L
144.176 154.686 L
144.61 154.566 L
145.044 154.445 L
145.478 154.325 L
145.912 154.204 L
146.346 154.084 L
146.78 153.963 L
147.214 153.843 L
147.648 153.722 L
148.082 153.602 L
148.516 153.481 L
148.95 153.361 L
149.384 153.24 L
149.818 153.12 L
150.252 152.999 L
150.686 152.879 L
151.12 152.758 L
151.554 152.638 L
151.988 152.517 L
152.422 152.397 L
152.856 152.276 L
153.29 152.156 L
153.724 152.035 L
154.158 151.915 L
154.592 151.795 L
155.026 151.674 L
155.46 151.554 L
155.894 151.433 L
156.328 151.313 L
156.762 151.192 L
157.196 151.072 L
157.63 150.951 L
158.064 150.831 L
158.498 150.71 L
158.932 150.59 L
159.366 150.469 L
159.8 150.349 L
160.234 150.228 L
160.668 150.108 L
161.102 149.987 L
161.536 149.867 L
161.97 149.746 L
162.404 149.626 L
162.838 149.505 L
163.272 149.385 L
163.706 149.264 L
164.14 149.144 L
164.574 149.023 L
165.008 148.903 L
165.442 148.782 L
165.876 148.662 L
166.31 148.541 L
166.744 148.421 L
167.178 148.3 L
167.612 148.18 L
168.046 148.059 L
168.48 147.939 L
168.914 147.818 L
169.348 147.698 L
169.782 147.577 L
170.216 147.457 L
170.65 147.336 L
171.084 147.216 L
171.518 147.096 L
171.952 146.975 L
172.386 146.855 L
172.82 146.734 L
173.254 146.614 L
173.688 146.493 L
174.122 146.373 L
174.556 146.252 L
174.99 146.132 L
175.424 146.011 L
175.858 145.891 L
176.292 145.77 L
176.726 145.65 L
177.16 145.529 L
177.594 145.409 L
178.028 145.288 L
178.462 145.168 L
178.896 145.047 L
179.33 144.927 L
179.764 144.806 L
180.198 144.686 L
180.632 144.565 L
181.066 144.445 L
181.5 144.324 L
181.934 144.204 L
182.368 144.083 L
182.802 143.963 L
183.236 143.842 L
183.67 143.722 L
184.104 143.601 L
184.538 143.481 L
184.972 143.36 L
185.406 143.24 L
185.84 143.119 L
186.274 142.999 L
186.708 142.878 L
187.142 142.758 L
187.576 142.637 L
188.01 142.517 L
188.444 142.396 L
188.878 142.276 L
189.312 142.156 L
189.746 142.035 L
190.18 141.915 L
190.614 141.794 L
191.048 141.674 L
191.482 141.553 L
191.916 141.433 L
192.35 141.312 L
192.784 141.192 L
193.218 141.071 L
193.652 140.951 L
194.086 140.83 L
194.52 140.71 L
194.954 140.589 L
195.388 140.469 L
195.822 140.348 L
196.256 140.228 L
196.69 140.107 L
197.124 139.987 L
197.558 139.866 L
197.992 139.746 L
198.426 139.625 L
198.86 139.505 L
199.294 139.384 L
199.728 139.264 L
200.162 139.143 L
200.596 139.023 L
201.03 138.902 L
201.464 138.782 L
201.898 138.661 L
202.332 138.541 L
202.766 138.42 L
203.2 138.3 L
203.634 138.179 L
204.068 138.059 L
204.502 137.938 L
204.936 137.818 L
205.37 137.697 L
205.804 137.577 L
206.238 137.457 L
206.672 137.336 L
207.106 137.216 L
207.54 137.095 L
207.974 136.975 L
208.408 136.854 L
208.842 136.734 L
209.276 136.613 L
209.71 136.493 L
210.144 136.372 L
210.578 136.252 L
211.012 136.131 L
211.446 136.011 L
211.88 135.89 L
212.314 135.77 L
212.748 135.649 L
213.182 135.529 L
213.616 135.408 L
214.05 135.288 L
214.484 135.167 L
214.918 135.047 L
215.352 134.926 L
215.786 134.806 L
216.22 134.685 L
216.654 134.565 L
217.088 134.444 L
217.522 134.324 L
217.956 134.203 L
218.39 134.083 L
218.824 133.962 L
219.258 133.842 L
219.692 133.721 L
220.126 133.601 L
220.56 133.48 L
220.994 133.36 L
221.428 133.239 L
221.862 133.119 L
222.296 132.998 L
222.73 132.878 L
223.164 132.758 L
223.598 132.637 L
224.032 132.517 L
224.466 132.396 L
224.9 132.276 L
225.334 132.155 L
225.768 132.035 L
226.202 131.914 L
226.636 131.794 L
227.07 131.673 L
227.504 131.553 L
227.938 131.432 L
228.372 131.312 L
228.806 131.191 L
229.24 131.071 L
229.674 130.95 L
230.108 130.83 L
230.542 130.709 L
230.976 130.589 L
231.41 130.468 L
231.844 130.348 L
232.278 130.227 L
232.712 130.107 L
233.146 129.986 L
233.58 129.866 L
234.014 129.745 L
234.448 129.625 L
234.882 129.504 L
235.316 129.384 L
235.75 129.263 L
236.184 129.143 L
236.618 129.022 L
237.052 128.902 L
237.486 128.781 L
237.92 128.661 L
238.354 128.54 L
238.788 128.42 L
239.222 128.299 L
239.656 128.179 L
240.09 128.058 L
240.524 127.938 L
240.958 127.818 L
241.392 127.697 L
241.826 127.577 L
242.26 127.456 L
242.694 127.336 L
243.128 127.215 L
243.562 127.095 L
243.996 126.974 L
244.43 126.854 L
244.864 126.733 L
245.298 126.613 L
245.732 126.492 L
246.166 126.372 L
246.6 126.251 L
247.034 126.131 L
247.468 126.01 L
247.902 125.89 L
248.336 125.769 L
248.77 125.649 L
249.204 125.528 L
249.638 125.408 L
250.072 125.287 L
250.506 125.167 L
250.94 125.046 L
251.374 124.926 L
251.808 124.805 L
252.242 124.685 L
252.676 124.564 L
253.11 124.444 L
253.544 124.323 L
253.978 124.203 L
254.412 124.082 L
254.846 123.962 L
255.28 123.841 L
255.714 123.721 L
256.148 123.6 L
256.582 123.48 L
257.016 123.359 L
257.45 123.239 L
257.884 123.119 L
258.318 122.998 L
258.752 122.878 L
259.186 122.757 L
259.62 122.637 L
260.054 122.516 L
260.488 122.396 L
260.922 122.275 L
261.356 122.155 L
261.79 122.034 L
262.224 121.914 L
262.658 121.793 L
263.092 121.673 L
263.526 121.552 L
263.96 121.432 L
264.394 121.311 L
264.828 121.191 L
265.262 121.07 L
265.696 120.95 L
266.13 120.829 L
266.564 120.709 L
266.998 120.588 L
267.432 120.468 L
267.866 120.347 L
268.3 120.227 L
268.734 120.106 L
269.168 119.986 L
269.602 119.865 L
270.036 119.745 L
270.47 119.624 L
270.904 119.504 L
271.338 119.383 L
271.772 119.263 L
272.206 119.142 L
272.64 119.022 L
273.074 118.901 L
273.508 118.781 L
273.942 118.66 L
274.376 118.54 L
274.81 118.419 L
275.244 118.299 L
275.678 118.179 L
276.112 118.058 L
276.546 117.938 L
276.98 117.817 L
277.414 117.697 L
277.848 117.576 L
278.282 117.456 L
278.716 117.335 L
279.15 117.215 L
279.584 117.094 L
280.018 116.974 L
280.452 116.853 L
280.886 116.733 L
281.32 116.612 L
281.754 116.492 L
282.188 116.371 L
282.622 116.251 L
283.056 116.13 L
283.49 116.01 L
283.924 115.889 L
284.358 115.769 L
284.792 115.648 L
285.226 115.528 L
285.66 115.407 L
286.094 115.287 L
286.528 115.166 L
286.962 115.046 L
287.396 114.925 L
287.83 114.805 L
288.264 114.684 L
288.698 114.564 L
289.132 114.443 L
289.566 114.323 L
290 114.202 L
290.434 114.082 L
290.868 113.961 L
291.302 113.841 L
291.736 113.72 L
292.17 113.6 L
292.604 113.48 L
293.038 113.359 L
293.472 113.239 L
293.906 113.118 L
294.34 112.998 L
294.774 112.877 L
295.208 112.757 L
295.642 112.636 L
296.076 112.516 L
296.51 112.395 L
296.944 112.275 L
297.378 112.154 L
297.812 112.034 L
298.246 111.913 L
298.68 111.793 L
299.114 111.672 L
299.548 111.552 L
299.982 111.431 L
300.416 111.311 L
300.85 111.19 L
301.284 111.07 L
301.718 110.949 L
302.152 110.829 L
302.586 110.708 L
303.02 110.588 L
303.454 110.467 L
303.888 110.347 L
304.322 110.226 L
304.756 110.106 L
305.19 109.985 L
305.624 109.865 L
306.058 109.744 L
306.492 109.624 L
306.926 109.503 L
307.36 109.383 L
307.794 109.262 L
308.228 109.142 L
308.662 109.021 L
309.096 108.901 L
309.53 108.781 L
309.964 108.66 L
310.398 108.54 L
310.832 108.419 L
311.266 108.299 L
311.7 108.178 L
312.134 108.058 L
312.568 107.937 L
313.002 107.817 L
313.436 107.696 L
313.87 107.576 L
314.304 107.455 L
314.738 107.335 L
315.172 107.214 L
315.606 107.094 L
316.04 106.973 L
316.474 106.853 L
316.908 106.732 L
317.342 106.612 L
317.776 106.491 L
318.21 106.371 L
318.644 106.25 L
319.078 106.13 L
319.512 106.009 L
319.946 105.889 L
320.38 105.768 L
320.814 105.648 L
321.248 105.527 L
321.682 105.407 L
322.116 105.286 L
322.55 105.166 L
322.984 105.045 L
323.418 104.925 L
323.852 104.804 L
324.286 104.684 L
324.72 104.563 L
325.154 104.443 L
325.588 104.322 L
326.022 104.202 L
326.456 104.081 L
326.89 103.961 L
327.324 103.841 L
327.758 103.72 L
328.192 103.6 L
328.626 103.479 L
329.06 103.359 L
329.494 103.238 L
329.928 103.118 L
330.362 102.997 L
330.796 102.877 L
331.23 102.756 L
331.664 102.636 L
332.098 102.515 L
332.532 102.395 L
332.966 102.274 L
333.4 102.154 L
333.834 102.033 L
334.268 101.913 L
334.702 101.792 L
335.136 101.672 L
335.57 101.551 L
336.004 101.431 L
336.438 101.31 L
336.872 101.19 L
337.306 101.069 L
337.74 100.949 L
338.174 100.828 L
338.608 100.708 L
339.042 100.587 L
339.476 100.467 L
339.91 100.346 L
340.344 100.226 L
340.778 100.105 L
341.212 99.985 L
341.646 99.864 L
342.08 99.744 L
342.514 99.623 L
342.948 99.503 L
343.382 99.382 L
343.816 99.262 L
344.25 99.142 L
344.684 99.021 L
345.118 98.901 L
345.552 98.78 L
345.986 98.66 L
346.42 98.539 L
346.854 98.419 L
347.288 98.298 L
347.722 98.178 L
348.156 98.057 L
348.59 97.937 L
349.024 97.816 L
349.458 97.696 L
349.892 97.575 L
350.326 97.455 L
350.76 97.334 L
351.194 97.214 L
351.628 97.093 L
352.062 96.973 L
352.496 96.852 L
352.93 96.732 L
353.364 96.611 L
353.798 96.491 L
354.232 96.37 L
354.666 96.25 L
355.1 96.129 L
355.534 96.009 L
355.968 95.888 L
356.402 95.768 L
356.836 95.647 L
357.27 95.527 L
357.704 95.406 L
358.138 95.286 L
358.572 95.165 L
359.006 95.045 L
359.44 94.924 L
359.874 94.804 L
360.308 94.683 L
360.742 94.563 L
361.176 94.442 L
361.61 94.322 L
362.044 94.202 L
362.478 94.081 L
362.912 93.961 L
363.346 93.84 L
363.78 93.72 L
364.214 93.599 L
364.648 93.479 L
365.082 93.358 L
365.516 93.238 L
365.95 93.117 L
366.384 92.997 L
366.818 92.876 L
367.252 92.756 L
367.686 92.635 L
368.12 92.515 L
368.554 92.394 L
368.988 92.274 L
369.422 92.153 L
369.856 92.033 L
370.29 91.912 L
370.724 91.792 L
371.158 91.671 L
371.592 91.551 L
372.026 91.43 L
372.46 91.31 L
372.894 91.189 L
373.328 91.069 L
373.762 90.948 L
374.196 90.828 L
374.63 90.707 L
375.064 90.587 L
375.498 90.466 L
375.932 90.346 L
376.366 90.225 L
376.8 90.105 L
377.234 89.984 L
377.668 89.864 L
378.102 89.743 L
378.536 89.623 L
378.97 89.503 L
379.404 89.382 L
379.838 89.262 L
380.272 89.141 L
380.706 89.021 L
381.14 88.9 L
381.574 88.78 L
382.008 88.659 L
382.442 88.539 L
382.876 88.418 L
383.31 88.298 L
383.744 88.177 L
384.178 88.057 L
384.612 87.936 L
385.046 87.816 L
385.48 87.695 L
385.914 87.575 L
386.348 87.454 L
386.782 87.334 L
387.216 87.213 L
387.65 87.093 L
388.084 86.972 L
388.518 86.852 L
388.952 86.731 L
389.386 86.611 L
389.82 86.49 L
390.254 86.37 L
390.688 86.249 L
391.122 86.129 L
391.556 86.008 L
391.99 85.888 L
392.424 85.767 L
392.858 85.647 L
393.292 85.526 L
393.726 85.406 L
394.16 85.285 L
394.594 85.165 L
395.028 85.044 L
395.462 84.924 L
395.896 84.803 L
396.33 84.683 L
396.764 84.563 L
397.198 84.442 L
397.632 84.322 L
398.066 84.201 L
398.5 84.081 L
398.934 83.96 L
399.368 83.84 L
399.802 83.719 L
400.236 83.599 L
400.67 83.478 L
401.104 83.358 L
401.538 83.237 L
401.972 83.117 L
402.406 82.996 L
402.84 82.876 L
403.274 82.755 L
403.708 82.635 L
404.142 82.514 L
404.576 82.394 L
405.01 82.273 L
405.444 82.153 L
405.878 82.032 L
406.312 81.912 L
406.746 81.791 L
407.18 81.671 L
407.614 81.55 L
408.048 81.43 L
408.482 81.309 L
408.916 81.189 L
409.35 81.068 L
409.784 80.948 L
410.218 80.827 L
410.652 80.707 L
411.086 80.586 L
411.52 80.466 L
411.954 80.345 L
412.388 80.225 L
412.822 80.104 L
413.256 79.984 L
413.69 79.864 L
414.124 79.743 L
414.558 79.623 L
414.992 79.502 L
415.426 79.382 L
415.86 79.261 L
416.294 79.141 L
416.728 79.02 L
417.162 78.9 L
417.596 78.779 L
418.03 78.659 L
418.464 78.538 L
418.898 78.418 L
419.332 78.297 L
419.766 78.177 L
420.2 78.056 L
420.634 77.936 L
421.068 77.815 L
421.502 77.695 L
421.936 77.574 L
422.37 77.454 L
422.804 77.333 L
423.238 77.213 L
423.672 77.092 L
424.106 76.972 L
424.54 76.851 L
424.974 76.731 L
425.408 76.61 L
425.842 76.49 L
426.276 76.369 L
426.71 76.249 L
427.144 76.128 L
427.578 76.008 L
428.012 75.887 L
428.446 75.767 L
428.88 75.646 L
429.314 75.526 L
429.748 75.405 L
430.182 75.285 L
430.616 75.164 L
431.05 75.044 L
431.484 74.924 L
431.918 74.803 L
432.352 74.683 L
432.786 74.562 L
433.22 74.442 L
433.654 74.321 L
434.088 74.201 L
434.522 74.08 L
434.956 73.96 L
435.39 73.839 L
435.824 73.719 L
436.258 73.598 L
436.692 73.478 L
437.126 73.357 L
437.56 73.237 L
437.994 73.116 L
438.428 72.996 L
438.862 72.875 L
439.296 72.755 L
439.73 72.634 L
440.164 72.514 L
440.598 72.393 L
441.032 72.273 L
441.466 72.152 L
441.9 72.032 L
442.334 71.911 L
442.768 71.791 L
443.202 71.67 L
443.636 71.55 L
444.07 71.429 L
444.504 71.309 L
444.938 71.188 L
445.372 71.068 L
445.806 70.947 L
446.24 70.827 L
446.674 70.706 L
447.108 70.586 L
447.542 70.465 L
447.976 70.345 L
448.41 70.225 L
448.844 70.104 L
449.278 69.984 L
449.712 69.863 L
450.146 69.743 L
450.58 69.622 L
451.014 69.502 L
451.448 69.381 L
451.882 69.261 L
452.316 69.14 L
452.75 69.02 L
453.184 68.899 L
453.618 68.779 L
454.052 68.658 L
454.486 68.538 L
454.92 68.417 L
455.354 68.297 L
455.788 68.176 L
456.222 68.056 L
456.656 67.935 L
457.09 67.815 L
457.524 67.694 L
457.958 67.574 L
458.392 67.453 L
458.826 67.333 L
459.26 67.212 L
459.694 67.092 L
460.128 66.971 L
460.562 66.851 L
460.996 66.73 L
461.43 66.61 L
461.864 66.489 L
462.298 66.369 L
462.732 66.248 L
463.166 66.128 L
463.6 66.007 L
464.034 65.887 L
464.468 65.766 L
464.902 65.646 L
465.336 65.526 L
465.77 65.405 L
466.204 65.285 L
466.638 65.164 L
467.072 65.044 L
467.506 64.923 L
467.94 64.803 L
468.374 64.682 L
468.808 64.562 L
469.242 64.441 L
469.676 64.321 L
470.11 64.2 L
470.544 64.08 L
470.978 63.959 L
471.412 63.839 L
471.846 63.718 L
472.28 63.598 L
472.714 63.477 L
473.148 63.357 L
473.582 63.236 L
474.016 63.116 L
474.45 62.995 L
474.884 62.875 L
475.318 62.754 L
475.752 62.634 L
476.186 62.513 L
476.62 62.393 L
477.054 62.272 L
477.488 62.152 L
477.922 62.031 L
478.356 61.911 L
478.79 61.79 L
479.224 61.67 L
479.658 61.549 L
480.092 61.429 L
480.526 61.308 L
480.96 61.188 L
481.394 61.067 L
481.828 60.947 L
482.262 60.826 L
482.696 60.706 L
483.13 60.586 L
483.564 60.465 L
483.998 60.345 L
484.432 60.224 L
484.866 60.104 L
485.3 59.983 L
485.734 59.863 L
486.168 59.742 L
486.602 59.622 L
487.036 59.501 L
487.47 59.381 L
487.904 59.26 L
488.338 59.14 L
488.772 59.019 L
489.206 58.899 L
489.64 58.778 L
490.074 58.658 L
490.508 58.537 L
490.942 58.417 L
491.376 58.296 L
491.81 58.176 L
492.244 58.055 L
492.678 57.935 L
493.112 57.814 L
493.546 57.694 L
493.98 57.573 L
494.414 57.453 L
494.848 57.332 L
495.282 57.212 L
495.716 57.091 L
496.15 56.971 L
496.584 56.85 L
497.018 56.73 L
497.452 56.609 L
497.886 56.489 L
498.32 56.368 L
498.754 56.248 L
499.188 56.127 L
499.622 56.007 L
500.056 55.887 L
500.49 55.766 L
500.924 55.646 L
501.358 55.525 L
501.792 55.405 L
502.226 55.284 L
502.66 55.164 L
503.094 55.043 L
503.528 54.923 L
503.962 54.802 L
504.396 54.682 L
504.83 54.561 L
505.264 54.441 L
505.698 54.32 L
506.132 54.2 L
506.566 54.079 L
507 53.959 L
S
GR
GS
1 GC
N
80 63 M
80 37 L
174 37 L
174 63 L
cp
f
GR
GS
[1 0 0 1 117 44.35849] CT
/Helvetica 9 F
GS
[1 0 0 1 0 0] CT
0 3.5 moveto 
1 -1 scale
(Error data) t 
GR
GR
GS
[1 0 0 1 99 44.35849] CT
0 0 1 RC
N
2.667 0 M
2.667 1.473 1.473 2.667 0 2.667 C
-1.473 2.667 -2.667 1.473 -2.667 0 C
-2.667 -1.473 -1.473 -2.667 0 -2.667 C
1.473 -2.667 2.667 -1.473 2.667 0 C
cp
f
GR
GS
[1 0 0 1 117 55.64151] CT
/Helvetica 9 F
GS
[1 0 0 1 0 0] CT
0 3.5 moveto 
1 -1 scale
(Linear model) t 
GR
GR
GS
1 0 0 RC
1 LJ
N
84 55.642 M
114 55.642 L
S
GR
GS
0.149 GC
10.0 ML
0.5 LW
N
80 63 M
80 37 L
174 37 L
174 63 L
cp
S
GR
GS
1 GC
N
73 374 M
507 374 L
507 231 L
73 231 L
cp
f
GR
GS
0.873 GC
1 LJ
0.5 LW
N
73 374 M
73 231 L
S
GR
GS
0.873 GC
1 LJ
0.5 LW
N
116.4 374 M
116.4 231 L
S
GR
GS
0.873 GC
1 LJ
0.5 LW
N
159.8 374 M
159.8 231 L
S
GR
GS
0.873 GC
1 LJ
0.5 LW
N
203.2 374 M
203.2 231 L
S
GR
GS
0.873 GC
1 LJ
0.5 LW
N
246.6 374 M
246.6 231 L
S
GR
GS
0.873 GC
1 LJ
0.5 LW
N
290 374 M
290 231 L
S
GR
GS
0.873 GC
1 LJ
0.5 LW
N
333.4 374 M
333.4 231 L
S
GR
GS
0.873 GC
1 LJ
0.5 LW
N
376.8 374 M
376.8 231 L
S
GR
GS
0.873 GC
1 LJ
0.5 LW
N
420.2 374 M
420.2 231 L
S
GR
GS
0.873 GC
1 LJ
0.5 LW
N
463.6 374 M
463.6 231 L
S
GR
GS
0.873 GC
1 LJ
0.5 LW
N
507 374 M
507 231 L
S
GR
GS
0.873 GC
1 LJ
0.5 LW
N
507 374 M
73 374 L
S
GR
GS
0.873 GC
1 LJ
0.5 LW
N
507 338.25 M
73 338.25 L
S
GR
GS
0.873 GC
1 LJ
0.5 LW
N
507 302.5 M
73 302.5 L
S
GR
GS
0.873 GC
1 LJ
0.5 LW
N
507 266.75 M
73 266.75 L
S
GR
GS
0.873 GC
1 LJ
0.5 LW
N
507 231 M
73 231 L
S
GR
GS
0.149 GC
2 setlinecap
1 LJ
0.5 LW
N
73 374 M
507 374 L
S
GR
GS
0.149 GC
2 setlinecap
1 LJ
0.5 LW
N
73 231 M
507 231 L
S
GR
GS
0.149 GC
2 setlinecap
1 LJ
0.5 LW
N
73 374 M
73 369.66 L
S
GR
GS
0.149 GC
2 setlinecap
1 LJ
0.5 LW
N
116.4 374 M
116.4 369.66 L
S
GR
GS
0.149 GC
2 setlinecap
1 LJ
0.5 LW
N
159.8 374 M
159.8 369.66 L
S
GR
GS
0.149 GC
2 setlinecap
1 LJ
0.5 LW
N
203.2 374 M
203.2 369.66 L
S
GR
GS
0.149 GC
2 setlinecap
1 LJ
0.5 LW
N
246.6 374 M
246.6 369.66 L
S
GR
GS
0.149 GC
2 setlinecap
1 LJ
0.5 LW
N
290 374 M
290 369.66 L
S
GR
GS
0.149 GC
2 setlinecap
1 LJ
0.5 LW
N
333.4 374 M
333.4 369.66 L
S
GR
GS
0.149 GC
2 setlinecap
1 LJ
0.5 LW
N
376.8 374 M
376.8 369.66 L
S
GR
GS
0.149 GC
2 setlinecap
1 LJ
0.5 LW
N
420.2 374 M
420.2 369.66 L
S
GR
GS
0.149 GC
2 setlinecap
1 LJ
0.5 LW
N
463.6 374 M
463.6 369.66 L
S
GR
GS
0.149 GC
2 setlinecap
1 LJ
0.5 LW
N
507 374 M
507 369.66 L
S
GR
GS
0.149 GC
2 setlinecap
1 LJ
0.5 LW
N
73 231 M
73 235.34 L
S
GR
GS
0.149 GC
2 setlinecap
1 LJ
0.5 LW
N
116.4 231 M
116.4 235.34 L
S
GR
GS
0.149 GC
2 setlinecap
1 LJ
0.5 LW
N
159.8 231 M
159.8 235.34 L
S
GR
GS
0.149 GC
2 setlinecap
1 LJ
0.5 LW
N
203.2 231 M
203.2 235.34 L
S
GR
GS
0.149 GC
2 setlinecap
1 LJ
0.5 LW
N
246.6 231 M
246.6 235.34 L
S
GR
GS
0.149 GC
2 setlinecap
1 LJ
0.5 LW
N
290 231 M
290 235.34 L
S
GR
GS
0.149 GC
2 setlinecap
1 LJ
0.5 LW
N
333.4 231 M
333.4 235.34 L
S
GR
GS
0.149 GC
2 setlinecap
1 LJ
0.5 LW
N
376.8 231 M
376.8 235.34 L
S
GR
GS
0.149 GC
2 setlinecap
1 LJ
0.5 LW
N
420.2 231 M
420.2 235.34 L
S
GR
GS
0.149 GC
2 setlinecap
1 LJ
0.5 LW
N
463.6 231 M
463.6 235.34 L
S
GR
GS
0.149 GC
2 setlinecap
1 LJ
0.5 LW
N
507 231 M
507 235.34 L
S
GR
GS
[1 0 0 1 73 378] CT
0.149 GC
/Helvetica 10 F
GS
[1 0 0 1 0 0] CT
-3 10 moveto 
1 -1 scale
(0) t 
GR
GR
GS
[1 0 0 1 116.4 378] CT
0.149 GC
/Helvetica 10 F
GS
[1 0 0 1 0 0] CT
-6 10 moveto 
1 -1 scale
(10) t 
GR
GR
GS
[1 0 0 1 159.8 378] CT
0.149 GC
/Helvetica 10 F
GS
[1 0 0 1 0 0] CT
-6 10 moveto 
1 -1 scale
(20) t 
GR
GR
GS
[1 0 0 1 203.2 378] CT
0.149 GC
/Helvetica 10 F
GS
[1 0 0 1 0 0] CT
-6 10 moveto 
1 -1 scale
(30) t 
GR
GR
GS
[1 0 0 1 246.60001 378] CT
0.149 GC
/Helvetica 10 F
GS
[1 0 0 1 0 0] CT
-6 10 moveto 
1 -1 scale
(40) t 
GR
GR
GS
[1 0 0 1 290 378] CT
0.149 GC
/Helvetica 10 F
GS
[1 0 0 1 0 0] CT
-6 10 moveto 
1 -1 scale
(50) t 
GR
GR
GS
[1 0 0 1 333.39999 378] CT
0.149 GC
/Helvetica 10 F
GS
[1 0 0 1 0 0] CT
-6 10 moveto 
1 -1 scale
(60) t 
GR
GR
GS
[1 0 0 1 376.79999 378] CT
0.149 GC
/Helvetica 10 F
GS
[1 0 0 1 0 0] CT
-6 10 moveto 
1 -1 scale
(70) t 
GR
GR
GS
[1 0 0 1 420.20001 378] CT
0.149 GC
/Helvetica 10 F
GS
[1 0 0 1 0 0] CT
-6 10 moveto 
1 -1 scale
(80) t 
GR
GR
GS
[1 0 0 1 463.60001 378] CT
0.149 GC
/Helvetica 10 F
GS
[1 0 0 1 0 0] CT
-6 10 moveto 
1 -1 scale
(90) t 
GR
GR
GS
[1 0 0 1 507 378] CT
0.149 GC
/Helvetica 10 F
GS
[1 0 0 1 0 0] CT
-8.5 10 moveto 
1 -1 scale
(100) t 
GR
GR
GS
[1 0 0 1 290.00021 392] CT
0.149 GC
/Helvetica-Bold 12 F
GS
[1 0 0 1 0 0] CT
-78 12 moveto 
1 -1 scale
(Camera translation \(in mm\)) t 
GR
GR
GS
0.149 GC
2 setlinecap
1 LJ
0.5 LW
N
73 374 M
73 231 L
S
GR
GS
0.149 GC
2 setlinecap
1 LJ
0.5 LW
N
507 374 M
507 231 L
S
GR
GS
0.149 GC
2 setlinecap
1 LJ
0.5 LW
N
73 374 M
77.34 374 L
S
GR
GS
0.149 GC
2 setlinecap
1 LJ
0.5 LW
N
73 338.25 M
77.34 338.25 L
S
GR
GS
0.149 GC
2 setlinecap
1 LJ
0.5 LW
N
73 302.5 M
77.34 302.5 L
S
GR
GS
0.149 GC
2 setlinecap
1 LJ
0.5 LW
N
73 266.75 M
77.34 266.75 L
S
GR
GS
0.149 GC
2 setlinecap
1 LJ
0.5 LW
N
73 231 M
77.34 231 L
S
GR
GS
0.149 GC
2 setlinecap
1 LJ
0.5 LW
N
507 374 M
502.66 374 L
S
GR
GS
0.149 GC
2 setlinecap
1 LJ
0.5 LW
N
507 338.25 M
502.66 338.25 L
S
GR
GS
0.149 GC
2 setlinecap
1 LJ
0.5 LW
N
507 302.5 M
502.66 302.5 L
S
GR
GS
0.149 GC
2 setlinecap
1 LJ
0.5 LW
N
507 266.75 M
502.66 266.75 L
S
GR
GS
0.149 GC
2 setlinecap
1 LJ
0.5 LW
N
507 231 M
502.66 231 L
S
GR
GS
[1 0 0 1 69 374] CT
0.149 GC
/Helvetica 10 F
GS
[1 0 0 1 0 0] CT
-24 3.5 moveto 
1 -1 scale
(-0.04) t 
GR
GR
GS
[1 0 0 1 69 338.25] CT
0.149 GC
/Helvetica 10 F
GS
[1 0 0 1 0 0] CT
-24 3.5 moveto 
1 -1 scale
(-0.02) t 
GR
GR
GS
[1 0 0 1 69 302.5] CT
0.149 GC
/Helvetica 10 F
GS
[1 0 0 1 0 0] CT
-6 3.5 moveto 
1 -1 scale
(0) t 
GR
GR
GS
[1 0 0 1 69 266.75] CT
0.149 GC
/Helvetica 10 F
GS
[1 0 0 1 0 0] CT
-20 3.5 moveto 
1 -1 scale
(0.02) t 
GR
GR
GS
[1 0 0 1 69 231] CT
0.149 GC
/Helvetica 10 F
GS
[1 0 0 1 0 0] CT
-20 3.5 moveto 
1 -1 scale
(0.04) t 
GR
GR
GS
[0 -1 1 0 42 302.49994] CT
0.149 GC
/Helvetica-Bold 12 F
GS
[1 0 0 1 0 0] CT
-55.5 -3 moveto 
1 -1 scale
(Width error \(in mm\)) t 
GR
GR
GS
[1 0 0 1 73 309.37491] CT
0 0 1 RC
N
2.667 0 M
2.667 1.473 1.473 2.667 0 2.667 C
-1.473 2.667 -2.667 1.473 -2.667 0 C
-2.667 -1.473 -1.473 -2.667 0 -2.667 C
1.473 -2.667 2.667 -1.473 2.667 0 C
cp
f
GR
GS
[1 0 0 1 77.34 308.36768] CT
0 0 1 RC
N
2.667 0 M
2.667 1.473 1.473 2.667 0 2.667 C
-1.473 2.667 -2.667 1.473 -2.667 0 C
-2.667 -1.473 -1.473 -2.667 0 -2.667 C
1.473 -2.667 2.667 -1.473 2.667 0 C
cp
f
GR
GS
[1 0 0 1 81.68 307.83356] CT
0 0 1 RC
N
2.667 0 M
2.667 1.473 1.473 2.667 0 2.667 C
-1.473 2.667 -2.667 1.473 -2.667 0 C
-2.667 -1.473 -1.473 -2.667 0 -2.667 C
1.473 -2.667 2.667 -1.473 2.667 0 C
cp
f
GR
GS
[1 0 0 1 86.02 308.6272] CT
0 0 1 RC
N
2.667 0 M
2.667 1.473 1.473 2.667 0 2.667 C
-1.473 2.667 -2.667 1.473 -2.667 0 C
-2.667 -1.473 -1.473 -2.667 0 -2.667 C
1.473 -2.667 2.667 -1.473 2.667 0 C
cp
f
GR
GS
[1 0 0 1 90.36 307.86307] CT
0 0 1 RC
N
2.667 0 M
2.667 1.473 1.473 2.667 0 2.667 C
-1.473 2.667 -2.667 1.473 -2.667 0 C
-2.667 -1.473 -1.473 -2.667 0 -2.667 C
1.473 -2.667 2.667 -1.473 2.667 0 C
cp
f
GR
GS
[1 0 0 1 94.7 305.91504] CT
0 0 1 RC
N
2.667 0 M
2.667 1.473 1.473 2.667 0 2.667 C
-1.473 2.667 -2.667 1.473 -2.667 0 C
-2.667 -1.473 -1.473 -2.667 0 -2.667 C
1.473 -2.667 2.667 -1.473 2.667 0 C
cp
f
GR
GS
[1 0 0 1 99.04 304.24445] CT
0 0 1 RC
N
2.667 0 M
2.667 1.473 1.473 2.667 0 2.667 C
-1.473 2.667 -2.667 1.473 -2.667 0 C
-2.667 -1.473 -1.473 -2.667 0 -2.667 C
1.473 -2.667 2.667 -1.473 2.667 0 C
cp
f
GR
GS
[1 0 0 1 103.38 305.29068] CT
0 0 1 RC
N
2.667 0 M
2.667 1.473 1.473 2.667 0 2.667 C
-1.473 2.667 -2.667 1.473 -2.667 0 C
-2.667 -1.473 -1.473 -2.667 0 -2.667 C
1.473 -2.667 2.667 -1.473 2.667 0 C
cp
f
GR
GS
[1 0 0 1 107.72 308.7485] CT
0 0 1 RC
N
2.667 0 M
2.667 1.473 1.473 2.667 0 2.667 C
-1.473 2.667 -2.667 1.473 -2.667 0 C
-2.667 -1.473 -1.473 -2.667 0 -2.667 C
1.473 -2.667 2.667 -1.473 2.667 0 C
cp
f
GR
GS
[1 0 0 1 112.06 304.8652] CT
0 0 1 RC
N
2.667 0 M
2.667 1.473 1.473 2.667 0 2.667 C
-1.473 2.667 -2.667 1.473 -2.667 0 C
-2.667 -1.473 -1.473 -2.667 0 -2.667 C
1.473 -2.667 2.667 -1.473 2.667 0 C
cp
f
GR
GS
[1 0 0 1 116.4 303.73041] CT
0 0 1 RC
N
2.667 0 M
2.667 1.473 1.473 2.667 0 2.667 C
-1.473 2.667 -2.667 1.473 -2.667 0 C
-2.667 -1.473 -1.473 -2.667 0 -2.667 C
1.473 -2.667 2.667 -1.473 2.667 0 C
cp
f
GR
GS
[1 0 0 1 120.74 303.14352] CT
0 0 1 RC
N
2.667 0 M
2.667 1.473 1.473 2.667 0 2.667 C
-1.473 2.667 -2.667 1.473 -2.667 0 C
-2.667 -1.473 -1.473 -2.667 0 -2.667 C
1.473 -2.667 2.667 -1.473 2.667 0 C
cp
f
GR
GS
[1 0 0 1 125.08 302.77393] CT
0 0 1 RC
N
2.667 0 M
2.667 1.473 1.473 2.667 0 2.667 C
-1.473 2.667 -2.667 1.473 -2.667 0 C
-2.667 -1.473 -1.473 -2.667 0 -2.667 C
1.473 -2.667 2.667 -1.473 2.667 0 C
cp
f
GR
GS
[1 0 0 1 129.42 295.6575] CT
0 0 1 RC
N
2.667 0 M
2.667 1.473 1.473 2.667 0 2.667 C
-1.473 2.667 -2.667 1.473 -2.667 0 C
-2.667 -1.473 -1.473 -2.667 0 -2.667 C
1.473 -2.667 2.667 -1.473 2.667 0 C
cp
f
GR
GS
[1 0 0 1 133.75999 300.09637] CT
0 0 1 RC
N
2.667 0 M
2.667 1.473 1.473 2.667 0 2.667 C
-1.473 2.667 -2.667 1.473 -2.667 0 C
-2.667 -1.473 -1.473 -2.667 0 -2.667 C
1.473 -2.667 2.667 -1.473 2.667 0 C
cp
f
GR
GS
[1 0 0 1 138.10001 295.86957] CT
0 0 1 RC
N
2.667 0 M
2.667 1.473 1.473 2.667 0 2.667 C
-1.473 2.667 -2.667 1.473 -2.667 0 C
-2.667 -1.473 -1.473 -2.667 0 -2.667 C
1.473 -2.667 2.667 -1.473 2.667 0 C
cp
f
GR
GS
[1 0 0 1 142.44 298.63693] CT
0 0 1 RC
N
2.667 0 M
2.667 1.473 1.473 2.667 0 2.667 C
-1.473 2.667 -2.667 1.473 -2.667 0 C
-2.667 -1.473 -1.473 -2.667 0 -2.667 C
1.473 -2.667 2.667 -1.473 2.667 0 C
cp
f
GR
GS
[1 0 0 1 146.78 308.29568] CT
0 0 1 RC
N
2.667 0 M
2.667 1.473 1.473 2.667 0 2.667 C
-1.473 2.667 -2.667 1.473 -2.667 0 C
-2.667 -1.473 -1.473 -2.667 0 -2.667 C
1.473 -2.667 2.667 -1.473 2.667 0 C
cp
f
GR
GS
[1 0 0 1 151.12 303.97217] CT
0 0 1 RC
N
2.667 0 M
2.667 1.473 1.473 2.667 0 2.667 C
-1.473 2.667 -2.667 1.473 -2.667 0 C
-2.667 -1.473 -1.473 -2.667 0 -2.667 C
1.473 -2.667 2.667 -1.473 2.667 0 C
cp
f
GR
GS
[1 0 0 1 155.46001 297.16257] CT
0 0 1 RC
N
2.667 0 M
2.667 1.473 1.473 2.667 0 2.667 C
-1.473 2.667 -2.667 1.473 -2.667 0 C
-2.667 -1.473 -1.473 -2.667 0 -2.667 C
1.473 -2.667 2.667 -1.473 2.667 0 C
cp
f
GR
GS
[1 0 0 1 159.8 300.79742] CT
0 0 1 RC
N
2.667 0 M
2.667 1.473 1.473 2.667 0 2.667 C
-1.473 2.667 -2.667 1.473 -2.667 0 C
-2.667 -1.473 -1.473 -2.667 0 -2.667 C
1.473 -2.667 2.667 -1.473 2.667 0 C
cp
f
GR
GS
[1 0 0 1 164.14 298.73257] CT
0 0 1 RC
N
2.667 0 M
2.667 1.473 1.473 2.667 0 2.667 C
-1.473 2.667 -2.667 1.473 -2.667 0 C
-2.667 -1.473 -1.473 -2.667 0 -2.667 C
1.473 -2.667 2.667 -1.473 2.667 0 C
cp
f
GR
GS
[1 0 0 1 168.48 296.63342] CT
0 0 1 RC
N
2.667 0 M
2.667 1.473 1.473 2.667 0 2.667 C
-1.473 2.667 -2.667 1.473 -2.667 0 C
-2.667 -1.473 -1.473 -2.667 0 -2.667 C
1.473 -2.667 2.667 -1.473 2.667 0 C
cp
f
GR
GS
[1 0 0 1 172.82001 298.97537] CT
0 0 1 RC
N
2.667 0 M
2.667 1.473 1.473 2.667 0 2.667 C
-1.473 2.667 -2.667 1.473 -2.667 0 C
-2.667 -1.473 -1.473 -2.667 0 -2.667 C
1.473 -2.667 2.667 -1.473 2.667 0 C
cp
f
GR
GS
[1 0 0 1 177.16 310.49063] CT
0 0 1 RC
N
2.667 0 M
2.667 1.473 1.473 2.667 0 2.667 C
-1.473 2.667 -2.667 1.473 -2.667 0 C
-2.667 -1.473 -1.473 -2.667 0 -2.667 C
1.473 -2.667 2.667 -1.473 2.667 0 C
cp
f
GR
GS
[1 0 0 1 181.5 300.9436] CT
0 0 1 RC
N
2.667 0 M
2.667 1.473 1.473 2.667 0 2.667 C
-1.473 2.667 -2.667 1.473 -2.667 0 C
-2.667 -1.473 -1.473 -2.667 0 -2.667 C
1.473 -2.667 2.667 -1.473 2.667 0 C
cp
f
GR
GS
[1 0 0 1 185.84 292.00812] CT
0 0 1 RC
N
2.667 0 M
2.667 1.473 1.473 2.667 0 2.667 C
-1.473 2.667 -2.667 1.473 -2.667 0 C
-2.667 -1.473 -1.473 -2.667 0 -2.667 C
1.473 -2.667 2.667 -1.473 2.667 0 C
cp
f
GR
GS
[1 0 0 1 190.17999 291.96133] CT
0 0 1 RC
N
2.667 0 M
2.667 1.473 1.473 2.667 0 2.667 C
-1.473 2.667 -2.667 1.473 -2.667 0 C
-2.667 -1.473 -1.473 -2.667 0 -2.667 C
1.473 -2.667 2.667 -1.473 2.667 0 C
cp
f
GR
GS
[1 0 0 1 194.52 293.78281] CT
0 0 1 RC
N
2.667 0 M
2.667 1.473 1.473 2.667 0 2.667 C
-1.473 2.667 -2.667 1.473 -2.667 0 C
-2.667 -1.473 -1.473 -2.667 0 -2.667 C
1.473 -2.667 2.667 -1.473 2.667 0 C
cp
f
GR
GS
[1 0 0 1 198.86 298.31924] CT
0 0 1 RC
N
2.667 0 M
2.667 1.473 1.473 2.667 0 2.667 C
-1.473 2.667 -2.667 1.473 -2.667 0 C
-2.667 -1.473 -1.473 -2.667 0 -2.667 C
1.473 -2.667 2.667 -1.473 2.667 0 C
cp
f
GR
GS
[1 0 0 1 203.2 305.15076] CT
0 0 1 RC
N
2.667 0 M
2.667 1.473 1.473 2.667 0 2.667 C
-1.473 2.667 -2.667 1.473 -2.667 0 C
-2.667 -1.473 -1.473 -2.667 0 -2.667 C
1.473 -2.667 2.667 -1.473 2.667 0 C
cp
f
GR
GS
[1 0 0 1 207.53999 308.77454] CT
0 0 1 RC
N
2.667 0 M
2.667 1.473 1.473 2.667 0 2.667 C
-1.473 2.667 -2.667 1.473 -2.667 0 C
-2.667 -1.473 -1.473 -2.667 0 -2.667 C
1.473 -2.667 2.667 -1.473 2.667 0 C
cp
f
GR
GS
[1 0 0 1 211.88 297.84808] CT
0 0 1 RC
N
2.667 0 M
2.667 1.473 1.473 2.667 0 2.667 C
-1.473 2.667 -2.667 1.473 -2.667 0 C
-2.667 -1.473 -1.473 -2.667 0 -2.667 C
1.473 -2.667 2.667 -1.473 2.667 0 C
cp
f
GR
GS
[1 0 0 1 216.22 297.39651] CT
0 0 1 RC
N
2.667 0 M
2.667 1.473 1.473 2.667 0 2.667 C
-1.473 2.667 -2.667 1.473 -2.667 0 C
-2.667 -1.473 -1.473 -2.667 0 -2.667 C
1.473 -2.667 2.667 -1.473 2.667 0 C
cp
f
GR
GS
[1 0 0 1 220.56 296.26608] CT
0 0 1 RC
N
2.667 0 M
2.667 1.473 1.473 2.667 0 2.667 C
-1.473 2.667 -2.667 1.473 -2.667 0 C
-2.667 -1.473 -1.473 -2.667 0 -2.667 C
1.473 -2.667 2.667 -1.473 2.667 0 C
cp
f
GR
GS
[1 0 0 1 224.89999 296.80505] CT
0 0 1 RC
N
2.667 0 M
2.667 1.473 1.473 2.667 0 2.667 C
-1.473 2.667 -2.667 1.473 -2.667 0 C
-2.667 -1.473 -1.473 -2.667 0 -2.667 C
1.473 -2.667 2.667 -1.473 2.667 0 C
cp
f
GR
GS
[1 0 0 1 229.24001 310.64975] CT
0 0 1 RC
N
2.667 0 M
2.667 1.473 1.473 2.667 0 2.667 C
-1.473 2.667 -2.667 1.473 -2.667 0 C
-2.667 -1.473 -1.473 -2.667 0 -2.667 C
1.473 -2.667 2.667 -1.473 2.667 0 C
cp
f
GR
GS
[1 0 0 1 233.58 291.46918] CT
0 0 1 RC
N
2.667 0 M
2.667 1.473 1.473 2.667 0 2.667 C
-1.473 2.667 -2.667 1.473 -2.667 0 C
-2.667 -1.473 -1.473 -2.667 0 -2.667 C
1.473 -2.667 2.667 -1.473 2.667 0 C
cp
f
GR
GS
[1 0 0 1 237.92 301.9079] CT
0 0 1 RC
N
2.667 0 M
2.667 1.473 1.473 2.667 0 2.667 C
-1.473 2.667 -2.667 1.473 -2.667 0 C
-2.667 -1.473 -1.473 -2.667 0 -2.667 C
1.473 -2.667 2.667 -1.473 2.667 0 C
cp
f
GR
GS
[1 0 0 1 242.25999 300.73126] CT
0 0 1 RC
N
2.667 0 M
2.667 1.473 1.473 2.667 0 2.667 C
-1.473 2.667 -2.667 1.473 -2.667 0 C
-2.667 -1.473 -1.473 -2.667 0 -2.667 C
1.473 -2.667 2.667 -1.473 2.667 0 C
cp
f
GR
GS
[1 0 0 1 246.60001 306.71777] CT
0 0 1 RC
N
2.667 0 M
2.667 1.473 1.473 2.667 0 2.667 C
-1.473 2.667 -2.667 1.473 -2.667 0 C
-2.667 -1.473 -1.473 -2.667 0 -2.667 C
1.473 -2.667 2.667 -1.473 2.667 0 C
cp
f
GR
GS
[1 0 0 1 250.94 314.54031] CT
0 0 1 RC
N
2.667 0 M
2.667 1.473 1.473 2.667 0 2.667 C
-1.473 2.667 -2.667 1.473 -2.667 0 C
-2.667 -1.473 -1.473 -2.667 0 -2.667 C
1.473 -2.667 2.667 -1.473 2.667 0 C
cp
f
GR
GS
[1 0 0 1 255.28 306.61761] CT
0 0 1 RC
N
2.667 0 M
2.667 1.473 1.473 2.667 0 2.667 C
-1.473 2.667 -2.667 1.473 -2.667 0 C
-2.667 -1.473 -1.473 -2.667 0 -2.667 C
1.473 -2.667 2.667 -1.473 2.667 0 C
cp
f
GR
GS
[1 0 0 1 259.62 304.77612] CT
0 0 1 RC
N
2.667 0 M
2.667 1.473 1.473 2.667 0 2.667 C
-1.473 2.667 -2.667 1.473 -2.667 0 C
-2.667 -1.473 -1.473 -2.667 0 -2.667 C
1.473 -2.667 2.667 -1.473 2.667 0 C
cp
f
GR
GS
[1 0 0 1 263.95999 279.42282] CT
0 0 1 RC
N
2.667 0 M
2.667 1.473 1.473 2.667 0 2.667 C
-1.473 2.667 -2.667 1.473 -2.667 0 C
-2.667 -1.473 -1.473 -2.667 0 -2.667 C
1.473 -2.667 2.667 -1.473 2.667 0 C
cp
f
GR
GS
[1 0 0 1 268.29999 296.48392] CT
0 0 1 RC
N
2.667 0 M
2.667 1.473 1.473 2.667 0 2.667 C
-1.473 2.667 -2.667 1.473 -2.667 0 C
-2.667 -1.473 -1.473 -2.667 0 -2.667 C
1.473 -2.667 2.667 -1.473 2.667 0 C
cp
f
GR
GS
[1 0 0 1 272.64001 290.561] CT
0 0 1 RC
N
2.667 0 M
2.667 1.473 1.473 2.667 0 2.667 C
-1.473 2.667 -2.667 1.473 -2.667 0 C
-2.667 -1.473 -1.473 -2.667 0 -2.667 C
1.473 -2.667 2.667 -1.473 2.667 0 C
cp
f
GR
GS
[1 0 0 1 276.98001 289.73886] CT
0 0 1 RC
N
2.667 0 M
2.667 1.473 1.473 2.667 0 2.667 C
-1.473 2.667 -2.667 1.473 -2.667 0 C
-2.667 -1.473 -1.473 -2.667 0 -2.667 C
1.473 -2.667 2.667 -1.473 2.667 0 C
cp
f
GR
GS
[1 0 0 1 281.32001 298.86505] CT
0 0 1 RC
N
2.667 0 M
2.667 1.473 1.473 2.667 0 2.667 C
-1.473 2.667 -2.667 1.473 -2.667 0 C
-2.667 -1.473 -1.473 -2.667 0 -2.667 C
1.473 -2.667 2.667 -1.473 2.667 0 C
cp
f
GR
GS
[1 0 0 1 285.66 283.79886] CT
0 0 1 RC
N
2.667 0 M
2.667 1.473 1.473 2.667 0 2.667 C
-1.473 2.667 -2.667 1.473 -2.667 0 C
-2.667 -1.473 -1.473 -2.667 0 -2.667 C
1.473 -2.667 2.667 -1.473 2.667 0 C
cp
f
GR
GS
[1 0 0 1 290 296.63126] CT
0 0 1 RC
N
2.667 0 M
2.667 1.473 1.473 2.667 0 2.667 C
-1.473 2.667 -2.667 1.473 -2.667 0 C
-2.667 -1.473 -1.473 -2.667 0 -2.667 C
1.473 -2.667 2.667 -1.473 2.667 0 C
cp
f
GR
GS
[1 0 0 1 294.34 308.70276] CT
0 0 1 RC
N
2.667 0 M
2.667 1.473 1.473 2.667 0 2.667 C
-1.473 2.667 -2.667 1.473 -2.667 0 C
-2.667 -1.473 -1.473 -2.667 0 -2.667 C
1.473 -2.667 2.667 -1.473 2.667 0 C
cp
f
GR
GS
[1 0 0 1 298.67999 310.43286] CT
0 0 1 RC
N
2.667 0 M
2.667 1.473 1.473 2.667 0 2.667 C
-1.473 2.667 -2.667 1.473 -2.667 0 C
-2.667 -1.473 -1.473 -2.667 0 -2.667 C
1.473 -2.667 2.667 -1.473 2.667 0 C
cp
f
GR
GS
[1 0 0 1 303.01999 317.48575] CT
0 0 1 RC
N
2.667 0 M
2.667 1.473 1.473 2.667 0 2.667 C
-1.473 2.667 -2.667 1.473 -2.667 0 C
-2.667 -1.473 -1.473 -2.667 0 -2.667 C
1.473 -2.667 2.667 -1.473 2.667 0 C
cp
f
GR
GS
[1 0 0 1 307.35999 313.70544] CT
0 0 1 RC
N
2.667 0 M
2.667 1.473 1.473 2.667 0 2.667 C
-1.473 2.667 -2.667 1.473 -2.667 0 C
-2.667 -1.473 -1.473 -2.667 0 -2.667 C
1.473 -2.667 2.667 -1.473 2.667 0 C
cp
f
GR
GS
[1 0 0 1 311.70001 284.57953] CT
0 0 1 RC
N
2.667 0 M
2.667 1.473 1.473 2.667 0 2.667 C
-1.473 2.667 -2.667 1.473 -2.667 0 C
-2.667 -1.473 -1.473 -2.667 0 -2.667 C
1.473 -2.667 2.667 -1.473 2.667 0 C
cp
f
GR
GS
[1 0 0 1 316.04001 306.07401] CT
0 0 1 RC
N
2.667 0 M
2.667 1.473 1.473 2.667 0 2.667 C
-1.473 2.667 -2.667 1.473 -2.667 0 C
-2.667 -1.473 -1.473 -2.667 0 -2.667 C
1.473 -2.667 2.667 -1.473 2.667 0 C
cp
f
GR
GS
[1 0 0 1 320.38 320.82217] CT
0 0 1 RC
N
2.667 0 M
2.667 1.473 1.473 2.667 0 2.667 C
-1.473 2.667 -2.667 1.473 -2.667 0 C
-2.667 -1.473 -1.473 -2.667 0 -2.667 C
1.473 -2.667 2.667 -1.473 2.667 0 C
cp
f
GR
GS
[1 0 0 1 324.72 302.28738] CT
0 0 1 RC
N
2.667 0 M
2.667 1.473 1.473 2.667 0 2.667 C
-1.473 2.667 -2.667 1.473 -2.667 0 C
-2.667 -1.473 -1.473 -2.667 0 -2.667 C
1.473 -2.667 2.667 -1.473 2.667 0 C
cp
f
GR
GS
[1 0 0 1 329.06 292.21854] CT
0 0 1 RC
N
2.667 0 M
2.667 1.473 1.473 2.667 0 2.667 C
-1.473 2.667 -2.667 1.473 -2.667 0 C
-2.667 -1.473 -1.473 -2.667 0 -2.667 C
1.473 -2.667 2.667 -1.473 2.667 0 C
cp
f
GR
GS
[1 0 0 1 333.39999 309.20905] CT
0 0 1 RC
N
2.667 0 M
2.667 1.473 1.473 2.667 0 2.667 C
-1.473 2.667 -2.667 1.473 -2.667 0 C
-2.667 -1.473 -1.473 -2.667 0 -2.667 C
1.473 -2.667 2.667 -1.473 2.667 0 C
cp
f
GR
GS
[1 0 0 1 337.73999 325.4949] CT
0 0 1 RC
N
2.667 0 M
2.667 1.473 1.473 2.667 0 2.667 C
-1.473 2.667 -2.667 1.473 -2.667 0 C
-2.667 -1.473 -1.473 -2.667 0 -2.667 C
1.473 -2.667 2.667 -1.473 2.667 0 C
cp
f
GR
GS
[1 0 0 1 342.07999 308.00897] CT
0 0 1 RC
N
2.667 0 M
2.667 1.473 1.473 2.667 0 2.667 C
-1.473 2.667 -2.667 1.473 -2.667 0 C
-2.667 -1.473 -1.473 -2.667 0 -2.667 C
1.473 -2.667 2.667 -1.473 2.667 0 C
cp
f
GR
GS
[1 0 0 1 346.42001 284.90448] CT
0 0 1 RC
N
2.667 0 M
2.667 1.473 1.473 2.667 0 2.667 C
-1.473 2.667 -2.667 1.473 -2.667 0 C
-2.667 -1.473 -1.473 -2.667 0 -2.667 C
1.473 -2.667 2.667 -1.473 2.667 0 C
cp
f
GR
GS
[1 0 0 1 350.76001 321.3931] CT
0 0 1 RC
N
2.667 0 M
2.667 1.473 1.473 2.667 0 2.667 C
-1.473 2.667 -2.667 1.473 -2.667 0 C
-2.667 -1.473 -1.473 -2.667 0 -2.667 C
1.473 -2.667 2.667 -1.473 2.667 0 C
cp
f
GR
GS
[1 0 0 1 355.10001 299.7941] CT
0 0 1 RC
N
2.667 0 M
2.667 1.473 1.473 2.667 0 2.667 C
-1.473 2.667 -2.667 1.473 -2.667 0 C
-2.667 -1.473 -1.473 -2.667 0 -2.667 C
1.473 -2.667 2.667 -1.473 2.667 0 C
cp
f
GR
GS
[1 0 0 1 359.44 329.20728] CT
0 0 1 RC
N
2.667 0 M
2.667 1.473 1.473 2.667 0 2.667 C
-1.473 2.667 -2.667 1.473 -2.667 0 C
-2.667 -1.473 -1.473 -2.667 0 -2.667 C
1.473 -2.667 2.667 -1.473 2.667 0 C
cp
f
GR
GS
[1 0 0 1 363.78 282.10602] CT
0 0 1 RC
N
2.667 0 M
2.667 1.473 1.473 2.667 0 2.667 C
-1.473 2.667 -2.667 1.473 -2.667 0 C
-2.667 -1.473 -1.473 -2.667 0 -2.667 C
1.473 -2.667 2.667 -1.473 2.667 0 C
cp
f
GR
GS
[1 0 0 1 368.12 304.51089] CT
0 0 1 RC
N
2.667 0 M
2.667 1.473 1.473 2.667 0 2.667 C
-1.473 2.667 -2.667 1.473 -2.667 0 C
-2.667 -1.473 -1.473 -2.667 0 -2.667 C
1.473 -2.667 2.667 -1.473 2.667 0 C
cp
f
GR
GS
[1 0 0 1 372.45999 329.21494] CT
0 0 1 RC
N
2.667 0 M
2.667 1.473 1.473 2.667 0 2.667 C
-1.473 2.667 -2.667 1.473 -2.667 0 C
-2.667 -1.473 -1.473 -2.667 0 -2.667 C
1.473 -2.667 2.667 -1.473 2.667 0 C
cp
f
GR
GS
[1 0 0 1 376.79999 273.73752] CT
0 0 1 RC
N
2.667 0 M
2.667 1.473 1.473 2.667 0 2.667 C
-1.473 2.667 -2.667 1.473 -2.667 0 C
-2.667 -1.473 -1.473 -2.667 0 -2.667 C
1.473 -2.667 2.667 -1.473 2.667 0 C
cp
f
GR
GS
[1 0 0 1 381.14001 315.79568] CT
0 0 1 RC
N
2.667 0 M
2.667 1.473 1.473 2.667 0 2.667 C
-1.473 2.667 -2.667 1.473 -2.667 0 C
-2.667 -1.473 -1.473 -2.667 0 -2.667 C
1.473 -2.667 2.667 -1.473 2.667 0 C
cp
f
GR
GS
[1 0 0 1 385.48001 335.33365] CT
0 0 1 RC
N
2.667 0 M
2.667 1.473 1.473 2.667 0 2.667 C
-1.473 2.667 -2.667 1.473 -2.667 0 C
-2.667 -1.473 -1.473 -2.667 0 -2.667 C
1.473 -2.667 2.667 -1.473 2.667 0 C
cp
f
GR
GS
[1 0 0 1 389.82001 291.78754] CT
0 0 1 RC
N
2.667 0 M
2.667 1.473 1.473 2.667 0 2.667 C
-1.473 2.667 -2.667 1.473 -2.667 0 C
-2.667 -1.473 -1.473 -2.667 0 -2.667 C
1.473 -2.667 2.667 -1.473 2.667 0 C
cp
f
GR
GS
[1 0 0 1 394.16 309.38083] CT
0 0 1 RC
N
2.667 0 M
2.667 1.473 1.473 2.667 0 2.667 C
-1.473 2.667 -2.667 1.473 -2.667 0 C
-2.667 -1.473 -1.473 -2.667 0 -2.667 C
1.473 -2.667 2.667 -1.473 2.667 0 C
cp
f
GR
GS
[1 0 0 1 398.5 279.55969] CT
0 0 1 RC
N
2.667 0 M
2.667 1.473 1.473 2.667 0 2.667 C
-1.473 2.667 -2.667 1.473 -2.667 0 C
-2.667 -1.473 -1.473 -2.667 0 -2.667 C
1.473 -2.667 2.667 -1.473 2.667 0 C
cp
f
GR
GS
[1 0 0 1 402.84 312.06915] CT
0 0 1 RC
N
2.667 0 M
2.667 1.473 1.473 2.667 0 2.667 C
-1.473 2.667 -2.667 1.473 -2.667 0 C
-2.667 -1.473 -1.473 -2.667 0 -2.667 C
1.473 -2.667 2.667 -1.473 2.667 0 C
cp
f
GR
GS
[1 0 0 1 407.17999 280.02066] CT
0 0 1 RC
N
2.667 0 M
2.667 1.473 1.473 2.667 0 2.667 C
-1.473 2.667 -2.667 1.473 -2.667 0 C
-2.667 -1.473 -1.473 -2.667 0 -2.667 C
1.473 -2.667 2.667 -1.473 2.667 0 C
cp
f
GR
GS
[1 0 0 1 411.51999 305.13654] CT
0 0 1 RC
N
2.667 0 M
2.667 1.473 1.473 2.667 0 2.667 C
-1.473 2.667 -2.667 1.473 -2.667 0 C
-2.667 -1.473 -1.473 -2.667 0 -2.667 C
1.473 -2.667 2.667 -1.473 2.667 0 C
cp
f
GR
GS
[1 0 0 1 415.85999 308.5997] CT
0 0 1 RC
N
2.667 0 M
2.667 1.473 1.473 2.667 0 2.667 C
-1.473 2.667 -2.667 1.473 -2.667 0 C
-2.667 -1.473 -1.473 -2.667 0 -2.667 C
1.473 -2.667 2.667 -1.473 2.667 0 C
cp
f
GR
GS
[1 0 0 1 420.20001 310.11133] CT
0 0 1 RC
N
2.667 0 M
2.667 1.473 1.473 2.667 0 2.667 C
-1.473 2.667 -2.667 1.473 -2.667 0 C
-2.667 -1.473 -1.473 -2.667 0 -2.667 C
1.473 -2.667 2.667 -1.473 2.667 0 C
cp
f
GR
GS
[1 0 0 1 424.54001 314.47238] CT
0 0 1 RC
N
2.667 0 M
2.667 1.473 1.473 2.667 0 2.667 C
-1.473 2.667 -2.667 1.473 -2.667 0 C
-2.667 -1.473 -1.473 -2.667 0 -2.667 C
1.473 -2.667 2.667 -1.473 2.667 0 C
cp
f
GR
GS
[1 0 0 1 428.88 291.11792] CT
0 0 1 RC
N
2.667 0 M
2.667 1.473 1.473 2.667 0 2.667 C
-1.473 2.667 -2.667 1.473 -2.667 0 C
-2.667 -1.473 -1.473 -2.667 0 -2.667 C
1.473 -2.667 2.667 -1.473 2.667 0 C
cp
f
GR
GS
[1 0 0 1 433.22 258.60446] CT
0 0 1 RC
N
2.667 0 M
2.667 1.473 1.473 2.667 0 2.667 C
-1.473 2.667 -2.667 1.473 -2.667 0 C
-2.667 -1.473 -1.473 -2.667 0 -2.667 C
1.473 -2.667 2.667 -1.473 2.667 0 C
cp
f
GR
GS
[1 0 0 1 437.56 304.48233] CT
0 0 1 RC
N
2.667 0 M
2.667 1.473 1.473 2.667 0 2.667 C
-1.473 2.667 -2.667 1.473 -2.667 0 C
-2.667 -1.473 -1.473 -2.667 0 -2.667 C
1.473 -2.667 2.667 -1.473 2.667 0 C
cp
f
GR
GS
[1 0 0 1 441.89999 312.79846] CT
0 0 1 RC
N
2.667 0 M
2.667 1.473 1.473 2.667 0 2.667 C
-1.473 2.667 -2.667 1.473 -2.667 0 C
-2.667 -1.473 -1.473 -2.667 0 -2.667 C
1.473 -2.667 2.667 -1.473 2.667 0 C
cp
f
GR
GS
[1 0 0 1 446.23999 307.72299] CT
0 0 1 RC
N
2.667 0 M
2.667 1.473 1.473 2.667 0 2.667 C
-1.473 2.667 -2.667 1.473 -2.667 0 C
-2.667 -1.473 -1.473 -2.667 0 -2.667 C
1.473 -2.667 2.667 -1.473 2.667 0 C
cp
f
GR
GS
[1 0 0 1 450.57999 333.48199] CT
0 0 1 RC
N
2.667 0 M
2.667 1.473 1.473 2.667 0 2.667 C
-1.473 2.667 -2.667 1.473 -2.667 0 C
-2.667 -1.473 -1.473 -2.667 0 -2.667 C
1.473 -2.667 2.667 -1.473 2.667 0 C
cp
f
GR
GS
[1 0 0 1 454.92001 359.56638] CT
0 0 1 RC
N
2.667 0 M
2.667 1.473 1.473 2.667 0 2.667 C
-1.473 2.667 -2.667 1.473 -2.667 0 C
-2.667 -1.473 -1.473 -2.667 0 -2.667 C
1.473 -2.667 2.667 -1.473 2.667 0 C
cp
f
GR
GS
[1 0 0 1 459.26001 330.63782] CT
0 0 1 RC
N
2.667 0 M
2.667 1.473 1.473 2.667 0 2.667 C
-1.473 2.667 -2.667 1.473 -2.667 0 C
-2.667 -1.473 -1.473 -2.667 0 -2.667 C
1.473 -2.667 2.667 -1.473 2.667 0 C
cp
f
GR
GS
[1 0 0 1 463.60001 294.89209] CT
0 0 1 RC
N
2.667 0 M
2.667 1.473 1.473 2.667 0 2.667 C
-1.473 2.667 -2.667 1.473 -2.667 0 C
-2.667 -1.473 -1.473 -2.667 0 -2.667 C
1.473 -2.667 2.667 -1.473 2.667 0 C
cp
f
GR
GS
[1 0 0 1 467.94 304.85706] CT
0 0 1 RC
N
2.667 0 M
2.667 1.473 1.473 2.667 0 2.667 C
-1.473 2.667 -2.667 1.473 -2.667 0 C
-2.667 -1.473 -1.473 -2.667 0 -2.667 C
1.473 -2.667 2.667 -1.473 2.667 0 C
cp
f
GR
GS
[1 0 0 1 472.28 301.25415] CT
0 0 1 RC
N
2.667 0 M
2.667 1.473 1.473 2.667 0 2.667 C
-1.473 2.667 -2.667 1.473 -2.667 0 C
-2.667 -1.473 -1.473 -2.667 0 -2.667 C
1.473 -2.667 2.667 -1.473 2.667 0 C
cp
f
GR
GS
[1 0 0 1 476.62 340.19202] CT
0 0 1 RC
N
2.667 0 M
2.667 1.473 1.473 2.667 0 2.667 C
-1.473 2.667 -2.667 1.473 -2.667 0 C
-2.667 -1.473 -1.473 -2.667 0 -2.667 C
1.473 -2.667 2.667 -1.473 2.667 0 C
cp
f
GR
GS
[1 0 0 1 480.95999 267.44] CT
0 0 1 RC
N
2.667 0 M
2.667 1.473 1.473 2.667 0 2.667 C
-1.473 2.667 -2.667 1.473 -2.667 0 C
-2.667 -1.473 -1.473 -2.667 0 -2.667 C
1.473 -2.667 2.667 -1.473 2.667 0 C
cp
f
GR
GS
[1 0 0 1 485.29999 339.88412] CT
0 0 1 RC
N
2.667 0 M
2.667 1.473 1.473 2.667 0 2.667 C
-1.473 2.667 -2.667 1.473 -2.667 0 C
-2.667 -1.473 -1.473 -2.667 0 -2.667 C
1.473 -2.667 2.667 -1.473 2.667 0 C
cp
f
GR
GS
[1 0 0 1 489.64001 278.0524] CT
0 0 1 RC
N
2.667 0 M
2.667 1.473 1.473 2.667 0 2.667 C
-1.473 2.667 -2.667 1.473 -2.667 0 C
-2.667 -1.473 -1.473 -2.667 0 -2.667 C
1.473 -2.667 2.667 -1.473 2.667 0 C
cp
f
GR
GS
[1 0 0 1 493.98001 284.33792] CT
0 0 1 RC
N
2.667 0 M
2.667 1.473 1.473 2.667 0 2.667 C
-1.473 2.667 -2.667 1.473 -2.667 0 C
-2.667 -1.473 -1.473 -2.667 0 -2.667 C
1.473 -2.667 2.667 -1.473 2.667 0 C
cp
f
GR
GS
[1 0 0 1 498.32001 300.94031] CT
0 0 1 RC
N
2.667 0 M
2.667 1.473 1.473 2.667 0 2.667 C
-1.473 2.667 -2.667 1.473 -2.667 0 C
-2.667 -1.473 -1.473 -2.667 0 -2.667 C
1.473 -2.667 2.667 -1.473 2.667 0 C
cp
f
GR
GS
[1 0 0 1 502.66 308.40039] CT
0 0 1 RC
N
2.667 0 M
2.667 1.473 1.473 2.667 0 2.667 C
-1.473 2.667 -2.667 1.473 -2.667 0 C
-2.667 -1.473 -1.473 -2.667 0 -2.667 C
1.473 -2.667 2.667 -1.473 2.667 0 C
cp
f
GR
GS
[1 0 0 1 507 273.65198] CT
0 0 1 RC
N
2.667 0 M
2.667 1.473 1.473 2.667 0 2.667 C
-1.473 2.667 -2.667 1.473 -2.667 0 C
-2.667 -1.473 -1.473 -2.667 0 -2.667 C
1.473 -2.667 2.667 -1.473 2.667 0 C
cp
f
GR
GS
1 0 0 RC
1 LJ
N
73 302.5 M
73.434 302.5 L
73.868 302.5 L
74.302 302.5 L
74.736 302.5 L
75.17 302.5 L
75.604 302.5 L
76.038 302.5 L
76.472 302.5 L
76.906 302.5 L
77.34 302.5 L
77.774 302.5 L
78.208 302.5 L
78.642 302.5 L
79.076 302.5 L
79.51 302.5 L
79.944 302.5 L
80.378 302.5 L
80.812 302.5 L
81.246 302.5 L
81.68 302.5 L
82.114 302.5 L
82.548 302.5 L
82.982 302.5 L
83.416 302.5 L
83.85 302.5 L
84.284 302.5 L
84.718 302.5 L
85.152 302.5 L
85.586 302.5 L
86.02 302.5 L
86.454 302.5 L
86.888 302.5 L
87.322 302.5 L
87.756 302.5 L
88.19 302.5 L
88.624 302.5 L
89.058 302.5 L
89.492 302.5 L
89.926 302.5 L
90.36 302.5 L
90.794 302.5 L
91.228 302.5 L
91.662 302.5 L
92.096 302.5 L
92.53 302.5 L
92.964 302.5 L
93.398 302.5 L
93.832 302.5 L
94.266 302.5 L
94.7 302.5 L
95.134 302.5 L
95.568 302.5 L
96.002 302.5 L
96.436 302.5 L
96.87 302.5 L
97.304 302.5 L
97.738 302.5 L
98.172 302.5 L
98.606 302.5 L
99.04 302.5 L
99.474 302.5 L
99.908 302.5 L
100.342 302.5 L
100.776 302.5 L
101.21 302.5 L
101.644 302.5 L
102.078 302.5 L
102.512 302.5 L
102.946 302.5 L
103.38 302.5 L
103.814 302.5 L
104.248 302.5 L
104.682 302.5 L
105.116 302.5 L
105.55 302.5 L
105.984 302.5 L
106.418 302.5 L
106.852 302.5 L
107.286 302.5 L
107.72 302.5 L
108.154 302.5 L
108.588 302.5 L
109.022 302.5 L
109.456 302.5 L
109.89 302.5 L
110.324 302.5 L
110.758 302.5 L
111.192 302.5 L
111.626 302.5 L
112.06 302.5 L
112.494 302.5 L
112.928 302.5 L
113.362 302.5 L
113.796 302.5 L
114.23 302.5 L
114.664 302.5 L
115.098 302.5 L
115.532 302.5 L
115.966 302.5 L
116.4 302.5 L
116.834 302.5 L
117.268 302.5 L
117.702 302.5 L
118.136 302.5 L
118.57 302.5 L
119.004 302.5 L
119.438 302.5 L
119.872 302.5 L
120.306 302.5 L
120.74 302.5 L
121.174 302.5 L
121.608 302.5 L
122.042 302.5 L
122.476 302.5 L
122.91 302.5 L
123.344 302.5 L
123.778 302.5 L
124.212 302.5 L
124.646 302.5 L
125.08 302.5 L
125.514 302.5 L
125.948 302.5 L
126.382 302.5 L
126.816 302.5 L
127.25 302.5 L
127.684 302.5 L
128.118 302.5 L
128.552 302.5 L
128.986 302.5 L
129.42 302.5 L
129.854 302.5 L
130.288 302.5 L
130.722 302.5 L
131.156 302.5 L
131.59 302.5 L
132.024 302.5 L
132.458 302.5 L
132.892 302.5 L
133.326 302.5 L
133.76 302.5 L
134.194 302.5 L
134.628 302.5 L
135.062 302.5 L
135.496 302.5 L
135.93 302.5 L
136.364 302.5 L
136.798 302.5 L
137.232 302.5 L
137.666 302.5 L
138.1 302.5 L
138.534 302.5 L
138.968 302.5 L
139.402 302.5 L
139.836 302.5 L
140.27 302.5 L
140.704 302.5 L
141.138 302.5 L
141.572 302.5 L
142.006 302.5 L
142.44 302.5 L
142.874 302.5 L
143.308 302.5 L
143.742 302.5 L
144.176 302.5 L
144.61 302.5 L
145.044 302.5 L
145.478 302.5 L
145.912 302.5 L
146.346 302.5 L
146.78 302.5 L
147.214 302.5 L
147.648 302.5 L
148.082 302.5 L
148.516 302.5 L
148.95 302.5 L
149.384 302.5 L
149.818 302.5 L
150.252 302.5 L
150.686 302.5 L
151.12 302.5 L
151.554 302.5 L
151.988 302.5 L
152.422 302.5 L
152.856 302.5 L
153.29 302.5 L
153.724 302.5 L
154.158 302.5 L
154.592 302.5 L
155.026 302.5 L
155.46 302.5 L
155.894 302.5 L
156.328 302.5 L
156.762 302.5 L
157.196 302.5 L
157.63 302.5 L
158.064 302.5 L
158.498 302.5 L
158.932 302.5 L
159.366 302.5 L
159.8 302.5 L
160.234 302.5 L
160.668 302.5 L
161.102 302.5 L
161.536 302.5 L
161.97 302.5 L
162.404 302.5 L
162.838 302.5 L
163.272 302.5 L
163.706 302.5 L
164.14 302.5 L
164.574 302.5 L
165.008 302.5 L
165.442 302.5 L
165.876 302.5 L
166.31 302.5 L
166.744 302.5 L
167.178 302.5 L
167.612 302.5 L
168.046 302.5 L
168.48 302.5 L
168.914 302.5 L
169.348 302.5 L
169.782 302.5 L
170.216 302.5 L
170.65 302.5 L
171.084 302.5 L
171.518 302.5 L
171.952 302.5 L
172.386 302.5 L
172.82 302.5 L
173.254 302.5 L
173.688 302.5 L
174.122 302.5 L
174.556 302.5 L
174.99 302.5 L
175.424 302.5 L
175.858 302.5 L
176.292 302.5 L
176.726 302.5 L
177.16 302.5 L
177.594 302.5 L
178.028 302.5 L
178.462 302.5 L
178.896 302.5 L
179.33 302.5 L
179.764 302.5 L
180.198 302.5 L
180.632 302.5 L
181.066 302.5 L
181.5 302.5 L
181.934 302.5 L
182.368 302.5 L
182.802 302.5 L
183.236 302.5 L
183.67 302.5 L
184.104 302.5 L
184.538 302.5 L
184.972 302.5 L
185.406 302.5 L
185.84 302.5 L
186.274 302.5 L
186.708 302.5 L
187.142 302.5 L
187.576 302.5 L
188.01 302.5 L
188.444 302.5 L
188.878 302.5 L
189.312 302.5 L
189.746 302.5 L
190.18 302.5 L
190.614 302.5 L
191.048 302.5 L
191.482 302.5 L
191.916 302.5 L
192.35 302.5 L
192.784 302.5 L
193.218 302.5 L
193.652 302.5 L
194.086 302.5 L
194.52 302.5 L
194.954 302.5 L
195.388 302.5 L
195.822 302.5 L
196.256 302.5 L
196.69 302.5 L
197.124 302.5 L
197.558 302.5 L
197.992 302.5 L
198.426 302.5 L
198.86 302.5 L
199.294 302.5 L
199.728 302.5 L
200.162 302.5 L
200.596 302.5 L
201.03 302.5 L
201.464 302.5 L
201.898 302.5 L
202.332 302.5 L
202.766 302.5 L
203.2 302.5 L
203.634 302.5 L
204.068 302.5 L
204.502 302.5 L
204.936 302.5 L
205.37 302.5 L
205.804 302.5 L
206.238 302.5 L
206.672 302.5 L
207.106 302.5 L
207.54 302.5 L
207.974 302.5 L
208.408 302.5 L
208.842 302.5 L
209.276 302.5 L
209.71 302.5 L
210.144 302.5 L
210.578 302.5 L
211.012 302.5 L
211.446 302.5 L
211.88 302.5 L
212.314 302.5 L
212.748 302.5 L
213.182 302.5 L
213.616 302.5 L
214.05 302.5 L
214.484 302.5 L
214.918 302.5 L
215.352 302.5 L
215.786 302.5 L
216.22 302.5 L
216.654 302.5 L
217.088 302.5 L
217.522 302.5 L
217.956 302.5 L
218.39 302.5 L
218.824 302.5 L
219.258 302.5 L
219.692 302.5 L
220.126 302.5 L
220.56 302.5 L
220.994 302.5 L
221.428 302.5 L
221.862 302.5 L
222.296 302.5 L
222.73 302.5 L
223.164 302.5 L
223.598 302.5 L
224.032 302.5 L
224.466 302.5 L
224.9 302.5 L
225.334 302.5 L
225.768 302.5 L
226.202 302.5 L
226.636 302.5 L
227.07 302.5 L
227.504 302.5 L
227.938 302.5 L
228.372 302.5 L
228.806 302.5 L
229.24 302.5 L
229.674 302.5 L
230.108 302.5 L
230.542 302.5 L
230.976 302.5 L
231.41 302.5 L
231.844 302.5 L
232.278 302.5 L
232.712 302.5 L
233.146 302.5 L
233.58 302.5 L
234.014 302.5 L
234.448 302.5 L
234.882 302.5 L
235.316 302.5 L
235.75 302.5 L
236.184 302.5 L
236.618 302.5 L
237.052 302.5 L
237.486 302.5 L
237.92 302.5 L
238.354 302.5 L
238.788 302.5 L
239.222 302.5 L
239.656 302.5 L
240.09 302.5 L
240.524 302.5 L
240.958 302.5 L
241.392 302.5 L
241.826 302.5 L
242.26 302.5 L
242.694 302.5 L
243.128 302.5 L
243.562 302.5 L
243.996 302.5 L
244.43 302.5 L
244.864 302.5 L
245.298 302.5 L
245.732 302.5 L
246.166 302.5 L
246.6 302.5 L
247.034 302.5 L
247.468 302.5 L
247.902 302.5 L
248.336 302.5 L
248.77 302.5 L
249.204 302.5 L
249.638 302.5 L
250.072 302.5 L
250.506 302.5 L
250.94 302.5 L
251.374 302.5 L
251.808 302.5 L
252.242 302.5 L
252.676 302.5 L
253.11 302.5 L
253.544 302.5 L
253.978 302.5 L
254.412 302.5 L
254.846 302.5 L
255.28 302.5 L
255.714 302.5 L
256.148 302.5 L
256.582 302.5 L
257.016 302.5 L
257.45 302.5 L
257.884 302.5 L
258.318 302.5 L
258.752 302.5 L
259.186 302.5 L
259.62 302.5 L
260.054 302.5 L
260.488 302.5 L
260.922 302.5 L
261.356 302.5 L
261.79 302.5 L
262.224 302.5 L
262.658 302.5 L
263.092 302.5 L
263.526 302.5 L
263.96 302.5 L
264.394 302.5 L
264.828 302.5 L
265.262 302.5 L
265.696 302.5 L
266.13 302.5 L
266.564 302.5 L
266.998 302.5 L
267.432 302.5 L
267.866 302.5 L
268.3 302.5 L
268.734 302.5 L
269.168 302.5 L
269.602 302.5 L
270.036 302.5 L
270.47 302.5 L
270.904 302.5 L
271.338 302.5 L
271.772 302.5 L
272.206 302.5 L
272.64 302.5 L
273.074 302.5 L
273.508 302.5 L
273.942 302.5 L
274.376 302.5 L
274.81 302.5 L
275.244 302.5 L
275.678 302.5 L
276.112 302.5 L
276.546 302.5 L
276.98 302.5 L
277.414 302.5 L
277.848 302.5 L
278.282 302.5 L
278.716 302.5 L
279.15 302.5 L
279.584 302.5 L
280.018 302.5 L
280.452 302.5 L
280.886 302.5 L
281.32 302.5 L
281.754 302.5 L
282.188 302.5 L
282.622 302.5 L
283.056 302.5 L
283.49 302.5 L
283.924 302.5 L
284.358 302.5 L
284.792 302.5 L
285.226 302.5 L
285.66 302.5 L
286.094 302.5 L
286.528 302.5 L
286.962 302.5 L
287.396 302.5 L
287.83 302.5 L
288.264 302.5 L
288.698 302.5 L
289.132 302.5 L
289.566 302.5 L
290 302.5 L
290.434 302.5 L
290.868 302.5 L
291.302 302.5 L
291.736 302.5 L
292.17 302.5 L
292.604 302.5 L
293.038 302.5 L
293.472 302.5 L
293.906 302.5 L
294.34 302.5 L
294.774 302.5 L
295.208 302.5 L
295.642 302.5 L
296.076 302.5 L
296.51 302.5 L
296.944 302.5 L
297.378 302.5 L
297.812 302.5 L
298.246 302.5 L
298.68 302.5 L
299.114 302.5 L
299.548 302.5 L
299.982 302.5 L
300.416 302.5 L
300.85 302.5 L
301.284 302.5 L
301.718 302.5 L
302.152 302.5 L
302.586 302.5 L
303.02 302.5 L
303.454 302.5 L
303.888 302.5 L
304.322 302.5 L
304.756 302.5 L
305.19 302.5 L
305.624 302.5 L
306.058 302.5 L
306.492 302.5 L
306.926 302.5 L
307.36 302.5 L
307.794 302.5 L
308.228 302.5 L
308.662 302.5 L
309.096 302.5 L
309.53 302.5 L
309.964 302.5 L
310.398 302.5 L
310.832 302.5 L
311.266 302.5 L
311.7 302.5 L
312.134 302.5 L
312.568 302.5 L
313.002 302.5 L
313.436 302.5 L
313.87 302.5 L
314.304 302.5 L
314.738 302.5 L
315.172 302.5 L
315.606 302.5 L
316.04 302.5 L
316.474 302.5 L
316.908 302.5 L
317.342 302.5 L
317.776 302.5 L
318.21 302.5 L
318.644 302.5 L
319.078 302.5 L
319.512 302.5 L
319.946 302.5 L
320.38 302.5 L
320.814 302.5 L
321.248 302.5 L
321.682 302.5 L
322.116 302.5 L
322.55 302.5 L
322.984 302.5 L
323.418 302.5 L
323.852 302.5 L
324.286 302.5 L
324.72 302.5 L
325.154 302.5 L
325.588 302.5 L
326.022 302.5 L
326.456 302.5 L
326.89 302.5 L
327.324 302.5 L
327.758 302.5 L
328.192 302.5 L
328.626 302.5 L
329.06 302.5 L
329.494 302.5 L
329.928 302.5 L
330.362 302.5 L
330.796 302.5 L
331.23 302.5 L
331.664 302.5 L
332.098 302.5 L
332.532 302.5 L
332.966 302.5 L
333.4 302.5 L
333.834 302.5 L
334.268 302.5 L
334.702 302.5 L
335.136 302.5 L
335.57 302.5 L
336.004 302.5 L
336.438 302.5 L
336.872 302.5 L
337.306 302.5 L
337.74 302.5 L
338.174 302.5 L
338.608 302.5 L
339.042 302.5 L
339.476 302.5 L
339.91 302.5 L
340.344 302.5 L
340.778 302.5 L
341.212 302.5 L
341.646 302.5 L
342.08 302.5 L
342.514 302.5 L
342.948 302.5 L
343.382 302.5 L
343.816 302.5 L
344.25 302.5 L
344.684 302.5 L
345.118 302.5 L
345.552 302.5 L
345.986 302.5 L
346.42 302.5 L
346.854 302.5 L
347.288 302.5 L
347.722 302.5 L
348.156 302.5 L
348.59 302.5 L
349.024 302.5 L
349.458 302.5 L
349.892 302.5 L
350.326 302.5 L
350.76 302.5 L
351.194 302.5 L
351.628 302.5 L
352.062 302.5 L
352.496 302.5 L
352.93 302.5 L
353.364 302.5 L
353.798 302.5 L
354.232 302.5 L
354.666 302.5 L
355.1 302.5 L
355.534 302.5 L
355.968 302.5 L
356.402 302.5 L
356.836 302.5 L
357.27 302.5 L
357.704 302.5 L
358.138 302.5 L
358.572 302.5 L
359.006 302.5 L
359.44 302.5 L
359.874 302.5 L
360.308 302.5 L
360.742 302.5 L
361.176 302.5 L
361.61 302.5 L
362.044 302.5 L
362.478 302.5 L
362.912 302.5 L
363.346 302.5 L
363.78 302.5 L
364.214 302.5 L
364.648 302.5 L
365.082 302.5 L
365.516 302.5 L
365.95 302.5 L
366.384 302.5 L
366.818 302.5 L
367.252 302.5 L
367.686 302.5 L
368.12 302.5 L
368.554 302.5 L
368.988 302.5 L
369.422 302.5 L
369.856 302.5 L
370.29 302.5 L
370.724 302.5 L
371.158 302.5 L
371.592 302.5 L
372.026 302.5 L
372.46 302.5 L
372.894 302.5 L
373.328 302.5 L
373.762 302.5 L
374.196 302.5 L
374.63 302.5 L
375.064 302.5 L
375.498 302.5 L
375.932 302.5 L
376.366 302.5 L
376.8 302.5 L
377.234 302.5 L
377.668 302.5 L
378.102 302.5 L
378.536 302.5 L
378.97 302.5 L
379.404 302.5 L
379.838 302.5 L
380.272 302.5 L
380.706 302.5 L
381.14 302.5 L
381.574 302.5 L
382.008 302.5 L
382.442 302.5 L
382.876 302.5 L
383.31 302.5 L
383.744 302.5 L
384.178 302.5 L
384.612 302.5 L
385.046 302.5 L
385.48 302.5 L
385.914 302.5 L
386.348 302.5 L
386.782 302.5 L
387.216 302.5 L
387.65 302.5 L
388.084 302.5 L
388.518 302.5 L
388.952 302.5 L
389.386 302.5 L
389.82 302.5 L
390.254 302.5 L
390.688 302.5 L
391.122 302.5 L
391.556 302.5 L
391.99 302.5 L
392.424 302.5 L
392.858 302.5 L
393.292 302.5 L
393.726 302.5 L
394.16 302.5 L
394.594 302.5 L
395.028 302.5 L
395.462 302.5 L
395.896 302.5 L
396.33 302.5 L
396.764 302.5 L
397.198 302.5 L
397.632 302.5 L
398.066 302.5 L
398.5 302.5 L
398.934 302.5 L
399.368 302.5 L
399.802 302.5 L
400.236 302.5 L
400.67 302.5 L
401.104 302.5 L
401.538 302.5 L
401.972 302.5 L
402.406 302.5 L
402.84 302.5 L
403.274 302.5 L
403.708 302.5 L
404.142 302.5 L
404.576 302.5 L
405.01 302.5 L
405.444 302.5 L
405.878 302.5 L
406.312 302.5 L
406.746 302.5 L
407.18 302.5 L
407.614 302.5 L
408.048 302.5 L
408.482 302.5 L
408.916 302.5 L
409.35 302.5 L
409.784 302.5 L
410.218 302.5 L
410.652 302.5 L
411.086 302.5 L
411.52 302.5 L
411.954 302.5 L
412.388 302.5 L
412.822 302.5 L
413.256 302.5 L
413.69 302.5 L
414.124 302.5 L
414.558 302.5 L
414.992 302.5 L
415.426 302.5 L
415.86 302.5 L
416.294 302.5 L
416.728 302.5 L
417.162 302.5 L
417.596 302.5 L
418.03 302.5 L
418.464 302.5 L
418.898 302.5 L
419.332 302.5 L
419.766 302.5 L
420.2 302.5 L
420.634 302.5 L
421.068 302.5 L
421.502 302.5 L
421.936 302.5 L
422.37 302.5 L
422.804 302.5 L
423.238 302.5 L
423.672 302.5 L
424.106 302.5 L
424.54 302.5 L
424.974 302.5 L
425.408 302.5 L
425.842 302.5 L
426.276 302.5 L
426.71 302.5 L
427.144 302.5 L
427.578 302.5 L
428.012 302.5 L
428.446 302.5 L
428.88 302.5 L
429.314 302.5 L
429.748 302.5 L
430.182 302.5 L
430.616 302.5 L
431.05 302.5 L
431.484 302.5 L
431.918 302.5 L
432.352 302.5 L
432.786 302.5 L
433.22 302.5 L
433.654 302.5 L
434.088 302.5 L
434.522 302.5 L
434.956 302.5 L
435.39 302.5 L
435.824 302.5 L
436.258 302.5 L
436.692 302.5 L
437.126 302.5 L
437.56 302.5 L
437.994 302.5 L
438.428 302.5 L
438.862 302.5 L
439.296 302.5 L
439.73 302.5 L
440.164 302.5 L
440.598 302.5 L
441.032 302.5 L
441.466 302.5 L
441.9 302.5 L
442.334 302.5 L
442.768 302.5 L
443.202 302.5 L
443.636 302.5 L
444.07 302.5 L
444.504 302.5 L
444.938 302.5 L
445.372 302.5 L
445.806 302.5 L
446.24 302.5 L
446.674 302.5 L
447.108 302.5 L
447.542 302.5 L
447.976 302.5 L
448.41 302.5 L
448.844 302.5 L
449.278 302.5 L
449.712 302.5 L
450.146 302.5 L
450.58 302.5 L
451.014 302.5 L
451.448 302.5 L
451.882 302.5 L
452.316 302.5 L
452.75 302.5 L
453.184 302.5 L
453.618 302.5 L
454.052 302.5 L
454.486 302.5 L
454.92 302.5 L
455.354 302.5 L
455.788 302.5 L
456.222 302.5 L
456.656 302.5 L
457.09 302.5 L
457.524 302.5 L
457.958 302.5 L
458.392 302.5 L
458.826 302.5 L
459.26 302.5 L
459.694 302.5 L
460.128 302.5 L
460.562 302.5 L
460.996 302.5 L
461.43 302.5 L
461.864 302.5 L
462.298 302.5 L
462.732 302.5 L
463.166 302.5 L
463.6 302.5 L
464.034 302.5 L
464.468 302.5 L
464.902 302.5 L
465.336 302.5 L
465.77 302.5 L
466.204 302.5 L
466.638 302.5 L
467.072 302.5 L
467.506 302.5 L
467.94 302.5 L
468.374 302.5 L
468.808 302.5 L
469.242 302.5 L
469.676 302.5 L
470.11 302.5 L
470.544 302.5 L
470.978 302.5 L
471.412 302.5 L
471.846 302.5 L
472.28 302.5 L
472.714 302.5 L
473.148 302.5 L
473.582 302.5 L
474.016 302.5 L
474.45 302.5 L
474.884 302.5 L
475.318 302.5 L
475.752 302.5 L
476.186 302.5 L
476.62 302.5 L
477.054 302.5 L
477.488 302.5 L
477.922 302.5 L
478.356 302.5 L
478.79 302.5 L
479.224 302.5 L
479.658 302.5 L
480.092 302.5 L
480.526 302.5 L
480.96 302.5 L
481.394 302.5 L
481.828 302.5 L
482.262 302.5 L
482.696 302.5 L
483.13 302.5 L
483.564 302.5 L
483.998 302.5 L
484.432 302.5 L
484.866 302.5 L
485.3 302.5 L
485.734 302.5 L
486.168 302.5 L
486.602 302.5 L
487.036 302.5 L
487.47 302.5 L
487.904 302.5 L
488.338 302.5 L
488.772 302.5 L
489.206 302.5 L
489.64 302.5 L
490.074 302.5 L
490.508 302.5 L
490.942 302.5 L
491.376 302.5 L
491.81 302.5 L
492.244 302.5 L
492.678 302.5 L
493.112 302.5 L
493.546 302.5 L
493.98 302.5 L
494.414 302.5 L
494.848 302.5 L
495.282 302.5 L
495.716 302.5 L
496.15 302.5 L
496.584 302.5 L
497.018 302.5 L
497.452 302.5 L
497.886 302.5 L
498.32 302.5 L
498.754 302.5 L
499.188 302.5 L
499.622 302.5 L
500.056 302.5 L
500.49 302.5 L
500.924 302.5 L
501.358 302.5 L
501.792 302.5 L
502.226 302.5 L
502.66 302.5 L
503.094 302.5 L
503.528 302.5 L
503.962 302.5 L
504.396 302.5 L
504.83 302.5 L
505.264 302.5 L
505.698 302.5 L
506.132 302.5 L
506.566 302.5 L
507 302.5 L
S
GR
GS
1 GC
N
79 264 M
79 237 L
217 237 L
217 264 L
cp
f
GR
GS
[1 0 0 1 116 244.64151] CT
/Helvetica 9 F
GS
[1 0 0 1 0 0] CT
0 3.5 moveto 
1 -1 scale
(Linear model - residuals) t 
GR
GR
GS
[1 0 0 1 98 244.64151] CT
0 0 1 RC
N
2.667 0 M
2.667 1.473 1.473 2.667 0 2.667 C
-1.473 2.667 -2.667 1.473 -2.667 0 C
-2.667 -1.473 -1.473 -2.667 0 -2.667 C
1.473 -2.667 2.667 -1.473 2.667 0 C
cp
f
GR
GS
[1 0 0 1 116 256.35849] CT
/Helvetica 9 F
GS
[1 0 0 1 0 0] CT
0 3.5 moveto 
1 -1 scale
(Zero Line) t 
GR
GR
GS
1 0 0 RC
1 LJ
N
83 256.358 M
113 256.358 L
S
GR
GS
0.149 GC
10.0 ML
0.5 LW
N
79 264 M
79 237 L
217 237 L
217 264 L
cp
S
GR
%%Trailer
%%Pages: 1
%%EOF
